NF	statut	POS
atteindre;sca	unseen	('VERB=atteindre', 'NOUN=sca')
avoir;éloge	unseen	('VERB=avoir', 'NOUN=éloge')
avoir;commentaire	unseen	('VERB=avoir', 'NOUN=commentaire')
avoir;passage	unseen	('VERB=avoir', 'NOUN=passage')
avoir;profit	unseen	('VERB=avoir', 'NOUN=profit')
avoir;sécession	unseen	('VERB=avoir', 'NOUN=sécession')
avoir;distinction	unseen	('VERB=avoir', 'NOUN=distinction')
avoir;étude	unseen	('VERB=avoir', 'NOUN=étude')
avoir;confiance	unseen	('VERB=avoir', 'NOUN=confiance')
appel;avoir	unseen	('VERB=avoir', 'NOUN=appel')
avoir;détour	unseen	('VERB=avoir', 'NOUN=détour')
acceptation;avoir	unseen	('VERB=avoir', 'NOUN=acceptation')
avoir;marche	unseen	('VERB=avoir', 'NOUN=marche')
avoir;défection	unseen	('VERB=avoir', 'NOUN=défection')
avoir;référence	unseen	('VERB=avoir', 'NOUN=référence')
avoir;guerre	unseen	('VERB=avoir', 'NOUN=guerre')
apparition;avoir	unseen	('VERB=avoir', 'NOUN=apparition')
avoir;escale	unseen	('VERB=avoir', 'NOUN=escale')
avoir;fête	unseen	('VERB=avoir', 'NOUN=fête')
avoir;consultance	unseen	('VERB=avoir', 'NOUN=consultance')
avoir;prise	unseen	('VERB=avoir', 'NOUN=prise')
avoir;balade	unseen	('VERB=avoir', 'NOUN=balade')
avoir;usage	unseen	('VERB=avoir', 'NOUN=usage')
avoir;serment	unseen	('VERB=avoir', 'NOUN=serment')
avoir;révélation	unseen	('VERB=avoir', 'NOUN=révélation')
ablation;avoir	unseen	('VERB=avoir', 'NOUN=ablation')
avoir;exercice	unseen	('VERB=avoir', 'NOUN=exercice')
avoir;déplacement	unseen	('VERB=avoir', 'NOUN=déplacement')
avoir;rotation	unseen	('VERB=avoir', 'NOUN=rotation')
accueil;avoir	unseen	('VERB=avoir', 'NOUN=accueil')
avoir;déménagement	unseen	('VERB=avoir', 'NOUN=déménagement')
avoir;progrès	unseen	('VERB=avoir', 'NOUN=progrès')
avoir;tournée	unseen	('VERB=avoir', 'NOUN=tournée')
avoir;découverte	unseen	('VERB=avoir', 'NOUN=découverte')
avoir;descente	unseen	('VERB=avoir', 'NOUN=descente')
avoir;exaction	unseen	('VERB=avoir', 'NOUN=exaction')
arbitrage;avoir	unseen	('VERB=avoir', 'NOUN=arbitrage')
avoir;course	unseen	('VERB=avoir', 'NOUN=course')
avoir;causette	unseen	('VERB=avoir', 'NOUN=causette')
avoir;geste	unseen	('VERB=avoir', 'NOUN=geste')
avoir;entrée	unseen	('VERB=avoir', 'NOUN=entrée')
avoir;reconnaissance	unseen	('VERB=avoir', 'NOUN=reconnaissance')
avoir;service	unseen	('VERB=avoir', 'NOUN=service')
avoir;recherche	unseen	('VERB=avoir', 'NOUN=recherche')
avoir;offre	unseen	('VERB=avoir', 'NOUN=offre')
allusion;avoir	unseen	('VERB=avoir', 'NOUN=allusion')
avoir;effort	unseen	('VERB=avoir', 'NOUN=effort')
avoir;remarque	unseen	('VERB=avoir', 'NOUN=remarque')
avoir;lien	unseen	('VERB=avoir', 'NOUN=lien')
avoir;ménage	unseen	('VERB=avoir', 'NOUN=ménage')
avoir;fortune	unseen	('VERB=avoir', 'NOUN=fortune')
attention;avoir	unseen	('VERB=avoir', 'NOUN=attention')
avoir;pression	unseen	('VERB=avoir', 'NOUN=pression')
avoir;culture	unseen	('VERB=avoir', 'NOUN=culture')
avoir;virée	unseen	('VERB=avoir', 'NOUN=virée')
avoir;révolution	unseen	('VERB=avoir', 'NOUN=révolution')
avoir;investissement	unseen	('VERB=avoir', 'NOUN=investissement')
avoir;description	unseen	('VERB=avoir', 'NOUN=description')
avoir;passe	unseen	('VERB=avoir', 'NOUN=passe')
avoir;foulage	unseen	('VERB=avoir', 'NOUN=foulage')
avoir;sondage	unseen	('VERB=avoir', 'NOUN=sondage')
avoir;troc	unseen	('VERB=avoir', 'NOUN=troc')
avoir;récupération	unseen	('VERB=avoir', 'NOUN=récupération')
avoir;mendicité	unseen	('VERB=avoir', 'NOUN=mendicité')
avoir;transition	unseen	('VERB=avoir', 'NOUN=transition')
avoir;réapparition	unseen	('VERB=avoir', 'NOUN=réapparition')
avoir;demande	unseen	('VERB=avoir', 'NOUN=demande')
avoir;essai	unseen	('VERB=avoir', 'NOUN=essai')
avoir;interview	unseen	('VERB=avoir', 'NOUN=interview')
avoir;fouille	unseen	('VERB=avoir', 'NOUN=fouille')
avoir;don	unseen	('VERB=avoir', 'NOUN=don')
acquisition;avoir	unseen	('VERB=avoir', 'NOUN=acquisition')
avoir;bloc	unseen	('VERB=avoir', 'NOUN=bloc')
avoir;promotion	unseen	('VERB=avoir', 'NOUN=promotion')
avoir;proposition	unseen	('VERB=avoir', 'NOUN=proposition')
avoir;travail	unseen	('VERB=avoir', 'NOUN=travail')
avoir;prière	unseen	('VERB=avoir', 'NOUN=prière')
avoir;nuit	unseen	('VERB=avoir', 'NOUN=nuit')
avoir;économie	unseen	('VERB=avoir', 'NOUN=économie')
avoir;grève	unseen	('VERB=avoir', 'NOUN=grève')
avoir;rentrée	unseen	('VERB=avoir', 'NOUN=rentrée')
avoir;vœu	unseen	('VERB=avoir', 'NOUN=vœu')
avoir;développement	unseen	('VERB=avoir', 'NOUN=développement')
intervention;prodiguer	unseen	('NOUN=intervention', 'VERB=prodiguer')
bénéficier_de;pression	unseen	('NOUN=pression', 'VERB=bénéficier_de')
bénéficier_de;retouche	unseen	('NOUN=retouche', 'VERB=bénéficier_de')
bénéficier_de;icp	unseen	('NOUN=icp', 'VERB=bénéficier_de')
bénéficier_de;transplantation	unseen	('NOUN=transplantation', 'VERB=bénéficier_de')
bénéficier_de;traitement	unseen	('NOUN=traitement', 'VERB=bénéficier_de')
angioplastie;bénéficier_de	unseen	('NOUN=angioplastie', 'VERB=bénéficier_de')
bénéficier_de;pontage	unseen	('NOUN=pontage', 'VERB=bénéficier_de')
bénéficier_de;violence	unseen	('NOUN=violence', 'VERB=bénéficier_de')
bénéficier_de;souffrance	unseen	('NOUN=souffrance', 'VERB=bénéficier_de')
bénéficier_de;test	unseen	('NOUN=test', 'VERB=bénéficier_de')
bénéficier_de;trachéotomie	unseen	('NOUN=trachéotomie', 'VERB=bénéficier_de')
bénéficier_de;modification	unseen	('NOUN=modification', 'VERB=bénéficier_de')
bénéficier_de;fermentation	unseen	('NOUN=fermentation', 'VERB=bénéficier_de')
bénéficier_de;vexation	unseen	('NOUN=vexation', 'VERB=bénéficier_de')
bénéficier_de;transformation	unseen	('NOUN=transformation', 'VERB=bénéficier_de')
bénéficier_de;siège	unseen	('NOUN=siège', 'VERB=bénéficier_de')
bénéficier_de;perte	unseen	('NOUN=perte', 'VERB=bénéficier_de')
bénéficier_de;influence	unseen	('NOUN=influence', 'VERB=bénéficier_de')
bénéficier_de;défaite	unseen	('NOUN=défaite', 'VERB=bénéficier_de')
bénéficier_de;fracture	unseen	('NOUN=fracture', 'VERB=bénéficier_de')
bénéficier_de;déclin	unseen	('NOUN=déclin', 'VERB=bénéficier_de')
disputer;finale	unseen	('VERB=disputer', 'NOUN=finale')
disputer;rôle	unseen	('VERB=disputer', 'NOUN=rôle')
disputer;tour	unseen	('VERB=disputer', 'NOUN=tour')
demi-finale;disputer	unseen	('VERB=disputer', 'NOUN=demi-finale')
avoir;retouche	unseen	('VERB=avoir', 'NOUN=retouche')
avoir;intervention	unseen	('VERB=avoir', 'NOUN=intervention')
avoir;icp	unseen	('VERB=avoir', 'NOUN=icp')
avoir;transplantation	unseen	('VERB=avoir', 'NOUN=transplantation')
avoir;traitement	unseen	('VERB=avoir', 'NOUN=traitement')
angioplastie;avoir	unseen	('VERB=avoir', 'NOUN=angioplastie')
avoir;pontage	unseen	('VERB=avoir', 'NOUN=pontage')
avoir;violence	unseen	('VERB=avoir', 'NOUN=violence')
avoir;souffrance	unseen	('VERB=avoir', 'NOUN=souffrance')
avoir;test	unseen	('VERB=avoir', 'NOUN=test')
avoir;trachéotomie	unseen	('VERB=avoir', 'NOUN=trachéotomie')
avoir;modification	unseen	('VERB=avoir', 'NOUN=modification')
avoir;fermentation	unseen	('VERB=avoir', 'NOUN=fermentation')
avoir;vexation	unseen	('VERB=avoir', 'NOUN=vexation')
avoir;transformation	unseen	('VERB=avoir', 'NOUN=transformation')
avoir;siège	unseen	('VERB=avoir', 'NOUN=siège')
avoir;perte	unseen	('VERB=avoir', 'NOUN=perte')
avoir;défaite	unseen	('VERB=avoir', 'NOUN=défaite')
avoir;déclin	unseen	('VERB=avoir', 'NOUN=déclin')
fuite;prendre	unseen	('NOUN=fuite', 'VERB=prendre')
présenter;sca	unseen	('VERB=présenter', 'NOUN=sca')
massacre;mener	unseen	('NOUN=massacre', 'VERB=mener')
mener;traversée	unseen	('NOUN=traversée', 'VERB=mener')
coordination;mener	unseen	('NOUN=coordination', 'VERB=mener')
mener;travail	unseen	('NOUN=travail', 'VERB=mener')
augmentation;mener	unseen	('NOUN=augmentation', 'VERB=mener')
mener;vol	unseen	('NOUN=vol', 'VERB=mener')
mener;photographie	unseen	('NOUN=photographie', 'VERB=mener')
mener;évaluation	unseen	('NOUN=évaluation', 'VERB=mener')
bilan;mener	unseen	('NOUN=bilan', 'VERB=mener')
dessin;mener	unseen	('NOUN=dessin', 'VERB=mener')
habillage;mener	unseen	('NOUN=habillage', 'VERB=mener')
mener;triplé	unseen	('NOUN=triplé', 'VERB=mener')
poser;éloge	unseen	('VERB=poser', 'NOUN=éloge')
commentaire;poser	unseen	('VERB=poser', 'NOUN=commentaire')
passage;poser	unseen	('VERB=poser', 'NOUN=passage')
affaire;poser	unseen	('VERB=poser', 'NOUN=affaire')
poser;profit	unseen	('VERB=poser', 'NOUN=profit')
poser;sécession	unseen	('VERB=poser', 'NOUN=sécession')
distinction;poser	unseen	('VERB=poser', 'NOUN=distinction')
poser;étude	unseen	('VERB=poser', 'NOUN=étude')
confiance;poser	unseen	('VERB=poser', 'NOUN=confiance')
appel;poser	unseen	('VERB=poser', 'NOUN=appel')
détour;poser	unseen	('VERB=poser', 'NOUN=détour')
acceptation;poser	unseen	('VERB=poser', 'NOUN=acceptation')
marche;poser	unseen	('VERB=poser', 'NOUN=marche')
défection;poser	unseen	('VERB=poser', 'NOUN=défection')
poser;référence	unseen	('VERB=poser', 'NOUN=référence')
guerre;poser	unseen	('VERB=poser', 'NOUN=guerre')
apparition;poser	unseen	('VERB=poser', 'NOUN=apparition')
escale;poser	unseen	('VERB=poser', 'NOUN=escale')
fête;poser	unseen	('VERB=poser', 'NOUN=fête')
consultance;poser	unseen	('VERB=poser', 'NOUN=consultance')
poser;prise	unseen	('VERB=poser', 'NOUN=prise')
balade;poser	unseen	('VERB=poser', 'NOUN=balade')
poser;usage	unseen	('VERB=poser', 'NOUN=usage')
poser;serment	unseen	('VERB=poser', 'NOUN=serment')
poser;révélation	unseen	('VERB=poser', 'NOUN=révélation')
ablation;poser	unseen	('VERB=poser', 'NOUN=ablation')
exercice;poser	unseen	('VERB=poser', 'NOUN=exercice')
déplacement;poser	unseen	('VERB=poser', 'NOUN=déplacement')
poser;rotation	unseen	('VERB=poser', 'NOUN=rotation')
accueil;poser	unseen	('VERB=poser', 'NOUN=accueil')
déménagement;poser	unseen	('VERB=poser', 'NOUN=déménagement')
poser;progrès	unseen	('VERB=poser', 'NOUN=progrès')
poser;tournée	unseen	('VERB=poser', 'NOUN=tournée')
découverte;poser	unseen	('VERB=poser', 'NOUN=découverte')
descente;poser	unseen	('VERB=poser', 'NOUN=descente')
exaction;poser	unseen	('VERB=poser', 'NOUN=exaction')
arbitrage;poser	unseen	('VERB=poser', 'NOUN=arbitrage')
course;poser	unseen	('VERB=poser', 'NOUN=course')
causette;poser	unseen	('VERB=poser', 'NOUN=causette')
geste;poser	unseen	('VERB=poser', 'NOUN=geste')
entrée;poser	unseen	('VERB=poser', 'NOUN=entrée')
poser;reconnaissance	unseen	('VERB=poser', 'NOUN=reconnaissance')
poser;service	unseen	('VERB=poser', 'NOUN=service')
poser;recherche	unseen	('VERB=poser', 'NOUN=recherche')
offre;poser	unseen	('VERB=poser', 'NOUN=offre')
allusion;poser	unseen	('VERB=poser', 'NOUN=allusion')
effort;poser	unseen	('VERB=poser', 'NOUN=effort')
poser;remarque	unseen	('VERB=poser', 'NOUN=remarque')
classe;poser	unseen	('VERB=poser', 'NOUN=classe')
lien;poser	unseen	('VERB=poser', 'NOUN=lien')
ménage;poser	unseen	('VERB=poser', 'NOUN=ménage')
fortune;poser	unseen	('VERB=poser', 'NOUN=fortune')
attention;poser	unseen	('VERB=poser', 'NOUN=attention')
poser;pression	unseen	('VERB=poser', 'NOUN=pression')
culture;poser	unseen	('VERB=poser', 'NOUN=culture')
poser;virée	unseen	('VERB=poser', 'NOUN=virée')
poser;révolution	unseen	('VERB=poser', 'NOUN=révolution')
investissement;poser	unseen	('VERB=poser', 'NOUN=investissement')
description;poser	unseen	('VERB=poser', 'NOUN=description')
passe;poser	unseen	('VERB=poser', 'NOUN=passe')
foulage;poser	unseen	('VERB=poser', 'NOUN=foulage')
poser;sondage	unseen	('VERB=poser', 'NOUN=sondage')
poser;troc	unseen	('VERB=poser', 'NOUN=troc')
poser;récupération	unseen	('VERB=poser', 'NOUN=récupération')
mendicité;poser	unseen	('VERB=poser', 'NOUN=mendicité')
poser;transition	unseen	('VERB=poser', 'NOUN=transition')
poser;réapparition	unseen	('VERB=poser', 'NOUN=réapparition')
demande;poser	unseen	('VERB=poser', 'NOUN=demande')
essai;poser	unseen	('VERB=poser', 'NOUN=essai')
interview;poser	unseen	('VERB=poser', 'NOUN=interview')
fouille;poser	unseen	('VERB=poser', 'NOUN=fouille')
don;poser	unseen	('VERB=poser', 'NOUN=don')
acquisition;poser	unseen	('VERB=poser', 'NOUN=acquisition')
bloc;poser	unseen	('VERB=poser', 'NOUN=bloc')
poser;promotion	unseen	('VERB=poser', 'NOUN=promotion')
poser;proposition	unseen	('VERB=poser', 'NOUN=proposition')
poser;travail	unseen	('VERB=poser', 'NOUN=travail')
poser;prière	unseen	('VERB=poser', 'NOUN=prière')
nuit;poser	unseen	('VERB=poser', 'NOUN=nuit')
poser;économie	unseen	('VERB=poser', 'NOUN=économie')
grève;poser	unseen	('VERB=poser', 'NOUN=grève')
poser;rentrée	unseen	('VERB=poser', 'NOUN=rentrée')
poser;vœu	unseen	('VERB=poser', 'NOUN=vœu')
développement;poser	unseen	('VERB=poser', 'NOUN=développement')
avoir;décret	unseen	('VERB=avoir', 'NOUN=décret')
avoir;décision	unseen	('VERB=avoir', 'NOUN=décision')
avoir;cours	unseen	('VERB=avoir', 'NOUN=cours')
avoir;mesure	unseen	('VERB=avoir', 'NOUN=mesure')
avoir;initiative	unseen	('VERB=avoir', 'NOUN=initiative')
action;avoir	unseen	('VERB=avoir', 'NOUN=action')
avoir;photo	unseen	('VERB=avoir', 'NOUN=photo')
avoir;bain	unseen	('VERB=avoir', 'NOUN=bain')
avoir;fin	unseen	('VERB=avoir', 'NOUN=fin')
appui;avoir	unseen	('VERB=avoir', 'NOUN=appui')
avoir;succession	unseen	('VERB=avoir', 'NOUN=succession')
avoir;engagement	unseen	('VERB=avoir', 'NOUN=engagement')
avoir;fuite	unseen	('VERB=avoir', 'NOUN=fuite')
allure;avoir	unseen	('VERB=avoir', 'NOUN=allure')
avoir;sanction	unseen	('VERB=avoir', 'NOUN=sanction')
avoir;disposition	unseen	('VERB=avoir', 'NOUN=disposition')
avoir;photographie	unseen	('VERB=avoir', 'NOUN=photographie')
avoir;douche	unseen	('VERB=avoir', 'NOUN=douche')
avoir;essor	unseen	('VERB=avoir', 'NOUN=essor')
avoir;revanche	unseen	('VERB=avoir', 'NOUN=revanche')
avoir;vacances	unseen	('VERB=avoir', 'NOUN=vacances')
avance;avoir	unseen	('VERB=avoir', 'NOUN=avance')
avoir;précaution	unseen	('VERB=avoir', 'NOUN=précaution')
effectuer;hommage	unseen	('VERB=effectuer', 'NOUN=hommage')
hommage;recevoir	unseen	('VERB=recevoir', 'NOUN=hommage')
atteindre;hypertension	unseen	('VERB=atteindre', 'NOUN=hypertension')
avoir;caractéristique	unseen	('VERB=avoir', 'NOUN=caractéristique')
avoir;risque	unseen	('VERB=avoir', 'NOUN=risque')
avoir;décoloration	unseen	('VERB=avoir', 'NOUN=décoloration')
avoir;signe	unseen	('VERB=avoir', 'NOUN=signe')
avoir;saignement	unseen	('VERB=avoir', 'NOUN=saignement')
avoir;hypersensibilité	unseen	('VERB=avoir', 'NOUN=hypersensibilité')
avoir;voeu	unseen	('VERB=avoir', 'NOUN=voeu')
avoir;sca	unseen	('VERB=avoir', 'NOUN=sca')
avoir;différence	unseen	('VERB=avoir', 'NOUN=différence')
avoir;trouble	unseen	('VERB=avoir', 'NOUN=trouble')
avoir;facteur	unseen	('VERB=avoir', 'NOUN=facteur')
adaptation;avoir	unseen	('VERB=avoir', 'NOUN=adaptation')
avoir;hypertension	unseen	('VERB=avoir', 'NOUN=hypertension')
avoir;endocardite	unseen	('VERB=avoir', 'NOUN=endocardite')
avantage;avoir	unseen	('VERB=avoir', 'NOUN=avantage')
avoir;condoléances	unseen	('VERB=avoir', 'NOUN=condoléances')
avoir;réaction	unseen	('VERB=avoir', 'NOUN=réaction')
altération;avoir	unseen	('VERB=avoir', 'NOUN=altération')
avoir;corrélation	unseen	('VERB=avoir', 'NOUN=corrélation')
analogie;avoir	unseen	('VERB=avoir', 'NOUN=analogie')
avoir;taux	unseen	('VERB=avoir', 'NOUN=taux')
avoir;coup	unseen	('VERB=avoir', 'NOUN=coup')
avoir;choix	unseen	('VERB=avoir', 'NOUN=choix')
avoir;plainte	unseen	('VERB=avoir', 'NOUN=plainte')
avoir;secours	unseen	('VERB=avoir', 'NOUN=secours')
avoir;jugement	unseen	('VERB=avoir', 'NOUN=jugement')
avoir;point	unseen	('VERB=avoir', 'NOUN=point')
avoir;doublé	unseen	('VERB=avoir', 'NOUN=doublé')
subir;éloge	unseen	('NOUN=éloge', 'VERB=subir')
commentaire;subir	unseen	('NOUN=commentaire', 'VERB=subir')
passage;subir	unseen	('NOUN=passage', 'VERB=subir')
affaire;subir	unseen	('NOUN=affaire', 'VERB=subir')
profit;subir	unseen	('NOUN=profit', 'VERB=subir')
subir;sécession	unseen	('NOUN=sécession', 'VERB=subir')
distinction;subir	unseen	('NOUN=distinction', 'VERB=subir')
subir;étude	unseen	('NOUN=étude', 'VERB=subir')
confiance;subir	unseen	('NOUN=confiance', 'VERB=subir')
appel;subir	unseen	('NOUN=appel', 'VERB=subir')
détour;subir	unseen	('NOUN=détour', 'VERB=subir')
acceptation;subir	unseen	('NOUN=acceptation', 'VERB=subir')
marche;subir	unseen	('NOUN=marche', 'VERB=subir')
défection;subir	unseen	('NOUN=défection', 'VERB=subir')
référence;subir	unseen	('NOUN=référence', 'VERB=subir')
guerre;subir	unseen	('NOUN=guerre', 'VERB=subir')
apparition;subir	unseen	('NOUN=apparition', 'VERB=subir')
escale;subir	unseen	('NOUN=escale', 'VERB=subir')
fête;subir	unseen	('NOUN=fête', 'VERB=subir')
consultance;subir	unseen	('NOUN=consultance', 'VERB=subir')
prise;subir	unseen	('NOUN=prise', 'VERB=subir')
balade;subir	unseen	('NOUN=balade', 'VERB=subir')
subir;usage	unseen	('NOUN=usage', 'VERB=subir')
serment;subir	unseen	('NOUN=serment', 'VERB=subir')
révélation;subir	unseen	('NOUN=révélation', 'VERB=subir')
ablation;subir	unseen	('NOUN=ablation', 'VERB=subir')
exercice;subir	unseen	('NOUN=exercice', 'VERB=subir')
déplacement;subir	unseen	('NOUN=déplacement', 'VERB=subir')
rotation;subir	unseen	('NOUN=rotation', 'VERB=subir')
accueil;subir	unseen	('NOUN=accueil', 'VERB=subir')
déménagement;subir	unseen	('NOUN=déménagement', 'VERB=subir')
progrès;subir	unseen	('NOUN=progrès', 'VERB=subir')
subir;tournée	unseen	('NOUN=tournée', 'VERB=subir')
découverte;subir	unseen	('NOUN=découverte', 'VERB=subir')
question;subir	unseen	('NOUN=question', 'VERB=subir')
descente;subir	unseen	('NOUN=descente', 'VERB=subir')
exaction;subir	unseen	('NOUN=exaction', 'VERB=subir')
arbitrage;subir	unseen	('NOUN=arbitrage', 'VERB=subir')
course;subir	unseen	('NOUN=course', 'VERB=subir')
causette;subir	unseen	('NOUN=causette', 'VERB=subir')
geste;subir	unseen	('NOUN=geste', 'VERB=subir')
entrée;subir	unseen	('NOUN=entrée', 'VERB=subir')
reconnaissance;subir	unseen	('NOUN=reconnaissance', 'VERB=subir')
service;subir	unseen	('NOUN=service', 'VERB=subir')
recherche;subir	unseen	('NOUN=recherche', 'VERB=subir')
offre;subir	unseen	('NOUN=offre', 'VERB=subir')
allusion;subir	unseen	('NOUN=allusion', 'VERB=subir')
effort;subir	unseen	('NOUN=effort', 'VERB=subir')
remarque;subir	unseen	('NOUN=remarque', 'VERB=subir')
classe;subir	unseen	('NOUN=classe', 'VERB=subir')
lien;subir	unseen	('NOUN=lien', 'VERB=subir')
ménage;subir	unseen	('NOUN=ménage', 'VERB=subir')
fortune;subir	unseen	('NOUN=fortune', 'VERB=subir')
attention;subir	unseen	('NOUN=attention', 'VERB=subir')
culture;subir	unseen	('NOUN=culture', 'VERB=subir')
subir;virée	unseen	('NOUN=virée', 'VERB=subir')
révolution;subir	unseen	('NOUN=révolution', 'VERB=subir')
investissement;subir	unseen	('NOUN=investissement', 'VERB=subir')
description;subir	unseen	('NOUN=description', 'VERB=subir')
passe;subir	unseen	('NOUN=passe', 'VERB=subir')
foulage;subir	unseen	('NOUN=foulage', 'VERB=subir')
sondage;subir	unseen	('NOUN=sondage', 'VERB=subir')
subir;troc	unseen	('NOUN=troc', 'VERB=subir')
récupération;subir	unseen	('NOUN=récupération', 'VERB=subir')
mendicité;subir	unseen	('NOUN=mendicité', 'VERB=subir')
subir;transition	unseen	('NOUN=transition', 'VERB=subir')
réapparition;subir	unseen	('NOUN=réapparition', 'VERB=subir')
demande;subir	unseen	('NOUN=demande', 'VERB=subir')
essai;subir	unseen	('NOUN=essai', 'VERB=subir')
interview;subir	unseen	('NOUN=interview', 'VERB=subir')
fouille;subir	unseen	('NOUN=fouille', 'VERB=subir')
don;subir	unseen	('NOUN=don', 'VERB=subir')
acquisition;subir	unseen	('NOUN=acquisition', 'VERB=subir')
bloc;subir	unseen	('NOUN=bloc', 'VERB=subir')
promotion;subir	unseen	('NOUN=promotion', 'VERB=subir')
proposition;subir	unseen	('NOUN=proposition', 'VERB=subir')
subir;travail	unseen	('NOUN=travail', 'VERB=subir')
prière;subir	unseen	('NOUN=prière', 'VERB=subir')
nuit;subir	unseen	('NOUN=nuit', 'VERB=subir')
subir;économie	unseen	('NOUN=économie', 'VERB=subir')
grève;subir	unseen	('NOUN=grève', 'VERB=subir')
rentrée;subir	unseen	('NOUN=rentrée', 'VERB=subir')
subir;vœu	unseen	('NOUN=vœu', 'VERB=subir')
développement;subir	unseen	('NOUN=développement', 'VERB=subir')
accorder;éloge	unseen	('VERB=accorder', 'NOUN=éloge')
accorder;commentaire	unseen	('VERB=accorder', 'NOUN=commentaire')
accorder;passage	unseen	('VERB=accorder', 'NOUN=passage')
accorder;affaire	unseen	('VERB=accorder', 'NOUN=affaire')
accorder;profit	unseen	('VERB=accorder', 'NOUN=profit')
accorder;sécession	unseen	('VERB=accorder', 'NOUN=sécession')
accorder;distinction	unseen	('VERB=accorder', 'NOUN=distinction')
accorder;étude	unseen	('VERB=accorder', 'NOUN=étude')
accorder;confiance	unseen	('VERB=accorder', 'NOUN=confiance')
accorder;appel	unseen	('VERB=accorder', 'NOUN=appel')
accorder;détour	unseen	('VERB=accorder', 'NOUN=détour')
acceptation;accorder	unseen	('VERB=accorder', 'NOUN=acceptation')
accorder;marche	unseen	('VERB=accorder', 'NOUN=marche')
accorder;défection	unseen	('VERB=accorder', 'NOUN=défection')
accorder;référence	unseen	('VERB=accorder', 'NOUN=référence')
accorder;guerre	unseen	('VERB=accorder', 'NOUN=guerre')
accorder;apparition	unseen	('VERB=accorder', 'NOUN=apparition')
accorder;escale	unseen	('VERB=accorder', 'NOUN=escale')
accorder;fête	unseen	('VERB=accorder', 'NOUN=fête')
accorder;consultance	unseen	('VERB=accorder', 'NOUN=consultance')
accorder;prise	unseen	('VERB=accorder', 'NOUN=prise')
accorder;balade	unseen	('VERB=accorder', 'NOUN=balade')
accorder;usage	unseen	('VERB=accorder', 'NOUN=usage')
accorder;serment	unseen	('VERB=accorder', 'NOUN=serment')
accorder;révélation	unseen	('VERB=accorder', 'NOUN=révélation')
ablation;accorder	unseen	('VERB=accorder', 'NOUN=ablation')
accorder;exercice	unseen	('VERB=accorder', 'NOUN=exercice')
accorder;déplacement	unseen	('VERB=accorder', 'NOUN=déplacement')
accorder;rotation	unseen	('VERB=accorder', 'NOUN=rotation')
accorder;accueil	unseen	('VERB=accorder', 'NOUN=accueil')
accorder;déménagement	unseen	('VERB=accorder', 'NOUN=déménagement')
accorder;progrès	unseen	('VERB=accorder', 'NOUN=progrès')
accorder;tournée	unseen	('VERB=accorder', 'NOUN=tournée')
accorder;découverte	unseen	('VERB=accorder', 'NOUN=découverte')
accorder;question	unseen	('VERB=accorder', 'NOUN=question')
accorder;descente	unseen	('VERB=accorder', 'NOUN=descente')
accorder;exaction	unseen	('VERB=accorder', 'NOUN=exaction')
accorder;arbitrage	unseen	('VERB=accorder', 'NOUN=arbitrage')
accorder;course	unseen	('VERB=accorder', 'NOUN=course')
accorder;causette	unseen	('VERB=accorder', 'NOUN=causette')
accorder;geste	unseen	('VERB=accorder', 'NOUN=geste')
accorder;entrée	unseen	('VERB=accorder', 'NOUN=entrée')
accorder;reconnaissance	unseen	('VERB=accorder', 'NOUN=reconnaissance')
accorder;service	unseen	('VERB=accorder', 'NOUN=service')
accorder;recherche	unseen	('VERB=accorder', 'NOUN=recherche')
accorder;offre	unseen	('VERB=accorder', 'NOUN=offre')
accorder;allusion	unseen	('VERB=accorder', 'NOUN=allusion')
accorder;effort	unseen	('VERB=accorder', 'NOUN=effort')
accorder;remarque	unseen	('VERB=accorder', 'NOUN=remarque')
accorder;classe	unseen	('VERB=accorder', 'NOUN=classe')
accorder;lien	unseen	('VERB=accorder', 'NOUN=lien')
accorder;ménage	unseen	('VERB=accorder', 'NOUN=ménage')
accorder;fortune	unseen	('VERB=accorder', 'NOUN=fortune')
accorder;pression	unseen	('VERB=accorder', 'NOUN=pression')
accorder;culture	unseen	('VERB=accorder', 'NOUN=culture')
accorder;virée	unseen	('VERB=accorder', 'NOUN=virée')
accorder;révolution	unseen	('VERB=accorder', 'NOUN=révolution')
accorder;investissement	unseen	('VERB=accorder', 'NOUN=investissement')
accorder;description	unseen	('VERB=accorder', 'NOUN=description')
accorder;passe	unseen	('VERB=accorder', 'NOUN=passe')
accorder;foulage	unseen	('VERB=accorder', 'NOUN=foulage')
accorder;sondage	unseen	('VERB=accorder', 'NOUN=sondage')
accorder;troc	unseen	('VERB=accorder', 'NOUN=troc')
accorder;récupération	unseen	('VERB=accorder', 'NOUN=récupération')
accorder;mendicité	unseen	('VERB=accorder', 'NOUN=mendicité')
accorder;transition	unseen	('VERB=accorder', 'NOUN=transition')
accorder;réapparition	unseen	('VERB=accorder', 'NOUN=réapparition')
accorder;demande	unseen	('VERB=accorder', 'NOUN=demande')
accorder;essai	unseen	('VERB=accorder', 'NOUN=essai')
accorder;fouille	unseen	('VERB=accorder', 'NOUN=fouille')
accorder;don	unseen	('VERB=accorder', 'NOUN=don')
accorder;acquisition	unseen	('VERB=accorder', 'NOUN=acquisition')
accorder;bloc	unseen	('VERB=accorder', 'NOUN=bloc')
accorder;proposition	unseen	('VERB=accorder', 'NOUN=proposition')
accorder;travail	unseen	('VERB=accorder', 'NOUN=travail')
accorder;prière	unseen	('VERB=accorder', 'NOUN=prière')
accorder;nuit	unseen	('VERB=accorder', 'NOUN=nuit')
accorder;économie	unseen	('VERB=accorder', 'NOUN=économie')
accorder;grève	unseen	('VERB=accorder', 'NOUN=grève')
accorder;rentrée	unseen	('VERB=accorder', 'NOUN=rentrée')
accorder;vœu	unseen	('VERB=accorder', 'NOUN=vœu')
accorder;développement	unseen	('VERB=accorder', 'NOUN=développement')
faire;réponse	unseen	('VERB=faire', 'NOUN=réponse')
aide;faire	unseen	('VERB=faire', 'NOUN=aide')
contribution;faire	unseen	('VERB=faire', 'NOUN=contribution')
assistance;faire	unseen	('VERB=faire', 'NOUN=assistance')
faire;solution	unseen	('VERB=faire', 'NOUN=solution')
faire;soutien	unseen	('VERB=faire', 'NOUN=soutien')
faire;joie	unseen	('VERB=faire', 'NOUN=joie')
divertissement;faire	unseen	('VERB=faire', 'NOUN=divertissement')
faire;humeur	unseen	('VERB=faire', 'NOUN=humeur')
faire;prospérité	unseen	('VERB=faire', 'NOUN=prospérité')
appui;faire	unseen	('VERB=faire', 'NOUN=appui')
faire;écoute	unseen	('VERB=faire', 'NOUN=écoute')
faire;réjouissance	unseen	('VERB=faire', 'NOUN=réjouissance')
dépaysement;faire	unseen	('VERB=faire', 'NOUN=dépaysement')
amélioration;faire	unseen	('VERB=faire', 'NOUN=amélioration')
cohérence;faire	unseen	('VERB=faire', 'NOUN=cohérence')
faire;transparence	unseen	('VERB=faire', 'NOUN=transparence')
concours;faire	unseen	('VERB=faire', 'NOUN=concours')
faire;utilité	unseen	('VERB=faire', 'NOUN=utilité')
faire;présidence	unseen	('VERB=faire', 'NOUN=présidence')
connaître;présidence	unseen	('VERB=connaître', 'NOUN=présidence')
icp;subir	unseen	('VERB=subir', 'NOUN=icp')
débarquement;faire	unseen	('VERB=faire', 'NOUN=débarquement')
faire;ronde	unseen	('VERB=faire', 'NOUN=ronde')
analyse;faire	unseen	('VERB=faire', 'NOUN=analyse')
faire;utilisation	unseen	('VERB=faire', 'NOUN=utilisation')
construction;faire	unseen	('VERB=faire', 'NOUN=construction')
faire;saisie	unseen	('VERB=faire', 'NOUN=saisie')
faire;stage	unseen	('VERB=faire', 'NOUN=stage')
faire;rénovation	unseen	('VERB=faire', 'NOUN=rénovation')
acte;faire	unseen	('VERB=faire', 'NOUN=acte')
faire;vol	unseen	('VERB=faire', 'NOUN=vol')
faire;vérification	unseen	('VERB=faire', 'NOUN=vérification')
déclaration;faire	unseen	('VERB=faire', 'NOUN=déclaration')
faire;paiement	unseen	('VERB=faire', 'NOUN=paiement')
faire;visite	unseen	('VERB=faire', 'NOUN=visite')
faire;suivi	unseen	('VERB=faire', 'NOUN=suivi')
faire;opération	unseen	('VERB=faire', 'NOUN=opération')
faire;sortie	unseen	('VERB=faire', 'NOUN=sortie')
datation;faire	unseen	('VERB=faire', 'NOUN=datation')
faire;mission	unseen	('VERB=faire', 'NOUN=mission')
faire;voyage	unseen	('VERB=faire', 'NOUN=voyage')
faire;saison	unseen	('VERB=faire', 'NOUN=saison')
faire;traversée	unseen	('VERB=faire', 'NOUN=traversée')
faire;vote	unseen	('VERB=faire', 'NOUN=vote')
faire;transfert	unseen	('VERB=faire', 'NOUN=transfert')
faire;modification	unseen	('VERB=faire', 'NOUN=modification')
faire;test	unseen	('VERB=faire', 'NOUN=test')
faire;restauration	unseen	('VERB=faire', 'NOUN=restauration')
faire;séjour	unseen	('VERB=faire', 'NOUN=séjour')
faire;procédure	unseen	('VERB=faire', 'NOUN=procédure')
faire;sélection	unseen	('VERB=faire', 'NOUN=sélection')
faire;trajet	unseen	('VERB=faire', 'NOUN=trajet')
changement;faire	unseen	('VERB=faire', 'NOUN=changement')
action;faire	unseen	('VERB=faire', 'NOUN=action')
faire;radiothérapie	unseen	('VERB=faire', 'NOUN=radiothérapie')
expertise;faire	unseen	('VERB=faire', 'NOUN=expertise')
faire;mesure	unseen	('VERB=faire', 'NOUN=mesure')
biopsie;faire	unseen	('VERB=faire', 'NOUN=biopsie')
faire;évaluation	unseen	('VERB=faire', 'NOUN=évaluation')
faire;mandat	unseen	('VERB=faire', 'NOUN=mandat')
faire;mise	unseen	('VERB=faire', 'NOUN=mise')
hypertension;souffrir_de	unseen	('NOUN=hypertension', 'VERB=souffrir_de')
maladie;souffrir_de	unseen	('NOUN=maladie', 'VERB=souffrir_de')
ostéoporose;souffrir_de	unseen	('NOUN=ostéoporose', 'VERB=souffrir_de')
marquer;point	unseen	('VERB=marquer', 'NOUN=point')
doublé;marquer	unseen	('VERB=marquer', 'NOUN=doublé')
signer;succès	unseen	('VERB=signer', 'NOUN=succès')
accueil;signer	unseen	('VERB=signer', 'NOUN=accueil')
permission;signer	unseen	('VERB=signer', 'NOUN=permission')
changement;porter	unseen	('NOUN=changement', 'VERB=porter')
rencontrer;victoire	unseen	('VERB=rencontrer', 'NOUN=victoire')
connaître;victoire	unseen	('VERB=connaître', 'NOUN=victoire')
avoir;victoire	unseen	('VERB=avoir', 'NOUN=victoire')
accueil;remporter	unseen	('VERB=remporter', 'NOUN=accueil')
permission;remporter	unseen	('VERB=remporter', 'NOUN=permission')
effectuer;massacre	unseen	('NOUN=massacre', 'VERB=effectuer')
coordination;effectuer	unseen	('NOUN=coordination', 'VERB=effectuer')
augmentation;effectuer	unseen	('NOUN=augmentation', 'VERB=effectuer')
effectuer;enquête	unseen	('NOUN=enquête', 'VERB=effectuer')
effectuer;photographie	unseen	('NOUN=photographie', 'VERB=effectuer')
bilan;effectuer	unseen	('NOUN=bilan', 'VERB=effectuer')
dessin;effectuer	unseen	('NOUN=dessin', 'VERB=effectuer')
effectuer;habillage	unseen	('NOUN=habillage', 'VERB=effectuer')
effectuer;triplé	unseen	('NOUN=triplé', 'VERB=effectuer')
dresser;étude	unseen	('NOUN=étude', 'VERB=dresser')
dresser;massacre	unseen	('NOUN=massacre', 'VERB=dresser')
dresser;traversée	unseen	('NOUN=traversée', 'VERB=dresser')
coordination;dresser	unseen	('NOUN=coordination', 'VERB=dresser')
action;dresser	unseen	('NOUN=action', 'VERB=dresser')
dresser;travail	unseen	('NOUN=travail', 'VERB=dresser')
augmentation;dresser	unseen	('NOUN=augmentation', 'VERB=dresser')
dresser;enquête	unseen	('NOUN=enquête', 'VERB=dresser')
dresser;vol	unseen	('NOUN=vol', 'VERB=dresser')
dresser;photographie	unseen	('NOUN=photographie', 'VERB=dresser')
dresser;évaluation	unseen	('NOUN=évaluation', 'VERB=dresser')
dessin;dresser	unseen	('NOUN=dessin', 'VERB=dresser')
dresser;habillage	unseen	('NOUN=habillage', 'VERB=dresser')
dresser;triplé	unseen	('NOUN=triplé', 'VERB=dresser')
accueil;rencontrer	unseen	('NOUN=accueil', 'VERB=rencontrer')
permission;rencontrer	unseen	('NOUN=permission', 'VERB=rencontrer')
souscrire;vacance	unseen	('VERB=souscrire', 'NOUN=vacance')
audition;souscrire	unseen	('VERB=souscrire', 'NOUN=audition')
accord;souscrire	unseen	('VERB=souscrire', 'NOUN=accord')
avoir;résultat	unseen	('VERB=avoir', 'NOUN=résultat')
identification;procéder_à	unseen	('NOUN=identification', 'VERB=procéder_à')
procéder_à;évaluation	unseen	('NOUN=évaluation', 'VERB=procéder_à')
contrôle;procéder_à	unseen	('NOUN=contrôle', 'VERB=procéder_à')
lecture;procéder_à	unseen	('NOUN=lecture', 'VERB=procéder_à')
procéder_à;réduction	unseen	('NOUN=réduction', 'VERB=procéder_à')
ouverture;procéder_à	unseen	('NOUN=ouverture', 'VERB=procéder_à')
inhumation;procéder_à	unseen	('NOUN=inhumation', 'VERB=procéder_à')
faire;massacre	unseen	('VERB=faire', 'NOUN=massacre')
coordination;faire	unseen	('VERB=faire', 'NOUN=coordination')
augmentation;faire	unseen	('VERB=faire', 'NOUN=augmentation')
enquête;faire	unseen	('VERB=faire', 'NOUN=enquête')
faire;photographie	unseen	('VERB=faire', 'NOUN=photographie')
bilan;faire	unseen	('VERB=faire', 'NOUN=bilan')
dessin;faire	unseen	('VERB=faire', 'NOUN=dessin')
faire;habillage	unseen	('VERB=faire', 'NOUN=habillage')
faire;triplé	unseen	('VERB=faire', 'NOUN=triplé')
défaite;recevoir	unseen	('VERB=recevoir', 'NOUN=défaite')
cursus;prendre	unseen	('VERB=prendre', 'NOUN=cursus')
prendre;thérapie	unseen	('VERB=prendre', 'NOUN=thérapie')
formation;prendre	unseen	('VERB=prendre', 'NOUN=formation')
avoir;ordre	unseen	('VERB=avoir', 'NOUN=ordre')
avoir;réception	unseen	('VERB=avoir', 'NOUN=réception')
avoir;ultimatum	unseen	('VERB=avoir', 'NOUN=ultimatum')
avoir;live	unseen	('VERB=avoir', 'NOUN=live')
avoir;représentation	unseen	('VERB=avoir', 'NOUN=représentation')
avoir;réponse	unseen	('VERB=avoir', 'NOUN=réponse')
avoir;conseil	unseen	('VERB=avoir', 'NOUN=conseil')
avoir;préférence	unseen	('VERB=avoir', 'NOUN=préférence')
alerte;avoir	unseen	('VERB=avoir', 'NOUN=alerte')
avoir;explication	unseen	('VERB=avoir', 'NOUN=explication')
accord;avoir	unseen	('VERB=avoir', 'NOUN=accord')
avoir;légitimité	unseen	('VERB=avoir', 'NOUN=légitimité')
avoir;leçon	unseen	('VERB=avoir', 'NOUN=leçon')
avoir;concert	unseen	('VERB=avoir', 'NOUN=concert')
avoir;permission	unseen	('VERB=avoir', 'NOUN=permission')
avoir;regain	unseen	('VERB=avoir', 'NOUN=regain')
avoir;enseignement	unseen	('VERB=avoir', 'NOUN=enseignement')
avoir;performance	unseen	('VERB=avoir', 'NOUN=performance')
avoir;qualité	unseen	('VERB=avoir', 'NOUN=qualité')
avoir;indication	unseen	('VERB=avoir', 'NOUN=indication')
avoir;opportunité	unseen	('VERB=avoir', 'NOUN=opportunité')
conclusion;dispenser	unseen	('NOUN=conclusion', 'VERB=dispenser')
conclusion;donner	unseen	('NOUN=conclusion', 'VERB=donner')
effectuer;progrès	unseen	('NOUN=progrès', 'VERB=effectuer')
signer;vacance	unseen	('VERB=signer', 'NOUN=vacance')
audition;signer	unseen	('VERB=signer', 'NOUN=audition')
procéder_à;échange	unseen	('NOUN=échange', 'VERB=procéder_à')
apporter;travail	unseen	('VERB=apporter', 'NOUN=travail')
travail;venir_en	unseen	('VERB=venir_en', 'NOUN=travail')
avoir;pollution	unseen	('VERB=avoir', 'NOUN=pollution')
avoir;éclatement	unseen	('VERB=avoir', 'NOUN=éclatement')
avoir;hypocalcémie	unseen	('VERB=avoir', 'NOUN=hypocalcémie')
avoir;licenciement	unseen	('VERB=avoir', 'NOUN=licenciement')
avoir;dérive	unseen	('VERB=avoir', 'NOUN=dérive')
avoir;versement	unseen	('VERB=avoir', 'NOUN=versement')
avoir;fatigue	unseen	('VERB=avoir', 'NOUN=fatigue')
avoir;mort	unseen	('VERB=avoir', 'NOUN=mort')
avoir;destruction	unseen	('VERB=avoir', 'NOUN=destruction')
avoir;manifestation	unseen	('VERB=avoir', 'NOUN=manifestation')
avoir;malaise	unseen	('VERB=avoir', 'NOUN=malaise')
avoir;complication	unseen	('VERB=avoir', 'NOUN=complication')
avoir;recrutement	unseen	('VERB=avoir', 'NOUN=recrutement')
abus;avoir	unseen	('VERB=avoir', 'NOUN=abus')
avoir;déshydratation	unseen	('VERB=avoir', 'NOUN=déshydratation')
avoir;baisse	unseen	('VERB=avoir', 'NOUN=baisse')
avoir;création	unseen	('VERB=avoir', 'NOUN=création')
avoir;dégradation	unseen	('VERB=avoir', 'NOUN=dégradation')
avoir;réduction	unseen	('VERB=avoir', 'NOUN=réduction')
avoir;irrégularité	unseen	('VERB=avoir', 'NOUN=irrégularité')
avoir;déclenchement	unseen	('VERB=avoir', 'NOUN=déclenchement')
avoir;production	unseen	('VERB=avoir', 'NOUN=production')
amélioration;avoir	unseen	('VERB=avoir', 'NOUN=amélioration')
avoir;poursuite	unseen	('VERB=avoir', 'NOUN=poursuite')
avoir;criminalité	unseen	('VERB=avoir', 'NOUN=criminalité')
avoir;domination	unseen	('VERB=avoir', 'NOUN=domination')
avoir;violation	unseen	('VERB=avoir', 'NOUN=violation')
avoir;contrôle	unseen	('VERB=avoir', 'NOUN=contrôle')
assurer;hausse	unseen	('VERB=assurer', 'NOUN=hausse')
faire;hausse	unseen	('VERB=faire', 'NOUN=hausse')
accord;contracter	unseen	('VERB=contracter', 'NOUN=accord')
contrat;sceller	unseen	('VERB=sceller', 'NOUN=contrat')
sceller;vacance	unseen	('VERB=sceller', 'NOUN=vacance')
audition;sceller	unseen	('VERB=sceller', 'NOUN=audition')
considération;prendre	unseen	('NOUN=considération', 'VERB=prendre')
photo;prendre_en	unseen	('NOUN=photo', 'VERB=prendre_en')
assurer;problème	unseen	('VERB=assurer', 'NOUN=problème')
faire;problème	unseen	('VERB=faire', 'NOUN=problème')
connaître;risque	unseen	('VERB=connaître', 'NOUN=risque')
entraîner;risque	unseen	('VERB=entraîner', 'NOUN=risque')
essuyer;traitement	unseen	('VERB=essuyer', 'NOUN=traitement')
prendre;étude	unseen	('VERB=prendre', 'NOUN=étude')
débarquement;prendre	unseen	('VERB=prendre', 'NOUN=débarquement')
prendre;tournée	unseen	('VERB=prendre', 'NOUN=tournée')
prendre;ronde	unseen	('VERB=prendre', 'NOUN=ronde')
analyse;prendre	unseen	('VERB=prendre', 'NOUN=analyse')
prendre;utilisation	unseen	('VERB=prendre', 'NOUN=utilisation')
construction;prendre	unseen	('VERB=prendre', 'NOUN=construction')
prendre;saisie	unseen	('VERB=prendre', 'NOUN=saisie')
prendre;stage	unseen	('VERB=prendre', 'NOUN=stage')
prendre;rénovation	unseen	('VERB=prendre', 'NOUN=rénovation')
prendre;vol	unseen	('VERB=prendre', 'NOUN=vol')
don;prendre	unseen	('VERB=prendre', 'NOUN=don')
prendre;travail	unseen	('VERB=prendre', 'NOUN=travail')
prendre;vérification	unseen	('VERB=prendre', 'NOUN=vérification')
déclaration;prendre	unseen	('VERB=prendre', 'NOUN=déclaration')
paiement;prendre	unseen	('VERB=prendre', 'NOUN=paiement')
prendre;visite	unseen	('VERB=prendre', 'NOUN=visite')
prendre;suivi	unseen	('VERB=prendre', 'NOUN=suivi')
opération;prendre	unseen	('VERB=prendre', 'NOUN=opération')
prendre;sortie	unseen	('VERB=prendre', 'NOUN=sortie')
datation;prendre	unseen	('VERB=prendre', 'NOUN=datation')
mission;prendre	unseen	('VERB=prendre', 'NOUN=mission')
prendre;voyage	unseen	('VERB=prendre', 'NOUN=voyage')
prendre;saison	unseen	('VERB=prendre', 'NOUN=saison')
prendre;traversée	unseen	('VERB=prendre', 'NOUN=traversée')
prendre;vote	unseen	('VERB=prendre', 'NOUN=vote')
prendre;transfert	unseen	('VERB=prendre', 'NOUN=transfert')
passage;prendre	unseen	('VERB=prendre', 'NOUN=passage')
modification;prendre	unseen	('VERB=prendre', 'NOUN=modification')
prendre;test	unseen	('VERB=prendre', 'NOUN=test')
prendre;restauration	unseen	('VERB=prendre', 'NOUN=restauration')
prendre;séjour	unseen	('VERB=prendre', 'NOUN=séjour')
fouille;prendre	unseen	('VERB=prendre', 'NOUN=fouille')
prendre;procédure	unseen	('VERB=prendre', 'NOUN=procédure')
prendre;sélection	unseen	('VERB=prendre', 'NOUN=sélection')
prendre;trajet	unseen	('VERB=prendre', 'NOUN=trajet')
changement;prendre	unseen	('VERB=prendre', 'NOUN=changement')
prendre;radiothérapie	unseen	('VERB=prendre', 'NOUN=radiothérapie')
prendre;recherche	unseen	('VERB=prendre', 'NOUN=recherche')
expertise;prendre	unseen	('VERB=prendre', 'NOUN=expertise')
demande;prendre	unseen	('VERB=prendre', 'NOUN=demande')
biopsie;prendre	unseen	('VERB=prendre', 'NOUN=biopsie')
prendre;évaluation	unseen	('VERB=prendre', 'NOUN=évaluation')
mandat;prendre	unseen	('VERB=prendre', 'NOUN=mandat')
mise;prendre	unseen	('VERB=prendre', 'NOUN=mise')
cursus;donner	unseen	('VERB=donner', 'NOUN=cursus')
donner;thérapie	unseen	('VERB=donner', 'NOUN=thérapie')
donner;formation	unseen	('VERB=donner', 'NOUN=formation')
droit;exercer	unseen	('VERB=exercer', 'NOUN=droit')
envie;recevoir	unseen	('VERB=recevoir', 'NOUN=envie')
occasion;recevoir	unseen	('VERB=recevoir', 'NOUN=occasion')
cours;recevoir	unseen	('VERB=recevoir', 'NOUN=cours')
recevoir;réception	unseen	('VERB=recevoir', 'NOUN=réception')
recevoir;ultimatum	unseen	('VERB=recevoir', 'NOUN=ultimatum')
live;recevoir	unseen	('VERB=recevoir', 'NOUN=live')
recevoir;représentation	unseen	('VERB=recevoir', 'NOUN=représentation')
recevoir;réponse	unseen	('VERB=recevoir', 'NOUN=réponse')
conseil;recevoir	unseen	('VERB=recevoir', 'NOUN=conseil')
préférence;recevoir	unseen	('VERB=recevoir', 'NOUN=préférence')
alerte;recevoir	unseen	('VERB=recevoir', 'NOUN=alerte')
explication;recevoir	unseen	('VERB=recevoir', 'NOUN=explication')
accord;recevoir	unseen	('VERB=recevoir', 'NOUN=accord')
espoir;recevoir	unseen	('VERB=recevoir', 'NOUN=espoir')
légitimité;recevoir	unseen	('VERB=recevoir', 'NOUN=légitimité')
droit;recevoir	unseen	('VERB=recevoir', 'NOUN=droit')
leçon;recevoir	unseen	('VERB=recevoir', 'NOUN=leçon')
impression;recevoir	unseen	('VERB=recevoir', 'NOUN=impression')
interview;recevoir	unseen	('VERB=recevoir', 'NOUN=interview')
concert;recevoir	unseen	('VERB=recevoir', 'NOUN=concert')
permission;recevoir	unseen	('VERB=recevoir', 'NOUN=permission')
recevoir;regain	unseen	('VERB=recevoir', 'NOUN=regain')
enseignement;recevoir	unseen	('VERB=recevoir', 'NOUN=enseignement')
performance;recevoir	unseen	('VERB=recevoir', 'NOUN=performance')
qualité;recevoir	unseen	('VERB=recevoir', 'NOUN=qualité')
indication;recevoir	unseen	('VERB=recevoir', 'NOUN=indication')
opportunité;recevoir	unseen	('VERB=recevoir', 'NOUN=opportunité')
promotion;recevoir	unseen	('VERB=recevoir', 'NOUN=promotion')
assurer;désillusion	unseen	('VERB=assurer', 'NOUN=désillusion')
désillusion;faire	unseen	('VERB=faire', 'NOUN=désillusion')
conduire;contrat	unseen	('VERB=conduire', 'NOUN=contrat')
effectuer;service	unseen	('VERB=effectuer', 'NOUN=service')
recevoir;service	unseen	('VERB=recevoir', 'NOUN=service')
rendre;éloge	unseen	('VERB=rendre', 'NOUN=éloge')
commentaire;rendre	unseen	('VERB=rendre', 'NOUN=commentaire')
passage;rendre	unseen	('VERB=rendre', 'NOUN=passage')
affaire;rendre	unseen	('VERB=rendre', 'NOUN=affaire')
profit;rendre	unseen	('VERB=rendre', 'NOUN=profit')
rendre;sécession	unseen	('VERB=rendre', 'NOUN=sécession')
distinction;rendre	unseen	('VERB=rendre', 'NOUN=distinction')
rendre;étude	unseen	('VERB=rendre', 'NOUN=étude')
confiance;rendre	unseen	('VERB=rendre', 'NOUN=confiance')
appel;rendre	unseen	('VERB=rendre', 'NOUN=appel')
détour;rendre	unseen	('VERB=rendre', 'NOUN=détour')
acceptation;rendre	unseen	('VERB=rendre', 'NOUN=acceptation')
marche;rendre	unseen	('VERB=rendre', 'NOUN=marche')
défection;rendre	unseen	('VERB=rendre', 'NOUN=défection')
rendre;référence	unseen	('VERB=rendre', 'NOUN=référence')
guerre;rendre	unseen	('VERB=rendre', 'NOUN=guerre')
apparition;rendre	unseen	('VERB=rendre', 'NOUN=apparition')
escale;rendre	unseen	('VERB=rendre', 'NOUN=escale')
fête;rendre	unseen	('VERB=rendre', 'NOUN=fête')
consultance;rendre	unseen	('VERB=rendre', 'NOUN=consultance')
prise;rendre	unseen	('VERB=rendre', 'NOUN=prise')
balade;rendre	unseen	('VERB=rendre', 'NOUN=balade')
rendre;usage	unseen	('VERB=rendre', 'NOUN=usage')
rendre;serment	unseen	('VERB=rendre', 'NOUN=serment')
rendre;révélation	unseen	('VERB=rendre', 'NOUN=révélation')
ablation;rendre	unseen	('VERB=rendre', 'NOUN=ablation')
exercice;rendre	unseen	('VERB=rendre', 'NOUN=exercice')
déplacement;rendre	unseen	('VERB=rendre', 'NOUN=déplacement')
rendre;rotation	unseen	('VERB=rendre', 'NOUN=rotation')
accueil;rendre	unseen	('VERB=rendre', 'NOUN=accueil')
déménagement;rendre	unseen	('VERB=rendre', 'NOUN=déménagement')
progrès;rendre	unseen	('VERB=rendre', 'NOUN=progrès')
rendre;tournée	unseen	('VERB=rendre', 'NOUN=tournée')
découverte;rendre	unseen	('VERB=rendre', 'NOUN=découverte')
question;rendre	unseen	('VERB=rendre', 'NOUN=question')
descente;rendre	unseen	('VERB=rendre', 'NOUN=descente')
exaction;rendre	unseen	('VERB=rendre', 'NOUN=exaction')
arbitrage;rendre	unseen	('VERB=rendre', 'NOUN=arbitrage')
course;rendre	unseen	('VERB=rendre', 'NOUN=course')
causette;rendre	unseen	('VERB=rendre', 'NOUN=causette')
geste;rendre	unseen	('VERB=rendre', 'NOUN=geste')
entrée;rendre	unseen	('VERB=rendre', 'NOUN=entrée')
reconnaissance;rendre	unseen	('VERB=rendre', 'NOUN=reconnaissance')
recherche;rendre	unseen	('VERB=rendre', 'NOUN=recherche')
offre;rendre	unseen	('VERB=rendre', 'NOUN=offre')
allusion;rendre	unseen	('VERB=rendre', 'NOUN=allusion')
effort;rendre	unseen	('VERB=rendre', 'NOUN=effort')
remarque;rendre	unseen	('VERB=rendre', 'NOUN=remarque')
classe;rendre	unseen	('VERB=rendre', 'NOUN=classe')
lien;rendre	unseen	('VERB=rendre', 'NOUN=lien')
ménage;rendre	unseen	('VERB=rendre', 'NOUN=ménage')
fortune;rendre	unseen	('VERB=rendre', 'NOUN=fortune')
attention;rendre	unseen	('VERB=rendre', 'NOUN=attention')
pression;rendre	unseen	('VERB=rendre', 'NOUN=pression')
culture;rendre	unseen	('VERB=rendre', 'NOUN=culture')
rendre;virée	unseen	('VERB=rendre', 'NOUN=virée')
rendre;révolution	unseen	('VERB=rendre', 'NOUN=révolution')
investissement;rendre	unseen	('VERB=rendre', 'NOUN=investissement')
description;rendre	unseen	('VERB=rendre', 'NOUN=description')
passe;rendre	unseen	('VERB=rendre', 'NOUN=passe')
foulage;rendre	unseen	('VERB=rendre', 'NOUN=foulage')
rendre;sondage	unseen	('VERB=rendre', 'NOUN=sondage')
rendre;troc	unseen	('VERB=rendre', 'NOUN=troc')
rendre;récupération	unseen	('VERB=rendre', 'NOUN=récupération')
mendicité;rendre	unseen	('VERB=rendre', 'NOUN=mendicité')
rendre;transition	unseen	('VERB=rendre', 'NOUN=transition')
rendre;réapparition	unseen	('VERB=rendre', 'NOUN=réapparition')
demande;rendre	unseen	('VERB=rendre', 'NOUN=demande')
essai;rendre	unseen	('VERB=rendre', 'NOUN=essai')
interview;rendre	unseen	('VERB=rendre', 'NOUN=interview')
fouille;rendre	unseen	('VERB=rendre', 'NOUN=fouille')
don;rendre	unseen	('VERB=rendre', 'NOUN=don')
acquisition;rendre	unseen	('VERB=rendre', 'NOUN=acquisition')
bloc;rendre	unseen	('VERB=rendre', 'NOUN=bloc')
promotion;rendre	unseen	('VERB=rendre', 'NOUN=promotion')
proposition;rendre	unseen	('VERB=rendre', 'NOUN=proposition')
rendre;travail	unseen	('VERB=rendre', 'NOUN=travail')
prière;rendre	unseen	('VERB=rendre', 'NOUN=prière')
nuit;rendre	unseen	('VERB=rendre', 'NOUN=nuit')
rendre;économie	unseen	('VERB=rendre', 'NOUN=économie')
grève;rendre	unseen	('VERB=rendre', 'NOUN=grève')
rendre;rentrée	unseen	('VERB=rendre', 'NOUN=rentrée')
rendre;vœu	unseen	('VERB=rendre', 'NOUN=vœu')
développement;rendre	unseen	('VERB=rendre', 'NOUN=développement')
criminalité;présenter	unseen	('VERB=présenter', 'NOUN=criminalité')
pouvoir;présenter	unseen	('VERB=présenter', 'NOUN=pouvoir')
action;présenter	unseen	('VERB=présenter', 'NOUN=action')
domination;présenter	unseen	('VERB=présenter', 'NOUN=domination')
compétence;présenter	unseen	('VERB=présenter', 'NOUN=compétence')
influence;présenter	unseen	('VERB=présenter', 'NOUN=influence')
présenter;violation	unseen	('VERB=présenter', 'NOUN=violation')
contrôle;présenter	unseen	('VERB=présenter', 'NOUN=contrôle')
maladie;présenter	unseen	('VERB=présenter', 'NOUN=maladie')
ostéoporose;présenter	unseen	('VERB=présenter', 'NOUN=ostéoporose')
débarquement;rendre	unseen	('VERB=rendre', 'NOUN=débarquement')
rendre;ronde	unseen	('VERB=rendre', 'NOUN=ronde')
analyse;rendre	unseen	('VERB=rendre', 'NOUN=analyse')
rendre;utilisation	unseen	('VERB=rendre', 'NOUN=utilisation')
construction;rendre	unseen	('VERB=rendre', 'NOUN=construction')
rendre;saisie	unseen	('VERB=rendre', 'NOUN=saisie')
rendre;stage	unseen	('VERB=rendre', 'NOUN=stage')
rendre;rénovation	unseen	('VERB=rendre', 'NOUN=rénovation')
acte;rendre	unseen	('VERB=rendre', 'NOUN=acte')
rendre;vol	unseen	('VERB=rendre', 'NOUN=vol')
rendre;vérification	unseen	('VERB=rendre', 'NOUN=vérification')
déclaration;rendre	unseen	('VERB=rendre', 'NOUN=déclaration')
paiement;rendre	unseen	('VERB=rendre', 'NOUN=paiement')
rendre;suivi	unseen	('VERB=rendre', 'NOUN=suivi')
opération;rendre	unseen	('VERB=rendre', 'NOUN=opération')
rendre;sortie	unseen	('VERB=rendre', 'NOUN=sortie')
datation;rendre	unseen	('VERB=rendre', 'NOUN=datation')
mission;rendre	unseen	('VERB=rendre', 'NOUN=mission')
rendre;voyage	unseen	('VERB=rendre', 'NOUN=voyage')
rendre;saison	unseen	('VERB=rendre', 'NOUN=saison')
rendre;traversée	unseen	('VERB=rendre', 'NOUN=traversée')
rendre;vote	unseen	('VERB=rendre', 'NOUN=vote')
rendre;transfert	unseen	('VERB=rendre', 'NOUN=transfert')
modification;rendre	unseen	('VERB=rendre', 'NOUN=modification')
rendre;test	unseen	('VERB=rendre', 'NOUN=test')
rendre;restauration	unseen	('VERB=rendre', 'NOUN=restauration')
rendre;séjour	unseen	('VERB=rendre', 'NOUN=séjour')
procédure;rendre	unseen	('VERB=rendre', 'NOUN=procédure')
rendre;sélection	unseen	('VERB=rendre', 'NOUN=sélection')
rendre;trajet	unseen	('VERB=rendre', 'NOUN=trajet')
changement;rendre	unseen	('VERB=rendre', 'NOUN=changement')
action;rendre	unseen	('VERB=rendre', 'NOUN=action')
radiothérapie;rendre	unseen	('VERB=rendre', 'NOUN=radiothérapie')
expertise;rendre	unseen	('VERB=rendre', 'NOUN=expertise')
mesure;rendre	unseen	('VERB=rendre', 'NOUN=mesure')
biopsie;rendre	unseen	('VERB=rendre', 'NOUN=biopsie')
rendre;évaluation	unseen	('VERB=rendre', 'NOUN=évaluation')
mandat;rendre	unseen	('VERB=rendre', 'NOUN=mandat')
mise;rendre	unseen	('VERB=rendre', 'NOUN=mise')
accorder;coup	unseen	('VERB=accorder', 'NOUN=coup')
accorder;choix	unseen	('VERB=accorder', 'NOUN=choix')
accorder;plainte	unseen	('VERB=accorder', 'NOUN=plainte')
accorder;intérêt	unseen	('VERB=accorder', 'NOUN=intérêt')
accorder;secours	unseen	('VERB=accorder', 'NOUN=secours')
accorder;jugement	unseen	('VERB=accorder', 'NOUN=jugement')
enregistrer;succès	unseen	('VERB=enregistrer', 'NOUN=succès')
accueil;enregistrer	unseen	('VERB=enregistrer', 'NOUN=accueil')
enregistrer;permission	unseen	('VERB=enregistrer', 'NOUN=permission')
procéder_à;étude	unseen	('NOUN=étude', 'VERB=procéder_à')
massacre;procéder_à	unseen	('NOUN=massacre', 'VERB=procéder_à')
procéder_à;traversée	unseen	('NOUN=traversée', 'VERB=procéder_à')
coordination;procéder_à	unseen	('NOUN=coordination', 'VERB=procéder_à')
action;procéder_à	unseen	('NOUN=action', 'VERB=procéder_à')
procéder_à;travail	unseen	('NOUN=travail', 'VERB=procéder_à')
augmentation;procéder_à	unseen	('NOUN=augmentation', 'VERB=procéder_à')
enquête;procéder_à	unseen	('NOUN=enquête', 'VERB=procéder_à')
procéder_à;vol	unseen	('NOUN=vol', 'VERB=procéder_à')
photographie;procéder_à	unseen	('NOUN=photographie', 'VERB=procéder_à')
bilan;procéder_à	unseen	('NOUN=bilan', 'VERB=procéder_à')
dessin;procéder_à	unseen	('NOUN=dessin', 'VERB=procéder_à')
habillage;procéder_à	unseen	('NOUN=habillage', 'VERB=procéder_à')
procéder_à;triplé	unseen	('NOUN=triplé', 'VERB=procéder_à')
effectuer;indélicatesse	unseen	('VERB=effectuer', 'NOUN=indélicatesse')
effectuer;grossièreté	unseen	('VERB=effectuer', 'NOUN=grossièreté')
crime;effectuer	unseen	('VERB=effectuer', 'NOUN=crime')
effectuer;faute	unseen	('VERB=effectuer', 'NOUN=faute')
effectuer;pillage	unseen	('VERB=effectuer', 'NOUN=pillage')
arrestation;effectuer	unseen	('VERB=effectuer', 'NOUN=arrestation')
déportation;effectuer	unseen	('VERB=effectuer', 'NOUN=déportation')
faire;magie	unseen	('VERB=faire', 'NOUN=magie')
défaite;soumettre	unseen	('VERB=soumettre', 'NOUN=défaite')
entraîner;étude	unseen	('VERB=entraîner', 'NOUN=étude')
débarquement;entraîner	unseen	('VERB=entraîner', 'NOUN=débarquement')
entraîner;tournée	unseen	('VERB=entraîner', 'NOUN=tournée')
entraîner;ronde	unseen	('VERB=entraîner', 'NOUN=ronde')
analyse;entraîner	unseen	('VERB=entraîner', 'NOUN=analyse')
entraîner;utilisation	unseen	('VERB=entraîner', 'NOUN=utilisation')
construction;entraîner	unseen	('VERB=entraîner', 'NOUN=construction')
entraîner;saisie	unseen	('VERB=entraîner', 'NOUN=saisie')
entraîner;stage	unseen	('VERB=entraîner', 'NOUN=stage')
entraîner;rénovation	unseen	('VERB=entraîner', 'NOUN=rénovation')
acte;entraîner	unseen	('VERB=entraîner', 'NOUN=acte')
entraîner;vol	unseen	('VERB=entraîner', 'NOUN=vol')
don;entraîner	unseen	('VERB=entraîner', 'NOUN=don')
entraîner;travail	unseen	('VERB=entraîner', 'NOUN=travail')
entraîner;vérification	unseen	('VERB=entraîner', 'NOUN=vérification')
déclaration;entraîner	unseen	('VERB=entraîner', 'NOUN=déclaration')
entraîner;paiement	unseen	('VERB=entraîner', 'NOUN=paiement')
entraîner;visite	unseen	('VERB=entraîner', 'NOUN=visite')
entraîner;suivi	unseen	('VERB=entraîner', 'NOUN=suivi')
entraîner;opération	unseen	('VERB=entraîner', 'NOUN=opération')
entraîner;sortie	unseen	('VERB=entraîner', 'NOUN=sortie')
datation;entraîner	unseen	('VERB=entraîner', 'NOUN=datation')
entraîner;mission	unseen	('VERB=entraîner', 'NOUN=mission')
entraîner;voyage	unseen	('VERB=entraîner', 'NOUN=voyage')
entraîner;saison	unseen	('VERB=entraîner', 'NOUN=saison')
entraîner;traversée	unseen	('VERB=entraîner', 'NOUN=traversée')
entraîner;vote	unseen	('VERB=entraîner', 'NOUN=vote')
entraîner;transfert	unseen	('VERB=entraîner', 'NOUN=transfert')
entraîner;passage	unseen	('VERB=entraîner', 'NOUN=passage')
entraîner;test	unseen	('VERB=entraîner', 'NOUN=test')
entraîner;restauration	unseen	('VERB=entraîner', 'NOUN=restauration')
entraîner;séjour	unseen	('VERB=entraîner', 'NOUN=séjour')
entraîner;fouille	unseen	('VERB=entraîner', 'NOUN=fouille')
entraîner;procédure	unseen	('VERB=entraîner', 'NOUN=procédure')
entraîner;sélection	unseen	('VERB=entraîner', 'NOUN=sélection')
entraîner;trajet	unseen	('VERB=entraîner', 'NOUN=trajet')
changement;entraîner	unseen	('VERB=entraîner', 'NOUN=changement')
action;entraîner	unseen	('VERB=entraîner', 'NOUN=action')
entraîner;radiothérapie	unseen	('VERB=entraîner', 'NOUN=radiothérapie')
entraîner;recherche	unseen	('VERB=entraîner', 'NOUN=recherche')
entraîner;expertise	unseen	('VERB=entraîner', 'NOUN=expertise')
entraîner;mesure	unseen	('VERB=entraîner', 'NOUN=mesure')
demande;entraîner	unseen	('VERB=entraîner', 'NOUN=demande')
biopsie;entraîner	unseen	('VERB=entraîner', 'NOUN=biopsie')
entraîner;évaluation	unseen	('VERB=entraîner', 'NOUN=évaluation')
entraîner;mandat	unseen	('VERB=entraîner', 'NOUN=mandat')
entraîner;mise	unseen	('VERB=entraîner', 'NOUN=mise')
aide;donner	unseen	('NOUN=aide', 'VERB=donner')
contribution;donner	unseen	('NOUN=contribution', 'VERB=donner')
assistance;donner	unseen	('NOUN=assistance', 'VERB=donner')
donner;solution	unseen	('NOUN=solution', 'VERB=donner')
donner;soutien	unseen	('NOUN=soutien', 'VERB=donner')
donner;joie	unseen	('NOUN=joie', 'VERB=donner')
divertissement;donner	unseen	('NOUN=divertissement', 'VERB=donner')
donner;humeur	unseen	('NOUN=humeur', 'VERB=donner')
donner;prospérité	unseen	('NOUN=prospérité', 'VERB=donner')
appui;donner	unseen	('NOUN=appui', 'VERB=donner')
donner;écoute	unseen	('NOUN=écoute', 'VERB=donner')
donner;réjouissance	unseen	('NOUN=réjouissance', 'VERB=donner')
donner;dépaysement	unseen	('NOUN=dépaysement', 'VERB=donner')
amélioration;donner	unseen	('NOUN=amélioration', 'VERB=donner')
commentaire;donner	unseen	('NOUN=commentaire', 'VERB=donner')
cohérence;donner	unseen	('NOUN=cohérence', 'VERB=donner')
donner;transparence	unseen	('NOUN=transparence', 'VERB=donner')
concours;donner	unseen	('NOUN=concours', 'VERB=donner')
donner;utilité	unseen	('NOUN=utilité', 'VERB=donner')
ascension;effectuer	unseen	('VERB=effectuer', 'NOUN=ascension')
assurer;sélection	unseen	('VERB=assurer', 'NOUN=sélection')
sca;souffrir_de	unseen	('NOUN=sca', 'VERB=souffrir_de')
jouir;pouvoir	unseen	('VERB=jouir', 'NOUN=pouvoir')
effectuer;tâche	unseen	('NOUN=tâche', 'VERB=effectuer')
donner;succès	unseen	('VERB=donner', 'NOUN=succès')
assurer;succès	unseen	('VERB=assurer', 'NOUN=succès')
accueil;connaître	unseen	('VERB=connaître', 'NOUN=accueil')
connaître;permission	unseen	('VERB=connaître', 'NOUN=permission')
ascension;faire	unseen	('VERB=faire', 'NOUN=ascension')
faire;tâche	unseen	('VERB=faire', 'NOUN=tâche')
faire;œuvre	unseen	('VERB=faire', 'NOUN=œuvre')
démarche;faire	unseen	('VERB=faire', 'NOUN=démarche')
faire;pas	unseen	('VERB=faire', 'NOUN=pas')
donner;message	unseen	('VERB=donner', 'NOUN=message')
débarquement;subir	unseen	('VERB=subir', 'NOUN=débarquement')
ronde;subir	unseen	('VERB=subir', 'NOUN=ronde')
analyse;subir	unseen	('VERB=subir', 'NOUN=analyse')
subir;utilisation	unseen	('VERB=subir', 'NOUN=utilisation')
construction;subir	unseen	('VERB=subir', 'NOUN=construction')
saisie;subir	unseen	('VERB=subir', 'NOUN=saisie')
stage;subir	unseen	('VERB=subir', 'NOUN=stage')
rénovation;subir	unseen	('VERB=subir', 'NOUN=rénovation')
acte;subir	unseen	('VERB=subir', 'NOUN=acte')
subir;vol	unseen	('VERB=subir', 'NOUN=vol')
subir;vérification	unseen	('VERB=subir', 'NOUN=vérification')
déclaration;subir	unseen	('VERB=subir', 'NOUN=déclaration')
paiement;subir	unseen	('VERB=subir', 'NOUN=paiement')
subir;visite	unseen	('VERB=subir', 'NOUN=visite')
subir;suivi	unseen	('VERB=subir', 'NOUN=suivi')
opération;subir	unseen	('VERB=subir', 'NOUN=opération')
sortie;subir	unseen	('VERB=subir', 'NOUN=sortie')
datation;subir	unseen	('VERB=subir', 'NOUN=datation')
mission;subir	unseen	('VERB=subir', 'NOUN=mission')
subir;voyage	unseen	('VERB=subir', 'NOUN=voyage')
saison;subir	unseen	('VERB=subir', 'NOUN=saison')
subir;traversée	unseen	('VERB=subir', 'NOUN=traversée')
subir;vote	unseen	('VERB=subir', 'NOUN=vote')
subir;transfert	unseen	('VERB=subir', 'NOUN=transfert')
restauration;subir	unseen	('VERB=subir', 'NOUN=restauration')
subir;séjour	unseen	('VERB=subir', 'NOUN=séjour')
procédure;subir	unseen	('VERB=subir', 'NOUN=procédure')
subir;sélection	unseen	('VERB=subir', 'NOUN=sélection')
subir;trajet	unseen	('VERB=subir', 'NOUN=trajet')
changement;subir	unseen	('VERB=subir', 'NOUN=changement')
action;subir	unseen	('VERB=subir', 'NOUN=action')
radiothérapie;subir	unseen	('VERB=subir', 'NOUN=radiothérapie')
expertise;subir	unseen	('VERB=subir', 'NOUN=expertise')
mesure;subir	unseen	('VERB=subir', 'NOUN=mesure')
biopsie;subir	unseen	('VERB=subir', 'NOUN=biopsie')
subir;évaluation	unseen	('VERB=subir', 'NOUN=évaluation')
mandat;subir	unseen	('VERB=subir', 'NOUN=mandat')
mise;subir	unseen	('VERB=subir', 'NOUN=mise')
observer;souvenir	unseen	('VERB=observer', 'NOUN=souvenir')
prendre;réponse	unseen	('VERB=prendre', 'NOUN=réponse')
aide;prendre	unseen	('VERB=prendre', 'NOUN=aide')
contribution;prendre	unseen	('VERB=prendre', 'NOUN=contribution')
assistance;prendre	unseen	('VERB=prendre', 'NOUN=assistance')
prendre;solution	unseen	('VERB=prendre', 'NOUN=solution')
prendre;soutien	unseen	('VERB=prendre', 'NOUN=soutien')
joie;prendre	unseen	('VERB=prendre', 'NOUN=joie')
divertissement;prendre	unseen	('VERB=prendre', 'NOUN=divertissement')
humeur;prendre	unseen	('VERB=prendre', 'NOUN=humeur')
prendre;prospérité	unseen	('VERB=prendre', 'NOUN=prospérité')
prendre;écoute	unseen	('VERB=prendre', 'NOUN=écoute')
prendre;réjouissance	unseen	('VERB=prendre', 'NOUN=réjouissance')
dépaysement;prendre	unseen	('VERB=prendre', 'NOUN=dépaysement')
amélioration;prendre	unseen	('VERB=prendre', 'NOUN=amélioration')
commentaire;prendre	unseen	('VERB=prendre', 'NOUN=commentaire')
cohérence;prendre	unseen	('VERB=prendre', 'NOUN=cohérence')
prendre;transparence	unseen	('VERB=prendre', 'NOUN=transparence')
concours;prendre	unseen	('VERB=prendre', 'NOUN=concours')
prendre;utilité	unseen	('VERB=prendre', 'NOUN=utilité')
ascension;avoir	unseen	('VERB=avoir', 'NOUN=ascension')
avoir;tâche	unseen	('VERB=avoir', 'NOUN=tâche')
avoir;œuvre	unseen	('VERB=avoir', 'NOUN=œuvre')
acte;avoir	unseen	('VERB=avoir', 'NOUN=acte')
avoir;démarche	unseen	('VERB=avoir', 'NOUN=démarche')
avoir;pas	unseen	('VERB=avoir', 'NOUN=pas')
avoir;mandat	unseen	('VERB=avoir', 'NOUN=mandat')
icp;prodiguer	unseen	('NOUN=icp', 'VERB=prodiguer')
bénéficier_de;intervention	unseen	('NOUN=intervention', 'VERB=bénéficier_de')
recevoir;étude	unseen	('VERB=recevoir', 'NOUN=étude')
débarquement;recevoir	unseen	('VERB=recevoir', 'NOUN=débarquement')
recevoir;tournée	unseen	('VERB=recevoir', 'NOUN=tournée')
recevoir;ronde	unseen	('VERB=recevoir', 'NOUN=ronde')
analyse;recevoir	unseen	('VERB=recevoir', 'NOUN=analyse')
recevoir;utilisation	unseen	('VERB=recevoir', 'NOUN=utilisation')
construction;recevoir	unseen	('VERB=recevoir', 'NOUN=construction')
recevoir;saisie	unseen	('VERB=recevoir', 'NOUN=saisie')
recevoir;stage	unseen	('VERB=recevoir', 'NOUN=stage')
recevoir;rénovation	unseen	('VERB=recevoir', 'NOUN=rénovation')
acte;recevoir	unseen	('VERB=recevoir', 'NOUN=acte')
recevoir;vol	unseen	('VERB=recevoir', 'NOUN=vol')
recevoir;travail	unseen	('VERB=recevoir', 'NOUN=travail')
recevoir;vérification	unseen	('VERB=recevoir', 'NOUN=vérification')
déclaration;recevoir	unseen	('VERB=recevoir', 'NOUN=déclaration')
recevoir;suivi	unseen	('VERB=recevoir', 'NOUN=suivi')
opération;recevoir	unseen	('VERB=recevoir', 'NOUN=opération')
recevoir;sortie	unseen	('VERB=recevoir', 'NOUN=sortie')
datation;recevoir	unseen	('VERB=recevoir', 'NOUN=datation')
recevoir;voyage	unseen	('VERB=recevoir', 'NOUN=voyage')
recevoir;saison	unseen	('VERB=recevoir', 'NOUN=saison')
recevoir;traversée	unseen	('VERB=recevoir', 'NOUN=traversée')
recevoir;vote	unseen	('VERB=recevoir', 'NOUN=vote')
recevoir;transfert	unseen	('VERB=recevoir', 'NOUN=transfert')
passage;recevoir	unseen	('VERB=recevoir', 'NOUN=passage')
modification;recevoir	unseen	('VERB=recevoir', 'NOUN=modification')
recevoir;test	unseen	('VERB=recevoir', 'NOUN=test')
recevoir;restauration	unseen	('VERB=recevoir', 'NOUN=restauration')
recevoir;séjour	unseen	('VERB=recevoir', 'NOUN=séjour')
fouille;recevoir	unseen	('VERB=recevoir', 'NOUN=fouille')
procédure;recevoir	unseen	('VERB=recevoir', 'NOUN=procédure')
recevoir;sélection	unseen	('VERB=recevoir', 'NOUN=sélection')
recevoir;trajet	unseen	('VERB=recevoir', 'NOUN=trajet')
changement;recevoir	unseen	('VERB=recevoir', 'NOUN=changement')
action;recevoir	unseen	('VERB=recevoir', 'NOUN=action')
radiothérapie;recevoir	unseen	('VERB=recevoir', 'NOUN=radiothérapie')
recevoir;recherche	unseen	('VERB=recevoir', 'NOUN=recherche')
expertise;recevoir	unseen	('VERB=recevoir', 'NOUN=expertise')
mesure;recevoir	unseen	('VERB=recevoir', 'NOUN=mesure')
demande;recevoir	unseen	('VERB=recevoir', 'NOUN=demande')
biopsie;recevoir	unseen	('VERB=recevoir', 'NOUN=biopsie')
recevoir;évaluation	unseen	('VERB=recevoir', 'NOUN=évaluation')
mandat;recevoir	unseen	('VERB=recevoir', 'NOUN=mandat')
mise;recevoir	unseen	('VERB=recevoir', 'NOUN=mise')
effectuer;œuvre	unseen	('NOUN=œuvre', 'VERB=effectuer')
présenter;résultat	unseen	('VERB=présenter', 'NOUN=résultat')
disposer_de;pouvoir	unseen	('NOUN=pouvoir', 'VERB=disposer_de')
disposer_de;droit	unseen	('NOUN=droit', 'VERB=disposer_de')
hausse;réaliser	unseen	('VERB=réaliser', 'NOUN=hausse')
problème;réaliser	unseen	('VERB=réaliser', 'NOUN=problème')
désillusion;réaliser	unseen	('VERB=réaliser', 'NOUN=désillusion')
réaliser;sélection	unseen	('VERB=réaliser', 'NOUN=sélection')
réaliser;succès	unseen	('VERB=réaliser', 'NOUN=succès')
difficulté;réaliser	unseen	('VERB=réaliser', 'NOUN=difficulté')
réaliser;édition	unseen	('VERB=réaliser', 'NOUN=édition')
réaliser;souci	unseen	('VERB=réaliser', 'NOUN=souci')
rebondissement;réaliser	unseen	('VERB=réaliser', 'NOUN=rebondissement')
baisse;réaliser	unseen	('VERB=réaliser', 'NOUN=baisse')
développement;réaliser	unseen	('VERB=réaliser', 'NOUN=développement')
contrat;donner	unseen	('VERB=donner', 'NOUN=contrat')
donner;vacance	unseen	('VERB=donner', 'NOUN=vacance')
audition;donner	unseen	('VERB=donner', 'NOUN=audition')
assurer;difficulté	unseen	('VERB=assurer', 'NOUN=difficulté')
difficulté;faire	unseen	('VERB=faire', 'NOUN=difficulté')
accomplir;indélicatesse	unseen	('VERB=accomplir', 'NOUN=indélicatesse')
accomplir;grossièreté	unseen	('VERB=accomplir', 'NOUN=grossièreté')
accomplir;crime	unseen	('VERB=accomplir', 'NOUN=crime')
accomplir;faute	unseen	('VERB=accomplir', 'NOUN=faute')
accomplir;pillage	unseen	('VERB=accomplir', 'NOUN=pillage')
accomplir;arrestation	unseen	('VERB=accomplir', 'NOUN=arrestation')
accomplir;déportation	unseen	('VERB=accomplir', 'NOUN=déportation')
criminalité;procéder_à	unseen	('NOUN=criminalité', 'VERB=procéder_à')
pouvoir;procéder_à	unseen	('NOUN=pouvoir', 'VERB=procéder_à')
domination;procéder_à	unseen	('NOUN=domination', 'VERB=procéder_à')
compétence;procéder_à	unseen	('NOUN=compétence', 'VERB=procéder_à')
influence;procéder_à	unseen	('NOUN=influence', 'VERB=procéder_à')
activité;procéder_à	unseen	('NOUN=activité', 'VERB=procéder_à')
procéder_à;violation	unseen	('NOUN=violation', 'VERB=procéder_à')
assurer;édition	unseen	('VERB=assurer', 'NOUN=édition')
faire;édition	unseen	('VERB=faire', 'NOUN=édition')
conduire;vacance	unseen	('VERB=conduire', 'NOUN=vacance')
avoir;cursus	unseen	('VERB=avoir', 'NOUN=cursus')
signer;union	unseen	('NOUN=union', 'VERB=signer')
mariage;signer	unseen	('NOUN=mariage', 'VERB=signer')
paix;signer	unseen	('NOUN=paix', 'VERB=signer')
avoir;thérapie	unseen	('VERB=avoir', 'NOUN=thérapie')
conclure;contrat	unseen	('NOUN=contrat', 'VERB=conclure')
conclure;vacance	unseen	('NOUN=vacance', 'VERB=conclure')
audition;conclure	unseen	('NOUN=audition', 'VERB=conclure')
démarche;effectuer	unseen	('VERB=effectuer', 'NOUN=démarche')
effectuer;pas	unseen	('VERB=effectuer', 'NOUN=pas')
hausse;rencontrer	unseen	('VERB=rencontrer', 'NOUN=hausse')
problème;rencontrer	unseen	('VERB=rencontrer', 'NOUN=problème')
désillusion;rencontrer	unseen	('VERB=rencontrer', 'NOUN=désillusion')
rencontrer;sélection	unseen	('VERB=rencontrer', 'NOUN=sélection')
rencontrer;édition	unseen	('VERB=rencontrer', 'NOUN=édition')
rencontrer;souci	unseen	('VERB=rencontrer', 'NOUN=souci')
rebondissement;rencontrer	unseen	('VERB=rencontrer', 'NOUN=rebondissement')
augmentation;rencontrer	unseen	('VERB=rencontrer', 'NOUN=augmentation')
baisse;rencontrer	unseen	('VERB=rencontrer', 'NOUN=baisse')
développement;rencontrer	unseen	('VERB=rencontrer', 'NOUN=développement')
donner;pouvoir	unseen	('VERB=donner', 'NOUN=pouvoir')
connaître;suivi	unseen	('VERB=connaître', 'NOUN=suivi')
assurer;étude	unseen	('VERB=assurer', 'NOUN=étude')
assurer;débarquement	unseen	('VERB=assurer', 'NOUN=débarquement')
assurer;tournée	unseen	('VERB=assurer', 'NOUN=tournée')
assurer;ronde	unseen	('VERB=assurer', 'NOUN=ronde')
analyse;assurer	unseen	('VERB=assurer', 'NOUN=analyse')
assurer;utilisation	unseen	('VERB=assurer', 'NOUN=utilisation')
assurer;construction	unseen	('VERB=assurer', 'NOUN=construction')
assurer;saisie	unseen	('VERB=assurer', 'NOUN=saisie')
assurer;stage	unseen	('VERB=assurer', 'NOUN=stage')
assurer;rénovation	unseen	('VERB=assurer', 'NOUN=rénovation')
acte;assurer	unseen	('VERB=assurer', 'NOUN=acte')
assurer;vol	unseen	('VERB=assurer', 'NOUN=vol')
assurer;don	unseen	('VERB=assurer', 'NOUN=don')
assurer;travail	unseen	('VERB=assurer', 'NOUN=travail')
assurer;vérification	unseen	('VERB=assurer', 'NOUN=vérification')
assurer;déclaration	unseen	('VERB=assurer', 'NOUN=déclaration')
assurer;paiement	unseen	('VERB=assurer', 'NOUN=paiement')
assurer;visite	unseen	('VERB=assurer', 'NOUN=visite')
assurer;opération	unseen	('VERB=assurer', 'NOUN=opération')
assurer;sortie	unseen	('VERB=assurer', 'NOUN=sortie')
assurer;datation	unseen	('VERB=assurer', 'NOUN=datation')
assurer;mission	unseen	('VERB=assurer', 'NOUN=mission')
assurer;voyage	unseen	('VERB=assurer', 'NOUN=voyage')
assurer;saison	unseen	('VERB=assurer', 'NOUN=saison')
assurer;traversée	unseen	('VERB=assurer', 'NOUN=traversée')
assurer;vote	unseen	('VERB=assurer', 'NOUN=vote')
assurer;transfert	unseen	('VERB=assurer', 'NOUN=transfert')
assurer;passage	unseen	('VERB=assurer', 'NOUN=passage')
assurer;modification	unseen	('VERB=assurer', 'NOUN=modification')
assurer;test	unseen	('VERB=assurer', 'NOUN=test')
assurer;restauration	unseen	('VERB=assurer', 'NOUN=restauration')
assurer;séjour	unseen	('VERB=assurer', 'NOUN=séjour')
assurer;fouille	unseen	('VERB=assurer', 'NOUN=fouille')
assurer;procédure	unseen	('VERB=assurer', 'NOUN=procédure')
assurer;trajet	unseen	('VERB=assurer', 'NOUN=trajet')
assurer;changement	unseen	('VERB=assurer', 'NOUN=changement')
action;assurer	unseen	('VERB=assurer', 'NOUN=action')
assurer;radiothérapie	unseen	('VERB=assurer', 'NOUN=radiothérapie')
assurer;recherche	unseen	('VERB=assurer', 'NOUN=recherche')
assurer;expertise	unseen	('VERB=assurer', 'NOUN=expertise')
assurer;mesure	unseen	('VERB=assurer', 'NOUN=mesure')
assurer;demande	unseen	('VERB=assurer', 'NOUN=demande')
assurer;biopsie	unseen	('VERB=assurer', 'NOUN=biopsie')
assurer;évaluation	unseen	('VERB=assurer', 'NOUN=évaluation')
assurer;mandat	unseen	('VERB=assurer', 'NOUN=mandat')
assurer;mise	unseen	('VERB=assurer', 'NOUN=mise')
poser;risque	unseen	('VERB=poser', 'NOUN=risque')
donner;victoire	unseen	('NOUN=victoire', 'VERB=donner')
débarquement;mener	unseen	('VERB=mener', 'NOUN=débarquement')
mener;tournée	unseen	('VERB=mener', 'NOUN=tournée')
mener;ronde	unseen	('VERB=mener', 'NOUN=ronde')
analyse;mener	unseen	('VERB=mener', 'NOUN=analyse')
mener;utilisation	unseen	('VERB=mener', 'NOUN=utilisation')
construction;mener	unseen	('VERB=mener', 'NOUN=construction')
mener;saisie	unseen	('VERB=mener', 'NOUN=saisie')
mener;stage	unseen	('VERB=mener', 'NOUN=stage')
mener;rénovation	unseen	('VERB=mener', 'NOUN=rénovation')
acte;mener	unseen	('VERB=mener', 'NOUN=acte')
don;mener	unseen	('VERB=mener', 'NOUN=don')
mener;vérification	unseen	('VERB=mener', 'NOUN=vérification')
déclaration;mener	unseen	('VERB=mener', 'NOUN=déclaration')
mener;paiement	unseen	('VERB=mener', 'NOUN=paiement')
mener;visite	unseen	('VERB=mener', 'NOUN=visite')
mener;suivi	unseen	('VERB=mener', 'NOUN=suivi')
mener;sortie	unseen	('VERB=mener', 'NOUN=sortie')
datation;mener	unseen	('VERB=mener', 'NOUN=datation')
mener;mission	unseen	('VERB=mener', 'NOUN=mission')
mener;voyage	unseen	('VERB=mener', 'NOUN=voyage')
mener;saison	unseen	('VERB=mener', 'NOUN=saison')
mener;vote	unseen	('VERB=mener', 'NOUN=vote')
mener;transfert	unseen	('VERB=mener', 'NOUN=transfert')
mener;passage	unseen	('VERB=mener', 'NOUN=passage')
mener;modification	unseen	('VERB=mener', 'NOUN=modification')
mener;test	unseen	('VERB=mener', 'NOUN=test')
mener;restauration	unseen	('VERB=mener', 'NOUN=restauration')
mener;séjour	unseen	('VERB=mener', 'NOUN=séjour')
fouille;mener	unseen	('VERB=mener', 'NOUN=fouille')
mener;procédure	unseen	('VERB=mener', 'NOUN=procédure')
mener;sélection	unseen	('VERB=mener', 'NOUN=sélection')
mener;trajet	unseen	('VERB=mener', 'NOUN=trajet')
changement;mener	unseen	('VERB=mener', 'NOUN=changement')
mener;radiothérapie	unseen	('VERB=mener', 'NOUN=radiothérapie')
expertise;mener	unseen	('VERB=mener', 'NOUN=expertise')
mener;mesure	unseen	('VERB=mener', 'NOUN=mesure')
demande;mener	unseen	('VERB=mener', 'NOUN=demande')
biopsie;mener	unseen	('VERB=mener', 'NOUN=biopsie')
mandat;mener	unseen	('VERB=mener', 'NOUN=mandat')
mener;mise	unseen	('VERB=mener', 'NOUN=mise')
mener;éloge	unseen	('VERB=mener', 'NOUN=éloge')
commentaire;mener	unseen	('VERB=mener', 'NOUN=commentaire')
affaire;mener	unseen	('VERB=mener', 'NOUN=affaire')
mener;profit	unseen	('VERB=mener', 'NOUN=profit')
mener;sécession	unseen	('VERB=mener', 'NOUN=sécession')
distinction;mener	unseen	('VERB=mener', 'NOUN=distinction')
confiance;mener	unseen	('VERB=mener', 'NOUN=confiance')
appel;mener	unseen	('VERB=mener', 'NOUN=appel')
détour;mener	unseen	('VERB=mener', 'NOUN=détour')
acceptation;mener	unseen	('VERB=mener', 'NOUN=acceptation')
marche;mener	unseen	('VERB=mener', 'NOUN=marche')
défection;mener	unseen	('VERB=mener', 'NOUN=défection')
mener;référence	unseen	('VERB=mener', 'NOUN=référence')
guerre;mener	unseen	('VERB=mener', 'NOUN=guerre')
escale;mener	unseen	('VERB=mener', 'NOUN=escale')
fête;mener	unseen	('VERB=mener', 'NOUN=fête')
consultance;mener	unseen	('VERB=mener', 'NOUN=consultance')
mener;prise	unseen	('VERB=mener', 'NOUN=prise')
balade;mener	unseen	('VERB=mener', 'NOUN=balade')
mener;usage	unseen	('VERB=mener', 'NOUN=usage')
mener;serment	unseen	('VERB=mener', 'NOUN=serment')
mener;révélation	unseen	('VERB=mener', 'NOUN=révélation')
ablation;mener	unseen	('VERB=mener', 'NOUN=ablation')
exercice;mener	unseen	('VERB=mener', 'NOUN=exercice')
déplacement;mener	unseen	('VERB=mener', 'NOUN=déplacement')
mener;rotation	unseen	('VERB=mener', 'NOUN=rotation')
accueil;mener	unseen	('VERB=mener', 'NOUN=accueil')
déménagement;mener	unseen	('VERB=mener', 'NOUN=déménagement')
mener;progrès	unseen	('VERB=mener', 'NOUN=progrès')
découverte;mener	unseen	('VERB=mener', 'NOUN=découverte')
mener;question	unseen	('VERB=mener', 'NOUN=question')
descente;mener	unseen	('VERB=mener', 'NOUN=descente')
exaction;mener	unseen	('VERB=mener', 'NOUN=exaction')
arbitrage;mener	unseen	('VERB=mener', 'NOUN=arbitrage')
course;mener	unseen	('VERB=mener', 'NOUN=course')
causette;mener	unseen	('VERB=mener', 'NOUN=causette')
geste;mener	unseen	('VERB=mener', 'NOUN=geste')
entrée;mener	unseen	('VERB=mener', 'NOUN=entrée')
mener;reconnaissance	unseen	('VERB=mener', 'NOUN=reconnaissance')
mener;service	unseen	('VERB=mener', 'NOUN=service')
mener;offre	unseen	('VERB=mener', 'NOUN=offre')
allusion;mener	unseen	('VERB=mener', 'NOUN=allusion')
effort;mener	unseen	('VERB=mener', 'NOUN=effort')
mener;remarque	unseen	('VERB=mener', 'NOUN=remarque')
classe;mener	unseen	('VERB=mener', 'NOUN=classe')
lien;mener	unseen	('VERB=mener', 'NOUN=lien')
mener;ménage	unseen	('VERB=mener', 'NOUN=ménage')
fortune;mener	unseen	('VERB=mener', 'NOUN=fortune')
attention;mener	unseen	('VERB=mener', 'NOUN=attention')
mener;pression	unseen	('VERB=mener', 'NOUN=pression')
culture;mener	unseen	('VERB=mener', 'NOUN=culture')
mener;virée	unseen	('VERB=mener', 'NOUN=virée')
mener;révolution	unseen	('VERB=mener', 'NOUN=révolution')
investissement;mener	unseen	('VERB=mener', 'NOUN=investissement')
description;mener	unseen	('VERB=mener', 'NOUN=description')
mener;passe	unseen	('VERB=mener', 'NOUN=passe')
foulage;mener	unseen	('VERB=mener', 'NOUN=foulage')
mener;sondage	unseen	('VERB=mener', 'NOUN=sondage')
mener;troc	unseen	('VERB=mener', 'NOUN=troc')
mener;récupération	unseen	('VERB=mener', 'NOUN=récupération')
mendicité;mener	unseen	('VERB=mener', 'NOUN=mendicité')
mener;transition	unseen	('VERB=mener', 'NOUN=transition')
mener;réapparition	unseen	('VERB=mener', 'NOUN=réapparition')
essai;mener	unseen	('VERB=mener', 'NOUN=essai')
interview;mener	unseen	('VERB=mener', 'NOUN=interview')
acquisition;mener	unseen	('VERB=mener', 'NOUN=acquisition')
bloc;mener	unseen	('VERB=mener', 'NOUN=bloc')
mener;promotion	unseen	('VERB=mener', 'NOUN=promotion')
mener;proposition	unseen	('VERB=mener', 'NOUN=proposition')
mener;prière	unseen	('VERB=mener', 'NOUN=prière')
mener;nuit	unseen	('VERB=mener', 'NOUN=nuit')
mener;économie	unseen	('VERB=mener', 'NOUN=économie')
grève;mener	unseen	('VERB=mener', 'NOUN=grève')
mener;rentrée	unseen	('VERB=mener', 'NOUN=rentrée')
mener;vœu	unseen	('VERB=mener', 'NOUN=vœu')
développement;mener	unseen	('VERB=mener', 'NOUN=développement')
aide;recevoir	unseen	('VERB=recevoir', 'NOUN=aide')
contribution;recevoir	unseen	('VERB=recevoir', 'NOUN=contribution')
recevoir;solution	unseen	('VERB=recevoir', 'NOUN=solution')
joie;recevoir	unseen	('VERB=recevoir', 'NOUN=joie')
divertissement;recevoir	unseen	('VERB=recevoir', 'NOUN=divertissement')
humeur;recevoir	unseen	('VERB=recevoir', 'NOUN=humeur')
prospérité;recevoir	unseen	('VERB=recevoir', 'NOUN=prospérité')
appui;recevoir	unseen	('VERB=recevoir', 'NOUN=appui')
recevoir;écoute	unseen	('VERB=recevoir', 'NOUN=écoute')
recevoir;réjouissance	unseen	('VERB=recevoir', 'NOUN=réjouissance')
dépaysement;recevoir	unseen	('VERB=recevoir', 'NOUN=dépaysement')
amélioration;recevoir	unseen	('VERB=recevoir', 'NOUN=amélioration')
commentaire;recevoir	unseen	('VERB=recevoir', 'NOUN=commentaire')
cohérence;recevoir	unseen	('VERB=recevoir', 'NOUN=cohérence')
recevoir;transparence	unseen	('VERB=recevoir', 'NOUN=transparence')
concours;recevoir	unseen	('VERB=recevoir', 'NOUN=concours')
recevoir;utilité	unseen	('VERB=recevoir', 'NOUN=utilité')
coup;faire	unseen	('VERB=faire', 'NOUN=coup')
choix;faire	unseen	('VERB=faire', 'NOUN=choix')
faire;plainte	unseen	('VERB=faire', 'NOUN=plainte')
faire;intérêt	unseen	('VERB=faire', 'NOUN=intérêt')
faire;secours	unseen	('VERB=faire', 'NOUN=secours')
faire;jugement	unseen	('VERB=faire', 'NOUN=jugement')
présenter;surprise	unseen	('VERB=présenter', 'NOUN=surprise')
conflit;présenter	unseen	('VERB=présenter', 'NOUN=conflit')
défense;faire	unseen	('VERB=faire', 'NOUN=défense')
connaître;défense	unseen	('VERB=connaître', 'NOUN=défense')
incantation;tenir	unseen	('VERB=tenir', 'NOUN=incantation')
attention;donner	unseen	('PROPN=attention', 'VERB=donner')
donner;entretien	unseen	('PROPN=entretien', 'VERB=donner')
acceptant;donner	unseen	('PROPN=acceptant', 'VERB=donner')
entretien;faire	unseen	('VERB=faire', 'NOUN=entretien')
connaître;entretien	unseen	('VERB=connaître', 'NOUN=entretien')
accueil;donner	unseen	('VERB=donner', 'NOUN=accueil')
enquête;tenir	unseen	('NOUN=enquête', 'VERB=tenir')
campagne;tenir	unseen	('NOUN=campagne', 'VERB=tenir')
existence;tenir	unseen	('NOUN=existence', 'VERB=tenir')
tenir;étude	unseen	('NOUN=étude', 'VERB=tenir')
investigation;tenir	unseen	('NOUN=investigation', 'VERB=tenir')
combat;tenir	unseen	('NOUN=combat', 'VERB=tenir')
action;tenir	unseen	('NOUN=action', 'VERB=tenir')
lutte;tenir	unseen	('NOUN=lutte', 'VERB=tenir')
expérience;tenir	unseen	('NOUN=expérience', 'VERB=tenir')
négociation;tenir	unseen	('NOUN=négociation', 'VERB=tenir')
manoeuvre;tenir	unseen	('NOUN=manoeuvre', 'VERB=tenir')
tenir;vie	unseen	('NOUN=vie', 'VERB=tenir')
interrogatoire;tenir	unseen	('NOUN=interrogatoire', 'VERB=tenir')
opération;tenir	unseen	('NOUN=opération', 'VERB=tenir')
apparition;tenir	unseen	('NOUN=apparition', 'VERB=tenir')
politique;tenir	unseen	('NOUN=politique', 'VERB=tenir')
programme;tenir	unseen	('NOUN=programme', 'VERB=tenir')
opérations;tenir	unseen	('NOUN=opérations', 'VERB=tenir')
ségrégation;tenir	unseen	('NOUN=ségrégation', 'VERB=tenir')
attaque;tenir	unseen	('NOUN=attaque', 'VERB=tenir')
recherche;tenir	unseen	('NOUN=recherche', 'VERB=tenir')
réflexion;tenir	unseen	('NOUN=réflexion', 'VERB=tenir')
entraîner;résultat	unseen	('VERB=entraîner', 'NOUN=résultat')
donner;éloge	unseen	('NOUN=éloge', 'VERB=donner')
donner;passage	unseen	('NOUN=passage', 'VERB=donner')
affaire;donner	unseen	('NOUN=affaire', 'VERB=donner')
donner;profit	unseen	('NOUN=profit', 'VERB=donner')
donner;sécession	unseen	('NOUN=sécession', 'VERB=donner')
distinction;donner	unseen	('NOUN=distinction', 'VERB=donner')
donner;étude	unseen	('NOUN=étude', 'VERB=donner')
confiance;donner	unseen	('NOUN=confiance', 'VERB=donner')
appel;donner	unseen	('NOUN=appel', 'VERB=donner')
donner;détour	unseen	('NOUN=détour', 'VERB=donner')
acceptation;donner	unseen	('NOUN=acceptation', 'VERB=donner')
donner;marche	unseen	('NOUN=marche', 'VERB=donner')
donner;défection	unseen	('NOUN=défection', 'VERB=donner')
donner;référence	unseen	('NOUN=référence', 'VERB=donner')
donner;guerre	unseen	('NOUN=guerre', 'VERB=donner')
apparition;donner	unseen	('NOUN=apparition', 'VERB=donner')
donner;escale	unseen	('NOUN=escale', 'VERB=donner')
donner;fête	unseen	('NOUN=fête', 'VERB=donner')
consultance;donner	unseen	('NOUN=consultance', 'VERB=donner')
donner;prise	unseen	('NOUN=prise', 'VERB=donner')
balade;donner	unseen	('NOUN=balade', 'VERB=donner')
donner;usage	unseen	('NOUN=usage', 'VERB=donner')
donner;serment	unseen	('NOUN=serment', 'VERB=donner')
donner;révélation	unseen	('NOUN=révélation', 'VERB=donner')
ablation;donner	unseen	('NOUN=ablation', 'VERB=donner')
donner;exercice	unseen	('NOUN=exercice', 'VERB=donner')
donner;déplacement	unseen	('NOUN=déplacement', 'VERB=donner')
donner;rotation	unseen	('NOUN=rotation', 'VERB=donner')
donner;déménagement	unseen	('NOUN=déménagement', 'VERB=donner')
donner;progrès	unseen	('NOUN=progrès', 'VERB=donner')
donner;tournée	unseen	('NOUN=tournée', 'VERB=donner')
donner;découverte	unseen	('NOUN=découverte', 'VERB=donner')
donner;question	unseen	('NOUN=question', 'VERB=donner')
descente;donner	unseen	('NOUN=descente', 'VERB=donner')
donner;exaction	unseen	('NOUN=exaction', 'VERB=donner')
arbitrage;donner	unseen	('NOUN=arbitrage', 'VERB=donner')
course;donner	unseen	('NOUN=course', 'VERB=donner')
causette;donner	unseen	('NOUN=causette', 'VERB=donner')
donner;geste	unseen	('NOUN=geste', 'VERB=donner')
donner;entrée	unseen	('NOUN=entrée', 'VERB=donner')
donner;reconnaissance	unseen	('NOUN=reconnaissance', 'VERB=donner')
donner;service	unseen	('NOUN=service', 'VERB=donner')
donner;recherche	unseen	('NOUN=recherche', 'VERB=donner')
donner;offre	unseen	('NOUN=offre', 'VERB=donner')
allusion;donner	unseen	('NOUN=allusion', 'VERB=donner')
donner;effort	unseen	('NOUN=effort', 'VERB=donner')
donner;remarque	unseen	('NOUN=remarque', 'VERB=donner')
classe;donner	unseen	('NOUN=classe', 'VERB=donner')
donner;lien	unseen	('NOUN=lien', 'VERB=donner')
donner;ménage	unseen	('NOUN=ménage', 'VERB=donner')
donner;fortune	unseen	('NOUN=fortune', 'VERB=donner')
donner;pression	unseen	('NOUN=pression', 'VERB=donner')
culture;donner	unseen	('NOUN=culture', 'VERB=donner')
donner;virée	unseen	('NOUN=virée', 'VERB=donner')
donner;révolution	unseen	('NOUN=révolution', 'VERB=donner')
donner;investissement	unseen	('NOUN=investissement', 'VERB=donner')
description;donner	unseen	('NOUN=description', 'VERB=donner')
donner;passe	unseen	('NOUN=passe', 'VERB=donner')
donner;foulage	unseen	('NOUN=foulage', 'VERB=donner')
donner;sondage	unseen	('NOUN=sondage', 'VERB=donner')
donner;troc	unseen	('NOUN=troc', 'VERB=donner')
donner;récupération	unseen	('NOUN=récupération', 'VERB=donner')
donner;mendicité	unseen	('NOUN=mendicité', 'VERB=donner')
donner;transition	unseen	('NOUN=transition', 'VERB=donner')
donner;réapparition	unseen	('NOUN=réapparition', 'VERB=donner')
demande;donner	unseen	('NOUN=demande', 'VERB=donner')
donner;essai	unseen	('NOUN=essai', 'VERB=donner')
donner;fouille	unseen	('NOUN=fouille', 'VERB=donner')
don;donner	unseen	('NOUN=don', 'VERB=donner')
acquisition;donner	unseen	('NOUN=acquisition', 'VERB=donner')
bloc;donner	unseen	('NOUN=bloc', 'VERB=donner')
donner;proposition	unseen	('NOUN=proposition', 'VERB=donner')
donner;travail	unseen	('NOUN=travail', 'VERB=donner')
donner;prière	unseen	('NOUN=prière', 'VERB=donner')
donner;nuit	unseen	('NOUN=nuit', 'VERB=donner')
donner;économie	unseen	('NOUN=économie', 'VERB=donner')
donner;grève	unseen	('NOUN=grève', 'VERB=donner')
donner;rentrée	unseen	('NOUN=rentrée', 'VERB=donner')
donner;vœu	unseen	('NOUN=vœu', 'VERB=donner')
donner;développement	unseen	('NOUN=développement', 'VERB=donner')
avoir;conflit	unseen	('VERB=avoir', 'NOUN=conflit')
prodiguer;surclassement	unseen	('NOUN=surclassement', 'VERB=prodiguer')
bénéficier_de;largesse	unseen	('NOUN=largesse', 'VERB=bénéficier_de')
attention;bénéficier_de	unseen	('NOUN=attention', 'VERB=bénéficier_de')
accusation;recevoir	unseen	('NOUN=accusation', 'VERB=recevoir')
coup;effectuer	unseen	('VERB=effectuer', 'NOUN=coup')
accorder;pouvoir	unseen	('NOUN=pouvoir', 'VERB=accorder')
criminalité;subir	unseen	('VERB=subir', 'NOUN=criminalité')
pouvoir;subir	unseen	('VERB=subir', 'NOUN=pouvoir')
domination;subir	unseen	('VERB=subir', 'NOUN=domination')
compétence;subir	unseen	('VERB=subir', 'NOUN=compétence')
activité;subir	unseen	('VERB=subir', 'NOUN=activité')
subir;violation	unseen	('VERB=subir', 'NOUN=violation')
contrôle;subir	unseen	('VERB=subir', 'NOUN=contrôle')
entraîner;hausse	unseen	('VERB=entraîner', 'NOUN=hausse')
désillusion;entraîner	unseen	('VERB=entraîner', 'NOUN=désillusion')
entraîner;succès	unseen	('VERB=entraîner', 'NOUN=succès')
difficulté;entraîner	unseen	('VERB=entraîner', 'NOUN=difficulté')
entraîner;édition	unseen	('VERB=entraîner', 'NOUN=édition')
entraîner;souci	unseen	('VERB=entraîner', 'NOUN=souci')
entraîner;rebondissement	unseen	('VERB=entraîner', 'NOUN=rebondissement')
augmentation;entraîner	unseen	('VERB=entraîner', 'NOUN=augmentation')
développement;entraîner	unseen	('VERB=entraîner', 'NOUN=développement')
considération;prendre_en	unseen	('NOUN=considération', 'VERB=prendre_en')
massacre;prendre	unseen	('NOUN=massacre', 'VERB=prendre')
coordination;prendre	unseen	('NOUN=coordination', 'VERB=prendre')
augmentation;prendre	unseen	('NOUN=augmentation', 'VERB=prendre')
enquête;prendre	unseen	('NOUN=enquête', 'VERB=prendre')
bilan;prendre	unseen	('NOUN=bilan', 'VERB=prendre')
dessin;prendre	unseen	('NOUN=dessin', 'VERB=prendre')
habillage;prendre	unseen	('NOUN=habillage', 'VERB=prendre')
prendre;triplé	unseen	('NOUN=triplé', 'VERB=prendre')
assurer;souci	unseen	('VERB=assurer', 'NOUN=souci')
faire;souci	unseen	('VERB=faire', 'NOUN=souci')
effectuer;hausse	unseen	('VERB=effectuer', 'NOUN=hausse')
effectuer;problème	unseen	('VERB=effectuer', 'NOUN=problème')
désillusion;effectuer	unseen	('VERB=effectuer', 'NOUN=désillusion')
effectuer;succès	unseen	('VERB=effectuer', 'NOUN=succès')
difficulté;effectuer	unseen	('VERB=effectuer', 'NOUN=difficulté')
effectuer;édition	unseen	('VERB=effectuer', 'NOUN=édition')
effectuer;souci	unseen	('VERB=effectuer', 'NOUN=souci')
effectuer;rebondissement	unseen	('VERB=effectuer', 'NOUN=rebondissement')
baisse;effectuer	unseen	('VERB=effectuer', 'NOUN=baisse')
développement;effectuer	unseen	('VERB=effectuer', 'NOUN=développement')
assurer;rebondissement	unseen	('VERB=assurer', 'NOUN=rebondissement')
faire;rebondissement	unseen	('VERB=faire', 'NOUN=rebondissement')
entraîner;échange	unseen	('VERB=entraîner', 'NOUN=échange')
entraîner;identification	unseen	('VERB=entraîner', 'NOUN=identification')
contrôle;entraîner	unseen	('VERB=entraîner', 'NOUN=contrôle')
entraîner;lecture	unseen	('VERB=entraîner', 'NOUN=lecture')
entraîner;ouverture	unseen	('VERB=entraîner', 'NOUN=ouverture')
entraîner;inhumation	unseen	('VERB=entraîner', 'NOUN=inhumation')
entraîner;pression	unseen	('VERB=entraîner', 'NOUN=pression')
entraîner;retouche	unseen	('VERB=entraîner', 'NOUN=retouche')
entraîner;intervention	unseen	('VERB=entraîner', 'NOUN=intervention')
entraîner;icp	unseen	('VERB=entraîner', 'NOUN=icp')
entraîner;transplantation	unseen	('VERB=entraîner', 'NOUN=transplantation')
entraîner;traitement	unseen	('VERB=entraîner', 'NOUN=traitement')
angioplastie;entraîner	unseen	('VERB=entraîner', 'NOUN=angioplastie')
entraîner;pontage	unseen	('VERB=entraîner', 'NOUN=pontage')
entraîner;violence	unseen	('VERB=entraîner', 'NOUN=violence')
entraîner;souffrance	unseen	('VERB=entraîner', 'NOUN=souffrance')
entraîner;trachéotomie	unseen	('VERB=entraîner', 'NOUN=trachéotomie')
entraîner;fermentation	unseen	('VERB=entraîner', 'NOUN=fermentation')
entraîner;vexation	unseen	('VERB=entraîner', 'NOUN=vexation')
entraîner;transformation	unseen	('VERB=entraîner', 'NOUN=transformation')
entraîner;siège	unseen	('VERB=entraîner', 'NOUN=siège')
entraîner;influence	unseen	('VERB=entraîner', 'NOUN=influence')
défaite;entraîner	unseen	('VERB=entraîner', 'NOUN=défaite')
entraîner;fracture	unseen	('VERB=entraîner', 'NOUN=fracture')
déclin;entraîner	unseen	('VERB=entraîner', 'NOUN=déclin')
faire;refus	unseen	('NOUN=refus', 'VERB=faire')
faire;reproche	unseen	('NOUN=reproche', 'VERB=faire')
pontage;prodiguer	unseen	('NOUN=pontage', 'VERB=prodiguer')
aide;venir_en	unseen	('VERB=venir_en', 'NOUN=aide')
entraîner;réponse	unseen	('VERB=entraîner', 'NOUN=réponse')
aide;entraîner	unseen	('VERB=entraîner', 'NOUN=aide')
contribution;entraîner	unseen	('VERB=entraîner', 'NOUN=contribution')
assistance;entraîner	unseen	('VERB=entraîner', 'NOUN=assistance')
entraîner;solution	unseen	('VERB=entraîner', 'NOUN=solution')
entraîner;soutien	unseen	('VERB=entraîner', 'NOUN=soutien')
entraîner;joie	unseen	('VERB=entraîner', 'NOUN=joie')
divertissement;entraîner	unseen	('VERB=entraîner', 'NOUN=divertissement')
entraîner;humeur	unseen	('VERB=entraîner', 'NOUN=humeur')
entraîner;prospérité	unseen	('VERB=entraîner', 'NOUN=prospérité')
appui;entraîner	unseen	('VERB=entraîner', 'NOUN=appui')
entraîner;écoute	unseen	('VERB=entraîner', 'NOUN=écoute')
entraîner;réjouissance	unseen	('VERB=entraîner', 'NOUN=réjouissance')
dépaysement;entraîner	unseen	('VERB=entraîner', 'NOUN=dépaysement')
commentaire;entraîner	unseen	('VERB=entraîner', 'NOUN=commentaire')
cohérence;entraîner	unseen	('VERB=entraîner', 'NOUN=cohérence')
entraîner;transparence	unseen	('VERB=entraîner', 'NOUN=transparence')
concours;entraîner	unseen	('VERB=entraîner', 'NOUN=concours')
entraîner;utilité	unseen	('VERB=entraîner', 'NOUN=utilité')
assurer;augmentation	unseen	('VERB=assurer', 'NOUN=augmentation')
effectuer;refus	unseen	('VERB=effectuer', 'NOUN=refus')
effectuer;reproche	unseen	('VERB=effectuer', 'NOUN=reproche')
assurer;baisse	unseen	('VERB=assurer', 'NOUN=baisse')
baisse;faire	unseen	('VERB=faire', 'NOUN=baisse')
avoir;hausse	unseen	('NOUN=hausse', 'VERB=avoir')
avoir;désillusion	unseen	('NOUN=désillusion', 'VERB=avoir')
avoir;sélection	unseen	('NOUN=sélection', 'VERB=avoir')
avoir;édition	unseen	('NOUN=édition', 'VERB=avoir')
avoir;souci	unseen	('NOUN=souci', 'VERB=avoir')
avoir;rebondissement	unseen	('NOUN=rebondissement', 'VERB=avoir')
augmentation;avoir	unseen	('NOUN=augmentation', 'VERB=avoir')
accorder;présidence	unseen	('NOUN=présidence', 'VERB=accorder')
accorder;suivi	unseen	('NOUN=suivi', 'VERB=accorder')
accorder;défense	unseen	('NOUN=défense', 'VERB=accorder')
accord;conduire	unseen	('NOUN=accord', 'VERB=conduire')
aide;avoir	unseen	('VERB=avoir', 'NOUN=aide')
avoir;contribution	unseen	('VERB=avoir', 'NOUN=contribution')
assistance;avoir	unseen	('VERB=avoir', 'NOUN=assistance')
avoir;solution	unseen	('VERB=avoir', 'NOUN=solution')
avoir;soutien	unseen	('VERB=avoir', 'NOUN=soutien')
avoir;divertissement	unseen	('VERB=avoir', 'NOUN=divertissement')
avoir;humeur	unseen	('VERB=avoir', 'NOUN=humeur')
avoir;prospérité	unseen	('VERB=avoir', 'NOUN=prospérité')
avoir;écoute	unseen	('VERB=avoir', 'NOUN=écoute')
avoir;réjouissance	unseen	('VERB=avoir', 'NOUN=réjouissance')
avoir;dépaysement	unseen	('VERB=avoir', 'NOUN=dépaysement')
avoir;cohérence	unseen	('VERB=avoir', 'NOUN=cohérence')
avoir;transparence	unseen	('VERB=avoir', 'NOUN=transparence')
avoir;concours	unseen	('VERB=avoir', 'NOUN=concours')
avoir;utilité	unseen	('VERB=avoir', 'NOUN=utilité')
attention;prodiguer	unseen	('NOUN=attention', 'VERB=prodiguer')
bénéficier_de;coup	unseen	('NOUN=coup', 'VERB=bénéficier_de')
bénéficier_de;choix	unseen	('NOUN=choix', 'VERB=bénéficier_de')
bénéficier_de;plainte	unseen	('NOUN=plainte', 'VERB=bénéficier_de')
bénéficier_de;intérêt	unseen	('NOUN=intérêt', 'VERB=bénéficier_de')
bénéficier_de;secours	unseen	('NOUN=secours', 'VERB=bénéficier_de')
bénéficier_de;jugement	unseen	('NOUN=jugement', 'VERB=bénéficier_de')
