NF	statut	POS
pomysł;wpaść_na	unseen	('NOUN=pomysł', 'VERB=wpaść_na')
kontrola;trzymać	unseen	('ADJ=trzymać', 'NOUN=kontrola')
manewr;trzymać	unseen	('ADJ=trzymać', 'NOUN=manewr')
trzymać;wznoszenie	unseen	('ADJ=trzymać', 'NOUN=wznoszenie')
nurkowanie;trzymać	unseen	('ADJ=trzymać', 'NOUN=nurkowanie')
pętla;trzymać	unseen	('ADJ=trzymać', 'NOUN=pętla')
trzymać;zwrot	unseen	('ADJ=trzymać', 'NOUN=zwrot')
praca;trzymać	unseen	('ADJ=trzymać', 'NOUN=praca')
jedenastka;trzymać	unseen	('ADJ=trzymać', 'NOUN=jedenastka')
obowiązek;trzymać	unseen	('ADJ=trzymać', 'NOUN=obowiązek')
trzymać;zajęcie	unseen	('ADJ=trzymać', 'NOUN=zajęcie')
trzymać;zadanie	unseen	('ADJ=trzymać', 'NOUN=zadanie')
działalność;trzymać	unseen	('ADJ=trzymać', 'NOUN=działalność')
czynność;trzymać	unseen	('ADJ=trzymać', 'NOUN=czynność')
badanie;trzymać	unseen	('ADJ=trzymać', 'NOUN=badanie')
obserwacja;trzymać	unseen	('ADJ=trzymać', 'NOUN=obserwacja')
połączenie;trzymać	unseen	('ADJ=trzymać', 'NOUN=połączenie')
operacja;trzymać	unseen	('ADJ=trzymać', 'NOUN=operacja')
ruch;trzymać	unseen	('ADJ=trzymać', 'NOUN=ruch')
prowadzić;ryzyko	unseen	('NOUN=ryzyko', 'ADJ=prowadzić')
decyzja;prowadzić	unseen	('NOUN=decyzja', 'ADJ=prowadzić')
prowadzić;uchwała	unseen	('NOUN=uchwała', 'ADJ=prowadzić')
inicjatywa;prowadzić	unseen	('NOUN=inicjatywa', 'ADJ=prowadzić')
prowadzić;wysiłek	unseen	('NOUN=wysiłek', 'ADJ=prowadzić')
inwestycja;prowadzić	unseen	('NOUN=inwestycja', 'ADJ=prowadzić')
otrzymać;życzenie	unseen	('VERB=otrzymać', 'NOUN=życzenie')
tytuł;wydać	unseen	('VERB=wydać', 'NOUN=tytuł')
wydać;zadanie	unseen	('VERB=wydać', 'NOUN=zadanie')
cel;wydać	unseen	('VERB=wydać', 'NOUN=cel')
imię;wydać	unseen	('VERB=wydać', 'NOUN=imię')
bieg;wydać	unseen	('VERB=wydać', 'NOUN=bieg')
komunikat;wystawić	unseen	('VERB=wystawić', 'NOUN=komunikat')
kredyt;mieć	unseen	('VERB=mieć', 'NOUN=kredyt')
mieć;nagroda	unseen	('VERB=mieć', 'NOUN=nagroda')
mieć;usługa	unseen	('VERB=mieć', 'NOUN=usługa')
operacja;przeprowadzić	unseen	('VERB=przeprowadzić', 'NOUN=operacja')
podjąć;remont	unseen	('VERB=podjąć', 'NOUN=remont')
mieć;remont	unseen	('VERB=mieć', 'NOUN=remont')
podejmować;remont	unseen	('VERB=podejmować', 'NOUN=remont')
podpisać;związek	unseen	('NOUN=podpisać', 'NOUN=związek')
kontrakt;podpisać	unseen	('NOUN=podpisać', 'NOUN=kontrakt')
podpisać;porozumienie	unseen	('NOUN=podpisać', 'NOUN=porozumienie')
podpisać;transakcja	unseen	('NOUN=podpisać', 'NOUN=transakcja')
umowa;złożyć	unseen	('NOUN=złożyć', 'NOUN=umowa')
podać_do;umowa	unseen	('NOUN=podać_do', 'NOUN=umowa')
podawać_do;umowa	unseen	('NOUN=podawać_do', 'NOUN=umowa')
zgłoszenie;złożyć	unseen	('NOUN=zgłoszenie', 'VERB=złożyć')
grać;spotkanie	unseen	('VERB=grać', 'NOUN=spotkanie')
mecz;spełniać	unseen	('VERB=spełniać', 'NOUN=mecz')
mecz;pełnić	unseen	('VERB=pełnić', 'NOUN=mecz')
strzał;wyrazić	unseen	('NOUN=wyrazić', 'NOUN=strzał')
cześć;uzyskać	unseen	('NOUN=uzyskać', 'NOUN=cześć')
cześć;otrzymywać	unseen	('NOUN=otrzymywać', 'NOUN=cześć')
cześć;wyrażać	unseen	('NOUN=wyrażać', 'NOUN=cześć')
cześć;otrzymać	unseen	('NOUN=otrzymać', 'NOUN=cześć')
cześć;udzielić	unseen	('NOUN=udzielić', 'NOUN=cześć')
cześć;mieć	unseen	('NOUN=mieć', 'NOUN=cześć')
cześć;wydać	unseen	('NOUN=wydać', 'NOUN=cześć')
cześć;wydawać	unseen	('NOUN=wydawać', 'NOUN=cześć')
użytek;wyrazić	unseen	('NOUN=wyrazić', 'NOUN=użytek')
usługa;wyrazić	unseen	('NOUN=wyrazić', 'NOUN=usługa')
hołd;uzyskać	unseen	('NOUN=uzyskać', 'NOUN=hołd')
hołd;otrzymywać	unseen	('NOUN=otrzymywać', 'NOUN=hołd')
hołd;wyrażać	unseen	('NOUN=wyrażać', 'NOUN=hołd')
hołd;otrzymać	unseen	('NOUN=otrzymać', 'NOUN=hołd')
hołd;udzielić	unseen	('NOUN=udzielić', 'NOUN=hołd')
hołd;mieć	unseen	('NOUN=mieć', 'NOUN=hołd')
hołd;wydać	unseen	('NOUN=wydać', 'NOUN=hołd')
hołd;wydawać	unseen	('NOUN=wydawać', 'NOUN=hołd')
manewr;mieć	unseen	('VERB=mieć', 'NOUN=manewr')
mieć;wznoszenie	unseen	('VERB=mieć', 'NOUN=wznoszenie')
mieć;nurkowanie	unseen	('VERB=mieć', 'NOUN=nurkowanie')
mieć;pętla	unseen	('VERB=mieć', 'NOUN=pętla')
mieć;zwrot	unseen	('VERB=mieć', 'NOUN=zwrot')
jedenastka;mieć	unseen	('VERB=mieć', 'NOUN=jedenastka')
mieć;zajęcie	unseen	('VERB=mieć', 'NOUN=zajęcie')
mieć;zadanie	unseen	('VERB=mieć', 'NOUN=zadanie')
działalność;mieć	unseen	('VERB=mieć', 'NOUN=działalność')
czynność;mieć	unseen	('VERB=mieć', 'NOUN=czynność')
badanie;mieć	unseen	('VERB=mieć', 'NOUN=badanie')
mieć;obserwacja	unseen	('VERB=mieć', 'NOUN=obserwacja')
mieć;połączenie	unseen	('VERB=mieć', 'NOUN=połączenie')
mieć;operacja	unseen	('VERB=mieć', 'NOUN=operacja')
mieć;ruch	unseen	('VERB=mieć', 'NOUN=ruch')
gwarantować;podjąć	unseen	('VERB=gwarantować', 'NOUN=podjąć')
gwarantować;mieć	unseen	('VERB=gwarantować', 'NOUN=mieć')
gwarantować;podejmować	unseen	('VERB=gwarantować', 'NOUN=podejmować')
dysponować;przeprowadzić	unseen	('VERB=dysponować', 'NOUN=przeprowadzić')
nieść;przeprowadzić	unseen	('VERB=nieść', 'NOUN=przeprowadzić')
mieć;przeprowadzić	unseen	('VERB=mieć', 'NOUN=przeprowadzić')
przeprowadzić;zapewnić	unseen	('VERB=zapewnić', 'NOUN=przeprowadzić')
przeprowadzić;zapewniać	unseen	('VERB=zapewniać', 'NOUN=przeprowadzić')
dawać;przeprowadzić	unseen	('VERB=dawać', 'NOUN=przeprowadzić')
przeprowadzić;wymóg	unseen	('NOUN=przeprowadzić', 'NOUN=wymóg')
błąd;przeprowadzić	unseen	('NOUN=przeprowadzić', 'NOUN=błąd')
podjąć;reforma	unseen	('NOUN=podjąć', 'NOUN=reforma')
mieć;reforma	unseen	('NOUN=mieć', 'NOUN=reforma')
podejmować;reforma	unseen	('NOUN=podejmować', 'NOUN=reforma')
rola;rozgrywać	unseen	('ADJ=rozgrywać', 'NOUN=rola')
mieć;szkolenie	unseen	('VERB=mieć', 'NOUN=szkolenie')
mieć;przychód	unseen	('VERB=mieć', 'NOUN=przychód')
mieć;zasilać	unseen	('VERB=mieć', 'NOUN=zasilać')
mieć;łączność	unseen	('VERB=mieć', 'NOUN=łączność')
mieć;przepływ	unseen	('VERB=mieć', 'NOUN=przepływ')
konkurencyjność;mieć	unseen	('VERB=mieć', 'NOUN=konkurencyjność')
bezpieczeństwo;mieć	unseen	('VERB=mieć', 'NOUN=bezpieczeństwo')
czystość;mieć	unseen	('VERB=mieć', 'NOUN=czystość')
mieć;porządek	unseen	('VERB=mieć', 'NOUN=porządek')
mieć;zabawa	unseen	('VERB=mieć', 'NOUN=zabawa')
apolityczność;mieć	unseen	('VERB=mieć', 'NOUN=apolityczność')
mieć;przejrzystość	unseen	('VERB=mieć', 'NOUN=przejrzystość')
rola;wystąpić_w	unseen	('VERB=wystąpić_w', 'NOUN=rola')
rola;występować_w	unseen	('VERB=występować_w', 'NOUN=rola')
stoczyć;wojna	unseen	('NOUN=wojna', 'VERB=stoczyć')
nakaz;wystawić	unseen	('NOUN=nakaz', 'VERB=wystawić')
wystosować;zawiadomienie	unseen	('VERB=wystosować', 'NOUN=zawiadomienie')
pozew;wystosować	unseen	('VERB=wystosować', 'NOUN=pozew')
dymisja;wystosować	unseen	('VERB=wystosować', 'NOUN=dymisja')
podpis;wystosować	unseen	('VERB=wystosować', 'NOUN=podpis')
deklaracja;wystosować	unseen	('VERB=wystosować', 'NOUN=deklaracja')
wystosować;zobowiązanie	unseen	('VERB=wystosować', 'NOUN=zobowiązanie')
doniesienie;wystosować	unseen	('VERB=wystosować', 'NOUN=doniesienie')
skarga;wystosować	unseen	('VERB=wystosować', 'NOUN=skarga')
wniosek;wystosować	unseen	('VERB=wystosować', 'NOUN=wniosek')
wystosować;życzenia	unseen	('VERB=wystosować', 'NOUN=życzenia')
wizyta;wystosować	unseen	('VERB=wystosować', 'NOUN=wizyta')
wyjaśnienie;wystosować	unseen	('VERB=wystosować', 'NOUN=wyjaśnienie')
wystosować;zamówienie	unseen	('VERB=wystosować', 'NOUN=zamówienie')
propozycja;wystosować	unseen	('VERB=wystosować', 'NOUN=propozycja')
sprzeciw;wystosować	unseen	('VERB=wystosować', 'NOUN=sprzeciw')
protest;wystosować	unseen	('VERB=wystosować', 'NOUN=protest')
wystosować;zeznanie	unseen	('VERB=wystosować', 'NOUN=zeznanie')
wystosować;zameldować	unseen	('VERB=wystosować', 'NOUN=zameldować')
oferta;wystosować	unseen	('VERB=wystosować', 'NOUN=oferta')
rezygnacja;wystosować	unseen	('VERB=wystosować', 'NOUN=rezygnacja')
przyrzeczenie;wystosować	unseen	('VERB=wystosować', 'NOUN=przyrzeczenie')
ofiara;wystosować	unseen	('VERB=wystosować', 'NOUN=ofiara')
głos;wystosować	unseen	('VERB=wystosować', 'NOUN=głos')
ordynacja;złożyć	unseen	('VERB=złożyć', 'NOUN=ordynacja')
ordynacja;podać_do	unseen	('VERB=podać_do', 'NOUN=ordynacja')
ordynacja;podawać_do	unseen	('VERB=podawać_do', 'NOUN=ordynacja')
ordynacja;zawrzeć	unseen	('VERB=zawrzeć', 'NOUN=ordynacja')
ordynacja;zawierać	unseen	('VERB=zawierać', 'NOUN=ordynacja')
udzielać;zasiłek	unseen	('NOUN=udzielać', 'NOUN=zasiłek')
pomoc;uwzględniać	unseen	('NOUN=uwzględniać', 'NOUN=pomoc')
darzyć;miłosierda	unseen	('VERB=darzyć', 'NOUN=miłosierda')
przysporzyć;szacunek	unseen	('VERB=przysporzyć', 'NOUN=szacunek')
pałać;szacunek	unseen	('VERB=pałać', 'NOUN=szacunek')
złożyć;życzenie	unseen	('VERB=złożyć', 'NOUN=życzenie')
korzyść;złożyć	unseen	('VERB=złożyć', 'NOUN=korzyść')
rezolucja;złożyć	unseen	('VERB=złożyć', 'NOUN=rezolucja')
komunia;złożyć	unseen	('VERB=złożyć', 'NOUN=komunia')
ramy;złożyć	unseen	('VERB=złożyć', 'NOUN=ramy')
uchwała;złożyć	unseen	('VERB=złożyć', 'NOUN=uchwała')
nadawać;renowacja	unseen	('NOUN=renowacja', 'VERB=nadawać')
krytyka;nadawać	unseen	('NOUN=krytyka', 'VERB=nadawać')
rola;sprawować	unseen	('VERB=sprawować', 'NOUN=rola')
funkcja;wykonywać	unseen	('VERB=wykonywać', 'NOUN=funkcja')
funkcja;trzymać	unseen	('VERB=trzymać', 'NOUN=funkcja')
dokonać;transakcja	unseen	('NOUN=dokonać', 'NOUN=transakcja')
dokonać;próba	unseen	('NOUN=dokonać', 'NOUN=próba')
absorpcja;dokonać	unseen	('NOUN=dokonać', 'NOUN=absorpcja')
dokonać;obliczenie	unseen	('NOUN=dokonać', 'NOUN=obliczenie')
dokonać;wpłata	unseen	('NOUN=dokonać', 'NOUN=wpłata')
dokonać;oszustwo	unseen	('NOUN=dokonać', 'NOUN=oszustwo')
dokonać;obchód	unseen	('NOUN=dokonać', 'NOUN=obchód')
mieć;zagrożenie	unseen	('VERB=mieć', 'NOUN=zagrożenie')
mieć;wzór	unseen	('VERB=mieć', 'NOUN=wzór')
gol;uzyskać	unseen	('NOUN=uzyskać', 'NOUN=gol')
gol;przynieść	unseen	('NOUN=przynieść', 'NOUN=gol')
gol;mieć	unseen	('NOUN=mieć', 'NOUN=gol')
praca;przeprowadzać	unseen	('VERB=przeprowadzać', 'NOUN=praca')
przeprowadzać;ćwiczenie	unseen	('VERB=przeprowadzać', 'NOUN=ćwiczenie')
koncesja;przeprowadzać	unseen	('VERB=przeprowadzać', 'NOUN=koncesja')
przeprowadzać;skok	unseen	('VERB=przeprowadzać', 'NOUN=skok')
badanie;przeprowadzać	unseen	('VERB=przeprowadzać', 'NOUN=badanie')
przeprowadzać;zadanie	unseen	('VERB=przeprowadzać', 'NOUN=zadanie')
aport;złożyć	unseen	('VERB=złożyć', 'NOUN=aport')
wkład;złożyć	unseen	('VERB=złożyć', 'NOUN=wkład')
apelacja;złożyć	unseen	('VERB=złożyć', 'NOUN=apelacja')
zawrzeć;związek	unseen	('NOUN=związek', 'ADJ=zawrzeć')
kontrakt;zawrzeć	unseen	('NOUN=kontrakt', 'ADJ=zawrzeć')
transakcja;zawrzeć	unseen	('NOUN=transakcja', 'ADJ=zawrzeć')
nieść;złuszczać	unseen	('NOUN=złuszczać', 'VERB=nieść')
nieść;odpadać	unseen	('NOUN=odpadać', 'VERB=nieść')
ból;nieść	unseen	('NOUN=ból', 'VERB=nieść')
nieść;zatrucie	unseen	('NOUN=zatrucie', 'VERB=nieść')
udzielać;zagrożenie	unseen	('NOUN=zagrożenie', 'VERB=udzielać')
udzielić;zagrożenie	unseen	('NOUN=zagrożenie', 'VERB=udzielić')
gwarantować;zagrożenie	unseen	('NOUN=zagrożenie', 'VERB=gwarantować')
dysponować;zagrożenie	unseen	('NOUN=zagrożenie', 'VERB=dysponować')
zagrożenie;zapewnić	unseen	('NOUN=zagrożenie', 'VERB=zapewnić')
zagrożenie;zapewniać	unseen	('NOUN=zagrożenie', 'VERB=zapewniać')
dawać;zagrożenie	unseen	('NOUN=zagrożenie', 'VERB=dawać')
manewr;prowadzić	unseen	('VERB=prowadzić', 'NOUN=manewr')
prowadzić;wznoszenie	unseen	('VERB=prowadzić', 'NOUN=wznoszenie')
nurkowanie;prowadzić	unseen	('VERB=prowadzić', 'NOUN=nurkowanie')
prowadzić;pętla	unseen	('VERB=prowadzić', 'NOUN=pętla')
prowadzić;zwrot	unseen	('VERB=prowadzić', 'NOUN=zwrot')
jedenastka;prowadzić	unseen	('VERB=prowadzić', 'NOUN=jedenastka')
obowiązek;prowadzić	unseen	('VERB=prowadzić', 'NOUN=obowiązek')
prowadzić;zajęcie	unseen	('VERB=prowadzić', 'NOUN=zajęcie')
prowadzić;zadanie	unseen	('VERB=prowadzić', 'NOUN=zadanie')
czynność;prowadzić	unseen	('VERB=prowadzić', 'NOUN=czynność')
prowadzić;władza	unseen	('VERB=prowadzić', 'NOUN=władza')
obserwacja;prowadzić	unseen	('VERB=prowadzić', 'NOUN=obserwacja')
połączenie;prowadzić	unseen	('VERB=prowadzić', 'NOUN=połączenie')
operacja;prowadzić	unseen	('VERB=prowadzić', 'NOUN=operacja')
prowadzić;ruch	unseen	('VERB=prowadzić', 'NOUN=ruch')
oświadczenie;wystawić	unseen	('VERB=wystawić', 'NOUN=oświadczenie')
cierpieć_na;upomnienie	unseen	('NOUN=upomnienie', 'VERB=cierpieć_na')
cierpieć_na;zlecenie	unseen	('NOUN=zlecenie', 'VERB=cierpieć_na')
cierpieć_na;wymówienie	unseen	('NOUN=wymówienie', 'VERB=cierpieć_na')
cierpieć_na;nagroda	unseen	('NOUN=nagroda', 'VERB=cierpieć_na')
cierpieć_na;koncesja	unseen	('NOUN=koncesja', 'VERB=cierpieć_na')
cierpieć_na;upust	unseen	('NOUN=upust', 'VERB=cierpieć_na')
cierpieć_na;rekomendacja	unseen	('NOUN=rekomendacja', 'VERB=cierpieć_na')
buziak;cierpieć_na	unseen	('NOUN=buziak', 'VERB=cierpieć_na')
cierpieć_na;zaproszenie	unseen	('NOUN=zaproszenie', 'VERB=cierpieć_na')
cierpieć_na;odszkodowanie	unseen	('NOUN=odszkodowanie', 'VERB=cierpieć_na')
cierpieć_na;zarzut	unseen	('NOUN=zarzut', 'VERB=cierpieć_na')
cierpieć_na;zakaz	unseen	('NOUN=zakaz', 'VERB=cierpieć_na')
cierpieć_na;telefon	unseen	('NOUN=telefon', 'VERB=cierpieć_na')
cierpieć_na;ulga	unseen	('NOUN=ulga', 'VERB=cierpieć_na')
dochodzić_do;wniosek	unseen	('NOUN=wniosek', 'VERB=dochodzić_do')
wniosek;wystąpić_z	unseen	('NOUN=wniosek', 'VERB=wystąpić_z')
prowadzić;przerwa	unseen	('VERB=prowadzić', 'NOUN=przerwa')
prowadzić;wrażenie	unseen	('VERB=prowadzić', 'NOUN=wrażenie')
prowadzić;zakup	unseen	('VERB=prowadzić', 'NOUN=zakup')
prowadzić;uwaga	unseen	('VERB=prowadzić', 'NOUN=uwaga')
majątek;prowadzić	unseen	('VERB=prowadzić', 'NOUN=majątek')
krzywda;prowadzić	unseen	('VERB=prowadzić', 'NOUN=krzywda')
doktorat;prowadzić	unseen	('VERB=prowadzić', 'NOUN=doktorat')
prowadzić;świństwo	unseen	('VERB=prowadzić', 'NOUN=świństwo')
prowadzić;unik	unseen	('VERB=prowadzić', 'NOUN=unik')
udzielać;zgoda	unseen	('VERB=udzielać', 'NOUN=zgoda')
stan;stawiać	unseen	('VERB=stawiać', 'NOUN=stan')
stawiać;teza	unseen	('VERB=stawiać', 'NOUN=teza')
stawiać;weto	unseen	('VERB=stawiać', 'NOUN=weto')
pełnić;pełnić	unseen	('ADJ=pełnić', 'NOUN=pełnić')
błąd;wprowadzać	unseen	('VERB=wprowadzać', 'NOUN=błąd')
rzucać;żądanie	unseen	('VERB=rzucać', 'NOUN=żądanie')
rzucać;wniosek	unseen	('VERB=rzucać', 'NOUN=wniosek')
odcisnąć;presja	unseen	('VERB=odcisnąć', 'NOUN=presja')
dochód;mieć	unseen	('VERB=mieć', 'NOUN=dochód')
szacunek;zyskać	unseen	('VERB=zyskać', 'NOUN=szacunek')
zaufanie;zyskać	unseen	('VERB=zyskać', 'NOUN=zaufanie')
kontrowersja;zyskać	unseen	('VERB=zyskać', 'NOUN=kontrowersja')
emocja;zyskać	unseen	('VERB=zyskać', 'NOUN=emocja')
podziw;zyskać	unseen	('VERB=zyskać', 'NOUN=podziw')
udzielić;uznanie	unseen	('VERB=udzielić', 'NOUN=uznanie')
mieć;uznanie	unseen	('VERB=mieć', 'NOUN=uznanie')
podstawa;uzyskać	unseen	('VERB=uzyskać', 'NOUN=podstawa')
uzyskać;wrażenie	unseen	('VERB=uzyskać', 'NOUN=wrażenie')
miejsce;uzyskać	unseen	('VERB=uzyskać', 'NOUN=miejsce')
uzyskać;wartość	unseen	('VERB=uzyskać', 'NOUN=wartość')
korzystać_z;nominacja	unseen	('NOUN=nominacja', 'VERB=korzystać_z')
rozkaz;wystawić	unseen	('NOUN=rozkaz', 'VERB=wystawić')
uczta;wprowadzić	unseen	('VERB=wprowadzić', 'NOUN=uczta')
polecenie;wprowadzić	unseen	('VERB=wprowadzić', 'NOUN=polecenie')
wprowadzić;zgoda	unseen	('VERB=wprowadzić', 'NOUN=zgoda')
pomruk;wprowadzić	unseen	('VERB=wprowadzić', 'NOUN=pomruk')
badanie;podjąć	unseen	('ADJ=podjąć', 'NOUN=badanie')
badanie;podejmować	unseen	('ADJ=podejmować', 'NOUN=badanie')
powołać_do;życie	unseen	('VERB=powołać_do', 'NOUN=życie')
nagroda;udzielić	unseen	('VERB=udzielić', 'NOUN=nagroda')
udzielić;uprawnienie	unseen	('VERB=udzielić', 'NOUN=uprawnienie')
prawo;udzielić	unseen	('VERB=udzielić', 'NOUN=prawo')
udzielić;usługa	unseen	('VERB=udzielić', 'NOUN=usługa')
ponieść;porażka	unseen	('NOUN=porażka', 'VERB=ponieść')
ponieść;wina	unseen	('NOUN=wina', 'VERB=ponieść')
konsekwencja;ponieść	unseen	('NOUN=konsekwencja', 'VERB=ponieść')
ponieść;ryzyko	unseen	('NOUN=ryzyko', 'VERB=ponieść')
mieć;odpowiedzialność	unseen	('NOUN=odpowiedzialność', 'VERB=mieć')
mieć;uwaga	unseen	('VERB=mieć', 'NOUN=uwaga')
uwaga;wychodzić_z	unseen	('VERB=wychodzić_z', 'NOUN=uwaga')
uwaga;złożyć	unseen	('VERB=złożyć', 'NOUN=uwaga')
otrzymać;uwaga	unseen	('VERB=otrzymać', 'NOUN=uwaga')
budzić;miłosierda	unseen	('VERB=budzić', 'NOUN=miłosierda')
oddawać;użytek	unseen	('VERB=oddawać', 'NOUN=użytek')
oddawać;usługa	unseen	('VERB=oddawać', 'NOUN=usługa')
dokonać;praca	unseen	('NOUN=praca', 'ADJ=dokonać')
dokonać;ćwiczenie	unseen	('NOUN=ćwiczenie', 'ADJ=dokonać')
dokonać;koncesja	unseen	('NOUN=koncesja', 'ADJ=dokonać')
badanie;dokonać	unseen	('NOUN=badanie', 'ADJ=dokonać')
dokonać;zadanie	unseen	('NOUN=zadanie', 'ADJ=dokonać')
próba;wydać	unseen	('VERB=wydać', 'NOUN=próba')
ryzyko;wydać	unseen	('VERB=wydać', 'NOUN=ryzyko')
uchwała;wydać	unseen	('VERB=wydać', 'NOUN=uchwała')
inicjatywa;wydać	unseen	('VERB=wydać', 'NOUN=inicjatywa')
wydać;wysiłek	unseen	('VERB=wydać', 'NOUN=wysiłek')
działanie;wydać	unseen	('VERB=wydać', 'NOUN=działanie')
inwestycja;wydać	unseen	('VERB=wydać', 'NOUN=inwestycja')
decyzja;wystawić	unseen	('VERB=wystawić', 'NOUN=decyzja')
kontrakt;mieć	unseen	('VERB=mieć', 'NOUN=kontrakt')
mieć;porozumienie	unseen	('VERB=mieć', 'NOUN=porozumienie')
mieć;transakcja	unseen	('VERB=mieć', 'NOUN=transakcja')
udzielać;zlecić	unseen	('NOUN=udzielać', 'NOUN=zlecić')
udzielać;świadczyć	unseen	('NOUN=udzielać', 'NOUN=świadczyć')
uwzględniać;świadczenie	unseen	('NOUN=uwzględniać', 'NOUN=świadczenie')
puszczać;szansa	unseen	('VERB=puszczać', 'NOUN=szansa')
odpór;puszczać	unseen	('VERB=puszczać', 'NOUN=odpór')
efekt;puszczać	unseen	('VERB=puszczać', 'NOUN=efekt')
przykład;puszczać	unseen	('VERB=puszczać', 'NOUN=przykład')
początek;puszczać	unseen	('VERB=puszczać', 'NOUN=początek')
posłuch;puszczać	unseen	('VERB=puszczać', 'NOUN=posłuch')
czas;puszczać	unseen	('VERB=puszczać', 'NOUN=czas')
prawo;puszczać	unseen	('VERB=puszczać', 'NOUN=prawo')
argument;puszczać	unseen	('VERB=puszczać', 'NOUN=argument')
puszczać;wybór	unseen	('VERB=puszczać', 'NOUN=wybór')
puszczać;swoboda	unseen	('VERB=puszczać', 'NOUN=swoboda')
poczucie;puszczać	unseen	('VERB=puszczać', 'NOUN=poczucie')
jałmużna;puszczać	unseen	('VERB=puszczać', 'NOUN=jałmużna')
nieśmiertelność;puszczać	unseen	('VERB=puszczać', 'NOUN=nieśmiertelność')
dochód;puszczać	unseen	('VERB=puszczać', 'NOUN=dochód')
puszczać;zlecenie	unseen	('VERB=puszczać', 'NOUN=zlecenie')
puszczać;wiara	unseen	('VERB=puszczać', 'NOUN=wiara')
puszczać;siła	unseen	('VERB=puszczać', 'NOUN=siła')
możliwość;puszczać	unseen	('VERB=puszczać', 'NOUN=możliwość')
nalot;podjąć	unseen	('VERB=podjąć', 'NOUN=nalot')
mieć;nalot	unseen	('VERB=mieć', 'NOUN=nalot')
nalot;podejmować	unseen	('VERB=podejmować', 'NOUN=nalot')
dawać;warunki	unseen	('VERB=dawać', 'NOUN=warunki')
dawać;okazja	unseen	('VERB=dawać', 'NOUN=okazja')
dawać;wzór	unseen	('VERB=dawać', 'NOUN=wzór')
dawać;pogląd	unseen	('VERB=dawać', 'NOUN=pogląd')
dać_do;wzrost	unseen	('VERB=dać_do', 'NOUN=wzrost')
skarga;składać	unseen	('VERB=składać', 'NOUN=skarga')
mieć;rada	unseen	('VERB=mieć', 'NOUN=rada')
mieć;wyraz	unseen	('VERB=mieć', 'NOUN=wyraz')
mieć;odpowiedź	unseen	('VERB=mieć', 'NOUN=odpowiedź')
mieć;wywyższyć	unseen	('VERB=mieć', 'NOUN=wywyższyć')
mieć;tytuł	unseen	('VERB=mieć', 'NOUN=tytuł')
mieć;znak	unseen	('VERB=mieć', 'NOUN=znak')
mieć;podwyżka	unseen	('VERB=mieć', 'NOUN=podwyżka')
koncert;mieć	unseen	('VERB=mieć', 'NOUN=koncert')
mieć;wygrana	unseen	('VERB=mieć', 'NOUN=wygrana')
korzyść;mieć	unseen	('VERB=mieć', 'NOUN=korzyść')
mieć;popis	unseen	('VERB=mieć', 'NOUN=popis')
gwarancja;zyskać	unseen	('VERB=zyskać', 'NOUN=gwarancja')
kredyt;zyskać	unseen	('VERB=zyskać', 'NOUN=kredyt')
urlop;zyskać	unseen	('VERB=zyskać', 'NOUN=urlop')
pomoc;zyskać	unseen	('VERB=zyskać', 'NOUN=pomoc')
wywiad;zyskać	unseen	('VERB=zyskać', 'NOUN=wywiad')
pełnomocnictwo;zyskać	unseen	('VERB=zyskać', 'NOUN=pełnomocnictwo')
zgoda;zyskać	unseen	('VERB=zyskać', 'NOUN=zgoda')
reprymenda;zyskać	unseen	('VERB=zyskać', 'NOUN=reprymenda')
poręczenie;zyskać	unseen	('VERB=zyskać', 'NOUN=poręczenie')
rzeź;ulec	unseen	('VERB=ulec', 'NOUN=rzeź')
transakcja;ulec	unseen	('VERB=ulec', 'NOUN=transakcja')
ulec;zakup	unseen	('VERB=ulec', 'NOUN=zakup')
skok;ulec	unseen	('VERB=ulec', 'NOUN=skok')
próba;ulec	unseen	('VERB=ulec', 'NOUN=próba')
absorpcja;ulec	unseen	('VERB=ulec', 'NOUN=absorpcja')
przestępstwo;ulec	unseen	('VERB=ulec', 'NOUN=przestępstwo')
obliczenie;ulec	unseen	('VERB=ulec', 'NOUN=obliczenie')
ulec;wpłata	unseen	('VERB=ulec', 'NOUN=wpłata')
ulec;wybór	unseen	('VERB=ulec', 'NOUN=wybór')
oszustwo;ulec	unseen	('VERB=ulec', 'NOUN=oszustwo')
obchód;ulec	unseen	('VERB=ulec', 'NOUN=obchód')
podejmować;uchwała	unseen	('VERB=podejmować', 'NOUN=uchwała')
inicjatywa;podejmować	unseen	('VERB=podejmować', 'NOUN=inicjatywa')
podejmować;wysiłek	unseen	('VERB=podejmować', 'NOUN=wysiłek')
inwestycja;podejmować	unseen	('VERB=podejmować', 'NOUN=inwestycja')
decyzja;przeprowadzić	unseen	('VERB=przeprowadzić', 'NOUN=decyzja')
decyzja;mieć	unseen	('VERB=mieć', 'NOUN=decyzja')
kontrola;wyznaczyć	unseen	('VERB=wyznaczyć', 'NOUN=kontrola')
manewr;wyznaczyć	unseen	('VERB=wyznaczyć', 'NOUN=manewr')
wyznaczyć;wznoszenie	unseen	('VERB=wyznaczyć', 'NOUN=wznoszenie')
nurkowanie;wyznaczyć	unseen	('VERB=wyznaczyć', 'NOUN=nurkowanie')
pętla;wyznaczyć	unseen	('VERB=wyznaczyć', 'NOUN=pętla')
wyznaczyć;zwrot	unseen	('VERB=wyznaczyć', 'NOUN=zwrot')
praca;wyznaczyć	unseen	('VERB=wyznaczyć', 'NOUN=praca')
jedenastka;wyznaczyć	unseen	('VERB=wyznaczyć', 'NOUN=jedenastka')
obowiązek;wyznaczyć	unseen	('VERB=wyznaczyć', 'NOUN=obowiązek')
wyznaczyć;zajęcie	unseen	('VERB=wyznaczyć', 'NOUN=zajęcie')
działalność;wyznaczyć	unseen	('VERB=wyznaczyć', 'NOUN=działalność')
czynność;wyznaczyć	unseen	('VERB=wyznaczyć', 'NOUN=czynność')
badanie;wyznaczyć	unseen	('VERB=wyznaczyć', 'NOUN=badanie')
wyznaczyć;władza	unseen	('VERB=wyznaczyć', 'NOUN=władza')
obserwacja;wyznaczyć	unseen	('VERB=wyznaczyć', 'NOUN=obserwacja')
połączenie;wyznaczyć	unseen	('VERB=wyznaczyć', 'NOUN=połączenie')
operacja;wyznaczyć	unseen	('VERB=wyznaczyć', 'NOUN=operacja')
ruch;wyznaczyć	unseen	('VERB=wyznaczyć', 'NOUN=ruch')
mieć_za;zadanie	unseen	('VERB=mieć_za', 'NOUN=zadanie')
popełnić;rzeź	unseen	('VERB=popełnić', 'NOUN=rzeź')
popełnić;transakcja	unseen	('VERB=popełnić', 'NOUN=transakcja')
popełnić;zakup	unseen	('VERB=popełnić', 'NOUN=zakup')
popełnić;zmiana	unseen	('VERB=popełnić', 'NOUN=zmiana')
popełnić;skok	unseen	('VERB=popełnić', 'NOUN=skok')
popełnić;próba	unseen	('VERB=popełnić', 'NOUN=próba')
absorpcja;popełnić	unseen	('VERB=popełnić', 'NOUN=absorpcja')
obliczenie;popełnić	unseen	('VERB=popełnić', 'NOUN=obliczenie')
popełnić;wpłata	unseen	('VERB=popełnić', 'NOUN=wpłata')
popełnić;wybór	unseen	('VERB=popełnić', 'NOUN=wybór')
oszustwo;popełnić	unseen	('VERB=popełnić', 'NOUN=oszustwo')
obchód;popełnić	unseen	('VERB=popełnić', 'NOUN=obchód')
nagroda;przyjąć	unseen	('VERB=przyjąć', 'NOUN=nagroda')
podróż;wymierzyć	unseen	('VERB=wymierzyć', 'NOUN=podróż')
otrzymać;podróż	unseen	('VERB=otrzymać', 'NOUN=podróż')
prowadzenie;uzyskać	unseen	('VERB=uzyskać', 'NOUN=prowadzenie')
prowadzenie;przynieść	unseen	('VERB=przynieść', 'NOUN=prowadzenie')
mieć;prowadzenie	unseen	('VERB=mieć', 'NOUN=prowadzenie')
dokonać;staranie	unseen	('VERB=dokonać', 'NOUN=staranie')
dokonać;krok	unseen	('VERB=dokonać', 'NOUN=krok')
dokonać;zarzut	unseen	('VERB=dokonać', 'NOUN=zarzut')
czerpać;podstawa	unseen	('NOUN=podstawa', 'VERB=czerpać')
czerpać;wrażenie	unseen	('NOUN=wrażenie', 'VERB=czerpać')
czerpać;miejsce	unseen	('NOUN=miejsce', 'VERB=czerpać')
czerpać;wartość	unseen	('NOUN=wartość', 'VERB=czerpać')
dochód;osiągać	unseen	('NOUN=dochód', 'VERB=osiągać')
dochód;odnosić	unseen	('NOUN=dochód', 'VERB=odnosić')
dochód;przynosić	unseen	('NOUN=dochód', 'VERB=przynosić')
dać;dochód	unseen	('NOUN=dochód', 'VERB=dać')
udzielić;zasiłek	unseen	('VERB=udzielić', 'NOUN=zasiłek')
podjąć;rozmowa	unseen	('VERB=podjąć', 'NOUN=rozmowa')
mieć;rozmowa	unseen	('VERB=mieć', 'NOUN=rozmowa')
podejmować;rozmowa	unseen	('VERB=podejmować', 'NOUN=rozmowa')
mieć;sankcja	unseen	('VERB=mieć', 'NOUN=sankcja')
sankcja;wykonywać	unseen	('VERB=wykonywać', 'NOUN=sankcja')
powierzyć;sankcja	unseen	('VERB=powierzyć', 'NOUN=sankcja')
sankcja;sprawować	unseen	('VERB=sprawować', 'NOUN=sankcja')
spowodować;wniosek	unseen	('NOUN=wniosek', 'ADJ=spowodować')
skarga;spowodować	unseen	('NOUN=skarga', 'ADJ=spowodować')
dokonać;samobójstwo	unseen	('VERB=dokonać', 'PROPN=samobójstwo')
błąd;dokonać	unseen	('VERB=dokonać', 'PROPN=błąd')
dokonać;wykroczenie	unseen	('VERB=dokonać', 'PROPN=wykroczenie')
dokonać;grzech	unseen	('VERB=dokonać', 'PROPN=grzech')
dokonać;nietakt	unseen	('VERB=dokonać', 'PROPN=nietakt')
mieć;odpór	unseen	('VERB=mieć', 'NOUN=odpór')
mieć;przykład	unseen	('VERB=mieć', 'NOUN=przykład')
mieć;początek	unseen	('VERB=mieć', 'NOUN=początek')
mieć;posłuch	unseen	('VERB=mieć', 'NOUN=posłuch')
argument;mieć	unseen	('VERB=mieć', 'NOUN=argument')
mieć;wybór	unseen	('VERB=mieć', 'NOUN=wybór')
jałmużna;mieć	unseen	('VERB=mieć', 'NOUN=jałmużna')
mieć;nieśmiertelność	unseen	('VERB=mieć', 'NOUN=nieśmiertelność')
mieć;zlecenie	unseen	('VERB=mieć', 'NOUN=zlecenie')
mieć;sygnał	unseen	('VERB=mieć', 'NOUN=sygnał')
mieć;przyjemność	unseen	('VERB=mieć', 'NOUN=przyjemność')
mieć;radość	unseen	('VERB=mieć', 'NOUN=radość')
dokonywać;związek	unseen	('NOUN=związek', 'VERB=dokonywać')
dokonywać;umowa	unseen	('NOUN=umowa', 'VERB=dokonywać')
dokonywać;kontrakt	unseen	('NOUN=kontrakt', 'VERB=dokonywać')
dokonywać;porozumienie	unseen	('NOUN=porozumienie', 'VERB=dokonywać')
odbywać;ryzyko	unseen	('NOUN=ryzyko', 'VERB=odbywać')
decyzja;odbywać	unseen	('NOUN=decyzja', 'VERB=odbywać')
odbywać;uchwała	unseen	('NOUN=uchwała', 'VERB=odbywać')
inicjatywa;odbywać	unseen	('NOUN=inicjatywa', 'VERB=odbywać')
odbywać;wysiłek	unseen	('NOUN=wysiłek', 'VERB=odbywać')
działanie;odbywać	unseen	('NOUN=działanie', 'VERB=odbywać')
inwestycja;odbywać	unseen	('NOUN=inwestycja', 'VERB=odbywać')
podjąć;warsztaty	unseen	('VERB=podjąć', 'NOUN=warsztaty')
mieć;warsztaty	unseen	('VERB=mieć', 'NOUN=warsztaty')
podejmować;warsztaty	unseen	('VERB=podejmować', 'NOUN=warsztaty')
oktrojowanie;tytuł	unseen	('VERB=oktrojowanie', 'NOUN=tytuł')
narzucenie;tytuł	unseen	('VERB=narzucenie', 'NOUN=tytuł')
narzucać;tytuł	unseen	('VERB=narzucać', 'NOUN=tytuł')
mieć;mowa	unseen	('VERB=mieć', 'NOUN=mowa')
kontakt;odbyć	unseen	('NOUN=kontakt', 'VERB=odbyć')
stosunek;wymierzyć	unseen	('NOUN=stosunek', 'VERB=wymierzyć')
otrzymać;stosunek	unseen	('NOUN=stosunek', 'VERB=otrzymać')
nieść;zasiłek	unseen	('ADJ=nieść', 'NOUN=zasiłek')
gwarantować;pomoc	unseen	('ADJ=gwarantować', 'NOUN=pomoc')
dysponować;pomoc	unseen	('ADJ=dysponować', 'NOUN=pomoc')
mieć;pomoc	unseen	('ADJ=mieć', 'NOUN=pomoc')
pomoc;zapewnić	unseen	('ADJ=zapewnić', 'NOUN=pomoc')
pomoc;zapewniać	unseen	('ADJ=zapewniać', 'NOUN=pomoc')
dawać;pomoc	unseen	('ADJ=dawać', 'NOUN=pomoc')
kontrola;mieć_za	unseen	('NOUN=kontrola', 'VERB=mieć_za')
manewr;mieć_za	unseen	('NOUN=manewr', 'VERB=mieć_za')
mieć_za;wznoszenie	unseen	('NOUN=wznoszenie', 'VERB=mieć_za')
mieć_za;nurkowanie	unseen	('NOUN=nurkowanie', 'VERB=mieć_za')
mieć_za;pętla	unseen	('NOUN=pętla', 'VERB=mieć_za')
mieć_za;zwrot	unseen	('NOUN=zwrot', 'VERB=mieć_za')
mieć_za;praca	unseen	('NOUN=praca', 'VERB=mieć_za')
jedenastka;mieć_za	unseen	('NOUN=jedenastka', 'VERB=mieć_za')
mieć_za;obowiązek	unseen	('NOUN=obowiązek', 'VERB=mieć_za')
mieć_za;zajęcie	unseen	('NOUN=zajęcie', 'VERB=mieć_za')
działalność;mieć_za	unseen	('NOUN=działalność', 'VERB=mieć_za')
czynność;mieć_za	unseen	('NOUN=czynność', 'VERB=mieć_za')
badanie;mieć_za	unseen	('NOUN=badanie', 'VERB=mieć_za')
mieć_za;władza	unseen	('NOUN=władza', 'VERB=mieć_za')
mieć_za;obserwacja	unseen	('NOUN=obserwacja', 'VERB=mieć_za')
mieć_za;połączenie	unseen	('NOUN=połączenie', 'VERB=mieć_za')
mieć_za;operacja	unseen	('NOUN=operacja', 'VERB=mieć_za')
mieć_za;ruch	unseen	('NOUN=ruch', 'VERB=mieć_za')
przyjąć;próba	unseen	('VERB=przyjąć', 'NOUN=próba')
mieć;miłosierda	unseen	('VERB=mieć', 'NOUN=miłosierda')
kontrola;wykonać	unseen	('NOUN=wykonać', 'NOUN=kontrola')
manewr;wykonać	unseen	('NOUN=wykonać', 'NOUN=manewr')
wykonać;wznoszenie	unseen	('NOUN=wykonać', 'NOUN=wznoszenie')
nurkowanie;wykonać	unseen	('NOUN=wykonać', 'NOUN=nurkowanie')
pętla;wykonać	unseen	('NOUN=wykonać', 'NOUN=pętla')
wykonać;zwrot	unseen	('NOUN=wykonać', 'NOUN=zwrot')
jedenastka;wykonać	unseen	('NOUN=wykonać', 'NOUN=jedenastka')
obowiązek;wykonać	unseen	('NOUN=wykonać', 'NOUN=obowiązek')
wykonać;zajęcie	unseen	('NOUN=wykonać', 'NOUN=zajęcie')
działalność;wykonać	unseen	('NOUN=wykonać', 'NOUN=działalność')
czynność;wykonać	unseen	('NOUN=wykonać', 'NOUN=czynność')
wykonać;władza	unseen	('NOUN=wykonać', 'NOUN=władza')
obserwacja;wykonać	unseen	('NOUN=wykonać', 'NOUN=obserwacja')
połączenie;wykonać	unseen	('NOUN=wykonać', 'NOUN=połączenie')
operacja;wykonać	unseen	('NOUN=wykonać', 'NOUN=operacja')
ruch;wykonać	unseen	('NOUN=wykonać', 'NOUN=ruch')
dokonywać;praca	unseen	('NOUN=dokonywać', 'NOUN=praca')
praca;przeprowadzić	unseen	('NOUN=przeprowadzić', 'NOUN=praca')
mieć_w;pamięć	unseen	('NOUN=pamięć', 'VERB=mieć_w')
mieć;zwyczaj	unseen	('NOUN=zwyczaj', 'VERB=mieć')
oświadczyć;wystawić	unseen	('VERB=wystawić', 'NOUN=oświadczyć')
mieć;zwycięstwo	unseen	('VERB=mieć', 'NOUN=zwycięstwo')
doznać;zwycięstwo	unseen	('VERB=doznać', 'NOUN=zwycięstwo')
dokonać;kontrola	unseen	('NOUN=dokonać', 'NOUN=kontrola')
kontrola;przejść	unseen	('NOUN=przejść', 'NOUN=kontrola')
obrażenie;osiągnąć	unseen	('VERB=osiągnąć', 'NOUN=obrażenie')
przyjąć;ryzyko	unseen	('VERB=przyjąć', 'NOUN=ryzyko')
doznać;skutek	unseen	('VERB=doznać', 'NOUN=skutek')
chwała;doznać	unseen	('VERB=doznać', 'NOUN=chwała')
doznać;wynik	unseen	('VERB=doznać', 'NOUN=wynik')
doznać;klęska	unseen	('VERB=doznać', 'NOUN=klęska')
dochód;doznać	unseen	('VERB=doznać', 'NOUN=dochód')
doznać;pożytek	unseen	('VERB=doznać', 'NOUN=pożytek')
doznać;efekt	unseen	('VERB=doznać', 'NOUN=efekt')
doznać;sukces	unseen	('VERB=doznać', 'NOUN=sukces')
doznać;uznanie	unseen	('VERB=doznać', 'NOUN=uznanie')
decyzja;przyjąć	unseen	('NOUN=decyzja', 'ADJ=przyjąć')
podpisać;zasiłek	unseen	('NOUN=podpisać', 'NOUN=zasiłek')
nagroda;podpisać	unseen	('NOUN=podpisać', 'NOUN=nagroda')
nominacja;złożyć	unseen	('NOUN=złożyć', 'NOUN=nominacja')
nominacja;podać_do	unseen	('NOUN=podać_do', 'NOUN=nominacja')
nominacja;podawać_do	unseen	('NOUN=podawać_do', 'NOUN=nominacja')
nominacja;zawrzeć	unseen	('NOUN=zawrzeć', 'NOUN=nominacja')
nominacja;zawierać	unseen	('NOUN=zawierać', 'NOUN=nominacja')
składać;zawiadomienie	unseen	('VERB=składać', 'NOUN=zawiadomienie')
dymisja;składać	unseen	('VERB=składać', 'NOUN=dymisja')
podpis;składać	unseen	('VERB=składać', 'NOUN=podpis')
deklaracja;składać	unseen	('VERB=składać', 'NOUN=deklaracja')
składać;zobowiązanie	unseen	('VERB=składać', 'NOUN=zobowiązanie')
doniesienie;składać	unseen	('VERB=składać', 'NOUN=doniesienie')
prośba;składać	unseen	('VERB=składać', 'NOUN=prośba')
składać;życzenia	unseen	('VERB=składać', 'NOUN=życzenia')
składać;wizyta	unseen	('VERB=składać', 'NOUN=wizyta')
składać;wyjaśnienie	unseen	('VERB=składać', 'NOUN=wyjaśnienie')
składać;zamówienie	unseen	('VERB=składać', 'NOUN=zamówienie')
składać;sprzeciw	unseen	('VERB=składać', 'NOUN=sprzeciw')
składać;zameldować	unseen	('VERB=składać', 'NOUN=zameldować')
rezygnacja;składać	unseen	('VERB=składać', 'NOUN=rezygnacja')
przyrzeczenie;składać	unseen	('VERB=składać', 'NOUN=przyrzeczenie')
głos;składać	unseen	('VERB=składać', 'NOUN=głos')
orzeczenie;uzyskać	unseen	('VERB=uzyskać', 'NOUN=orzeczenie')
konsultacja;wymierzyć	unseen	('VERB=wymierzyć', 'NOUN=konsultacja')
konsultacja;otrzymać	unseen	('VERB=otrzymać', 'NOUN=konsultacja')
dokonywać;ćwiczenie	unseen	('VERB=dokonywać', 'NOUN=ćwiczenie')
przeprowadzić;ćwiczenie	unseen	('VERB=przeprowadzić', 'NOUN=ćwiczenie')
manewr;sprawować	unseen	('VERB=sprawować', 'NOUN=manewr')
dokonać;manewr	unseen	('VERB=dokonać', 'NOUN=manewr')
manewr;przejść	unseen	('VERB=przejść', 'NOUN=manewr')
manewr;przeprowadzić	unseen	('VERB=przeprowadzić', 'NOUN=manewr')
sprawować;wznoszenie	unseen	('VERB=sprawować', 'NOUN=wznoszenie')
dokonać;wznoszenie	unseen	('VERB=dokonać', 'NOUN=wznoszenie')
przejść;wznoszenie	unseen	('VERB=przejść', 'NOUN=wznoszenie')
przeprowadzić;wznoszenie	unseen	('VERB=przeprowadzić', 'NOUN=wznoszenie')
nurkowanie;sprawować	unseen	('VERB=sprawować', 'NOUN=nurkowanie')
dokonać;nurkowanie	unseen	('VERB=dokonać', 'NOUN=nurkowanie')
nurkowanie;przejść	unseen	('VERB=przejść', 'NOUN=nurkowanie')
nurkowanie;przeprowadzić	unseen	('VERB=przeprowadzić', 'NOUN=nurkowanie')
pętla;sprawować	unseen	('VERB=sprawować', 'NOUN=pętla')
dokonać;pętla	unseen	('VERB=dokonać', 'NOUN=pętla')
przejść;pętla	unseen	('VERB=przejść', 'NOUN=pętla')
przeprowadzić;pętla	unseen	('VERB=przeprowadzić', 'NOUN=pętla')
pierwszeństwo;wykonywać	unseen	('VERB=wykonywać', 'NOUN=pierwszeństwo')
odprężenie;wykonywać	unseen	('VERB=wykonywać', 'NOUN=odprężenie')
przeżycie;wykonywać	unseen	('VERB=wykonywać', 'NOUN=przeżycie')
niepodległość;wykonywać	unseen	('VERB=wykonywać', 'NOUN=niepodległość')
dopływ;wykonywać	unseen	('VERB=wykonywać', 'NOUN=dopływ')
możliwość;wykonywać	unseen	('VERB=wykonywać', 'NOUN=możliwość')
sprawować;zwrot	unseen	('VERB=sprawować', 'NOUN=zwrot')
dokonać;zwrot	unseen	('VERB=dokonać', 'NOUN=zwrot')
przejść;zwrot	unseen	('VERB=przejść', 'NOUN=zwrot')
przeprowadzić;zwrot	unseen	('VERB=przeprowadzić', 'NOUN=zwrot')
mieć;pełnić	unseen	('VERB=mieć', 'NOUN=pełnić')
mieć;rola	unseen	('VERB=mieć', 'NOUN=rola')
mieć;wywiad	unseen	('VERB=mieć', 'NOUN=wywiad')
mieć;pełnomocnictwo	unseen	('VERB=mieć', 'NOUN=pełnomocnictwo')
mieć;reprymenda	unseen	('VERB=mieć', 'NOUN=reprymenda')
mieć;poręczenie	unseen	('VERB=mieć', 'NOUN=poręczenie')
osiągnąć;zysk	unseen	('VERB=osiągnąć', 'NOUN=zysk')
efekt;osiągnąć	unseen	('VERB=osiągnąć', 'NOUN=efekt')
osiągnąć;potwierdzić	unseen	('VERB=osiągnąć', 'NOUN=potwierdzić')
korzyść;odnieść	unseen	('VERB=odnieść', 'NOUN=korzyść')
wizyta;wymierzyć	unseen	('NOUN=wizyta', 'VERB=wymierzyć')
otrzymać;wizyta	unseen	('NOUN=wizyta', 'VERB=otrzymać')
wystawić;zarządzenie	unseen	('VERB=wystawić', 'NOUN=zarządzenie')
obrót;wprowadzić	unseen	('VERB=wprowadzić', 'NOUN=obrót')
dojść_do;wniosek	unseen	('VERB=dojść_do', 'NOUN=wniosek')
postanowienie;zawierać	unseen	('PROPN=postanowienie', 'ADJ=zawierać')
prowadzić;współpraca	unseen	('VERB=prowadzić', 'NOUN=współpraca')
prowadzić;wybór	unseen	('VERB=prowadzić', 'NOUN=wybór')
budzić;przestrach	unseen	('VERB=budzić', 'NOUN=przestrach')
budzić;zastanowienie	unseen	('VERB=budzić', 'NOUN=zastanowienie')
budzić;wątpliwość	unseen	('VERB=budzić', 'NOUN=wątpliwość')
nagroda;udzielać	unseen	('ADJ=udzielać', 'NOUN=nagroda')
udzielać;uprawnienie	unseen	('ADJ=udzielać', 'NOUN=uprawnienie')
prawo;udzielać	unseen	('ADJ=udzielać', 'NOUN=prawo')
udzielać;usługa	unseen	('ADJ=udzielać', 'NOUN=usługa')
możliwość;wywierać	unseen	('ADJ=wywierać', 'NOUN=możliwość')
gwarancja;przeprowadzić	unseen	('VERB=przeprowadzić', 'NOUN=gwarancja')
kredyt;przeprowadzić	unseen	('VERB=przeprowadzić', 'NOUN=kredyt')
przeprowadzić;urlop	unseen	('VERB=przeprowadzić', 'NOUN=urlop')
pomoc;przeprowadzić	unseen	('VERB=przeprowadzić', 'NOUN=pomoc')
poparcie;przeprowadzić	unseen	('VERB=przeprowadzić', 'NOUN=poparcie')
pełnomocnictwo;przeprowadzić	unseen	('VERB=przeprowadzić', 'NOUN=pełnomocnictwo')
przeprowadzić;zgoda	unseen	('VERB=przeprowadzić', 'NOUN=zgoda')
przeprowadzić;reprymenda	unseen	('VERB=przeprowadzić', 'NOUN=reprymenda')
poręczenie;przeprowadzić	unseen	('VERB=przeprowadzić', 'NOUN=poręczenie')
podjąć;wywiad	unseen	('VERB=podjąć', 'NOUN=wywiad')
podejmować;wywiad	unseen	('VERB=podejmować', 'NOUN=wywiad')
kontrola;nadać	unseen	('NOUN=nadać', 'NOUN=kontrola')
manewr;nadać	unseen	('NOUN=nadać', 'NOUN=manewr')
nadać;wznoszenie	unseen	('NOUN=nadać', 'NOUN=wznoszenie')
nadać;nurkowanie	unseen	('NOUN=nadać', 'NOUN=nurkowanie')
nadać;pętla	unseen	('NOUN=nadać', 'NOUN=pętla')
nadać;zwrot	unseen	('NOUN=nadać', 'NOUN=zwrot')
nadać;praca	unseen	('NOUN=nadać', 'NOUN=praca')
jedenastka;nadać	unseen	('NOUN=nadać', 'NOUN=jedenastka')
nadać;obowiązek	unseen	('NOUN=nadać', 'NOUN=obowiązek')
nadać;zajęcie	unseen	('NOUN=nadać', 'NOUN=zajęcie')
działalność;nadać	unseen	('NOUN=nadać', 'NOUN=działalność')
czynność;nadać	unseen	('NOUN=nadać', 'NOUN=czynność')
badanie;nadać	unseen	('NOUN=nadać', 'NOUN=badanie')
nadać;władza	unseen	('NOUN=nadać', 'NOUN=władza')
nadać;obserwacja	unseen	('NOUN=nadać', 'NOUN=obserwacja')
nadać;połączenie	unseen	('NOUN=nadać', 'NOUN=połączenie')
nadać;operacja	unseen	('NOUN=nadać', 'NOUN=operacja')
nadać;ruch	unseen	('NOUN=nadać', 'NOUN=ruch')
oktrojowanie;zadanie	unseen	('NOUN=oktrojowanie', 'NOUN=zadanie')
narzucenie;zadanie	unseen	('NOUN=narzucenie', 'NOUN=zadanie')
narzucać;zadanie	unseen	('NOUN=narzucać', 'NOUN=zadanie')
doprowadzić_do;pełnić	unseen	('NOUN=pełnić', 'VERB=doprowadzić_do')
przyjąć;zysk	unseen	('NOUN=przyjąć', 'NOUN=zysk')
efekt;przyjąć	unseen	('NOUN=przyjąć', 'NOUN=efekt')
potwierdzić;przyjąć	unseen	('NOUN=przyjąć', 'NOUN=potwierdzić')
przeprowadzić;współpraca	unseen	('VERB=przeprowadzić', 'NOUN=współpraca')
podjąć;współpraca	unseen	('VERB=podjąć', 'NOUN=współpraca')
dymisja;podać_do	unseen	('NOUN=dymisja', 'VERB=podać_do')
dymisja;podawać_do	unseen	('NOUN=dymisja', 'VERB=podawać_do')
dymisja;zawrzeć	unseen	('NOUN=dymisja', 'VERB=zawrzeć')
dymisja;zawierać	unseen	('NOUN=dymisja', 'VERB=zawierać')
gwarantować;wpływ	unseen	('VERB=gwarantować', 'NOUN=wpływ')
nieść;wpływ	unseen	('VERB=nieść', 'NOUN=wpływ')
wpływ;zapewnić	unseen	('VERB=zapewnić', 'NOUN=wpływ')
wpływ;zapewniać	unseen	('VERB=zapewniać', 'NOUN=wpływ')
dawać;wpływ	unseen	('VERB=dawać', 'NOUN=wpływ')
postawić;stan	unseen	('VERB=postawić', 'NOUN=stan')
praca;sprawować	unseen	('NOUN=praca', 'VERB=sprawować')
praca;przejść	unseen	('NOUN=praca', 'VERB=przejść')
aukcja;podjąć	unseen	('VERB=podjąć', 'NOUN=aukcja')
aukcja;mieć	unseen	('VERB=mieć', 'NOUN=aukcja')
aukcja;podejmować	unseen	('VERB=podejmować', 'NOUN=aukcja')
przeprowadzić;próba	unseen	('NOUN=przeprowadzić', 'NOUN=próba')
przeprowadzić;wybór	unseen	('NOUN=przeprowadzić', 'NOUN=wybór')
przeprowadzić;ryzyko	unseen	('NOUN=przeprowadzić', 'NOUN=ryzyko')
akcja;podjąć	unseen	('NOUN=podjąć', 'NOUN=akcja')
mieć;wniosek	unseen	('NOUN=wniosek', 'VERB=mieć')
prowadzić;wniosek	unseen	('NOUN=wniosek', 'VERB=prowadzić')
podstawa;sprawiać	unseen	('VERB=sprawiać', 'NOUN=podstawa')
miejsce;sprawiać	unseen	('VERB=sprawiać', 'NOUN=miejsce')
sprawiać;wartość	unseen	('VERB=sprawiać', 'NOUN=wartość')
dochód;sprawiać	unseen	('VERB=sprawiać', 'NOUN=dochód')
jedenastka;sprawować	unseen	('VERB=sprawować', 'NOUN=jedenastka')
dokonać;jedenastka	unseen	('VERB=dokonać', 'NOUN=jedenastka')
jedenastka;przejść	unseen	('VERB=przejść', 'NOUN=jedenastka')
jedenastka;przeprowadzić	unseen	('VERB=przeprowadzić', 'NOUN=jedenastka')
pełnić;wykonywać	unseen	('VERB=wykonywać', 'NOUN=pełnić')
rola;wykonywać	unseen	('VERB=wykonywać', 'NOUN=rola')
dokonać;obowiązek	unseen	('VERB=dokonać', 'NOUN=obowiązek')
obowiązek;przejść	unseen	('VERB=przejść', 'NOUN=obowiązek')
obowiązek;przeprowadzić	unseen	('VERB=przeprowadzić', 'NOUN=obowiązek')
przeprowadzić;uchwała	unseen	('VERB=przeprowadzić', 'NOUN=uchwała')
inicjatywa;przeprowadzić	unseen	('VERB=przeprowadzić', 'NOUN=inicjatywa')
przeprowadzić;wysiłek	unseen	('VERB=przeprowadzić', 'NOUN=wysiłek')
inwestycja;mieć	unseen	('VERB=mieć', 'NOUN=inwestycja')
instrukcja;wystawić	unseen	('VERB=wystawić', 'NOUN=instrukcja')
wymierzyć;zajęcia	unseen	('VERB=wymierzyć', 'NOUN=zajęcia')
otrzymać;zajęcia	unseen	('VERB=otrzymać', 'NOUN=zajęcia')
nagroda;uwzględniać	unseen	('NOUN=nagroda', 'ADJ=uwzględniać')
uprawnienie;uwzględniać	unseen	('NOUN=uprawnienie', 'ADJ=uwzględniać')
prawo;uwzględniać	unseen	('NOUN=prawo', 'ADJ=uwzględniać')
usługa;uwzględniać	unseen	('NOUN=usługa', 'ADJ=uwzględniać')
dawać;zakaz	unseen	('VERB=dawać', 'PROPN=zakaz')
dawać;uczta	unseen	('VERB=dawać', 'PROPN=uczta')
dawać;zgoda	unseen	('VERB=dawać', 'PROPN=zgoda')
dawać;pomruk	unseen	('VERB=dawać', 'PROPN=pomruk')
dostawać;seks	unseen	('VERB=dostawać', 'NOUN=seks')
dostawać;proceder	unseen	('VERB=dostawać', 'NOUN=proceder')
dostawać;indoktrynacja	unseen	('VERB=dostawać', 'NOUN=indoktrynacja')
dostawać;myślenie	unseen	('VERB=dostawać', 'NOUN=myślenie')
dostawać;propaganda	unseen	('VERB=dostawać', 'NOUN=propaganda')
dostać;miłość	unseen	('VERB=dostać', 'NOUN=miłość')
wyrok;wystawić	unseen	('VERB=wystawić', 'NOUN=wyrok')
gwarantować;pierwszeństwo	unseen	('VERB=gwarantować', 'NOUN=pierwszeństwo')
gwarantować;odprężenie	unseen	('VERB=gwarantować', 'NOUN=odprężenie')
gwarantować;przeżycie	unseen	('VERB=gwarantować', 'NOUN=przeżycie')
gwarantować;niepodległość	unseen	('VERB=gwarantować', 'NOUN=niepodległość')
dopływ;gwarantować	unseen	('VERB=gwarantować', 'NOUN=dopływ')
gwarantować;zwrot	unseen	('VERB=gwarantować', 'NOUN=zwrot')
zakup;zobowiązać_do	unseen	('VERB=zobowiązać_do', 'NOUN=zakup')
odnosić;podstawa	unseen	('VERB=odnosić', 'NOUN=podstawa')
miejsce;odnosić	unseen	('VERB=odnosić', 'NOUN=miejsce')
odnosić;wartość	unseen	('VERB=odnosić', 'NOUN=wartość')
kredyt;nakładać	unseen	('VERB=nakładać', 'NOUN=kredyt')
nagroda;nakładać	unseen	('VERB=nakładać', 'NOUN=nagroda')
nakładać;uprawnienie	unseen	('VERB=nakładać', 'NOUN=uprawnienie')
nakładać;usługa	unseen	('VERB=nakładać', 'NOUN=usługa')
prawo;wykonywać	unseen	('VERB=wykonywać', 'NOUN=prawo')
powierzyć;prawo	unseen	('VERB=powierzyć', 'NOUN=prawo')
prawo;sprawować	unseen	('VERB=sprawować', 'NOUN=prawo')
nakładać;pełnić	unseen	('VERB=nakładać', 'NOUN=pełnić')
nakładać;rola	unseen	('VERB=nakładać', 'NOUN=rola')
podróż;prowadzić	unseen	('VERB=prowadzić', 'NOUN=podróż')
prowadzić;stosunek	unseen	('VERB=prowadzić', 'NOUN=stosunek')
konsultacja;prowadzić	unseen	('VERB=prowadzić', 'NOUN=konsultacja')
prowadzić;wizyta	unseen	('VERB=prowadzić', 'NOUN=wizyta')
prowadzić;służba	unseen	('VERB=prowadzić', 'NOUN=służba')
kara;prowadzić	unseen	('VERB=prowadzić', 'NOUN=kara')
prowadzić;warsztaty	unseen	('NOUN=prowadzić', 'NOUN=warsztaty')
oferować;podstawa	unseen	('ADJ=oferować', 'NOUN=podstawa')
oferować;wrażenie	unseen	('ADJ=oferować', 'NOUN=wrażenie')
oferować;wartość	unseen	('ADJ=oferować', 'NOUN=wartość')
dochód;oferować	unseen	('ADJ=oferować', 'NOUN=dochód')
sprawować;zajęcie	unseen	('NOUN=sprawować', 'NOUN=zajęcie')
dokonać;zajęcie	unseen	('NOUN=dokonać', 'NOUN=zajęcie')
przejść;zajęcie	unseen	('NOUN=przejść', 'NOUN=zajęcie')
przeprowadzić;zajęcie	unseen	('NOUN=przeprowadzić', 'NOUN=zajęcie')
bój;stoczyć	unseen	('NOUN=bój', 'VERB=stoczyć')
bój;prowadzić	unseen	('NOUN=bój', 'VERB=prowadzić')
dostać;kredyt	unseen	('VERB=dostać', 'NOUN=kredyt')
obietnica;złożyć	unseen	('NOUN=złożyć', 'NOUN=obietnica')
dokonywać;zadanie	unseen	('NOUN=dokonywać', 'PROPN=zadanie')
sprawić;wrażenie	unseen	('VERB=sprawić', 'NOUN=wrażenie')
kłopot;sprawić	unseen	('VERB=sprawić', 'NOUN=kłopot')
radość;sprawić	unseen	('VERB=sprawić', 'NOUN=radość')
problem;sprawić	unseen	('VERB=sprawić', 'NOUN=problem')
dawać;zysk	unseen	('ADJ=dawać', 'NOUN=zysk')
dawać;potwierdzić	unseen	('ADJ=dawać', 'NOUN=potwierdzić')
dawać;korzyść	unseen	('ADJ=dawać', 'NOUN=korzyść')
chrzt;uwzględniać	unseen	('VERB=uwzględniać', 'NOUN=chrzt')
mieć_na;myśl	unseen	('VERB=mieć_na', 'NOUN=myśl')
ankieta;podjąć	unseen	('NOUN=ankieta', 'ADJ=podjąć')
ankieta;mieć	unseen	('NOUN=ankieta', 'ADJ=mieć')
ankieta;podejmować	unseen	('NOUN=ankieta', 'ADJ=podejmować')
kontrowersja;mieć	unseen	('VERB=mieć', 'NOUN=kontrowersja')
emocja;mieć	unseen	('VERB=mieć', 'NOUN=emocja')
mieć;podziw	unseen	('VERB=mieć', 'NOUN=podziw')
przedstawienie;wydać	unseen	('NOUN=przedstawienie', 'VERB=wydać')
dysponować;pierwszeństwo	unseen	('NOUN=pierwszeństwo', 'VERB=dysponować')
dysponować;odprężenie	unseen	('NOUN=odprężenie', 'VERB=dysponować')
dysponować;przeżycie	unseen	('NOUN=przeżycie', 'VERB=dysponować')
dysponować;niepodległość	unseen	('NOUN=niepodległość', 'VERB=dysponować')
dopływ;dysponować	unseen	('NOUN=dopływ', 'VERB=dysponować')
dysponować;zwrot	unseen	('NOUN=zwrot', 'VERB=dysponować')
dochód;zdobyć	unseen	('VERB=zdobyć', 'NOUN=dochód')
pozwolenie;zdobyć	unseen	('VERB=zdobyć', 'NOUN=pozwolenie')
atest;zdobyć	unseen	('VERB=zdobyć', 'NOUN=atest')
zdobyć;zgoda	unseen	('VERB=zdobyć', 'NOUN=zgoda')
dopłata;zdobyć	unseen	('VERB=zdobyć', 'NOUN=dopłata')
zapłata;zdobyć	unseen	('VERB=zdobyć', 'NOUN=zapłata')
przychód;zdobyć	unseen	('VERB=zdobyć', 'NOUN=przychód')
kontrola;podjąć	unseen	('NOUN=kontrola', 'VERB=podjąć')
kontrola;podejmować	unseen	('NOUN=kontrola', 'VERB=podejmować')
otrzymać;protest	unseen	('NOUN=protest', 'VERB=otrzymać')
ofiara;otrzymać	unseen	('NOUN=ofiara', 'VERB=otrzymać')
donos;otrzymać	unseen	('NOUN=donos', 'VERB=otrzymać')
otrzymać;zeznanie	unseen	('NOUN=zeznanie', 'VERB=otrzymać')
otrzymać;pozew	unseen	('NOUN=pozew', 'VERB=otrzymać')
otrzymać;wniosek	unseen	('NOUN=wniosek', 'VERB=otrzymać')
podjąć;wyliczenie	unseen	('NOUN=wyliczenie', 'VERB=podjąć')
mieć;wyliczenie	unseen	('NOUN=wyliczenie', 'VERB=mieć')
podejmować;wyliczenie	unseen	('NOUN=wyliczenie', 'VERB=podejmować')
odnieść;sława	unseen	('VERB=odnieść', 'NOUN=sława')
udzielać;zawiadomienie	unseen	('VERB=udzielać', 'NOUN=zawiadomienie')
pozew;udzielać	unseen	('VERB=udzielać', 'NOUN=pozew')
dymisja;udzielać	unseen	('VERB=udzielać', 'NOUN=dymisja')
podpis;udzielać	unseen	('VERB=udzielać', 'NOUN=podpis')
deklaracja;udzielać	unseen	('VERB=udzielać', 'NOUN=deklaracja')
udzielać;zobowiązanie	unseen	('VERB=udzielać', 'NOUN=zobowiązanie')
doniesienie;udzielać	unseen	('VERB=udzielać', 'NOUN=doniesienie')
skarga;udzielać	unseen	('VERB=udzielać', 'NOUN=skarga')
udzielać;wniosek	unseen	('VERB=udzielać', 'NOUN=wniosek')
prośba;udzielać	unseen	('VERB=udzielać', 'NOUN=prośba')
udzielać;życzenia	unseen	('VERB=udzielać', 'NOUN=życzenia')
udzielać;wizyta	unseen	('VERB=udzielać', 'NOUN=wizyta')
udzielać;zamówienie	unseen	('VERB=udzielać', 'NOUN=zamówienie')
propozycja;udzielać	unseen	('VERB=udzielać', 'NOUN=propozycja')
sprzeciw;udzielać	unseen	('VERB=udzielać', 'NOUN=sprzeciw')
protest;udzielać	unseen	('VERB=udzielać', 'NOUN=protest')
udzielać;zeznanie	unseen	('VERB=udzielać', 'NOUN=zeznanie')
udzielać;zameldować	unseen	('VERB=udzielać', 'NOUN=zameldować')
oferta;udzielać	unseen	('VERB=udzielać', 'NOUN=oferta')
rezygnacja;udzielać	unseen	('VERB=udzielać', 'NOUN=rezygnacja')
przyrzeczenie;udzielać	unseen	('VERB=udzielać', 'NOUN=przyrzeczenie')
ofiara;udzielać	unseen	('VERB=udzielać', 'NOUN=ofiara')
głos;udzielać	unseen	('VERB=udzielać', 'NOUN=głos')
uwzględniać;wyjaśnienie	unseen	('VERB=uwzględniać', 'NOUN=wyjaśnienie')
stanowić;złuszczać	unseen	('VERB=stanowić', 'NOUN=złuszczać')
odpadać;stanowić	unseen	('VERB=stanowić', 'NOUN=odpadać')
ból;stanowić	unseen	('VERB=stanowić', 'NOUN=ból')
stanowić;zatrucie	unseen	('VERB=stanowić', 'NOUN=zatrucie')
posiadać;zagrożenie	unseen	('VERB=posiadać', 'NOUN=zagrożenie')
pozwolenie;przynieść	unseen	('VERB=przynieść', 'NOUN=pozwolenie')
atest;przynieść	unseen	('VERB=przynieść', 'NOUN=atest')
przynieść;zgoda	unseen	('VERB=przynieść', 'NOUN=zgoda')
dopłata;przynieść	unseen	('VERB=przynieść', 'NOUN=dopłata')
przynieść;zapłata	unseen	('VERB=przynieść', 'NOUN=zapłata')
przychód;przynieść	unseen	('VERB=przynieść', 'NOUN=przychód')
kredyt;wprowadzić	unseen	('VERB=wprowadzić', 'NOUN=kredyt')
nagroda;wprowadzić	unseen	('VERB=wprowadzić', 'NOUN=nagroda')
uprawnienie;wprowadzić	unseen	('VERB=wprowadzić', 'NOUN=uprawnienie')
usługa;wprowadzić	unseen	('VERB=wprowadzić', 'NOUN=usługa')
prowadzić;przychód	unseen	('NOUN=przychód', 'ADJ=prowadzić')
prowadzić;zasilać	unseen	('NOUN=zasilać', 'ADJ=prowadzić')
prowadzić;łączność	unseen	('NOUN=łączność', 'ADJ=prowadzić')
prowadzić;przepływ	unseen	('NOUN=przepływ', 'ADJ=prowadzić')
konkurencyjność;prowadzić	unseen	('NOUN=konkurencyjność', 'ADJ=prowadzić')
bezpieczeństwo;prowadzić	unseen	('NOUN=bezpieczeństwo', 'ADJ=prowadzić')
czas;prowadzić	unseen	('NOUN=czas', 'ADJ=prowadzić')
prowadzić;wiedza	unseen	('NOUN=wiedza', 'ADJ=prowadzić')
prowadzić;przyczepność	unseen	('NOUN=przyczepność', 'ADJ=prowadzić')
możliwość;prowadzić	unseen	('NOUN=możliwość', 'ADJ=prowadzić')
czystość;prowadzić	unseen	('NOUN=czystość', 'ADJ=prowadzić')
porządek;prowadzić	unseen	('NOUN=porządek', 'ADJ=prowadzić')
prowadzić;zabawa	unseen	('NOUN=zabawa', 'ADJ=prowadzić')
apolityczność;prowadzić	unseen	('NOUN=apolityczność', 'ADJ=prowadzić')
prawo;prowadzić	unseen	('NOUN=prawo', 'ADJ=prowadzić')
prowadzić;przejrzystość	unseen	('NOUN=przejrzystość', 'ADJ=prowadzić')
nagroda;wziąć	unseen	('VERB=wziąć', 'NOUN=nagroda')
uprawnienie;wziąć	unseen	('VERB=wziąć', 'NOUN=uprawnienie')
prawo;wziąć	unseen	('VERB=wziąć', 'NOUN=prawo')
usługa;wziąć	unseen	('VERB=wziąć', 'NOUN=usługa')
mieć;nazwisko	unseen	('VERB=mieć', 'NOUN=nazwisko')
mieć;nazwa	unseen	('VERB=mieć', 'NOUN=nazwa')
dać_do;zrozumienie	unseen	('VERB=dać_do', 'NOUN=zrozumienie')
efekt;uzyskiwać	unseen	('VERB=uzyskiwać', 'NOUN=efekt')
otrzymywać;schronienie	unseen	('VERB=otrzymywać', 'NOUN=schronienie')
narazić;strata	unseen	('NOUN=narazić', 'NOUN=strata')
korzystać_z;zasiłek	unseen	('NOUN=zasiłek', 'VERB=korzystać_z')
pomoc;przyznawać	unseen	('NOUN=pomoc', 'VERB=przyznawać')
podstawa;robić	unseen	('VERB=robić', 'NOUN=podstawa')
miejsce;robić	unseen	('VERB=robić', 'NOUN=miejsce')
robić;wartość	unseen	('VERB=robić', 'NOUN=wartość')
dochód;robić	unseen	('VERB=robić', 'NOUN=dochód')
koszt;mieć	unseen	('ADJ=mieć', 'NOUN=koszt')
służba;wymierzyć	unseen	('VERB=wymierzyć', 'NOUN=służba')
otrzymać;służba	unseen	('VERB=otrzymać', 'NOUN=służba')
oddać;użytek	unseen	('VERB=oddać', 'NOUN=użytek')
sprawować;zadanie	unseen	('NOUN=sprawować', 'NOUN=zadanie')
działalność;sprawować	unseen	('NOUN=sprawować', 'NOUN=działalność')
czynność;sprawować	unseen	('NOUN=sprawować', 'NOUN=czynność')
badanie;sprawować	unseen	('NOUN=sprawować', 'NOUN=badanie')
obserwacja;sprawować	unseen	('NOUN=sprawować', 'NOUN=obserwacja')
połączenie;sprawować	unseen	('NOUN=sprawować', 'NOUN=połączenie')
operacja;sprawować	unseen	('NOUN=sprawować', 'NOUN=operacja')
ruch;sprawować	unseen	('NOUN=sprawować', 'NOUN=ruch')
donos;złożyć	unseen	('VERB=złożyć', 'NOUN=donos')
przejść;zadanie	unseen	('VERB=przejść', 'NOUN=zadanie')
pomysł;wpadać_na	unseen	('NOUN=pomysł', 'VERB=wpadać_na')
podstawa;stanowić	unseen	('VERB=stanowić', 'NOUN=podstawa')
stanowić;wrażenie	unseen	('VERB=stanowić', 'NOUN=wrażenie')
miejsce;stanowić	unseen	('VERB=stanowić', 'NOUN=miejsce')
dochód;stanowić	unseen	('VERB=stanowić', 'NOUN=dochód')
podstawa;wywołać	unseen	('VERB=wywołać', 'NOUN=podstawa')
miejsce;wywołać	unseen	('VERB=wywołać', 'NOUN=miejsce')
wartość;wywołać	unseen	('VERB=wywołać', 'NOUN=wartość')
dochód;wywołać	unseen	('VERB=wywołać', 'NOUN=dochód')
mieć_na;uwaga	unseen	('VERB=mieć_na', 'NOUN=uwaga')
przyznać;życzenie	unseen	('ADJ=przyznać', 'NOUN=życzenie')
mieć_w;zwyczaj	unseen	('NOUN=zwyczaj', 'VERB=mieć_w')
dostać_w;życzenie	unseen	('NOUN=życzenie', 'VERB=dostać_w')
dostać;życzenie	unseen	('VERB=dostać', 'NOUN=życzenie')
dochód;wydać	unseen	('NOUN=wydać', 'PROPN=dochód')
wydać;wynik	unseen	('NOUN=wydać', 'PROPN=wynik')
atest;wydać	unseen	('NOUN=wydać', 'PROPN=atest')
dopłata;wydać	unseen	('NOUN=wydać', 'PROPN=dopłata')
wydać;zapłata	unseen	('NOUN=wydać', 'PROPN=zapłata')
przychód;wydać	unseen	('NOUN=wydać', 'PROPN=przychód')
pozwolenie;wystawić	unseen	('NOUN=wystawić', 'PROPN=pozwolenie')
emigracja;przebywać_na	unseen	('NOUN=emigracja', 'VERB=przebywać_na')
rodzić;strata	unseen	('VERB=rodzić', 'NOUN=strata')
dokonać;działalność	unseen	('NOUN=działalność', 'NOUN=dokonać')
działalność;przejść	unseen	('NOUN=działalność', 'NOUN=przejść')
działalność;przeprowadzić	unseen	('NOUN=działalność', 'NOUN=przeprowadzić')
osiągać;zysk	unseen	('VERB=osiągać', 'NOUN=zysk')
efekt;osiągać	unseen	('VERB=osiągać', 'NOUN=efekt')
osiągać;potwierdzić	unseen	('VERB=osiągać', 'NOUN=potwierdzić')
otrzymać;zawiadomienie	unseen	('VERB=otrzymać', 'NOUN=zawiadomienie')
dymisja;otrzymać	unseen	('VERB=otrzymać', 'NOUN=dymisja')
otrzymać;podpis	unseen	('VERB=otrzymać', 'NOUN=podpis')
deklaracja;otrzymać	unseen	('VERB=otrzymać', 'NOUN=deklaracja')
otrzymać;zobowiązanie	unseen	('VERB=otrzymać', 'NOUN=zobowiązanie')
otrzymać;skarga	unseen	('VERB=otrzymać', 'NOUN=skarga')
otrzymać;prośba	unseen	('VERB=otrzymać', 'NOUN=prośba')
otrzymać;życzenia	unseen	('VERB=otrzymać', 'NOUN=życzenia')
otrzymać;wyjaśnienie	unseen	('VERB=otrzymać', 'NOUN=wyjaśnienie')
otrzymać;zamówienie	unseen	('VERB=otrzymać', 'NOUN=zamówienie')
otrzymać;sprzeciw	unseen	('VERB=otrzymać', 'NOUN=sprzeciw')
otrzymać;zameldować	unseen	('VERB=otrzymać', 'NOUN=zameldować')
otrzymać;rezygnacja	unseen	('VERB=otrzymać', 'NOUN=rezygnacja')
otrzymać;przyrzeczenie	unseen	('VERB=otrzymać', 'NOUN=przyrzeczenie')
odkrycie;popełnić	unseen	('NOUN=odkrycie', 'ADJ=popełnić')
otwarcie;popełnić	unseen	('NOUN=otwarcie', 'ADJ=popełnić')
popełnić;włamanie	unseen	('NOUN=włamanie', 'ADJ=popełnić')
odnieść;orgazm	unseen	('NOUN=orgazm', 'VERB=odnieść')
osiągnąć;sukces	unseen	('NOUN=sukces', 'VERB=osiągnąć')
mieć;stan	unseen	('VERB=mieć', 'NOUN=stan')
mieć;teza	unseen	('VERB=mieć', 'NOUN=teza')
mieć;weto	unseen	('VERB=mieć', 'NOUN=weto')
halucynacja;spowodować	unseen	('NOUN=halucynacja', 'ADJ=spowodować')
spowodować;zmiana	unseen	('NOUN=zmiana', 'ADJ=spowodować')
spowodować;zapomnienie	unseen	('NOUN=zapomnienie', 'ADJ=spowodować')
spowodować;zgnieść	unseen	('NOUN=zgnieść', 'ADJ=spowodować')
rozszerzyć;spowodować	unseen	('NOUN=rozszerzyć', 'ADJ=spowodować')
podjąć;transplantacja	unseen	('NOUN=transplantacja', 'ADJ=podjąć')
mieć;transplantacja	unseen	('NOUN=transplantacja', 'ADJ=mieć')
podejmować;transplantacja	unseen	('NOUN=transplantacja', 'ADJ=podejmować')
bitwa;toczyć	unseen	('VERB=toczyć', 'NOUN=bitwa')
bitwa;prowadzić	unseen	('VERB=prowadzić', 'NOUN=bitwa')
koalicja;zawierać	unseen	('NOUN=zawierać', 'NOUN=koalicja')
dostać;praca	unseen	('VERB=dostać', 'NOUN=praca')
dostać;ćwiczenie	unseen	('VERB=dostać', 'NOUN=ćwiczenie')
analiza;dostać	unseen	('VERB=dostać', 'NOUN=analiza')
dostać;skok	unseen	('VERB=dostać', 'NOUN=skok')
badanie;dostać	unseen	('VERB=dostać', 'NOUN=badanie')
dostać;zadanie	unseen	('VERB=dostać', 'NOUN=zadanie')
czynność;dokonać	unseen	('VERB=dokonać', 'NOUN=czynność')
czynność;przejść	unseen	('VERB=przejść', 'NOUN=czynność')
czynność;przeprowadzić	unseen	('VERB=przeprowadzić', 'NOUN=czynność')
mieć;niebezpieczeństwo	unseen	('VERB=mieć', 'NOUN=niebezpieczeństwo')
analiza;dokonywać	unseen	('VERB=dokonywać', 'NOUN=analiza')
dokonywać;koncesja	unseen	('VERB=dokonywać', 'NOUN=koncesja')
badanie;dokonywać	unseen	('VERB=dokonywać', 'NOUN=badanie')
oferta;wychodzić_z	unseen	('NOUN=oferta', 'VERB=wychodzić_z')
tworzyć;wartość	unseen	('VERB=tworzyć', 'NOUN=wartość')
dokonywać;ryzyko	unseen	('VERB=dokonywać', 'NOUN=ryzyko')
decyzja;dokonywać	unseen	('VERB=dokonywać', 'NOUN=decyzja')
dokonywać;uchwała	unseen	('VERB=dokonywać', 'NOUN=uchwała')
dokonywać;inicjatywa	unseen	('VERB=dokonywać', 'NOUN=inicjatywa')
dokonywać;wysiłek	unseen	('VERB=dokonywać', 'NOUN=wysiłek')
dokonywać;działanie	unseen	('VERB=dokonywać', 'NOUN=działanie')
dokonywać;inwestycja	unseen	('VERB=dokonywać', 'NOUN=inwestycja')
mieć;próba	unseen	('VERB=mieć', 'NOUN=próba')
mieć;zgromadzenie	unseen	('VERB=mieć', 'NOUN=zgromadzenie')
mieć;tarło	unseen	('VERB=mieć', 'NOUN=tarło')
mieć;staż	unseen	('VERB=mieć', 'NOUN=staż')
stwarzać;złuszczać	unseen	('VERB=stwarzać', 'NOUN=złuszczać')
odpadać;stwarzać	unseen	('VERB=stwarzać', 'NOUN=odpadać')
ból;stwarzać	unseen	('VERB=stwarzać', 'NOUN=ból')
stwarzać;zatrucie	unseen	('VERB=stwarzać', 'NOUN=zatrucie')
czystka;podjąć	unseen	('VERB=podjąć', 'NOUN=czystka')
czystka;mieć	unseen	('VERB=mieć', 'NOUN=czystka')
czystka;podejmować	unseen	('VERB=podejmować', 'NOUN=czystka')
odbyć;warsztaty	unseen	('VERB=odbyć', 'NOUN=warsztaty')
rozmowa;wymierzyć	unseen	('VERB=wymierzyć', 'NOUN=rozmowa')
otrzymać;rozmowa	unseen	('VERB=otrzymać', 'NOUN=rozmowa')
wprowadzić;wrażenie	unseen	('PROPN=wrażenie', 'VERB=wprowadzić')
dreszcz;wprowadzić	unseen	('PROPN=dreszcz', 'VERB=wprowadzić')
niebezpieczeństwo;ponieść	unseen	('VERB=ponieść', 'NOUN=niebezpieczeństwo')
bramka;uzyskać	unseen	('NOUN=uzyskać', 'NOUN=bramka')
bramka;przynieść	unseen	('NOUN=przynieść', 'NOUN=bramka')
bramka;mieć	unseen	('NOUN=mieć', 'NOUN=bramka')
mieć;szkoda	unseen	('ADJ=mieć', 'NOUN=szkoda')
chwała;mieć	unseen	('ADJ=mieć', 'NOUN=chwała')
klęska;mieć	unseen	('ADJ=mieć', 'NOUN=klęska')
mieć;pożytek	unseen	('ADJ=mieć', 'NOUN=pożytek')
mieć;opóźnienie	unseen	('ADJ=mieć', 'NOUN=opóźnienie')
szacunek;zdobyć	unseen	('VERB=zdobyć', 'NOUN=szacunek')
zaufanie;zdobyć	unseen	('VERB=zdobyć', 'NOUN=zaufanie')
kontrowersja;zdobyć	unseen	('VERB=zdobyć', 'NOUN=kontrowersja')
emocja;zdobyć	unseen	('VERB=zdobyć', 'NOUN=emocja')
podziw;zdobyć	unseen	('VERB=zdobyć', 'NOUN=podziw')
uznanie;uzyskać	unseen	('VERB=uzyskać', 'NOUN=uznanie')
oferta;wyjść_z	unseen	('NOUN=oferta', 'VERB=wyjść_z')
inicjatywa;przyjąć	unseen	('NOUN=przyjąć', 'NOUN=inicjatywa')
uczta;wydać	unseen	('NOUN=wydać', 'NOUN=uczta')
polecenie;wydać	unseen	('NOUN=wydać', 'NOUN=polecenie')
pomruk;wydać	unseen	('NOUN=wydać', 'NOUN=pomruk')
wystawić;zakaz	unseen	('NOUN=wystawić', 'NOUN=zakaz')
odnosić;zysk	unseen	('VERB=odnosić', 'NOUN=zysk')
efekt;odnosić	unseen	('VERB=odnosić', 'NOUN=efekt')
odnosić;potwierdzić	unseen	('VERB=odnosić', 'NOUN=potwierdzić')
korzyść;sprawiać	unseen	('VERB=sprawiać', 'NOUN=korzyść')
korzyść;robić	unseen	('VERB=robić', 'NOUN=korzyść')
korzyść;wywołać	unseen	('VERB=wywołać', 'NOUN=korzyść')
korzyść;tworzyć	unseen	('VERB=tworzyć', 'NOUN=korzyść')
mieć;ryzyko	unseen	('VERB=mieć', 'NOUN=ryzyko')
dokonać;wymóg	unseen	('VERB=dokonać', 'NOUN=wymóg')
mieć;świadczenie	unseen	('VERB=mieć', 'NOUN=świadczenie')
chrzt;mieć	unseen	('VERB=mieć', 'NOUN=chrzt')
mieć;wyjaśnienie	unseen	('VERB=mieć', 'NOUN=wyjaśnienie')
mieć;wypowiedź	unseen	('VERB=mieć', 'NOUN=wypowiedź')
mieć;porada	unseen	('VERB=mieć', 'NOUN=porada')
otrzymać;zasiłek	unseen	('VERB=otrzymać', 'NOUN=zasiłek')
złożyć;żądanie	unseen	('NOUN=żądanie', 'ADJ=złożyć')
podstawa;posiadać	unseen	('VERB=posiadać', 'NOUN=podstawa')
posiadać;wrażenie	unseen	('VERB=posiadać', 'NOUN=wrażenie')
miejsce;posiadać	unseen	('VERB=posiadać', 'NOUN=miejsce')
dochód;posiadać	unseen	('VERB=posiadać', 'NOUN=dochód')
obudzić;reakcja	unseen	('VERB=obudzić', 'NOUN=reakcja')
choroba;obudzić	unseen	('VERB=obudzić', 'NOUN=choroba')
obudzić;symptom	unseen	('VERB=obudzić', 'NOUN=symptom')
grypa;obudzić	unseen	('VERB=obudzić', 'NOUN=grypa')
kredyt;tworzyć	unseen	('NOUN=tworzyć', 'PROPN=kredyt')
nagroda;tworzyć	unseen	('NOUN=tworzyć', 'PROPN=nagroda')
tworzyć;uprawnienie	unseen	('NOUN=tworzyć', 'PROPN=uprawnienie')
tworzyć;usługa	unseen	('NOUN=tworzyć', 'PROPN=usługa')
obowiązek;rola	unseen	('VERB=rola', 'NOUN=obowiązek')
obowiązek;obowiązek	unseen	('VERB=obowiązek', 'NOUN=obowiązek')
obowiązek;stanowisko	unseen	('VERB=stanowisko', 'NOUN=obowiązek')
funkcja;obowiązek	unseen	('VERB=funkcja', 'NOUN=obowiązek')
obowiązek;straż	unseen	('VERB=straż', 'NOUN=obowiązek')
dyżur;obowiązek	unseen	('VERB=dyżur', 'NOUN=obowiązek')
dyżura;obowiązek	unseen	('VERB=dyżura', 'NOUN=obowiązek')
obowiązek;służba	unseen	('VERB=służba', 'NOUN=obowiązek')
korzystać_z;pomoc	unseen	('NOUN=pomoc', 'VERB=korzystać_z')
dać;warunki	unseen	('VERB=dać', 'NOUN=warunki')
dać;okazja	unseen	('VERB=dać', 'NOUN=okazja')
dać;zagrożenie	unseen	('VERB=dać', 'NOUN=zagrożenie')
dać;wzór	unseen	('VERB=dać', 'NOUN=wzór')
dać;pogląd	unseen	('VERB=dać', 'NOUN=pogląd')
prawo;wydawać	unseen	('NOUN=wydawać', 'NOUN=prawo')
interes;spowodować	unseen	('VERB=spowodować', 'NOUN=interes')
spowodować;wrażenie	unseen	('VERB=spowodować', 'NOUN=wrażenie')
spowodować;zakup	unseen	('VERB=spowodować', 'NOUN=zakup')
spowodować;uwaga	unseen	('VERB=spowodować', 'NOUN=uwaga')
majątek;spowodować	unseen	('VERB=spowodować', 'NOUN=majątek')
krzywda;spowodować	unseen	('VERB=spowodować', 'NOUN=krzywda')
doktorat;spowodować	unseen	('VERB=spowodować', 'NOUN=doktorat')
spowodować;świństwo	unseen	('VERB=spowodować', 'NOUN=świństwo')
spowodować;unik	unseen	('VERB=spowodować', 'NOUN=unik')
dostać;uprawnienie	unseen	('NOUN=dostać', 'NOUN=uprawnienie')
wniosek;wystawić	unseen	('VERB=wystawić', 'NOUN=wniosek')
imię;oktrojowanie	unseen	('VERB=oktrojowanie', 'NOUN=imię')
imię;narzucenie	unseen	('VERB=narzucenie', 'NOUN=imię')
imię;narzucać	unseen	('VERB=narzucać', 'NOUN=imię')
darzyć;kontrowersja	unseen	('VERB=darzyć', 'NOUN=kontrowersja')
darzyć;emocja	unseen	('VERB=darzyć', 'NOUN=emocja')
darzyć;uznanie	unseen	('VERB=darzyć', 'NOUN=uznanie')
darzyć;podziw	unseen	('VERB=darzyć', 'NOUN=podziw')
przysporzyć;zaufanie	unseen	('VERB=przysporzyć', 'NOUN=zaufanie')
pałać;zaufanie	unseen	('VERB=pałać', 'NOUN=zaufanie')
podjąć;strajk	unseen	('VERB=podjąć', 'NOUN=strajk')
mieć;strajk	unseen	('VERB=mieć', 'NOUN=strajk')
podejmować;strajk	unseen	('VERB=podejmować', 'NOUN=strajk')
lekcja;uwzględniać	unseen	('NOUN=lekcja', 'VERB=uwzględniać')
dokonywać;samobójstwo	unseen	('NOUN=samobójstwo', 'ADJ=dokonywać')
rozporządzenie;wystawić	unseen	('VERB=wystawić', 'NOUN=rozporządzenie')
składać;użytek	unseen	('NOUN=użytek', 'VERB=składać')
składać;usługa	unseen	('NOUN=usługa', 'VERB=składać')
składać;strzał	unseen	('NOUN=strzał', 'VERB=składać')
hołd;złożyć	unseen	('NOUN=hołd', 'VERB=złożyć')
otrzymać;upomnienie	unseen	('NOUN=upomnienie', 'VERB=otrzymać')
otrzymać;wymówienie	unseen	('NOUN=wymówienie', 'VERB=otrzymać')
koncesja;otrzymać	unseen	('NOUN=koncesja', 'VERB=otrzymać')
otrzymać;upust	unseen	('NOUN=upust', 'VERB=otrzymać')
otrzymać;rekomendacja	unseen	('NOUN=rekomendacja', 'VERB=otrzymać')
otrzymać;rozstrój	unseen	('NOUN=rozstrój', 'VERB=otrzymać')
buziak;otrzymać	unseen	('NOUN=buziak', 'VERB=otrzymać')
otrzymać;zaproszenie	unseen	('NOUN=zaproszenie', 'VERB=otrzymać')
odszkodowanie;otrzymać	unseen	('NOUN=odszkodowanie', 'VERB=otrzymać')
otrzymać;zarzut	unseen	('NOUN=zarzut', 'VERB=otrzymać')
otrzymać;zakaz	unseen	('NOUN=zakaz', 'VERB=otrzymać')
otrzymać;telefon	unseen	('NOUN=telefon', 'VERB=otrzymać')
otrzymać;ulga	unseen	('NOUN=ulga', 'VERB=otrzymać')
atest;mieć	unseen	('VERB=mieć', 'NOUN=atest')
dopłata;mieć	unseen	('VERB=mieć', 'NOUN=dopłata')
mieć;zapłata	unseen	('VERB=mieć', 'NOUN=zapłata')
dawać;szkolenie	unseen	('VERB=dawać', 'NOUN=szkolenie')
dawać;przychód	unseen	('VERB=dawać', 'NOUN=przychód')
dawać;zasilać	unseen	('VERB=dawać', 'NOUN=zasilać')
dawać;łączność	unseen	('VERB=dawać', 'NOUN=łączność')
dawać;przepływ	unseen	('VERB=dawać', 'NOUN=przepływ')
dawać;konkurencyjność	unseen	('VERB=dawać', 'NOUN=konkurencyjność')
bezpieczeństwo;dawać	unseen	('VERB=dawać', 'NOUN=bezpieczeństwo')
dawać;wiedza	unseen	('VERB=dawać', 'NOUN=wiedza')
dawać;przyczepność	unseen	('VERB=dawać', 'NOUN=przyczepność')
czystość;dawać	unseen	('VERB=dawać', 'NOUN=czystość')
dawać;porządek	unseen	('VERB=dawać', 'NOUN=porządek')
dawać;zabawa	unseen	('VERB=dawać', 'NOUN=zabawa')
apolityczność;dawać	unseen	('VERB=dawać', 'NOUN=apolityczność')
dawać;przejrzystość	unseen	('VERB=dawać', 'NOUN=przejrzystość')
dawać;kredyt	unseen	('VERB=dawać', 'NOUN=kredyt')
dawać;nagroda	unseen	('VERB=dawać', 'NOUN=nagroda')
dawać;uprawnienie	unseen	('VERB=dawać', 'NOUN=uprawnienie')
dawać;usługa	unseen	('VERB=dawać', 'NOUN=usługa')
gra;podjąć	unseen	('ADJ=podjąć', 'NOUN=gra')
gra;mieć	unseen	('ADJ=mieć', 'NOUN=gra')
gra;podejmować	unseen	('ADJ=podejmować', 'NOUN=gra')
zdobyć;życzenie	unseen	('VERB=zdobyć', 'NOUN=życzenie')
nagroda;uzyskać	unseen	('VERB=uzyskać', 'NOUN=nagroda')
nagroda;przynieść	unseen	('VERB=przynieść', 'NOUN=nagroda')
osiągnąć;rana	unseen	('NOUN=rana', 'VERB=osiągnąć')
otrzymać;pierwszeństwo	unseen	('VERB=otrzymać', 'NOUN=pierwszeństwo')
odprężenie;otrzymać	unseen	('VERB=otrzymać', 'NOUN=odprężenie')
otrzymać;przeżycie	unseen	('VERB=otrzymać', 'NOUN=przeżycie')
niepodległość;otrzymać	unseen	('VERB=otrzymać', 'NOUN=niepodległość')
dopływ;otrzymać	unseen	('VERB=otrzymać', 'NOUN=dopływ')
możliwość;otrzymać	unseen	('VERB=otrzymać', 'NOUN=możliwość')
cel;mieć_na	unseen	('NOUN=cel', 'VERB=mieć_na')
mieć_na;własność	unseen	('NOUN=własność', 'VERB=mieć_na')
kariera;prowadzić	unseen	('VERB=prowadzić', 'NOUN=kariera')
prowadzić;specjalizacja	unseen	('VERB=prowadzić', 'NOUN=specjalizacja')
prowadzić;przysiad	unseen	('VERB=prowadzić', 'NOUN=przysiad')
prowadzić;zakupy	unseen	('VERB=prowadzić', 'NOUN=zakupy')
prowadzić;użytek	unseen	('VERB=prowadzić', 'NOUN=użytek')
prowadzić;przykrość	unseen	('VERB=prowadzić', 'NOUN=przykrość')
prowadzić;wywiad	unseen	('VERB=prowadzić', 'NOUN=wywiad')
biznes;prowadzić	unseen	('VERB=prowadzić', 'NOUN=biznes')
prowadzić;tournée	unseen	('VERB=prowadzić', 'NOUN=tournée')
propozycja;wystąpić_z	unseen	('NOUN=propozycja', 'VERB=wystąpić_z')
nieść;pierwszeństwo	unseen	('NOUN=pierwszeństwo', 'VERB=nieść')
nieść;odprężenie	unseen	('NOUN=odprężenie', 'VERB=nieść')
nieść;przeżycie	unseen	('NOUN=przeżycie', 'VERB=nieść')
niepodległość;nieść	unseen	('NOUN=niepodległość', 'VERB=nieść')
dopływ;nieść	unseen	('NOUN=dopływ', 'VERB=nieść')
nieść;zwrot	unseen	('NOUN=zwrot', 'VERB=nieść')
możliwość;udzielać	unseen	('NOUN=możliwość', 'VERB=udzielać')
możliwość;udzielić	unseen	('NOUN=możliwość', 'VERB=udzielić')
doznać;przysługa	unseen	('VERB=doznać', 'NOUN=przysługa')
przysługa;wyrządzać	unseen	('VERB=wyrządzać', 'NOUN=przysługa')
rola;rola	unseen	('VERB=rola', 'NOUN=rola')
rola;stanowisko	unseen	('VERB=stanowisko', 'NOUN=rola')
funkcja;rola	unseen	('VERB=funkcja', 'NOUN=rola')
rola;straż	unseen	('VERB=straż', 'NOUN=rola')
dyżur;rola	unseen	('VERB=dyżur', 'NOUN=rola')
dyżura;rola	unseen	('VERB=dyżura', 'NOUN=rola')
rola;służba	unseen	('VERB=służba', 'NOUN=rola')
mieć;śmierć	unseen	('VERB=mieć', 'NOUN=śmierć')
komunikat;oktrojowanie	unseen	('VERB=oktrojowanie', 'NOUN=komunikat')
komunikat;narzucenie	unseen	('VERB=narzucenie', 'NOUN=komunikat')
komunikat;narzucać	unseen	('VERB=narzucać', 'NOUN=komunikat')
opracować;zapisek	unseen	('ADJ=opracować', 'NOUN=zapisek')
mieć;propozycja	unseen	('VERB=mieć', 'NOUN=propozycja')
mieć;przekleństwo	unseen	('VERB=mieć', 'NOUN=przekleństwo')
mieć;zaklęcie	unseen	('VERB=mieć', 'NOUN=zaklęcie')
mieć;zysk	unseen	('NOUN=zysk', 'VERB=mieć')
mieć;potwierdzić	unseen	('NOUN=potwierdzić', 'VERB=mieć')
eksperyment;podjąć	unseen	('VERB=podjąć', 'NOUN=eksperyment')
eksperyment;mieć	unseen	('VERB=mieć', 'NOUN=eksperyment')
eksperyment;podejmować	unseen	('VERB=podejmować', 'NOUN=eksperyment')
wychodzić_z;założenie	unseen	('PROPN=założenie', 'VERB=wychodzić_z')
spowodować;złuszczać	unseen	('NOUN=złuszczać', 'ADJ=spowodować')
odpadać;spowodować	unseen	('NOUN=odpadać', 'ADJ=spowodować')
ból;spowodować	unseen	('NOUN=ból', 'ADJ=spowodować')
spowodować;zatrucie	unseen	('NOUN=zatrucie', 'ADJ=spowodować')
podjąć;wybór	unseen	('NOUN=podjąć', 'NOUN=wybór')
gwarancja;zrobić	unseen	('VERB=zrobić', 'NOUN=gwarancja')
kredyt;zrobić	unseen	('VERB=zrobić', 'NOUN=kredyt')
urlop;zrobić	unseen	('VERB=zrobić', 'NOUN=urlop')
pomoc;zrobić	unseen	('VERB=zrobić', 'NOUN=pomoc')
poparcie;zrobić	unseen	('VERB=zrobić', 'NOUN=poparcie')
pełnomocnictwo;zrobić	unseen	('VERB=zrobić', 'NOUN=pełnomocnictwo')
zgoda;zrobić	unseen	('VERB=zrobić', 'NOUN=zgoda')
reprymenda;zrobić	unseen	('VERB=zrobić', 'NOUN=reprymenda')
poręczenie;zrobić	unseen	('VERB=zrobić', 'NOUN=poręczenie')
dać;zadanie	unseen	('VERB=dać', 'NOUN=zadanie')
cel;dać	unseen	('VERB=dać', 'NOUN=cel')
dać;imię	unseen	('VERB=dać', 'NOUN=imię')
dać;komunikat	unseen	('VERB=dać', 'NOUN=komunikat')
bieg;dać	unseen	('VERB=dać', 'NOUN=bieg')
dysponować;kontrola	unseen	('VERB=dysponować', 'NOUN=kontrola')
kontrola;nieść	unseen	('VERB=nieść', 'NOUN=kontrola')
kontrola;zapewnić	unseen	('VERB=zapewnić', 'NOUN=kontrola')
kontrola;zapewniać	unseen	('VERB=zapewniać', 'NOUN=kontrola')
dawać;kontrola	unseen	('VERB=dawać', 'NOUN=kontrola')
funkcja;grać	unseen	('VERB=grać', 'NOUN=funkcja')
dokonać;remont	unseen	('NOUN=dokonać', 'NOUN=remont')
postrzał;przyznawać	unseen	('PROPN=postrzał', 'ADJ=przyznawać')
dotacja;przyznawać	unseen	('PROPN=dotacja', 'ADJ=przyznawać')
obietnica;przyznawać	unseen	('PROPN=obietnica', 'ADJ=przyznawać')
przyznawać;zgoda	unseen	('PROPN=zgoda', 'ADJ=przyznawać')
doniesienie;przyznawać	unseen	('PROPN=doniesienie', 'ADJ=przyznawać')
kara;przyznawać	unseen	('PROPN=kara', 'ADJ=przyznawać')
przyznawać;zlecenie	unseen	('PROPN=zlecenie', 'ADJ=przyznawać')
przyznawać;zwrot	unseen	('PROPN=zwrot', 'ADJ=przyznawać')
głos;przyznawać	unseen	('PROPN=głos', 'ADJ=przyznawać')
azyl;przyznawać	unseen	('PROPN=azyl', 'ADJ=przyznawać')
propozycja;przyznawać	unseen	('PROPN=propozycja', 'ADJ=przyznawać')
przyznawać;zgłoszenie	unseen	('PROPN=zgłoszenie', 'ADJ=przyznawać')
oferta;przyznawać	unseen	('PROPN=oferta', 'ADJ=przyznawać')
korzystać_z;wyróżnienie	unseen	('PROPN=wyróżnienie', 'ADJ=korzystać_z')
podstawa;przynieść	unseen	('VERB=przynieść', 'NOUN=podstawa')
przynieść;wrażenie	unseen	('VERB=przynieść', 'NOUN=wrażenie')
miejsce;przynieść	unseen	('VERB=przynieść', 'NOUN=miejsce')
przynieść;wartość	unseen	('VERB=przynieść', 'NOUN=wartość')
doprowadzić_do;powołać	unseen	('NOUN=powołać', 'VERB=doprowadzić_do')
doprowadzić_do;laicyzacja	unseen	('NOUN=laicyzacja', 'VERB=doprowadzić_do')
doprowadzić_do;zatrzymać	unseen	('NOUN=zatrzymać', 'VERB=doprowadzić_do')
doprowadzić_do;zaburzenie	unseen	('NOUN=zaburzenie', 'VERB=doprowadzić_do')
osiągnąć;podstawa	unseen	('ADJ=osiągnąć', 'NOUN=podstawa')
osiągnąć;wrażenie	unseen	('ADJ=osiągnąć', 'NOUN=wrażenie')
miejsce;osiągnąć	unseen	('ADJ=osiągnąć', 'NOUN=miejsce')
osiągnąć;wartość	unseen	('ADJ=osiągnąć', 'NOUN=wartość')
dochód;odnieść	unseen	('ADJ=odnieść', 'NOUN=dochód')
aport;składać	unseen	('VERB=składać', 'NOUN=aport')
składać;wkład	unseen	('VERB=składać', 'NOUN=wkład')
apelacja;składać	unseen	('VERB=składać', 'NOUN=apelacja')
gwarancja;wziąć	unseen	('NOUN=gwarancja', 'VERB=wziąć')
pomoc;wziąć	unseen	('NOUN=pomoc', 'VERB=wziąć')
wywiad;wziąć	unseen	('NOUN=wywiad', 'VERB=wziąć')
poparcie;wziąć	unseen	('NOUN=poparcie', 'VERB=wziąć')
pełnomocnictwo;wziąć	unseen	('NOUN=pełnomocnictwo', 'VERB=wziąć')
wziąć;zgoda	unseen	('NOUN=zgoda', 'VERB=wziąć')
reprymenda;wziąć	unseen	('NOUN=reprymenda', 'VERB=wziąć')
poręczenie;wziąć	unseen	('NOUN=poręczenie', 'VERB=wziąć')
dostać;prawo	unseen	('VERB=dostać', 'NOUN=prawo')
otrzymywać;zasiłek	unseen	('VERB=otrzymywać', 'NOUN=zasiłek')
przyjąć;wysiłek	unseen	('NOUN=wysiłek', 'ADJ=przyjąć')
nadzór;wykonywać	unseen	('NOUN=nadzór', 'VERB=wykonywać')
nadzór;trzymać	unseen	('NOUN=nadzór', 'VERB=trzymać')
cześć;oddać	unseen	('ADJ=oddać', 'NOUN=cześć')
mieć;orzeczenie	unseen	('VERB=mieć', 'NOUN=orzeczenie')
opodatkowanie;wywołać	unseen	('VERB=wywołać', 'NOUN=opodatkowanie')
działanie;przyjąć	unseen	('VERB=przyjąć', 'NOUN=działanie')
mieć;pierwszeństwo	unseen	('VERB=mieć', 'NOUN=pierwszeństwo')
mieć;odprężenie	unseen	('VERB=mieć', 'NOUN=odprężenie')
mieć;przeżycie	unseen	('VERB=mieć', 'NOUN=przeżycie')
mieć;niepodległość	unseen	('VERB=mieć', 'NOUN=niepodległość')
dopływ;mieć	unseen	('VERB=mieć', 'NOUN=dopływ')
prowadzić;rzeź	unseen	('ADJ=prowadzić', 'NOUN=rzeź')
analiza;prowadzić	unseen	('ADJ=prowadzić', 'NOUN=analiza')
cud;prowadzić	unseen	('ADJ=prowadzić', 'NOUN=cud')
prowadzić;zmiana	unseen	('ADJ=prowadzić', 'NOUN=zmiana')
konsekracja;prowadzić	unseen	('ADJ=prowadzić', 'NOUN=konsekracja')
prezentacja;prowadzić	unseen	('ADJ=prowadzić', 'NOUN=prezentacja')
akt;prowadzić	unseen	('ADJ=prowadzić', 'NOUN=akt')
odprawa;prowadzić	unseen	('ADJ=prowadzić', 'NOUN=odprawa')
prowadzić;rozbój	unseen	('ADJ=prowadzić', 'NOUN=rozbój')
kradzież;prowadzić	unseen	('ADJ=prowadzić', 'NOUN=kradzież')
prowadzić;skok	unseen	('ADJ=prowadzić', 'NOUN=skok')
prowadzić;reforma	unseen	('ADJ=prowadzić', 'NOUN=reforma')
aresztowanie;prowadzić	unseen	('ADJ=prowadzić', 'NOUN=aresztowanie')
prowadzić;zamach	unseen	('ADJ=prowadzić', 'NOUN=zamach')
charakterystyka;prowadzić	unseen	('ADJ=prowadzić', 'NOUN=charakterystyka')
czyn;prowadzić	unseen	('ADJ=prowadzić', 'NOUN=czyn')
prowadzić;włam	unseen	('ADJ=prowadzić', 'NOUN=włam')
gwałt;prowadzić	unseen	('ADJ=prowadzić', 'NOUN=gwałt')
prowadzić;zatrzymanie	unseen	('ADJ=prowadzić', 'NOUN=zatrzymanie')
odkrycie;prowadzić	unseen	('ADJ=prowadzić', 'NOUN=odkrycie')
prowadzić;włamanie	unseen	('ADJ=prowadzić', 'NOUN=włamanie')
dzieło;prowadzić	unseen	('ADJ=prowadzić', 'NOUN=dzieło')
otworzyć;prowadzić	unseen	('ADJ=prowadzić', 'NOUN=otworzyć')
czerpać;zysk	unseen	('VERB=czerpać', 'NOUN=zysk')
czerpać;efekt	unseen	('VERB=czerpać', 'NOUN=efekt')
czerpać;potwierdzić	unseen	('VERB=czerpać', 'NOUN=potwierdzić')
potwierdzić;uzyskiwać	unseen	('VERB=uzyskiwać', 'NOUN=potwierdzić')
otrzymać;żądanie	unseen	('VERB=otrzymać', 'NOUN=żądanie')
analiza;przeprowadzić	unseen	('VERB=przeprowadzić', 'NOUN=analiza')
dokonać;władza	unseen	('NOUN=dokonać', 'NOUN=władza')
przejść;władza	unseen	('NOUN=przejść', 'NOUN=władza')
przeprowadzić;władza	unseen	('NOUN=przeprowadzić', 'NOUN=władza')
remont;wykonać	unseen	('VERB=wykonać', 'NOUN=remont')
remont;wykonywać	unseen	('VERB=wykonywać', 'NOUN=remont')
mieć;uchwała	unseen	('VERB=mieć', 'NOUN=uchwała')
inicjatywa;mieć	unseen	('VERB=mieć', 'NOUN=inicjatywa')
mieć;wysiłek	unseen	('VERB=mieć', 'NOUN=wysiłek')
koncesja;przeprowadzić	unseen	('NOUN=przeprowadzić', 'NOUN=koncesja')
dokonać;obserwacja	unseen	('NOUN=obserwacja', 'ADJ=dokonać')
obserwacja;przejść	unseen	('NOUN=obserwacja', 'ADJ=przejść')
obserwacja;przeprowadzić	unseen	('NOUN=obserwacja', 'ADJ=przeprowadzić')
narazić_na;niebezpieczeństwo	unseen	('NOUN=niebezpieczeństwo', 'VERB=narazić_na')
przynieść;zysk	unseen	('VERB=przynieść', 'NOUN=zysk')
potwierdzić;przynieść	unseen	('VERB=przynieść', 'NOUN=potwierdzić')
korzyść;przynieść	unseen	('VERB=przynieść', 'NOUN=korzyść')
dawać;podstawa	unseen	('VERB=dawać', 'NOUN=podstawa')
dawać;wrażenie	unseen	('VERB=dawać', 'NOUN=wrażenie')
dawać;miejsce	unseen	('VERB=dawać', 'NOUN=miejsce')
dawać;wartość	unseen	('VERB=dawać', 'NOUN=wartość')
mieć;przerwa	unseen	('VERB=mieć', 'NOUN=przerwa')
mieć;zakup	unseen	('VERB=mieć', 'NOUN=zakup')
majątek;mieć	unseen	('VERB=mieć', 'NOUN=majątek')
doktorat;mieć	unseen	('VERB=mieć', 'NOUN=doktorat')
mieć;świństwo	unseen	('VERB=mieć', 'NOUN=świństwo')
mieć;unik	unseen	('VERB=mieć', 'NOUN=unik')
niebezpieczeństwo;spowodować	unseen	('NOUN=spowodować', 'NOUN=niebezpieczeństwo')
powołać;spowodować	unseen	('VERB=spowodować', 'NOUN=powołać')
rozłam;spowodować	unseen	('VERB=spowodować', 'NOUN=rozłam')
laicyzacja;spowodować	unseen	('VERB=spowodować', 'NOUN=laicyzacja')
spowodować;zatrzymać	unseen	('VERB=spowodować', 'NOUN=zatrzymać')
korzyść;uzyskiwać	unseen	('NOUN=korzyść', 'VERB=uzyskiwać')
wyjść_z;założenie	unseen	('PROPN=założenie', 'VERB=wyjść_z')
przeprowadzić;skok	unseen	('VERB=przeprowadzić', 'NOUN=skok')
kredyt;ustalić	unseen	('NOUN=ustalić', 'PROPN=kredyt')
nagroda;ustalić	unseen	('NOUN=ustalić', 'PROPN=nagroda')
uprawnienie;ustalić	unseen	('NOUN=ustalić', 'PROPN=uprawnienie')
ustalić;usługa	unseen	('NOUN=ustalić', 'PROPN=usługa')
dawać;upomnienie	unseen	('VERB=dawać', 'NOUN=upomnienie')
dawać;wymówienie	unseen	('VERB=dawać', 'NOUN=wymówienie')
dawać;koncesja	unseen	('VERB=dawać', 'NOUN=koncesja')
dawać;upust	unseen	('VERB=dawać', 'NOUN=upust')
dawać;rekomendacja	unseen	('VERB=dawać', 'NOUN=rekomendacja')
dawać;rozstrój	unseen	('VERB=dawać', 'NOUN=rozstrój')
buziak;dawać	unseen	('VERB=dawać', 'NOUN=buziak')
dawać;zaproszenie	unseen	('VERB=dawać', 'NOUN=zaproszenie')
dawać;odszkodowanie	unseen	('VERB=dawać', 'NOUN=odszkodowanie')
dawać;zarzut	unseen	('VERB=dawać', 'NOUN=zarzut')
dawać;telefon	unseen	('VERB=dawać', 'NOUN=telefon')
dawać;ulga	unseen	('VERB=dawać', 'NOUN=ulga')
mieć;orgazm	unseen	('VERB=mieć', 'NOUN=orgazm')
wystąpić_z;żądanie	unseen	('NOUN=żądanie', 'VERB=wystąpić_z')
uwzględniać;wypowiedź	unseen	('VERB=uwzględniać', 'NOUN=wypowiedź')
dać_do;zysk	unseen	('VERB=dać_do', 'NOUN=zysk')
dostać;uczta	unseen	('VERB=dostać', 'NOUN=uczta')
dostać;polecenie	unseen	('VERB=dostać', 'NOUN=polecenie')
dostać;zgoda	unseen	('VERB=dostać', 'NOUN=zgoda')
dostać;pomruk	unseen	('VERB=dostać', 'NOUN=pomruk')
mieć;zawiadomienie	unseen	('VERB=mieć', 'NOUN=zawiadomienie')
mieć;pozew	unseen	('VERB=mieć', 'NOUN=pozew')
dymisja;mieć	unseen	('VERB=mieć', 'NOUN=dymisja')
mieć;podpis	unseen	('VERB=mieć', 'NOUN=podpis')
deklaracja;mieć	unseen	('VERB=mieć', 'NOUN=deklaracja')
mieć;zobowiązanie	unseen	('VERB=mieć', 'NOUN=zobowiązanie')
doniesienie;mieć	unseen	('VERB=mieć', 'NOUN=doniesienie')
mieć;skarga	unseen	('VERB=mieć', 'NOUN=skarga')
mieć;życzenia	unseen	('VERB=mieć', 'NOUN=życzenia')
mieć;wizyta	unseen	('VERB=mieć', 'NOUN=wizyta')
mieć;zamówienie	unseen	('VERB=mieć', 'NOUN=zamówienie')
mieć;sprzeciw	unseen	('VERB=mieć', 'NOUN=sprzeciw')
mieć;protest	unseen	('VERB=mieć', 'NOUN=protest')
mieć;zeznanie	unseen	('VERB=mieć', 'NOUN=zeznanie')
mieć;zameldować	unseen	('VERB=mieć', 'NOUN=zameldować')
mieć;rezygnacja	unseen	('VERB=mieć', 'NOUN=rezygnacja')
mieć;przyrzeczenie	unseen	('VERB=mieć', 'NOUN=przyrzeczenie')
mieć;ofiara	unseen	('VERB=mieć', 'NOUN=ofiara')
głos;mieć	unseen	('VERB=mieć', 'NOUN=głos')
nagroda;składać	unseen	('VERB=składać', 'NOUN=nagroda')
przeprowadzić;związek	unseen	('VERB=przeprowadzić', 'NOUN=związek')
przeprowadzić;umowa	unseen	('VERB=przeprowadzić', 'NOUN=umowa')
kontrakt;przeprowadzić	unseen	('VERB=przeprowadzić', 'NOUN=kontrakt')
porozumienie;przeprowadzić	unseen	('VERB=przeprowadzić', 'NOUN=porozumienie')
podjąć;transakcja	unseen	('VERB=podjąć', 'NOUN=transakcja')
podejmować;transakcja	unseen	('VERB=podejmować', 'NOUN=transakcja')
pierwszeństwo;zapewnić	unseen	('VERB=zapewnić', 'NOUN=pierwszeństwo')
odprężenie;zapewnić	unseen	('VERB=zapewnić', 'NOUN=odprężenie')
przeżycie;zapewnić	unseen	('VERB=zapewnić', 'NOUN=przeżycie')
niepodległość;zapewnić	unseen	('VERB=zapewnić', 'NOUN=niepodległość')
dopływ;zapewnić	unseen	('VERB=zapewnić', 'NOUN=dopływ')
zapewnić;zwrot	unseen	('VERB=zapewnić', 'NOUN=zwrot')
składać;żądanie	unseen	('NOUN=żądanie', 'VERB=składać')
wziąć;zastrzyk	unseen	('VERB=wziąć', 'NOUN=zastrzyk')
kąpiel;wziąć	unseen	('VERB=wziąć', 'NOUN=kąpiel')
wniosek;wychodzić_z	unseen	('NOUN=wniosek', 'VERB=wychodzić_z')
dać;szkolenie	unseen	('VERB=dać', 'NOUN=szkolenie')
dać;przychód	unseen	('VERB=dać', 'NOUN=przychód')
dać;zasilać	unseen	('VERB=dać', 'NOUN=zasilać')
dać;łączność	unseen	('VERB=dać', 'NOUN=łączność')
dać;przepływ	unseen	('VERB=dać', 'NOUN=przepływ')
dać;konkurencyjność	unseen	('VERB=dać', 'NOUN=konkurencyjność')
bezpieczeństwo;dać	unseen	('VERB=dać', 'NOUN=bezpieczeństwo')
dać;wiedza	unseen	('VERB=dać', 'NOUN=wiedza')
dać;przyczepność	unseen	('VERB=dać', 'NOUN=przyczepność')
dać;możliwość	unseen	('VERB=dać', 'NOUN=możliwość')
czystość;dać	unseen	('VERB=dać', 'NOUN=czystość')
dać;porządek	unseen	('VERB=dać', 'NOUN=porządek')
dać;zabawa	unseen	('VERB=dać', 'NOUN=zabawa')
apolityczność;dać	unseen	('VERB=dać', 'NOUN=apolityczność')
dać;prawo	unseen	('VERB=dać', 'NOUN=prawo')
dać;przejrzystość	unseen	('VERB=dać', 'NOUN=przejrzystość')
dokonać;połączenie	unseen	('NOUN=połączenie', 'ADJ=dokonać')
połączenie;przejść	unseen	('NOUN=połączenie', 'ADJ=przejść')
połączenie;przeprowadzić	unseen	('NOUN=połączenie', 'ADJ=przeprowadzić')
doprowadzić_do;rozłam	unseen	('NOUN=rozłam', 'VERB=doprowadzić_do')
przyznać;upomnienie	unseen	('VERB=przyznać', 'PROPN=upomnienie')
przyznać;zlecenie	unseen	('VERB=przyznać', 'PROPN=zlecenie')
przyznać;wymówienie	unseen	('VERB=przyznać', 'PROPN=wymówienie')
koncesja;przyznać	unseen	('VERB=przyznać', 'PROPN=koncesja')
przyznać;upust	unseen	('VERB=przyznać', 'PROPN=upust')
przyznać;rekomendacja	unseen	('VERB=przyznać', 'PROPN=rekomendacja')
przyznać;rozstrój	unseen	('VERB=przyznać', 'PROPN=rozstrój')
buziak;przyznać	unseen	('VERB=przyznać', 'PROPN=buziak')
przyznać;zaproszenie	unseen	('VERB=przyznać', 'PROPN=zaproszenie')
przyznać;zarzut	unseen	('VERB=przyznać', 'PROPN=zarzut')
przyznać;zakaz	unseen	('VERB=przyznać', 'PROPN=zakaz')
przyznać;telefon	unseen	('VERB=przyznać', 'PROPN=telefon')
przyznać;ulga	unseen	('VERB=przyznać', 'PROPN=ulga')
porada;uwzględniać	unseen	('NOUN=uwzględniać', 'NOUN=porada')
spowodować;zasiłek	unseen	('VERB=spowodować', 'NOUN=zasiłek')
nagroda;spowodować	unseen	('VERB=spowodować', 'NOUN=nagroda')
orgazm;przynieść	unseen	('VERB=przynieść', 'NOUN=orgazm')
przynieść;szacunek	unseen	('VERB=przynieść', 'NOUN=szacunek')
przynieść;zaufanie	unseen	('VERB=przynieść', 'NOUN=zaufanie')
kontrowersja;przynieść	unseen	('VERB=przynieść', 'NOUN=kontrowersja')
emocja;przynieść	unseen	('VERB=przynieść', 'NOUN=emocja')
podziw;przynieść	unseen	('VERB=przynieść', 'NOUN=podziw')
wystawić;zgoda	unseen	('VERB=wystawić', 'NOUN=zgoda')
mieć_na;wzgląd	unseen	('NOUN=wzgląd', 'VERB=mieć_na')
odbywać;przychód	unseen	('NOUN=odbywać', 'PROPN=przychód')
odbywać;zasilać	unseen	('NOUN=odbywać', 'PROPN=zasilać')
odbywać;łączność	unseen	('NOUN=odbywać', 'PROPN=łączność')
odbywać;przepływ	unseen	('NOUN=odbywać', 'PROPN=przepływ')
konkurencyjność;odbywać	unseen	('NOUN=odbywać', 'PROPN=konkurencyjność')
bezpieczeństwo;odbywać	unseen	('NOUN=odbywać', 'PROPN=bezpieczeństwo')
czas;odbywać	unseen	('NOUN=odbywać', 'PROPN=czas')
odbywać;wiedza	unseen	('NOUN=odbywać', 'PROPN=wiedza')
odbywać;przyczepność	unseen	('NOUN=odbywać', 'PROPN=przyczepność')
możliwość;odbywać	unseen	('NOUN=odbywać', 'PROPN=możliwość')
czystość;odbywać	unseen	('NOUN=odbywać', 'PROPN=czystość')
odbywać;porządek	unseen	('NOUN=odbywać', 'PROPN=porządek')
odbywać;zabawa	unseen	('NOUN=odbywać', 'PROPN=zabawa')
apolityczność;odbywać	unseen	('NOUN=odbywać', 'PROPN=apolityczność')
odbywać;prawo	unseen	('NOUN=odbywać', 'PROPN=prawo')
odbywać;przejrzystość	unseen	('NOUN=odbywać', 'PROPN=przejrzystość')
dochód;dostać	unseen	('VERB=dostać', 'PROPN=dochód')
dostać;wynik	unseen	('VERB=dostać', 'PROPN=wynik')
atest;dostać	unseen	('VERB=dostać', 'PROPN=atest')
dopłata;dostać	unseen	('VERB=dostać', 'PROPN=dopłata')
dostać;zapłata	unseen	('VERB=dostać', 'PROPN=zapłata')
dostać;przychód	unseen	('VERB=dostać', 'PROPN=przychód')
dostać;orzeczenie	unseen	('VERB=dostać', 'PROPN=orzeczenie')
ponosić;próba	unseen	('NOUN=próba', 'VERB=ponosić')
decyzja;ponosić	unseen	('NOUN=decyzja', 'VERB=ponosić')
ponosić;uchwała	unseen	('NOUN=uchwała', 'VERB=ponosić')
inicjatywa;ponosić	unseen	('NOUN=inicjatywa', 'VERB=ponosić')
ponosić;wysiłek	unseen	('NOUN=wysiłek', 'VERB=ponosić')
działanie;ponosić	unseen	('NOUN=działanie', 'VERB=ponosić')
inwestycja;ponosić	unseen	('NOUN=inwestycja', 'VERB=ponosić')
pełnić;sprawować	unseen	('VERB=sprawować', 'NOUN=pełnić')
dokonać;ruch	unseen	('VERB=dokonać', 'NOUN=ruch')
przejść;ruch	unseen	('VERB=przejść', 'NOUN=ruch')
przeprowadzić;ruch	unseen	('VERB=przeprowadzić', 'NOUN=ruch')
dostać;usługa	unseen	('NOUN=usługa', 'ADJ=dostać')
pełnić;podróż	unseen	('VERB=pełnić', 'NOUN=podróż')
pełnić;stosunek	unseen	('VERB=pełnić', 'NOUN=stosunek')
konsultacja;pełnić	unseen	('VERB=pełnić', 'NOUN=konsultacja')
pełnić;wizyta	unseen	('VERB=pełnić', 'NOUN=wizyta')
pełnić;zajęcia	unseen	('VERB=pełnić', 'NOUN=zajęcia')
pełnić;rozmowa	unseen	('VERB=pełnić', 'NOUN=rozmowa')
kara;pełnić	unseen	('VERB=pełnić', 'NOUN=kara')
posiadać;prawo	unseen	('NOUN=prawo', 'VERB=posiadać')
posiadać;wyjście	unseen	('NOUN=wyjście', 'VERB=posiadać')
posiadać;zezwolenie	unseen	('NOUN=zezwolenie', 'VERB=posiadać')
narazić_na;strata	unseen	('NOUN=strata', 'VERB=narazić_na')
inwestycja;przyjąć	unseen	('VERB=przyjąć', 'NOUN=inwestycja')
podjąć;zadanie	unseen	('NOUN=zadanie', 'ADJ=podjąć')
podejmować;zadanie	unseen	('NOUN=zadanie', 'ADJ=podejmować')
kredyt;zapewnić	unseen	('NOUN=zapewnić', 'NOUN=kredyt')
nagroda;zapewnić	unseen	('NOUN=zapewnić', 'NOUN=nagroda')
uprawnienie;zapewnić	unseen	('NOUN=zapewnić', 'NOUN=uprawnienie')
usługa;zapewnić	unseen	('NOUN=zapewnić', 'NOUN=usługa')
dać;zysk	unseen	('VERB=dać', 'NOUN=zysk')
dać;efekt	unseen	('VERB=dać', 'NOUN=efekt')
dać;potwierdzić	unseen	('VERB=dać', 'NOUN=potwierdzić')
cierpieć_na;rozstrój	unseen	('NOUN=rozstrój', 'VERB=cierpieć_na')
cierpieć_na;depresja	unseen	('NOUN=depresja', 'VERB=cierpieć_na')
przeprowadzać;remont	unseen	('NOUN=remont', 'ADJ=przeprowadzać')
cierpieć_na;paraliż	unseen	('NOUN=paraliż', 'VERB=cierpieć_na')
podjąć;sondaż	unseen	('NOUN=sondaż', 'ADJ=podjąć')
mieć;sondaż	unseen	('NOUN=sondaż', 'ADJ=mieć')
podejmować;sondaż	unseen	('NOUN=sondaż', 'ADJ=podejmować')
kierownictwo;wykonywać	unseen	('NOUN=kierownictwo', 'VERB=wykonywać')
kierownictwo;trzymać	unseen	('NOUN=kierownictwo', 'VERB=trzymać')
ekspertyza;opracować	unseen	('ADJ=opracować', 'NOUN=ekspertyza')
bilans;opracować	unseen	('ADJ=opracować', 'NOUN=bilans')
przyznawać;życzenie	unseen	('ADJ=przyznawać', 'NOUN=życzenie')
korzystać_z;nagroda	unseen	('ADJ=korzystać_z', 'NOUN=nagroda')
szkolenie;uzyskać	unseen	('NOUN=uzyskać', 'NOUN=szkolenie')
uzyskać;zasilać	unseen	('NOUN=uzyskać', 'NOUN=zasilać')
uzyskać;łączność	unseen	('NOUN=uzyskać', 'NOUN=łączność')
przepływ;uzyskać	unseen	('NOUN=uzyskać', 'NOUN=przepływ')
konkurencyjność;uzyskać	unseen	('NOUN=uzyskać', 'NOUN=konkurencyjność')
bezpieczeństwo;uzyskać	unseen	('NOUN=uzyskać', 'NOUN=bezpieczeństwo')
czas;uzyskać	unseen	('NOUN=uzyskać', 'NOUN=czas')
uzyskać;wiedza	unseen	('NOUN=uzyskać', 'NOUN=wiedza')
przyczepność;uzyskać	unseen	('NOUN=uzyskać', 'NOUN=przyczepność')
możliwość;uzyskać	unseen	('NOUN=uzyskać', 'NOUN=możliwość')
czystość;uzyskać	unseen	('NOUN=uzyskać', 'NOUN=czystość')
porządek;uzyskać	unseen	('NOUN=uzyskać', 'NOUN=porządek')
uzyskać;zabawa	unseen	('NOUN=uzyskać', 'NOUN=zabawa')
apolityczność;uzyskać	unseen	('NOUN=uzyskać', 'NOUN=apolityczność')
prawo;uzyskać	unseen	('NOUN=uzyskać', 'NOUN=prawo')
przejrzystość;uzyskać	unseen	('NOUN=uzyskać', 'NOUN=przejrzystość')
aport;mieć	unseen	('VERB=mieć', 'NOUN=aport')
apelacja;mieć	unseen	('VERB=mieć', 'NOUN=apelacja')
zgłosić;żądanie	unseen	('NOUN=żądanie', 'VERB=zgłosić')
propozycja;wychodzić_z	unseen	('NOUN=propozycja', 'VERB=wychodzić_z')
mieć;uczta	unseen	('VERB=mieć', 'NOUN=uczta')
mieć;polecenie	unseen	('VERB=mieć', 'NOUN=polecenie')
mieć;pomruk	unseen	('VERB=mieć', 'NOUN=pomruk')
uwzględniać;wsparcie	unseen	('VERB=uwzględniać', 'PROPN=wsparcie')
schronienie;uwzględniać	unseen	('VERB=uwzględniać', 'PROPN=schronienie')
dawać;pierwszeństwo	unseen	('VERB=dawać', 'NOUN=pierwszeństwo')
dawać;odprężenie	unseen	('VERB=dawać', 'NOUN=odprężenie')
dawać;przeżycie	unseen	('VERB=dawać', 'NOUN=przeżycie')
dawać;niepodległość	unseen	('VERB=dawać', 'NOUN=niepodległość')
dawać;dopływ	unseen	('VERB=dawać', 'NOUN=dopływ')
dawać;zwrot	unseen	('VERB=dawać', 'NOUN=zwrot')
bieg;oktrojowanie	unseen	('VERB=oktrojowanie', 'NOUN=bieg')
bieg;narzucenie	unseen	('VERB=narzucenie', 'NOUN=bieg')
bieg;narzucać	unseen	('VERB=narzucać', 'NOUN=bieg')
przebywać_na;wakacje	unseen	('NOUN=wakacje', 'VERB=przebywać_na')
prawo;stosować	unseen	('ADJ=stosować', 'NOUN=prawo')
obowiązek;stosować	unseen	('ADJ=stosować', 'NOUN=obowiązek')
