NF	statut	POS
ha;inverkan	unseen	('VERB=ha', 'NOUN=inverkan')
arbetsgivaransvar;få	unseen	('VERB=få', 'NOUN=arbetsgivaransvar')
ha;sollucka	unseen	('VERB=ha', 'NOUN=sollucka')
dra;ha	unseen	('VERB=ha', 'NOUN=dra')
exempelvis;ge	unseen	('VERB=ge', 'NOUN=exempelvis')
ha;tillgodose	unseen	('VERB=ha', 'NOUN=tillgodose')
få;inverkan	unseen	('VERB=få', 'NOUN=inverkan')
ha;verklighetsbild	unseen	('NOUN=verklighetsbild', 'VERB=ha')
ha;tenderar	unseen	('VERB=ha', 'NOUN=tenderar')
ge;likviditet	unseen	('VERB=ge', 'NOUN=likviditet')
egenskapen;ge	unseen	('VERB=ge', 'NOUN=egenskapen')
ha;syfte	unseen	('VERB=ha', 'NOUN=syfte')
ge;slutresultat	unseen	('VERB=ge', 'NOUN=slutresultat')
anslag;få	unseen	('VERB=få', 'NOUN=anslag')
ha;inkomster	unseen	('VERB=ha', 'NOUN=inkomster')
ge;marknadsval	unseen	('VERB=ge', 'NOUN=marknadsval')
favoritidrott;ha	unseen	('VERB=ha', 'NOUN=favoritidrott')
bekymmer;få	unseen	('VERB=få', 'NOUN=bekymmer')
ha;statusen	unseen	('VERB=ha', 'NOUN=statusen')
ha;stoi	unseen	('VERB=ha', 'NOUN=stoi')
ge;lett	unseen	('VERB=ge', 'NOUN=lett')
ha;ovana	unseen	('VERB=ha', 'NOUN=ovana')
skadan;ta	unseen	('VERB=ta', 'NOUN=skadan')
göra;skatteavdrag	unseen	('VERB=göra', 'NOUN=skatteavdrag')
ha;topposition	unseen	('VERB=ha', 'NOUN=topposition')
ha;problem	unseen	('VERB=ha', 'NOUN=problem')
rapportfil;ta	unseen	('VERB=ta', 'NOUN=rapportfil')
