NF	statut	POS
權力;起	unseen	('VERB=起', 'NOUN=權力')
獲得;进展	unseen	('VERB=獲得', 'NOUN=进展')
獲得;錦標	unseen	('VERB=獲得', 'NOUN=錦標')
獲得;進步	unseen	('VERB=獲得', 'NOUN=進步')
獲得;領先	unseen	('VERB=獲得', 'NOUN=領先')
共識;獲得	unseen	('VERB=獲得', 'NOUN=共識')
探討;有	unseen	('VERB=有', 'NOUN=探討')
有;評估	unseen	('VERB=有', 'NOUN=評估')
參考;有	unseen	('VERB=有', 'NOUN=參考')
有;觀測	unseen	('VERB=有', 'NOUN=觀測')
打擊;有	unseen	('VERB=有', 'NOUN=打擊')
有;研究	unseen	('VERB=有', 'NOUN=研究')
有;販售	unseen	('VERB=有', 'NOUN=販售')
有;跟進	unseen	('VERB=有', 'NOUN=跟進')
分類;有	unseen	('VERB=有', 'NOUN=分類')
描述;有	unseen	('VERB=有', 'NOUN=描述')
有;要脅	unseen	('VERB=有', 'NOUN=要脅')
有;點綴	unseen	('VERB=有', 'NOUN=點綴')
有;紀念	unseen	('VERB=有', 'NOUN=紀念')
优化;進行	unseen	('VERB=進行', 'NOUN=优化')
理解;進行	unseen	('VERB=進行', 'NOUN=理解')
创作;進行	unseen	('VERB=進行', 'NOUN=创作')
对戰;進行	unseen	('VERB=進行', 'NOUN=对戰')
实验;進行	unseen	('VERB=進行', 'NOUN=实验')
理論;發生	unseen	('VERB=發生', 'NOUN=理論')
爭議;發生	unseen	('VERB=發生', 'NOUN=爭議')
熱議;發生	unseen	('VERB=發生', 'NOUN=熱議')
進行;選擇	unseen	('VERB=進行', 'NOUN=選擇')
參考;進行	unseen	('VERB=進行', 'NOUN=參考')
準備;進行	unseen	('VERB=進行', 'NOUN=準備')
打擊;進行	unseen	('VERB=進行', 'NOUN=打擊')
販售;進行	unseen	('VERB=進行', 'NOUN=販售')
跟進;進行	unseen	('VERB=進行', 'NOUN=跟進')
描述;進行	unseen	('VERB=進行', 'NOUN=描述')
要脅;進行	unseen	('VERB=進行', 'NOUN=要脅')
進行;點綴	unseen	('VERB=進行', 'NOUN=點綴')
報道;進行	unseen	('VERB=進行', 'NOUN=報道')
紀念;進行	unseen	('VERB=進行', 'NOUN=紀念')
工作;提供	unseen	('VERB=提供', 'NOUN=工作')
提供;教學	unseen	('VERB=提供', 'NOUN=教學')
提供;改正	unseen	('VERB=提供', 'NOUN=改正')
提供;準備	unseen	('VERB=提供', 'NOUN=準備')
提供;旅遊業	unseen	('VERB=提供', 'NOUN=旅遊業')
提供;設定	unseen	('VERB=提供', 'NOUN=設定')
提供;決擇	unseen	('VERB=提供', 'NOUN=決擇')
了斷;提供	unseen	('VERB=提供', 'NOUN=了斷')
提供;紀錄	unseen	('VERB=提供', 'NOUN=紀錄')
提供;記錄	unseen	('VERB=提供', 'NOUN=記錄')
提供;比較	unseen	('VERB=提供', 'NOUN=比較')
提供;特價	unseen	('VERB=提供', 'NOUN=特價')
分析;提供	unseen	('VERB=提供', 'NOUN=分析')
家務;提供	unseen	('VERB=提供', 'NOUN=家務')
提供;改造	unseen	('VERB=提供', 'NOUN=改造')
提供;管理	unseen	('VERB=提供', 'NOUN=管理')
實驗;提供	unseen	('VERB=提供', 'NOUN=實驗')
提供;說明	unseen	('VERB=提供', 'NOUN=說明')
提供;禮拜	unseen	('VERB=提供', 'NOUN=禮拜')
偽證;提供	unseen	('VERB=提供', 'NOUN=偽證')
有;阐述	unseen	('VERB=有', 'VERB=阐述')
推論;有	unseen	('VERB=有', 'VERB=推論')
有;決定	unseen	('VERB=有', 'VERB=決定')
得到;驚喜	unseen	('VERB=得到', 'NOUN=驚喜')
影響;發表	unseen	('VERB=發表', 'NOUN=影響')
造成;阐述	unseen	('VERB=造成', 'NOUN=阐述')
推論;造成	unseen	('VERB=造成', 'NOUN=推論')
決定;造成	unseen	('VERB=造成', 'NOUN=決定')
損壞;發表	unseen	('VERB=發表', 'NOUN=損壞')
出血;造成	unseen	('VERB=造成', 'NOUN=出血')
強求;舉行	unseen	('VERB=強求', 'VERB=舉行')
調沙;進行	unseen	('VERB=進行', 'NOUN=調沙')
作;探討	unseen	('VERB=作', 'NOUN=探討')
作;評估	unseen	('VERB=作', 'NOUN=評估')
死刑;玩	unseen	('VERB=玩', 'NOUN=死刑')
玩;行動	unseen	('VERB=玩', 'NOUN=行動')
研究;舉行	unseen	('VERB=舉行', 'NOUN=研究')
分類;舉行	unseen	('VERB=舉行', 'NOUN=分類')
拍攝;舉行	unseen	('VERB=舉行', 'NOUN=拍攝')
宣判;舉行	unseen	('VERB=舉行', 'NOUN=宣判')
死戰;舉行	unseen	('VERB=舉行', 'NOUN=死戰')
舉行;講話	unseen	('VERB=舉行', 'NOUN=講話')
對話;舉行	unseen	('VERB=舉行', 'NOUN=對話')
勞動;舉行	unseen	('VERB=舉行', 'NOUN=勞動')
舉行;轉變	unseen	('VERB=舉行', 'NOUN=轉變')
復仇;舉行	unseen	('VERB=舉行', 'NOUN=復仇')
舉行;領導	unseen	('VERB=舉行', 'NOUN=領導')
操作;舉行	unseen	('VERB=舉行', 'NOUN=操作')
換算;舉行	unseen	('VERB=舉行', 'NOUN=換算')
修葺;舉行	unseen	('VERB=舉行', 'NOUN=修葺')
清理;舉行	unseen	('VERB=舉行', 'NOUN=清理')
育種;舉行	unseen	('VERB=舉行', 'NOUN=育種')
攻擊;舉行	unseen	('VERB=舉行', 'NOUN=攻擊')
舉行;驗證	unseen	('VERB=舉行', 'NOUN=驗證')
保護;舉行	unseen	('VERB=舉行', 'NOUN=保護')
舉行;調整	unseen	('VERB=舉行', 'NOUN=調整')
確認;舉行	unseen	('VERB=舉行', 'NOUN=確認')
維護;舉行	unseen	('VERB=舉行', 'NOUN=維護')
燒錄;舉行	unseen	('VERB=舉行', 'NOUN=燒錄')
分析;舉行	unseen	('VERB=舉行', 'NOUN=分析')
舉行;開發	unseen	('VERB=舉行', 'NOUN=開發')
決策;舉行	unseen	('VERB=舉行', 'NOUN=決策')
破壞;舉行	unseen	('VERB=舉行', 'NOUN=破壞')
劫掠;舉行	unseen	('VERB=舉行', 'NOUN=劫掠')
生產狀態;舉行	unseen	('VERB=舉行', 'NOUN=生產狀態')
舉行;補給	unseen	('VERB=舉行', 'NOUN=補給')
公告;舉行	unseen	('VERB=舉行', 'NOUN=公告')
戰鬥;舉行	unseen	('VERB=舉行', 'NOUN=戰鬥')
夜戰;舉行	unseen	('VERB=舉行', 'NOUN=夜戰')
舉行;遊戲	unseen	('VERB=舉行', 'NOUN=遊戲')
個展;舉行	unseen	('VERB=舉行', 'NOUN=個展')
監督;舉行	unseen	('VERB=舉行', 'NOUN=監督')
舉行;遠航	unseen	('VERB=舉行', 'NOUN=遠航')
舉行;觀測	unseen	('VERB=舉行', 'NOUN=觀測')
舉行;調查	unseen	('VERB=舉行', 'NOUN=調查')
實踐;舉行	unseen	('VERB=舉行', 'NOUN=實踐')
投注;舉行	unseen	('VERB=舉行', 'NOUN=投注')
授權;舉行	unseen	('VERB=舉行', 'NOUN=授權')
檢查;舉行	unseen	('VERB=舉行', 'NOUN=檢查')
教育;舉行	unseen	('VERB=舉行', 'NOUN=教育')
改良;舉行	unseen	('VERB=舉行', 'NOUN=改良')
教學;舉行	unseen	('VERB=舉行', 'NOUN=教學')
舉行;表演	unseen	('VERB=舉行', 'NOUN=表演')
干預;舉行	unseen	('VERB=舉行', 'NOUN=干預')
考究;舉行	unseen	('VERB=舉行', 'NOUN=考究')
催眠;舉行	unseen	('VERB=舉行', 'NOUN=催眠')
工作;舉行	unseen	('VERB=舉行', 'NOUN=工作')
改進;舉行	unseen	('VERB=舉行', 'NOUN=改進')
續約;舉行	unseen	('VERB=舉行', 'NOUN=續約')
旅行;舉行	unseen	('VERB=舉行', 'NOUN=旅行')
改造;舉行	unseen	('VERB=舉行', 'NOUN=改造')
舉行;討論	unseen	('VERB=舉行', 'NOUN=討論')
測量;舉行	unseen	('VERB=舉行', 'NOUN=測量')
舉行;訓練	unseen	('VERB=舉行', 'NOUN=訓練')
創作;舉行	unseen	('VERB=舉行', 'NOUN=創作')
作業;舉行	unseen	('VERB=舉行', 'NOUN=作業')
冬眠;舉行	unseen	('VERB=舉行', 'NOUN=冬眠')
舉行;訪查	unseen	('VERB=舉行', 'NOUN=訪查')
定位;舉行	unseen	('VERB=舉行', 'NOUN=定位')
改變;舉行	unseen	('VERB=舉行', 'NOUN=改變')
會考;舉行	unseen	('VERB=舉行', 'NOUN=會考')
直播;舉行	unseen	('VERB=舉行', 'NOUN=直播')
舉行;處理	unseen	('VERB=舉行', 'NOUN=處理')
手術;舉行	unseen	('VERB=舉行', 'NOUN=手術')
生產;舉行	unseen	('VERB=舉行', 'NOUN=生產')
舉行;鍛鍊	unseen	('VERB=舉行', 'NOUN=鍛鍊')
突擊;舉行	unseen	('VERB=舉行', 'NOUN=突擊')
舉行;衍生	unseen	('VERB=舉行', 'NOUN=衍生')
核對;舉行	unseen	('VERB=舉行', 'NOUN=核對')
實驗;舉行	unseen	('VERB=舉行', 'NOUN=實驗')
延伸;舉行	unseen	('VERB=舉行', 'NOUN=延伸')
改革;舉行	unseen	('VERB=舉行', 'NOUN=改革')
舉行;重整	unseen	('VERB=舉行', 'NOUN=重整')
舉行;鑒定	unseen	('VERB=舉行', 'NOUN=鑒定')
編寫;舉行	unseen	('VERB=舉行', 'NOUN=編寫')
分流;舉行	unseen	('VERB=舉行', 'NOUN=分流')
交易;舉行	unseen	('VERB=舉行', 'NOUN=交易')
治療;舉行	unseen	('VERB=舉行', 'NOUN=治療')
競賽;舉行	unseen	('VERB=舉行', 'NOUN=競賽')
平衡;舉行	unseen	('VERB=舉行', 'NOUN=平衡')
家訪;舉行	unseen	('VERB=舉行', 'NOUN=家訪')
舉行;認證	unseen	('VERB=舉行', 'NOUN=認證')
舉行;買賣	unseen	('VERB=舉行', 'NOUN=買賣')
舉行;評價	unseen	('VERB=舉行', 'NOUN=評價')
舉行;調沙	unseen	('VERB=舉行', 'NOUN=調沙')
舉行;試驗	unseen	('VERB=舉行', 'NOUN=試驗')
舉行;談判	unseen	('VERB=舉行', 'NOUN=談判')
事;舉行	unseen	('VERB=舉行', 'NOUN=事')
探測;舉行	unseen	('VERB=舉行', 'NOUN=探測')
發明;舉行	unseen	('VERB=舉行', 'NOUN=發明')
舉行;變換	unseen	('VERB=舉行', 'NOUN=變換')
思考;舉行	unseen	('VERB=舉行', 'NOUN=思考')
整修;舉行	unseen	('VERB=舉行', 'NOUN=整修')
考察;舉行	unseen	('VERB=舉行', 'NOUN=考察')
舉行;重建	unseen	('VERB=舉行', 'NOUN=重建')
截圖;舉行	unseen	('VERB=舉行', 'NOUN=截圖')
舉行;設計	unseen	('VERB=舉行', 'NOUN=設計')
反應;舉行	unseen	('VERB=舉行', 'NOUN=反應')
交談;舉行	unseen	('VERB=舉行', 'NOUN=交談')
咨商;舉行	unseen	('VERB=舉行', 'NOUN=咨商')
擾亂;舉行	unseen	('VERB=舉行', 'NOUN=擾亂')
提供;研究	unseen	('VERB=提供', 'NOUN=研究')
分類;提供	unseen	('VERB=提供', 'NOUN=分類')
拍攝;提供	unseen	('VERB=提供', 'NOUN=拍攝')
宣判;提供	unseen	('VERB=提供', 'NOUN=宣判')
提供;死戰	unseen	('VERB=提供', 'NOUN=死戰')
提供;講話	unseen	('VERB=提供', 'NOUN=講話')
對話;提供	unseen	('VERB=提供', 'NOUN=對話')
勞動;提供	unseen	('VERB=提供', 'NOUN=勞動')
提供;轉變	unseen	('VERB=提供', 'NOUN=轉變')
復仇;提供	unseen	('VERB=提供', 'NOUN=復仇')
提供;領導	unseen	('VERB=提供', 'NOUN=領導')
提供;操作	unseen	('VERB=提供', 'NOUN=操作')
提供;換算	unseen	('VERB=提供', 'NOUN=換算')
修葺;提供	unseen	('VERB=提供', 'NOUN=修葺')
提供;清理	unseen	('VERB=提供', 'NOUN=清理')
提供;育種	unseen	('VERB=提供', 'NOUN=育種')
提供;攻擊	unseen	('VERB=提供', 'NOUN=攻擊')
提供;驗證	unseen	('VERB=提供', 'NOUN=驗證')
保護;提供	unseen	('VERB=提供', 'NOUN=保護')
提供;調整	unseen	('VERB=提供', 'NOUN=調整')
提供;確認	unseen	('VERB=提供', 'NOUN=確認')
提供;維護	unseen	('VERB=提供', 'NOUN=維護')
提供;燒錄	unseen	('VERB=提供', 'NOUN=燒錄')
提供;開發	unseen	('VERB=提供', 'NOUN=開發')
提供;決策	unseen	('VERB=提供', 'NOUN=決策')
提供;破壞	unseen	('VERB=提供', 'NOUN=破壞')
劫掠;提供	unseen	('VERB=提供', 'NOUN=劫掠')
提供;生產狀態	unseen	('VERB=提供', 'NOUN=生產狀態')
提供;補給	unseen	('VERB=提供', 'NOUN=補給')
公告;提供	unseen	('VERB=提供', 'NOUN=公告')
戰鬥;提供	unseen	('VERB=提供', 'NOUN=戰鬥')
夜戰;提供	unseen	('VERB=提供', 'NOUN=夜戰')
提供;遊戲	unseen	('VERB=提供', 'NOUN=遊戲')
個展;提供	unseen	('VERB=提供', 'NOUN=個展')
提供;監督	unseen	('VERB=提供', 'NOUN=監督')
提供;遠航	unseen	('VERB=提供', 'NOUN=遠航')
提供;觀測	unseen	('VERB=提供', 'NOUN=觀測')
提供;調查	unseen	('VERB=提供', 'NOUN=調查')
實踐;提供	unseen	('VERB=提供', 'NOUN=實踐')
投注;提供	unseen	('VERB=提供', 'NOUN=投注')
授權;提供	unseen	('VERB=提供', 'NOUN=授權')
儀式;提供	unseen	('VERB=提供', 'NOUN=儀式')
提供;檢查	unseen	('VERB=提供', 'NOUN=檢查')
提供;改良	unseen	('VERB=提供', 'NOUN=改良')
提供;表演	unseen	('VERB=提供', 'NOUN=表演')
干預;提供	unseen	('VERB=提供', 'NOUN=干預')
提供;考究	unseen	('VERB=提供', 'NOUN=考究')
催眠;提供	unseen	('VERB=提供', 'NOUN=催眠')
提供;改進	unseen	('VERB=提供', 'NOUN=改進')
提供;續約	unseen	('VERB=提供', 'NOUN=續約')
提供;旅行	unseen	('VERB=提供', 'NOUN=旅行')
提供;討論	unseen	('VERB=提供', 'NOUN=討論')
提供;測量	unseen	('VERB=提供', 'NOUN=測量')
提供;訓練	unseen	('VERB=提供', 'NOUN=訓練')
提供;會議	unseen	('VERB=提供', 'NOUN=會議')
創作;提供	unseen	('VERB=提供', 'NOUN=創作')
作業;提供	unseen	('VERB=提供', 'NOUN=作業')
冬眠;提供	unseen	('VERB=提供', 'NOUN=冬眠')
提供;訪查	unseen	('VERB=提供', 'NOUN=訪查')
定位;提供	unseen	('VERB=提供', 'NOUN=定位')
提供;比賽	unseen	('VERB=提供', 'NOUN=比賽')
提供;改變	unseen	('VERB=提供', 'NOUN=改變')
提供;會考	unseen	('VERB=提供', 'NOUN=會考')
提供;直播	unseen	('VERB=提供', 'NOUN=直播')
提供;處理	unseen	('VERB=提供', 'NOUN=處理')
手術;提供	unseen	('VERB=提供', 'NOUN=手術')
提供;生產	unseen	('VERB=提供', 'NOUN=生產')
提供;鍛鍊	unseen	('VERB=提供', 'NOUN=鍛鍊')
提供;突擊	unseen	('VERB=提供', 'NOUN=突擊')
提供;衍生	unseen	('VERB=提供', 'NOUN=衍生')
提供;核對	unseen	('VERB=提供', 'NOUN=核對')
延伸;提供	unseen	('VERB=提供', 'NOUN=延伸')
提供;改革	unseen	('VERB=提供', 'NOUN=改革')
提供;重整	unseen	('VERB=提供', 'NOUN=重整')
提供;鑒定	unseen	('VERB=提供', 'NOUN=鑒定')
提供;編寫	unseen	('VERB=提供', 'NOUN=編寫')
分流;提供	unseen	('VERB=提供', 'NOUN=分流')
交易;提供	unseen	('VERB=提供', 'NOUN=交易')
提供;治療	unseen	('VERB=提供', 'NOUN=治療')
提供;競賽	unseen	('VERB=提供', 'NOUN=競賽')
平衡;提供	unseen	('VERB=提供', 'NOUN=平衡')
家訪;提供	unseen	('VERB=提供', 'NOUN=家訪')
提供;認證	unseen	('VERB=提供', 'NOUN=認證')
提供;買賣	unseen	('VERB=提供', 'NOUN=買賣')
提供;評價	unseen	('VERB=提供', 'NOUN=評價')
提供;調沙	unseen	('VERB=提供', 'NOUN=調沙')
提供;試驗	unseen	('VERB=提供', 'NOUN=試驗')
提供;談判	unseen	('VERB=提供', 'NOUN=談判')
事;提供	unseen	('VERB=提供', 'NOUN=事')
探測;提供	unseen	('VERB=提供', 'NOUN=探測')
提供;發明	unseen	('VERB=提供', 'NOUN=發明')
提供;變換	unseen	('VERB=提供', 'NOUN=變換')
思考;提供	unseen	('VERB=提供', 'NOUN=思考')
提供;整修	unseen	('VERB=提供', 'NOUN=整修')
提供;考察	unseen	('VERB=提供', 'NOUN=考察')
提供;重建	unseen	('VERB=提供', 'NOUN=重建')
截圖;提供	unseen	('VERB=提供', 'NOUN=截圖')
反應;提供	unseen	('VERB=提供', 'NOUN=反應')
交談;提供	unseen	('VERB=提供', 'NOUN=交談')
咨商;提供	unseen	('VERB=提供', 'NOUN=咨商')
提供;擾亂	unseen	('VERB=提供', 'NOUN=擾亂')
舉行;記者會	unseen	('VERB=舉行', 'NOUN=記者會')
提出;火災	unseen	('VERB=提出', 'NOUN=火災')
事件;提出	unseen	('VERB=提出', 'NOUN=事件')
提出;變化	unseen	('VERB=提出', 'NOUN=變化')
提出;暴動	unseen	('VERB=提出', 'NOUN=暴動')
提出;裂變	unseen	('VERB=提出', 'NOUN=裂變')
提出;衝突	unseen	('VERB=提出', 'NOUN=衝突')
事故;提出	unseen	('VERB=提出', 'NOUN=事故')
意外;提出	unseen	('VERB=提出', 'NOUN=意外')
叛變;提出	unseen	('VERB=提出', 'NOUN=叛變')
事變;提出	unseen	('VERB=提出', 'NOUN=事變')
提出;阻力	unseen	('VERB=提出', 'NOUN=阻力')
影響;提出	unseen	('VERB=提出', 'NOUN=影響')
提出;爭執	unseen	('VERB=提出', 'NOUN=爭執')
提出;錯誤	unseen	('VERB=提出', 'NOUN=錯誤')
戰役;提出	unseen	('VERB=提出', 'NOUN=戰役')
建設;從事	unseen	('VERB=從事', 'NOUN=建設')
發表;轟動	unseen	('VERB=發表', 'NOUN=轟動')
反映;造成	unseen	('VERB=造成', 'NOUN=反映')
爭議;造成	unseen	('VERB=造成', 'NOUN=爭議')
回應;造成	unseen	('VERB=造成', 'NOUN=回應')
注意;造成	unseen	('VERB=造成', 'NOUN=注意')
警覺;造成	unseen	('VERB=造成', 'NOUN=警覺')
刺激;造成	unseen	('VERB=造成', 'NOUN=刺激')
討論;造成	unseen	('VERB=造成', 'NOUN=討論')
造成;風險	unseen	('VERB=造成', 'NOUN=風險')
反響;造成	unseen	('VERB=造成', 'NOUN=反響')
造成;關注	unseen	('VERB=造成', 'NOUN=關注')
胸痛;造成	unseen	('VERB=造成', 'NOUN=胸痛')
興趣;造成	unseen	('VERB=造成', 'NOUN=興趣')
影响;有	unseen	('VERB=有', 'NOUN=影响')
创作;推行	unseen	('VERB=推行', 'NOUN=创作')
推行;研究	unseen	('VERB=推行', 'NOUN=研究')
对戰;推行	unseen	('VERB=推行', 'NOUN=对戰')
实验;推行	unseen	('VERB=推行', 'NOUN=实验')
導致;聚合	unseen	('VERB=導致', 'VERB=聚合')
決定;解放	unseen	('VERB=決定', 'VERB=解放')
影響;膨脹	unseen	('VERB=膨脹', 'NOUN=影響')
產生;阐述	unseen	('VERB=產生', 'NOUN=阐述')
推論;產生	unseen	('VERB=產生', 'NOUN=推論')
決定;產生	unseen	('VERB=產生', 'NOUN=決定')
影響;得到	unseen	('VERB=得到', 'NOUN=影響')
帶來;阐述	unseen	('VERB=帶來', 'NOUN=阐述')
帶來;推論	unseen	('VERB=帶來', 'NOUN=推論')
帶來;決定	unseen	('VERB=帶來', 'NOUN=決定')
主張;成立	unseen	('VERB=主張', 'VERB=成立')
帶給;憤怒	unseen	('AUX=帶給', 'ADJ=憤怒')
憤怒;造成	unseen	('AUX=造成', 'ADJ=憤怒')
影響;進行	unseen	('VERB=進行', 'VERB=影響')
設置;進行	unseen	('VERB=進行', 'VERB=設置')
復辟;進行	unseen	('VERB=進行', 'VERB=復辟')
進行;開放	unseen	('VERB=進行', 'VERB=開放')
控制;進行	unseen	('VERB=進行', 'VERB=控制')
改善;進行	unseen	('VERB=進行', 'VERB=改善')
歸附;進行	unseen	('VERB=進行', 'VERB=歸附')
進行;限定	unseen	('VERB=進行', 'VERB=限定')
感應;進行	unseen	('VERB=進行', 'VERB=感應')
撿到;進行	unseen	('VERB=進行', 'VERB=撿到')
建議;進行	unseen	('VERB=進行', 'VERB=建議')
輔導;進行	unseen	('VERB=進行', 'VERB=輔導')
下跌;進行	unseen	('VERB=進行', 'VERB=下跌')
進行;道歉	unseen	('VERB=進行', 'VERB=道歉')
進行;遇過	unseen	('VERB=進行', 'VERB=遇過')
傷害;發表	unseen	('VERB=發表', 'NOUN=傷害')
做;建設	unseen	('VERB=做', 'NOUN=建設')
失誤;發生	unseen	('VERB=發生', 'NOUN=失誤')
提醒;發生	unseen	('VERB=發生', 'NOUN=提醒')
作;支援	unseen	('VERB=作', 'NOUN=支援')
作;連接	unseen	('VERB=作', 'NOUN=連接')
作;分享	unseen	('VERB=作', 'NOUN=分享')
作;證明	unseen	('VERB=作', 'NOUN=證明')
作;合併	unseen	('VERB=作', 'NOUN=合併')
作;印製	unseen	('VERB=作', 'NOUN=印製')
作;試吃	unseen	('VERB=作', 'NOUN=試吃')
上傳;作	unseen	('VERB=作', 'NOUN=上傳')
作;服務	unseen	('VERB=作', 'NOUN=服務')
反對;感到	unseen	('VERB=感到', 'VERB=反對')
得到;限制	unseen	('VERB=得到', 'NOUN=限制')
打擊;提供	unseen	('VERB=提供', 'VERB=打擊')
提供;販售	unseen	('VERB=提供', 'VERB=販售')
提供;跟進	unseen	('VERB=提供', 'VERB=跟進')
描述;提供	unseen	('VERB=提供', 'VERB=描述')
提供;要脅	unseen	('VERB=提供', 'VERB=要脅')
提供;點綴	unseen	('VERB=提供', 'VERB=點綴')
報道;提供	unseen	('VERB=提供', 'VERB=報道')
提供;紀念	unseen	('VERB=提供', 'VERB=紀念')
培訓;進行	unseen	('VERB=進行', 'VERB=培訓')
服務;進行	unseen	('VERB=進行', 'VERB=服務')
資訊;進行	unseen	('VERB=進行', 'VERB=資訊')
捐款;進行	unseen	('VERB=進行', 'VERB=捐款')
優惠;進行	unseen	('VERB=進行', 'VERB=優惠')
更新;進行	unseen	('VERB=進行', 'VERB=更新')
線索;進行	unseen	('VERB=進行', 'VERB=線索')
掩護;進行	unseen	('VERB=進行', 'VERB=掩護')
進行;選項	unseen	('VERB=進行', 'VERB=選項')
查詢;進行	unseen	('VERB=進行', 'VERB=查詢')
登錄;進行	unseen	('VERB=進行', 'VERB=登錄')
咨詢;進行	unseen	('VERB=進行', 'VERB=咨詢')
翻譯;進行	unseen	('VERB=進行', 'VERB=翻譯')
解鎖;進行	unseen	('VERB=進行', 'VERB=解鎖')
支援;進行	unseen	('VERB=進行', 'VERB=支援')
作用;進行	unseen	('VERB=進行', 'VERB=作用')
進行;里程	unseen	('VERB=進行', 'VERB=里程')
保證;進行	unseen	('VERB=進行', 'VERB=保證')
作用;擁有	unseen	('VERB=擁有', 'NOUN=作用')
自信;起	unseen	('VERB=起', 'NOUN=自信')
困惑;帶給	unseen	('AUX=帶給', 'ADJ=困惑')
困惑;造成	unseen	('AUX=造成', 'ADJ=困惑')
擴建;阐述	unseen	('VERB=擴建', 'NOUN=阐述')
退出;阐述	unseen	('VERB=退出', 'NOUN=阐述')
再做;阐述	unseen	('VERB=再做', 'NOUN=阐述')
有;理論	unseen	('VERB=有', 'NOUN=理論')
有;熱議	unseen	('VERB=有', 'NOUN=熱議')
事件;有	unseen	('VERB=有', 'NOUN=事件')
引起;理論	unseen	('VERB=引起', 'NOUN=理論')
引起;熱議	unseen	('VERB=引起', 'NOUN=熱議')
事件;引起	unseen	('VERB=引起', 'NOUN=事件')
授予;榮譽	unseen	('VERB=授予', 'NOUN=榮譽')
爆炸;表示	unseen	('AUX=表示', 'ADJ=爆炸')
抗議;表示	unseen	('AUX=表示', 'ADJ=抗議')
表示;關注	unseen	('AUX=表示', 'ADJ=關注')
增長;表示	unseen	('AUX=表示', 'ADJ=增長')
發表;破壞	unseen	('VERB=發表', 'NOUN=破壞')
帶給;快樂	unseen	('VERB=帶給', 'NOUN=快樂')
快樂;造成	unseen	('VERB=造成', 'NOUN=快樂')
膨脹;變化	unseen	('VERB=膨脹', 'VERB=變化')
失誤;產生	unseen	('VERB=產生', 'VERB=失誤')
提醒;產生	unseen	('VERB=產生', 'VERB=提醒')
反對;採取	unseen	('VERB=採取', 'VERB=反對')
反對;建言	unseen	('VERB=建言', 'VERB=反對')
反對;問題	unseen	('VERB=問題', 'VERB=反對')
反對;批評	unseen	('VERB=批評', 'VERB=反對')
反對;請求	unseen	('VERB=請求', 'VERB=反對')
反對;要求	unseen	('VERB=要求', 'VERB=反對')
反對;申請	unseen	('VERB=申請', 'VERB=反對')
反對;抗議	unseen	('VERB=抗議', 'VERB=反對')
孤獨;慚愧	unseen	('AUX=孤獨', 'ADJ=慚愧')
刺激;帶給	unseen	('AUX=帶給', 'ADJ=刺激')
反映;感到	unseen	('AUX=感到', 'ADJ=反映')
感到;爭議	unseen	('AUX=感到', 'ADJ=爭議')
回應;感到	unseen	('AUX=感到', 'ADJ=回應')
感到;注意	unseen	('AUX=感到', 'ADJ=注意')
感到;警覺	unseen	('AUX=感到', 'ADJ=警覺')
感到;討論	unseen	('AUX=感到', 'ADJ=討論')
感到;風險	unseen	('AUX=感到', 'ADJ=風險')
反響;感到	unseen	('AUX=感到', 'ADJ=反響')
感到;關注	unseen	('AUX=感到', 'ADJ=關注')
感到;胸痛	unseen	('AUX=感到', 'ADJ=胸痛')
感到;興趣	unseen	('AUX=感到', 'ADJ=興趣')
感到;轟動	unseen	('AUX=感到', 'ADJ=轟動')
改正;進行	unseen	('VERB=進行', 'NOUN=改正')
旅遊業;進行	unseen	('VERB=進行', 'NOUN=旅遊業')
設定;進行	unseen	('VERB=進行', 'NOUN=設定')
決擇;進行	unseen	('VERB=進行', 'NOUN=決擇')
了斷;進行	unseen	('VERB=進行', 'NOUN=了斷')
紀錄;進行	unseen	('VERB=進行', 'NOUN=紀錄')
記錄;進行	unseen	('VERB=進行', 'NOUN=記錄')
比較;進行	unseen	('VERB=進行', 'NOUN=比較')
特價;進行	unseen	('VERB=進行', 'NOUN=特價')
家務;進行	unseen	('VERB=進行', 'NOUN=家務')
管理;進行	unseen	('VERB=進行', 'NOUN=管理')
說明;進行	unseen	('VERB=進行', 'NOUN=說明')
禮拜;進行	unseen	('VERB=進行', 'NOUN=禮拜')
偽證;進行	unseen	('VERB=進行', 'NOUN=偽證')
作;拍攝	unseen	('VERB=作', 'VERB=拍攝')
作;宣判	unseen	('VERB=作', 'VERB=宣判')
作;死戰	unseen	('VERB=作', 'VERB=死戰')
作;講話	unseen	('VERB=作', 'VERB=講話')
作;對話	unseen	('VERB=作', 'VERB=對話')
作;勞動	unseen	('VERB=作', 'VERB=勞動')
作;轉變	unseen	('VERB=作', 'VERB=轉變')
作;復仇	unseen	('VERB=作', 'VERB=復仇')
作;領導	unseen	('VERB=作', 'VERB=領導')
作;操作	unseen	('VERB=作', 'VERB=操作')
作;換算	unseen	('VERB=作', 'VERB=換算')
作;修葺	unseen	('VERB=作', 'VERB=修葺')
作;清理	unseen	('VERB=作', 'VERB=清理')
作;育種	unseen	('VERB=作', 'VERB=育種')
作;攻擊	unseen	('VERB=作', 'VERB=攻擊')
作;驗證	unseen	('VERB=作', 'VERB=驗證')
作;保護	unseen	('VERB=作', 'VERB=保護')
作;調整	unseen	('VERB=作', 'VERB=調整')
作;確認	unseen	('VERB=作', 'VERB=確認')
作;維護	unseen	('VERB=作', 'VERB=維護')
作;燒錄	unseen	('VERB=作', 'VERB=燒錄')
作;分析	unseen	('VERB=作', 'VERB=分析')
作;開發	unseen	('VERB=作', 'VERB=開發')
作;決策	unseen	('VERB=作', 'VERB=決策')
作;破壞	unseen	('VERB=作', 'VERB=破壞')
作;劫掠	unseen	('VERB=作', 'VERB=劫掠')
作;生產狀態	unseen	('VERB=作', 'VERB=生產狀態')
作;補給	unseen	('VERB=作', 'VERB=補給')
作;公告	unseen	('VERB=作', 'VERB=公告')
作;戰鬥	unseen	('VERB=作', 'VERB=戰鬥')
作;夜戰	unseen	('VERB=作', 'VERB=夜戰')
作;遊戲	unseen	('VERB=作', 'VERB=遊戲')
作;個展	unseen	('VERB=作', 'VERB=個展')
作;監督	unseen	('VERB=作', 'VERB=監督')
作;遠航	unseen	('VERB=作', 'VERB=遠航')
作;調查	unseen	('VERB=作', 'VERB=調查')
作;實踐	unseen	('VERB=作', 'VERB=實踐')
作;投注	unseen	('VERB=作', 'VERB=投注')
作;授權	unseen	('VERB=作', 'VERB=授權')
作;儀式	unseen	('VERB=作', 'VERB=儀式')
作;教育	unseen	('VERB=作', 'VERB=教育')
作;改良	unseen	('VERB=作', 'VERB=改良')
作;教學	unseen	('VERB=作', 'VERB=教學')
作;表演	unseen	('VERB=作', 'VERB=表演')
作;干預	unseen	('VERB=作', 'VERB=干預')
作;活動	unseen	('VERB=作', 'VERB=活動')
作;考究	unseen	('VERB=作', 'VERB=考究')
作;催眠	unseen	('VERB=作', 'VERB=催眠')
作;工作	unseen	('VERB=作', 'VERB=工作')
作;改進	unseen	('VERB=作', 'VERB=改進')
作;續約	unseen	('VERB=作', 'VERB=續約')
作;旅行	unseen	('VERB=作', 'VERB=旅行')
作;改造	unseen	('VERB=作', 'VERB=改造')
作;討論	unseen	('VERB=作', 'VERB=討論')
作;測量	unseen	('VERB=作', 'VERB=測量')
作;訓練	unseen	('VERB=作', 'VERB=訓練')
作;會議	unseen	('VERB=作', 'VERB=會議')
作;創作	unseen	('VERB=作', 'VERB=創作')
作;作業	unseen	('VERB=作', 'VERB=作業')
作;冬眠	unseen	('VERB=作', 'VERB=冬眠')
作;訪查	unseen	('VERB=作', 'VERB=訪查')
作;定位	unseen	('VERB=作', 'VERB=定位')
作;比賽	unseen	('VERB=作', 'VERB=比賽')
作;改變	unseen	('VERB=作', 'VERB=改變')
作;會考	unseen	('VERB=作', 'VERB=會考')
作;直播	unseen	('VERB=作', 'VERB=直播')
作;處理	unseen	('VERB=作', 'VERB=處理')
作;手術	unseen	('VERB=作', 'VERB=手術')
作;生產	unseen	('VERB=作', 'VERB=生產')
作;鍛鍊	unseen	('VERB=作', 'VERB=鍛鍊')
作;突擊	unseen	('VERB=作', 'VERB=突擊')
作;衍生	unseen	('VERB=作', 'VERB=衍生')
作;核對	unseen	('VERB=作', 'VERB=核對')
作;實驗	unseen	('VERB=作', 'VERB=實驗')
作;延伸	unseen	('VERB=作', 'VERB=延伸')
作;改革	unseen	('VERB=作', 'VERB=改革')
作;重整	unseen	('VERB=作', 'VERB=重整')
作;鑒定	unseen	('VERB=作', 'VERB=鑒定')
作;編寫	unseen	('VERB=作', 'VERB=編寫')
作;分流	unseen	('VERB=作', 'VERB=分流')
交易;作	unseen	('VERB=作', 'VERB=交易')
作;治療	unseen	('VERB=作', 'VERB=治療')
作;競賽	unseen	('VERB=作', 'VERB=競賽')
作;平衡	unseen	('VERB=作', 'VERB=平衡')
作;家訪	unseen	('VERB=作', 'VERB=家訪')
作;認證	unseen	('VERB=作', 'VERB=認證')
作;買賣	unseen	('VERB=作', 'VERB=買賣')
作;評價	unseen	('VERB=作', 'VERB=評價')
作;調沙	unseen	('VERB=作', 'VERB=調沙')
作;試驗	unseen	('VERB=作', 'VERB=試驗')
作;談判	unseen	('VERB=作', 'VERB=談判')
事;作	unseen	('VERB=作', 'VERB=事')
作;探測	unseen	('VERB=作', 'VERB=探測')
作;發明	unseen	('VERB=作', 'VERB=發明')
作;變換	unseen	('VERB=作', 'VERB=變換')
作;思考	unseen	('VERB=作', 'VERB=思考')
作;整修	unseen	('VERB=作', 'VERB=整修')
作;考察	unseen	('VERB=作', 'VERB=考察')
作;重建	unseen	('VERB=作', 'VERB=重建')
作;截圖	unseen	('VERB=作', 'VERB=截圖')
作;設計	unseen	('VERB=作', 'VERB=設計')
作;反應	unseen	('VERB=作', 'VERB=反應')
交談;作	unseen	('VERB=作', 'VERB=交談')
作;咨商	unseen	('VERB=作', 'VERB=咨商')
作;擾亂	unseen	('VERB=作', 'VERB=擾亂')
感到;讚賞	unseen	('VERB=感到', 'NOUN=讚賞')
孤獨;有	unseen	('VERB=有', 'NOUN=孤獨')
損壞;進行	unseen	('VERB=進行', 'NOUN=損壞')
轟動;進行	unseen	('VERB=進行', 'NOUN=轟動')
傷害;進行	unseen	('VERB=進行', 'NOUN=傷害')
損傷;進行	unseen	('VERB=進行', 'NOUN=損傷')
污染;進行	unseen	('VERB=進行', 'NOUN=污染')
效率;進行	unseen	('VERB=進行', 'NOUN=效率')
出血;進行	unseen	('VERB=進行', 'NOUN=出血')
上升;進行	unseen	('VERB=進行', 'NOUN=上升')
增加;進行	unseen	('VERB=進行', 'NOUN=增加')
不適感;進行	unseen	('VERB=進行', 'NOUN=不適感')
迴響;進行	unseen	('VERB=進行', 'NOUN=迴響')
威脅;進行	unseen	('VERB=進行', 'NOUN=威脅')
整理;阐述	unseen	('VERB=阐述', 'NOUN=整理')
推論;整理	unseen	('VERB=推論', 'NOUN=整理')
影響;整理	unseen	('VERB=影響', 'NOUN=整理')
損傷;發表	unseen	('VERB=發表', 'NOUN=損傷')
得到;麻煩	unseen	('VERB=得到', 'PROPN=麻煩')
理論;進行	unseen	('VERB=進行', 'NOUN=理論')
推論;擴建	unseen	('VERB=擴建', 'NOUN=推論')
推論;退出	unseen	('VERB=退出', 'NOUN=推論')
再做;推論	unseen	('VERB=再做', 'NOUN=推論')
提供;疑問	unseen	('VERB=提供', 'NOUN=疑問')
提供;體驗	unseen	('VERB=提供', 'NOUN=體驗')
提供;經驗	unseen	('VERB=提供', 'NOUN=經驗')
不同;提供	unseen	('VERB=提供', 'NOUN=不同')
提供;爭議	unseen	('VERB=提供', 'NOUN=爭議')
意義;提供	unseen	('VERB=提供', 'NOUN=意義')
提供;習慣	unseen	('VERB=提供', 'NOUN=習慣')
提供;目標	unseen	('VERB=提供', 'NOUN=目標')
感覺;提供	unseen	('VERB=提供', 'NOUN=感覺')
提供;需要	unseen	('VERB=提供', 'NOUN=需要')
影響;提供	unseen	('VERB=提供', 'NOUN=影響')
提供;用途	unseen	('VERB=提供', 'NOUN=用途')
感受;提供	unseen	('VERB=提供', 'NOUN=感受')
提供;聯繫	unseen	('VERB=提供', 'NOUN=聯繫')
想過;提供	unseen	('VERB=提供', 'NOUN=想過')
嫌疑;提供	unseen	('VERB=提供', 'NOUN=嫌疑')
提供;貢獻	unseen	('VERB=提供', 'NOUN=貢獻')
差異;提供	unseen	('VERB=提供', 'NOUN=差異')
定義;提供	unseen	('VERB=提供', 'NOUN=定義')
提供;積蓄	unseen	('VERB=提供', 'NOUN=積蓄')
侵權;提供	unseen	('VERB=提供', 'NOUN=侵權')
提供;衝動	unseen	('VERB=提供', 'NOUN=衝動')
提供;爭吵	unseen	('VERB=提供', 'NOUN=爭吵')
創意;提供	unseen	('VERB=提供', 'NOUN=創意')
優勢;提供	unseen	('VERB=提供', 'NOUN=優勢')
問題;提供	unseen	('VERB=提供', 'NOUN=問題')
提供;機會	unseen	('VERB=提供', 'NOUN=機會')
意見;提供	unseen	('VERB=提供', 'NOUN=意見')
提供;規定	unseen	('VERB=提供', 'NOUN=規定')
提供;矛盾	unseen	('VERB=提供', 'NOUN=矛盾')
應用;提供	unseen	('VERB=提供', 'NOUN=應用')
打折;提供	unseen	('VERB=提供', 'NOUN=打折')
傳聞;提供	unseen	('VERB=提供', 'NOUN=傳聞')
提供;耐心	unseen	('VERB=提供', 'NOUN=耐心')
懷疑;提供	unseen	('VERB=提供', 'NOUN=懷疑')
探討;放棄	unseen	('VERB=探討', 'VERB=放棄')
放棄;評估	unseen	('VERB=評估', 'VERB=放棄')
參考;放棄	unseen	('VERB=參考', 'VERB=放棄')
放棄;觀測	unseen	('VERB=觀測', 'VERB=放棄')
放棄;準備	unseen	('VERB=準備', 'VERB=放棄')
打擊;放棄	unseen	('VERB=打擊', 'VERB=放棄')
放棄;研究	unseen	('VERB=研究', 'VERB=放棄')
放棄;販售	unseen	('VERB=販售', 'VERB=放棄')
放棄;跟進	unseen	('VERB=跟進', 'VERB=放棄')
分類;放棄	unseen	('VERB=分類', 'VERB=放棄')
描述;放棄	unseen	('VERB=描述', 'VERB=放棄')
放棄;要脅	unseen	('VERB=要脅', 'VERB=放棄')
放棄;點綴	unseen	('VERB=點綴', 'VERB=放棄')
報道;放棄	unseen	('VERB=報道', 'VERB=放棄')
放棄;紀念	unseen	('VERB=紀念', 'VERB=放棄')
爭議;進行	unseen	('VERB=進行', 'NOUN=爭議')
建言;引起	unseen	('VERB=引起', 'VERB=建言')
問題;引起	unseen	('VERB=引起', 'VERB=問題')
引起;批評	unseen	('VERB=引起', 'VERB=批評')
引起;請求	unseen	('VERB=引起', 'VERB=請求')
主張;引起	unseen	('VERB=引起', 'VERB=主張')
引起;要求	unseen	('VERB=引起', 'VERB=要求')
引起;申請	unseen	('VERB=引起', 'VERB=申請')
所思所想;擁有	unseen	('VERB=擁有', 'NOUN=所思所想')
熱議;進行	unseen	('VERB=進行', 'NOUN=熱議')
主張;行動	unseen	('VERB=主張', 'NOUN=行動')
採取;遊戲	unseen	('VERB=採取', 'NOUN=遊戲')
採取;死刑	unseen	('VERB=採取', 'NOUN=死刑')
死刑;進行	unseen	('VERB=進行', 'NOUN=死刑')
行動;進行	unseen	('VERB=進行', 'NOUN=行動')
死亡;發表	unseen	('VERB=發表', 'VERB=死亡')
戰爭;造成	unseen	('VERB=造成', 'VERB=戰爭')
移動;造成	unseen	('VERB=造成', 'VERB=移動')
消散;造成	unseen	('VERB=造成', 'VERB=消散')
壟斷;造成	unseen	('VERB=造成', 'VERB=壟斷')
消耗;造成	unseen	('VERB=造成', 'VERB=消耗')
优化;作	unseen	('VERB=作', 'NOUN=优化')
作;理解	unseen	('VERB=作', 'NOUN=理解')
作;创作	unseen	('VERB=作', 'NOUN=创作')
作;对戰	unseen	('VERB=作', 'NOUN=对戰')
作;实验	unseen	('VERB=作', 'NOUN=实验')
推展;管理	unseen	('VERB=推展', 'NOUN=管理')
影響;搞	unseen	('VERB=搞', 'VERB=影響')
損壞;搞	unseen	('VERB=搞', 'VERB=損壞')
搞;轟動	unseen	('VERB=搞', 'VERB=轟動')
傷害;搞	unseen	('VERB=搞', 'VERB=傷害')
損傷;搞	unseen	('VERB=搞', 'VERB=損傷')
搞;污染	unseen	('VERB=搞', 'VERB=污染')
搞;效率	unseen	('VERB=搞', 'VERB=效率')
出血;搞	unseen	('VERB=搞', 'VERB=出血')
搞;改變	unseen	('VERB=搞', 'VERB=改變')
上升;搞	unseen	('VERB=搞', 'VERB=上升')
增加;搞	unseen	('VERB=搞', 'VERB=增加')
不適感;搞	unseen	('VERB=搞', 'VERB=不適感')
搞;迴響	unseen	('VERB=搞', 'VERB=迴響')
威脅;搞	unseen	('VERB=搞', 'VERB=威脅')
引起;文章	unseen	('VERB=引起', 'NOUN=文章')
引起;聲明	unseen	('VERB=引起', 'NOUN=聲明')
引起;獻言	unseen	('VERB=引起', 'NOUN=獻言')
宣言;引起	unseen	('VERB=引起', 'NOUN=宣言')
引起;意見	unseen	('VERB=引起', 'NOUN=意見')
引起;看法	unseen	('VERB=引起', 'NOUN=看法')
報告;引起	unseen	('VERB=引起', 'NOUN=報告')
引起;迴響	unseen	('VERB=引起', 'NOUN=迴響')
爆發;風險	unseen	('VERB=爆發', 'NOUN=風險')
死亡;爆發	unseen	('VERB=爆發', 'NOUN=死亡')
爆發;移動	unseen	('VERB=爆發', 'NOUN=移動')
消散;爆發	unseen	('VERB=爆發', 'NOUN=消散')
壟斷;爆發	unseen	('VERB=爆發', 'NOUN=壟斷')
消耗;爆發	unseen	('VERB=爆發', 'NOUN=消耗')
孤獨;給予	unseen	('VERB=給予', 'NOUN=孤獨')
作;讽刺	unseen	('VERB=作', 'VERB=讽刺')
作;分組	unseen	('VERB=作', 'VERB=分組')
了解;作	unseen	('VERB=作', 'VERB=了解')
作;更改	unseen	('VERB=作', 'VERB=更改')
主張;策略	unseen	('VERB=主張', 'NOUN=策略')
所思所想;起	unseen	('VERB=起', 'NOUN=所思所想')
舉行;運作	unseen	('VERB=舉行', 'NOUN=運作')
演奏;舉行	unseen	('VERB=舉行', 'NOUN=演奏')
判斷;進行	unseen	('VERB=進行', 'NOUN=判斷')
指定;進行	unseen	('VERB=進行', 'NOUN=指定')
加工;進行	unseen	('VERB=進行', 'NOUN=加工')
分割;進行	unseen	('VERB=進行', 'NOUN=分割')
展示;進行	unseen	('VERB=進行', 'NOUN=展示')
調和;進行	unseen	('VERB=進行', 'NOUN=調和')
反對;發起	unseen	('VERB=發起', 'VERB=反對')
提出;發起	unseen	('VERB=發起', 'VERB=提出')
研討會;進行	unseen	('VERB=進行', 'NOUN=研討會')
聚會;進行	unseen	('VERB=進行', 'NOUN=聚會')
晚會;進行	unseen	('VERB=進行', 'NOUN=晚會')
導致;死亡	unseen	('VERB=導致', 'NOUN=死亡')
有;要求	unseen	('VERB=有', 'NOUN=要求')
有;決心	unseen	('VERB=有', 'NOUN=決心')
有;讚揚	unseen	('VERB=有', 'NOUN=讚揚')
打出;選擇	unseen	('VERB=打出', 'VERB=選擇')
參考;打出	unseen	('VERB=打出', 'VERB=參考')
打出;觀測	unseen	('VERB=打出', 'VERB=觀測')
打出;準備	unseen	('VERB=打出', 'VERB=準備')
打出;研究	unseen	('VERB=打出', 'VERB=研究')
打出;販售	unseen	('VERB=打出', 'VERB=販售')
打出;跟進	unseen	('VERB=打出', 'VERB=跟進')
分類;打出	unseen	('VERB=打出', 'VERB=分類')
打出;描述	unseen	('VERB=打出', 'VERB=描述')
打出;要脅	unseen	('VERB=打出', 'VERB=要脅')
打出;點綴	unseen	('VERB=打出', 'VERB=點綴')
報道;打出	unseen	('VERB=打出', 'VERB=報道')
打出;紀念	unseen	('VERB=打出', 'VERB=紀念')
憤怒;發生	unseen	('VERB=發生', 'NOUN=憤怒')
困惑;發生	unseen	('VERB=發生', 'NOUN=困惑')
刺激;發生	unseen	('VERB=發生', 'NOUN=刺激')
憂心;發生	unseen	('VERB=發生', 'NOUN=憂心')
愉快;發生	unseen	('VERB=發生', 'NOUN=愉快')
發生;苦惱	unseen	('VERB=發生', 'NOUN=苦惱')
發生;高興	unseen	('VERB=發生', 'NOUN=高興')
不滿;發生	unseen	('VERB=發生', 'NOUN=不滿')
發生;震驚	unseen	('VERB=發生', 'NOUN=震驚')
傷亡;發表	unseen	('VERB=發表', 'VERB=傷亡')
建設;進行	unseen	('VERB=進行', 'NOUN=建設')
發動;遊戲	unseen	('VERB=發動', 'NOUN=遊戲')
死刑;發動	unseen	('VERB=發動', 'NOUN=死刑')
帶給;憂心	unseen	('AUX=帶給', 'ADJ=憂心')
憂心;造成	unseen	('AUX=造成', 'ADJ=憂心')
讽刺;進行	unseen	('VERB=進行', 'VERB=讽刺')
分組;進行	unseen	('VERB=進行', 'VERB=分組')
了解;進行	unseen	('VERB=進行', 'VERB=了解')
更改;進行	unseen	('VERB=進行', 'VERB=更改')
得到;財富	unseen	('VERB=得到', 'NOUN=財富')
採取;提出	unseen	('VERB=提出', 'NOUN=採取')
有;通過	unseen	('VERB=有', 'VERB=通過')
反映;進行	unseen	('VERB=進行', 'NOUN=反映')
回應;進行	unseen	('VERB=進行', 'NOUN=回應')
注意;進行	unseen	('VERB=進行', 'NOUN=注意')
警覺;進行	unseen	('VERB=進行', 'NOUN=警覺')
刺激;進行	unseen	('VERB=進行', 'NOUN=刺激')
進行;風險	unseen	('VERB=進行', 'NOUN=風險')
反響;進行	unseen	('VERB=進行', 'NOUN=反響')
進行;關注	unseen	('VERB=進行', 'NOUN=關注')
胸痛;進行	unseen	('VERB=進行', 'NOUN=胸痛')
興趣;進行	unseen	('VERB=進行', 'NOUN=興趣')
傷亡;導致	unseen	('VERB=導致', 'NOUN=傷亡')
下降;導致	unseen	('VERB=導致', 'NOUN=下降')
導致;破壞	unseen	('VERB=導致', 'NOUN=破壞')
增加;導致	unseen	('VERB=導致', 'NOUN=增加')
選擇;預訂	unseen	('VERB=選擇', 'VERB=預訂')
變更;選擇	unseen	('VERB=選擇', 'VERB=變更')
遴選;選擇	unseen	('VERB=選擇', 'VERB=遴選')
安裝;選擇	unseen	('VERB=選擇', 'VERB=安裝')
選擇;顯示	unseen	('VERB=選擇', 'VERB=顯示')
列印;選擇	unseen	('VERB=選擇', 'VERB=列印')
選擇;錄製	unseen	('VERB=選擇', 'VERB=錄製')
作業;選擇	unseen	('VERB=選擇', 'VERB=作業')
交錯;選擇	unseen	('VERB=選擇', 'VERB=交錯')
播放;選擇	unseen	('VERB=選擇', 'VERB=播放')
修正;選擇	unseen	('VERB=選擇', 'VERB=修正')
購買;選擇	unseen	('VERB=選擇', 'VERB=購買')
禁止;選擇	unseen	('VERB=選擇', 'VERB=禁止')
運算;選擇	unseen	('VERB=選擇', 'VERB=運算')
研究;選擇	unseen	('VERB=選擇', 'VERB=研究')
學習;探討	unseen	('VERB=探討', 'VERB=學習')
學習;評估	unseen	('VERB=評估', 'VERB=學習')
參考;學習	unseen	('VERB=參考', 'VERB=學習')
學習;觀測	unseen	('VERB=觀測', 'VERB=學習')
學習;準備	unseen	('VERB=準備', 'VERB=學習')
學習;打擊	unseen	('VERB=打擊', 'VERB=學習')
學習;研究	unseen	('VERB=研究', 'VERB=學習')
學習;販售	unseen	('VERB=販售', 'VERB=學習')
學習;跟進	unseen	('VERB=跟進', 'VERB=學習')
分類;學習	unseen	('VERB=分類', 'VERB=學習')
學習;描述	unseen	('VERB=描述', 'VERB=學習')
學習;要脅	unseen	('VERB=要脅', 'VERB=學習')
學習;點綴	unseen	('VERB=點綴', 'VERB=學習')
報道;學習	unseen	('VERB=報道', 'VERB=學習')
學習;紀念	unseen	('VERB=紀念', 'VERB=學習')
有;規勸	unseen	('VERB=有', 'NOUN=規勸')
批複;有	unseen	('VERB=有', 'NOUN=批複')
有;贡献	unseen	('VERB=有', 'NOUN=贡献')
判決;有	unseen	('VERB=有', 'NOUN=判決')
有;考虑	unseen	('VERB=有', 'NOUN=考虑')
有;通報	unseen	('VERB=有', 'NOUN=通報')
有;表白	unseen	('VERB=有', 'NOUN=表白')
有;比喻	unseen	('VERB=有', 'NOUN=比喻')
有;讓步	unseen	('VERB=有', 'NOUN=讓步')
有;评价	unseen	('VERB=有', 'NOUN=评价')
策略;進行	unseen	('VERB=進行', 'NOUN=策略')
態度;進行	unseen	('VERB=進行', 'NOUN=態度')
立場;進行	unseen	('VERB=進行', 'NOUN=立場')
加以;研究	unseen	('AUX=加以', 'VERB=研究')
优化;加以	unseen	('AUX=加以', 'VERB=优化')
記者會;進行	unseen	('VERB=進行', 'NOUN=記者會')
擁有;阐述	unseen	('VERB=擁有', 'VERB=阐述')
推論;擁有	unseen	('VERB=擁有', 'VERB=推論')
擁有;決定	unseen	('VERB=擁有', 'VERB=決定')
採取;進攻	unseen	('VERB=採取', 'VERB=進攻')
建言;進攻	unseen	('VERB=建言', 'VERB=進攻')
問題;進攻	unseen	('VERB=問題', 'VERB=進攻')
批評;進攻	unseen	('VERB=批評', 'VERB=進攻')
請求;進攻	unseen	('VERB=請求', 'VERB=進攻')
要求;進攻	unseen	('VERB=要求', 'VERB=進攻')
申請;進攻	unseen	('VERB=申請', 'VERB=進攻')
抗議;進攻	unseen	('VERB=抗議', 'VERB=進攻')
帶給;愉快	unseen	('VERB=帶給', 'ADJ=愉快')
愉快;造成	unseen	('VERB=造成', 'ADJ=愉快')
引起;憤怒	unseen	('VERB=引起', 'NOUN=憤怒')
困惑;引起	unseen	('VERB=引起', 'NOUN=困惑')
引起;憂心	unseen	('VERB=引起', 'NOUN=憂心')
引起;愉快	unseen	('VERB=引起', 'NOUN=愉快')
引起;苦惱	unseen	('VERB=引起', 'NOUN=苦惱')
引起;高興	unseen	('VERB=引起', 'NOUN=高興')
引起;意外	unseen	('VERB=引起', 'NOUN=意外')
引起;震驚	unseen	('VERB=引起', 'NOUN=震驚')
孤獨;要求	unseen	('VERB=要求', 'NOUN=孤獨')
孤獨;決心	unseen	('VERB=決心', 'NOUN=孤獨')
孤獨;讚揚	unseen	('VERB=讚揚', 'NOUN=孤獨')
污染;發表	unseen	('VERB=發表', 'NOUN=污染')
信任;感到	unseen	('VERB=感到', 'VERB=信任')
提出;決心	unseen	('VERB=提出', 'NOUN=決心')
提出;讚揚	unseen	('VERB=提出', 'NOUN=讚揚')
感受;提出	unseen	('VERB=提出', 'NOUN=感受')
做;支援	unseen	('VERB=做', 'VERB=支援')
做;參考	unseen	('VERB=做', 'VERB=參考')
做;分享	unseen	('VERB=做', 'VERB=分享')
做;證明	unseen	('VERB=做', 'VERB=證明')
做;合併	unseen	('VERB=做', 'VERB=合併')
做;印製	unseen	('VERB=做', 'VERB=印製')
做;試吃	unseen	('VERB=做', 'VERB=試吃')
上傳;做	unseen	('VERB=做', 'VERB=上傳')
帶給;苦惱	unseen	('AUX=帶給', 'ADJ=苦惱')
苦惱;造成	unseen	('AUX=造成', 'ADJ=苦惱')
展開;研究	unseen	('VERB=展開', 'NOUN=研究')
分類;展開	unseen	('VERB=展開', 'NOUN=分類')
展開;拍攝	unseen	('VERB=展開', 'NOUN=拍攝')
宣判;展開	unseen	('VERB=展開', 'NOUN=宣判')
展開;死戰	unseen	('VERB=展開', 'NOUN=死戰')
展開;講話	unseen	('VERB=展開', 'NOUN=講話')
對話;展開	unseen	('VERB=展開', 'NOUN=對話')
勞動;展開	unseen	('VERB=展開', 'NOUN=勞動')
展開;轉變	unseen	('VERB=展開', 'NOUN=轉變')
展開;領導	unseen	('VERB=展開', 'NOUN=領導')
展開;操作	unseen	('VERB=展開', 'NOUN=操作')
展開;換算	unseen	('VERB=展開', 'NOUN=換算')
修葺;展開	unseen	('VERB=展開', 'NOUN=修葺')
展開;清理	unseen	('VERB=展開', 'NOUN=清理')
展開;育種	unseen	('VERB=展開', 'NOUN=育種')
展開;攻擊	unseen	('VERB=展開', 'NOUN=攻擊')
展開;驗證	unseen	('VERB=展開', 'NOUN=驗證')
保護;展開	unseen	('VERB=展開', 'NOUN=保護')
展開;調整	unseen	('VERB=展開', 'NOUN=調整')
展開;確認	unseen	('VERB=展開', 'NOUN=確認')
展開;維護	unseen	('VERB=展開', 'NOUN=維護')
展開;燒錄	unseen	('VERB=展開', 'NOUN=燒錄')
分析;展開	unseen	('VERB=展開', 'NOUN=分析')
展開;開發	unseen	('VERB=展開', 'NOUN=開發')
展開;決策	unseen	('VERB=展開', 'NOUN=決策')
展開;破壞	unseen	('VERB=展開', 'NOUN=破壞')
劫掠;展開	unseen	('VERB=展開', 'NOUN=劫掠')
展開;生產狀態	unseen	('VERB=展開', 'NOUN=生產狀態')
展開;補給	unseen	('VERB=展開', 'NOUN=補給')
公告;展開	unseen	('VERB=展開', 'NOUN=公告')
展開;戰鬥	unseen	('VERB=展開', 'NOUN=戰鬥')
夜戰;展開	unseen	('VERB=展開', 'NOUN=夜戰')
展開;遊戲	unseen	('VERB=展開', 'NOUN=遊戲')
個展;展開	unseen	('VERB=展開', 'NOUN=個展')
展開;監督	unseen	('VERB=展開', 'NOUN=監督')
展開;遠航	unseen	('VERB=展開', 'NOUN=遠航')
展開;觀測	unseen	('VERB=展開', 'NOUN=觀測')
展開;調查	unseen	('VERB=展開', 'NOUN=調查')
實踐;展開	unseen	('VERB=展開', 'NOUN=實踐')
展開;投注	unseen	('VERB=展開', 'NOUN=投注')
展開;授權	unseen	('VERB=展開', 'NOUN=授權')
儀式;展開	unseen	('VERB=展開', 'NOUN=儀式')
展開;檢查	unseen	('VERB=展開', 'NOUN=檢查')
展開;教育	unseen	('VERB=展開', 'NOUN=教育')
展開;改良	unseen	('VERB=展開', 'NOUN=改良')
展開;教學	unseen	('VERB=展開', 'NOUN=教學')
展開;表演	unseen	('VERB=展開', 'NOUN=表演')
展開;干預	unseen	('VERB=展開', 'NOUN=干預')
展開;考究	unseen	('VERB=展開', 'NOUN=考究')
催眠;展開	unseen	('VERB=展開', 'NOUN=催眠')
展開;工作	unseen	('VERB=展開', 'NOUN=工作')
展開;改進	unseen	('VERB=展開', 'NOUN=改進')
展開;續約	unseen	('VERB=展開', 'NOUN=續約')
展開;旅行	unseen	('VERB=展開', 'NOUN=旅行')
展開;改造	unseen	('VERB=展開', 'NOUN=改造')
展開;討論	unseen	('VERB=展開', 'NOUN=討論')
展開;測量	unseen	('VERB=展開', 'NOUN=測量')
展開;訓練	unseen	('VERB=展開', 'NOUN=訓練')
展開;會議	unseen	('VERB=展開', 'NOUN=會議')
創作;展開	unseen	('VERB=展開', 'NOUN=創作')
作業;展開	unseen	('VERB=展開', 'NOUN=作業')
冬眠;展開	unseen	('VERB=展開', 'NOUN=冬眠')
展開;訪查	unseen	('VERB=展開', 'NOUN=訪查')
定位;展開	unseen	('VERB=展開', 'NOUN=定位')
展開;比賽	unseen	('VERB=展開', 'NOUN=比賽')
展開;改變	unseen	('VERB=展開', 'NOUN=改變')
展開;會考	unseen	('VERB=展開', 'NOUN=會考')
展開;直播	unseen	('VERB=展開', 'NOUN=直播')
展開;處理	unseen	('VERB=展開', 'NOUN=處理')
展開;手術	unseen	('VERB=展開', 'NOUN=手術')
展開;生產	unseen	('VERB=展開', 'NOUN=生產')
展開;鍛鍊	unseen	('VERB=展開', 'NOUN=鍛鍊')
展開;突擊	unseen	('VERB=展開', 'NOUN=突擊')
展開;衍生	unseen	('VERB=展開', 'NOUN=衍生')
展開;核對	unseen	('VERB=展開', 'NOUN=核對')
實驗;展開	unseen	('VERB=展開', 'NOUN=實驗')
展開;延伸	unseen	('VERB=展開', 'NOUN=延伸')
展開;改革	unseen	('VERB=展開', 'NOUN=改革')
展開;重整	unseen	('VERB=展開', 'NOUN=重整')
展開;鑒定	unseen	('VERB=展開', 'NOUN=鑒定')
展開;編寫	unseen	('VERB=展開', 'NOUN=編寫')
分流;展開	unseen	('VERB=展開', 'NOUN=分流')
交易;展開	unseen	('VERB=展開', 'NOUN=交易')
展開;治療	unseen	('VERB=展開', 'NOUN=治療')
展開;競賽	unseen	('VERB=展開', 'NOUN=競賽')
展開;平衡	unseen	('VERB=展開', 'NOUN=平衡')
家訪;展開	unseen	('VERB=展開', 'NOUN=家訪')
展開;認證	unseen	('VERB=展開', 'NOUN=認證')
展開;買賣	unseen	('VERB=展開', 'NOUN=買賣')
展開;評價	unseen	('VERB=展開', 'NOUN=評價')
展開;調沙	unseen	('VERB=展開', 'NOUN=調沙')
展開;試驗	unseen	('VERB=展開', 'NOUN=試驗')
展開;談判	unseen	('VERB=展開', 'NOUN=談判')
事;展開	unseen	('VERB=展開', 'NOUN=事')
展開;探測	unseen	('VERB=展開', 'NOUN=探測')
展開;發明	unseen	('VERB=展開', 'NOUN=發明')
展開;變換	unseen	('VERB=展開', 'NOUN=變換')
展開;思考	unseen	('VERB=展開', 'NOUN=思考')
展開;整修	unseen	('VERB=展開', 'NOUN=整修')
展開;考察	unseen	('VERB=展開', 'NOUN=考察')
展開;重建	unseen	('VERB=展開', 'NOUN=重建')
展開;截圖	unseen	('VERB=展開', 'NOUN=截圖')
展開;設計	unseen	('VERB=展開', 'NOUN=設計')
反應;展開	unseen	('VERB=展開', 'NOUN=反應')
交談;展開	unseen	('VERB=展開', 'NOUN=交談')
咨商;展開	unseen	('VERB=展開', 'NOUN=咨商')
展開;擾亂	unseen	('VERB=展開', 'NOUN=擾亂')
效率;發表	unseen	('VERB=發表', 'NOUN=效率')
帶給;悦耳	unseen	('AUX=帶給', 'VERB=悦耳')
悦耳;造成	unseen	('AUX=造成', 'VERB=悦耳')
出血;發表	unseen	('VERB=發表', 'NOUN=出血')
有;活動	unseen	('VERB=有', 'NOUN=活動')
有;競賽	unseen	('VERB=有', 'NOUN=競賽')
有;研討會	unseen	('VERB=有', 'NOUN=研討會')
有;聚會	unseen	('VERB=有', 'NOUN=聚會')
晚會;有	unseen	('VERB=有', 'NOUN=晚會')
事業;進行	unseen	('VERB=進行', 'NOUN=事業')
繪畫;進行	unseen	('VERB=進行', 'NOUN=繪畫')
感覺;要求	unseen	('VERB=要求', 'NOUN=感覺')
感覺;決心	unseen	('VERB=決心', 'NOUN=感覺')
感覺;讚揚	unseen	('VERB=讚揚', 'NOUN=感覺')
存在;聚合	unseen	('NOUN=聚合', 'VERB=存在')
失誤;髮生	unseen	('VERB=髮生', 'NOUN=失誤')
提醒;髮生	unseen	('VERB=髮生', 'NOUN=提醒')
改變;發表	unseen	('VERB=發表', 'NOUN=改變')
覺得;进展	unseen	('VERB=覺得', 'VERB=进展')
成功;覺得	unseen	('VERB=覺得', 'VERB=成功')
覺得;錦標	unseen	('VERB=覺得', 'VERB=錦標')
勝利;覺得	unseen	('VERB=覺得', 'VERB=勝利')
覺得;領先	unseen	('VERB=覺得', 'VERB=領先')
共識;覺得	unseen	('VERB=覺得', 'VERB=共識')
影響;擴建	unseen	('VERB=影響', 'VERB=擴建')
傷害;膨脹	unseen	('VERB=膨脹', 'NOUN=傷害')
上升;發表	unseen	('VERB=發表', 'NOUN=上升')
發生;阐述	unseen	('VERB=發生', 'NOUN=阐述')
推論;發生	unseen	('VERB=發生', 'NOUN=推論')
決定;發生	unseen	('VERB=發生', 'NOUN=決定')
傳播;帶來	unseen	('VERB=帶來', 'VERB=傳播')
帶來;發展	unseen	('VERB=帶來', 'VERB=發展')
記者會;開	unseen	('VERB=開', 'NOUN=記者會')
起;阐述	unseen	('VERB=起', 'NOUN=阐述')
推論;起	unseen	('VERB=起', 'NOUN=推論')
決定;起	unseen	('VERB=起', 'NOUN=決定')
有;火災	unseen	('VERB=有', 'NOUN=火災')
有;變化	unseen	('VERB=有', 'NOUN=變化')
暴動;有	unseen	('VERB=有', 'NOUN=暴動')
有;裂變	unseen	('VERB=有', 'NOUN=裂變')
有;衝突	unseen	('VERB=有', 'NOUN=衝突')
事故;有	unseen	('VERB=有', 'NOUN=事故')
意外;有	unseen	('VERB=有', 'NOUN=意外')
叛變;有	unseen	('VERB=有', 'NOUN=叛變')
事變;有	unseen	('VERB=有', 'NOUN=事變')
有;阻力	unseen	('VERB=有', 'NOUN=阻力')
有;爭執	unseen	('VERB=有', 'NOUN=爭執')
有;錯誤	unseen	('VERB=有', 'NOUN=錯誤')
戰役;有	unseen	('VERB=有', 'NOUN=戰役')
事件;進行	unseen	('VERB=進行', 'NOUN=事件')
主張;訓練	unseen	('VERB=主張', 'NOUN=訓練')
批判;有	unseen	('VERB=有', 'NOUN=批判')
有;祝福	unseen	('VERB=有', 'NOUN=祝福')
有;評價	unseen	('VERB=有', 'NOUN=評價')
支持;有	unseen	('VERB=有', 'NOUN=支持')
有;讚	unseen	('VERB=有', 'NOUN=讚')
反應;有	unseen	('VERB=有', 'NOUN=反應')
壓力;有	unseen	('VERB=有', 'NOUN=壓力')
有;清創	unseen	('VERB=有', 'NOUN=清創')
安慰;帶給	unseen	('AUX=帶給', 'NOUN=安慰')
安慰;造成	unseen	('AUX=造成', 'NOUN=安慰')
引起;死亡	unseen	('VERB=引起', 'NOUN=死亡')
引起;戰爭	unseen	('VERB=引起', 'NOUN=戰爭')
引起;移動	unseen	('VERB=引起', 'NOUN=移動')
引起;消散	unseen	('VERB=引起', 'NOUN=消散')
壟斷;引起	unseen	('VERB=引起', 'NOUN=壟斷')
引起;消耗	unseen	('VERB=引起', 'NOUN=消耗')
出現;研究	unseen	('VERB=出現', 'NOUN=研究')
出現;分類	unseen	('VERB=出現', 'NOUN=分類')
出現;拍攝	unseen	('VERB=出現', 'NOUN=拍攝')
出現;宣判	unseen	('VERB=出現', 'NOUN=宣判')
出現;死戰	unseen	('VERB=出現', 'NOUN=死戰')
出現;講話	unseen	('VERB=出現', 'NOUN=講話')
出現;對話	unseen	('VERB=出現', 'NOUN=對話')
出現;勞動	unseen	('VERB=出現', 'NOUN=勞動')
出現;復仇	unseen	('VERB=出現', 'NOUN=復仇')
出現;領導	unseen	('VERB=出現', 'NOUN=領導')
出現;操作	unseen	('VERB=出現', 'NOUN=操作')
出現;換算	unseen	('VERB=出現', 'NOUN=換算')
修葺;出現	unseen	('VERB=出現', 'NOUN=修葺')
出現;清理	unseen	('VERB=出現', 'NOUN=清理')
出現;育種	unseen	('VERB=出現', 'NOUN=育種')
出現;攻擊	unseen	('VERB=出現', 'NOUN=攻擊')
出現;驗證	unseen	('VERB=出現', 'NOUN=驗證')
保護;出現	unseen	('VERB=出現', 'NOUN=保護')
出現;調整	unseen	('VERB=出現', 'NOUN=調整')
出現;確認	unseen	('VERB=出現', 'NOUN=確認')
出現;維護	unseen	('VERB=出現', 'NOUN=維護')
出現;燒錄	unseen	('VERB=出現', 'NOUN=燒錄')
出現;分析	unseen	('VERB=出現', 'NOUN=分析')
出現;開發	unseen	('VERB=出現', 'NOUN=開發')
出現;決策	unseen	('VERB=出現', 'NOUN=決策')
出現;破壞	unseen	('VERB=出現', 'NOUN=破壞')
出現;劫掠	unseen	('VERB=出現', 'NOUN=劫掠')
出現;生產狀態	unseen	('VERB=出現', 'NOUN=生產狀態')
出現;補給	unseen	('VERB=出現', 'NOUN=補給')
公告;出現	unseen	('VERB=出現', 'NOUN=公告')
出現;戰鬥	unseen	('VERB=出現', 'NOUN=戰鬥')
出現;夜戰	unseen	('VERB=出現', 'NOUN=夜戰')
出現;遊戲	unseen	('VERB=出現', 'NOUN=遊戲')
個展;出現	unseen	('VERB=出現', 'NOUN=個展')
出現;監督	unseen	('VERB=出現', 'NOUN=監督')
出現;遠航	unseen	('VERB=出現', 'NOUN=遠航')
出現;觀測	unseen	('VERB=出現', 'NOUN=觀測')
出現;調查	unseen	('VERB=出現', 'NOUN=調查')
出現;實踐	unseen	('VERB=出現', 'NOUN=實踐')
出現;投注	unseen	('VERB=出現', 'NOUN=投注')
出現;授權	unseen	('VERB=出現', 'NOUN=授權')
儀式;出現	unseen	('VERB=出現', 'NOUN=儀式')
出現;檢查	unseen	('VERB=出現', 'NOUN=檢查')
出現;教育	unseen	('VERB=出現', 'NOUN=教育')
出現;改良	unseen	('VERB=出現', 'NOUN=改良')
出現;教學	unseen	('VERB=出現', 'NOUN=教學')
出現;表演	unseen	('VERB=出現', 'NOUN=表演')
出現;干預	unseen	('VERB=出現', 'NOUN=干預')
出現;活動	unseen	('VERB=出現', 'NOUN=活動')
出現;考究	unseen	('VERB=出現', 'NOUN=考究')
催眠;出現	unseen	('VERB=出現', 'NOUN=催眠')
出現;工作	unseen	('VERB=出現', 'NOUN=工作')
出現;改進	unseen	('VERB=出現', 'NOUN=改進')
出現;續約	unseen	('VERB=出現', 'NOUN=續約')
出現;旅行	unseen	('VERB=出現', 'NOUN=旅行')
出現;改造	unseen	('VERB=出現', 'NOUN=改造')
出現;討論	unseen	('VERB=出現', 'NOUN=討論')
出現;測量	unseen	('VERB=出現', 'NOUN=測量')
出現;訓練	unseen	('VERB=出現', 'NOUN=訓練')
出現;會議	unseen	('VERB=出現', 'NOUN=會議')
出現;創作	unseen	('VERB=出現', 'NOUN=創作')
作業;出現	unseen	('VERB=出現', 'NOUN=作業')
冬眠;出現	unseen	('VERB=出現', 'NOUN=冬眠')
出現;訪查	unseen	('VERB=出現', 'NOUN=訪查')
出現;定位	unseen	('VERB=出現', 'NOUN=定位')
出現;比賽	unseen	('VERB=出現', 'NOUN=比賽')
出現;改變	unseen	('VERB=出現', 'NOUN=改變')
出現;會考	unseen	('VERB=出現', 'NOUN=會考')
出現;直播	unseen	('VERB=出現', 'NOUN=直播')
出現;處理	unseen	('VERB=出現', 'NOUN=處理')
出現;手術	unseen	('VERB=出現', 'NOUN=手術')
出現;生產	unseen	('VERB=出現', 'NOUN=生產')
出現;鍛鍊	unseen	('VERB=出現', 'NOUN=鍛鍊')
出現;突擊	unseen	('VERB=出現', 'NOUN=突擊')
出現;衍生	unseen	('VERB=出現', 'NOUN=衍生')
出現;核對	unseen	('VERB=出現', 'NOUN=核對')
出現;實驗	unseen	('VERB=出現', 'NOUN=實驗')
出現;延伸	unseen	('VERB=出現', 'NOUN=延伸')
出現;改革	unseen	('VERB=出現', 'NOUN=改革')
出現;重整	unseen	('VERB=出現', 'NOUN=重整')
出現;鑒定	unseen	('VERB=出現', 'NOUN=鑒定')
出現;編寫	unseen	('VERB=出現', 'NOUN=編寫')
出現;分流	unseen	('VERB=出現', 'NOUN=分流')
交易;出現	unseen	('VERB=出現', 'NOUN=交易')
出現;治療	unseen	('VERB=出現', 'NOUN=治療')
出現;競賽	unseen	('VERB=出現', 'NOUN=競賽')
出現;平衡	unseen	('VERB=出現', 'NOUN=平衡')
出現;家訪	unseen	('VERB=出現', 'NOUN=家訪')
出現;認證	unseen	('VERB=出現', 'NOUN=認證')
出現;買賣	unseen	('VERB=出現', 'NOUN=買賣')
出現;評價	unseen	('VERB=出現', 'NOUN=評價')
出現;調沙	unseen	('VERB=出現', 'NOUN=調沙')
出現;試驗	unseen	('VERB=出現', 'NOUN=試驗')
出現;談判	unseen	('VERB=出現', 'NOUN=談判')
事;出現	unseen	('VERB=出現', 'NOUN=事')
出現;探測	unseen	('VERB=出現', 'NOUN=探測')
出現;發明	unseen	('VERB=出現', 'NOUN=發明')
出現;變換	unseen	('VERB=出現', 'NOUN=變換')
出現;思考	unseen	('VERB=出現', 'NOUN=思考')
出現;整修	unseen	('VERB=出現', 'NOUN=整修')
出現;考察	unseen	('VERB=出現', 'NOUN=考察')
出現;重建	unseen	('VERB=出現', 'NOUN=重建')
出現;截圖	unseen	('VERB=出現', 'NOUN=截圖')
出現;設計	unseen	('VERB=出現', 'NOUN=設計')
出現;反應	unseen	('VERB=出現', 'NOUN=反應')
交談;出現	unseen	('VERB=出現', 'NOUN=交談')
出現;咨商	unseen	('VERB=出現', 'NOUN=咨商')
出現;擾亂	unseen	('VERB=出現', 'NOUN=擾亂')
聚會;舉行	unseen	('VERB=舉行', 'NOUN=聚會')
晚會;舉行	unseen	('VERB=舉行', 'NOUN=晚會')
探討;提供	unseen	('VERB=提供', 'NOUN=探討')
提供;評估	unseen	('VERB=提供', 'NOUN=評估')
帶給;高興	unseen	('AUX=帶給', 'ADJ=高興')
造成;高興	unseen	('AUX=造成', 'ADJ=高興')
感到;爆炸	unseen	('AUX=感到', 'ADJ=爆炸')
感到;抗議	unseen	('AUX=感到', 'ADJ=抗議')
增長;感到	unseen	('AUX=感到', 'ADJ=增長')
不滿;帶給	unseen	('AUX=帶給', 'ADJ=不滿')
不滿;造成	unseen	('AUX=造成', 'ADJ=不滿')
增加;發表	unseen	('VERB=發表', 'NOUN=增加')
影響;退出	unseen	('VERB=影響', 'VERB=退出')
支援;有	unseen	('VERB=有', 'NOUN=支援')
有;連接	unseen	('VERB=有', 'NOUN=連接')
分享;有	unseen	('VERB=有', 'NOUN=分享')
有;證明	unseen	('VERB=有', 'NOUN=證明')
合併;有	unseen	('VERB=有', 'NOUN=合併')
印製;有	unseen	('VERB=有', 'NOUN=印製')
有;試吃	unseen	('VERB=有', 'NOUN=試吃')
上傳;有	unseen	('VERB=有', 'NOUN=上傳')
工作;有	unseen	('VERB=有', 'NOUN=工作')
教學;有	unseen	('VERB=有', 'NOUN=教學')
改正;有	unseen	('VERB=有', 'NOUN=改正')
旅遊業;有	unseen	('VERB=有', 'NOUN=旅遊業')
有;設定	unseen	('VERB=有', 'NOUN=設定')
有;決擇	unseen	('VERB=有', 'NOUN=決擇')
了斷;有	unseen	('VERB=有', 'NOUN=了斷')
有;紀錄	unseen	('VERB=有', 'NOUN=紀錄')
有;記錄	unseen	('VERB=有', 'NOUN=記錄')
有;比較	unseen	('VERB=有', 'NOUN=比較')
有;特價	unseen	('VERB=有', 'NOUN=特價')
分析;有	unseen	('VERB=有', 'NOUN=分析')
家務;有	unseen	('VERB=有', 'NOUN=家務')
改造;有	unseen	('VERB=有', 'NOUN=改造')
有;管理	unseen	('VERB=有', 'NOUN=管理')
實驗;有	unseen	('VERB=有', 'NOUN=實驗')
有;說明	unseen	('VERB=有', 'NOUN=說明')
有;禮拜	unseen	('VERB=有', 'NOUN=禮拜')
偽證;有	unseen	('VERB=有', 'NOUN=偽證')
不適感;發表	unseen	('VERB=發表', 'NOUN=不適感')
孤獨;棒	unseen	('AUX=孤獨', 'VERB=棒')
再做;影響	unseen	('VERB=再做', 'VERB=影響')
下降;發表	unseen	('VERB=發表', 'VERB=下降')
爆發;理論	unseen	('VERB=爆發', 'NOUN=理論')
熱議;爆發	unseen	('VERB=爆發', 'NOUN=熱議')
事件;爆發	unseen	('VERB=爆發', 'NOUN=事件')
做出;宣佈	unseen	('VERB=宣佈', 'VERB=做出')
宣佈;擴建	unseen	('VERB=宣佈', 'VERB=擴建')
再做;宣佈	unseen	('VERB=宣佈', 'VERB=再做')
主張;態度	unseen	('VERB=主張', 'NOUN=態度')
帶給;意外	unseen	('AUX=帶給', 'ADJ=意外')
意外;造成	unseen	('AUX=造成', 'ADJ=意外')
感到;火災	unseen	('AUX=感到', 'ADJ=火災')
事件;感到	unseen	('AUX=感到', 'ADJ=事件')
感到;變化	unseen	('AUX=感到', 'ADJ=變化')
感到;暴動	unseen	('AUX=感到', 'ADJ=暴動')
感到;裂變	unseen	('AUX=感到', 'ADJ=裂變')
感到;衝突	unseen	('AUX=感到', 'ADJ=衝突')
事故;感到	unseen	('AUX=感到', 'ADJ=事故')
叛變;感到	unseen	('AUX=感到', 'ADJ=叛變')
事變;感到	unseen	('AUX=感到', 'ADJ=事變')
感到;阻力	unseen	('AUX=感到', 'ADJ=阻力')
問題;感到	unseen	('AUX=感到', 'ADJ=問題')
影響;感到	unseen	('AUX=感到', 'ADJ=影響')
感到;爭執	unseen	('AUX=感到', 'ADJ=爭執')
感到;錯誤	unseen	('AUX=感到', 'ADJ=錯誤')
感到;戰役	unseen	('AUX=感到', 'ADJ=戰役')
文章;造成	unseen	('VERB=造成', 'NOUN=文章')
聲明;造成	unseen	('VERB=造成', 'NOUN=聲明')
獻言;造成	unseen	('VERB=造成', 'NOUN=獻言')
宣言;造成	unseen	('VERB=造成', 'NOUN=宣言')
意見;造成	unseen	('VERB=造成', 'NOUN=意見')
看法;造成	unseen	('VERB=造成', 'NOUN=看法')
報告;造成	unseen	('VERB=造成', 'NOUN=報告')
學習;提供	unseen	('VERB=提供', 'NOUN=學習')
提供;預訂	unseen	('VERB=提供', 'NOUN=預訂')
提供;變更	unseen	('VERB=提供', 'NOUN=變更')
提供;遴選	unseen	('VERB=提供', 'NOUN=遴選')
提供;顯示	unseen	('VERB=提供', 'NOUN=顯示')
列印;提供	unseen	('VERB=提供', 'NOUN=列印')
提供;錄製	unseen	('VERB=提供', 'NOUN=錄製')
交錯;提供	unseen	('VERB=提供', 'NOUN=交錯')
提供;播放	unseen	('VERB=提供', 'NOUN=播放')
修正;提供	unseen	('VERB=提供', 'NOUN=修正')
提供;購買	unseen	('VERB=提供', 'NOUN=購買')
提供;禁止	unseen	('VERB=提供', 'NOUN=禁止')
提供;運算	unseen	('VERB=提供', 'NOUN=運算')
機會;進行	unseen	('VERB=進行', 'NOUN=機會')
批判;進行	unseen	('VERB=進行', 'NOUN=批判')
祝福;進行	unseen	('VERB=進行', 'NOUN=祝福')
支持;進行	unseen	('VERB=進行', 'NOUN=支持')
感覺;進行	unseen	('VERB=進行', 'NOUN=感覺')
讚;進行	unseen	('VERB=進行', 'NOUN=讚')
壓力;進行	unseen	('VERB=進行', 'NOUN=壓力')
清創;進行	unseen	('VERB=進行', 'NOUN=清創')
痛苦;給予	unseen	('VERB=給予', 'NOUN=痛苦')
作出;參考	unseen	('VERB=作出', 'VERB=參考')
作出;觀測	unseen	('VERB=作出', 'VERB=觀測')
作出;準備	unseen	('VERB=作出', 'VERB=準備')
作出;打擊	unseen	('VERB=作出', 'VERB=打擊')
作出;研究	unseen	('VERB=作出', 'VERB=研究')
作出;販售	unseen	('VERB=作出', 'VERB=販售')
作出;跟進	unseen	('VERB=作出', 'VERB=跟進')
作出;分類	unseen	('VERB=作出', 'VERB=分類')
作出;描述	unseen	('VERB=作出', 'VERB=描述')
作出;要脅	unseen	('VERB=作出', 'VERB=要脅')
作出;點綴	unseen	('VERB=作出', 'VERB=點綴')
作出;報道	unseen	('VERB=作出', 'VERB=報道')
作出;紀念	unseen	('VERB=作出', 'VERB=紀念')
瘟疫;發生	unseen	('NOUN=瘟疫', 'VERB=發生')
發生;運動	unseen	('NOUN=運動', 'VERB=發生')
戰爭;發生	unseen	('NOUN=戰爭', 'VERB=發生')
會戰;發生	unseen	('NOUN=會戰', 'VERB=發生')
有;讽刺	unseen	('VERB=有', 'VERB=讽刺')
有;理解	unseen	('VERB=有', 'VERB=理解')
分組;有	unseen	('VERB=有', 'VERB=分組')
了解;有	unseen	('VERB=有', 'VERB=了解')
更改;有	unseen	('VERB=有', 'VERB=更改')
反映;引發	unseen	('VERB=引發', 'VERB=反映')
回應;引發	unseen	('VERB=引發', 'VERB=回應')
引發;注意	unseen	('VERB=引發', 'VERB=注意')
引發;警覺	unseen	('VERB=引發', 'VERB=警覺')
刺激;引發	unseen	('VERB=引發', 'VERB=刺激')
引發;風險	unseen	('VERB=引發', 'VERB=風險')
反響;引發	unseen	('VERB=引發', 'VERB=反響')
引發;關注	unseen	('VERB=引發', 'VERB=關注')
引發;胸痛	unseen	('VERB=引發', 'VERB=胸痛')
引發;興趣	unseen	('VERB=引發', 'VERB=興趣')
引發;轟動	unseen	('VERB=引發', 'VERB=轟動')
意見;感到	unseen	('VERB=感到', 'NOUN=意見')
提供;自信	unseen	('VERB=提供', 'NOUN=自信')
建言;立場	unseen	('VERB=建言', 'NOUN=立場')
問題;立場	unseen	('VERB=問題', 'NOUN=立場')
批評;立場	unseen	('VERB=批評', 'NOUN=立場')
立場;請求	unseen	('VERB=請求', 'NOUN=立場')
立場;要求	unseen	('VERB=要求', 'NOUN=立場')
申請;立場	unseen	('VERB=申請', 'NOUN=立場')
抗議;立場	unseen	('VERB=抗議', 'NOUN=立場')
導致;研究	unseen	('VERB=導致', 'VERB=研究')
优化;導致	unseen	('VERB=導致', 'VERB=优化')
威脅;發表	unseen	('VERB=發表', 'NOUN=威脅')
同意;感到	unseen	('VERB=感到', 'VERB=同意')
提出;爆炸	unseen	('VERB=提出', 'NOUN=爆炸')
不滿;提出	unseen	('VERB=提出', 'NOUN=不滿')
提出;關注	unseen	('VERB=提出', 'NOUN=關注')
增長;提出	unseen	('VERB=提出', 'NOUN=增長')
帶給;震驚	unseen	('AUX=帶給', 'ADJ=震驚')
造成;震驚	unseen	('AUX=造成', 'ADJ=震驚')
