langue source	NF	mwe à traduire	mwe traduite	Nbmots traduction
HE	היה;מכוון	היה מכוון	était|intentionnel	2
HE	דבר;שבסוף	שבסוף דבר	à|fin	2
HE	המידע;פרסומו	פרסומו המידע	publiez|vos|informations	3
HE	מהאוצר;נוהל	נוהל מהאוצר	procédure|du|trésor	3
HE	כתוצא;מהפרשה	כתוצא מהפרשה	à|la|suite|de|l'affaire	5
HE	הוטרד;מההיערכת	הוטרד מההיערכת	dérangé|par|l'évaluation	3
HE	היה;עונש	היה עונש	il|y|avait|une|pénalité	5
HE	בים;היה	היה בים	était|en|mer	3
HE	היווה;חולייה	היווה חולייה	constitué|lien	2
HE	מרחק;קרבה	קרבה מרחק	proximité|de|la|distance	4
HE	בדפוס;דובר	דובר בדפוס	porte-parole|imprimé	2
HE	בים;שהושמד	שהושמד בים	détruit|en|mer	3
HE	טיסה;לאמסטרד	לאמסטרד טיסה	vol|amstrad	2
HE	באצבע;הצביע	הצביע באצבע	pointé|du|doigt	3
HE	צף;שקית	צף שקית	sac|flottant	2
HE	נפשה;עמד	עמד נפשה	elle|se|leva	3
HE	היהוד;כף	כף היהוד	le|cap|juif	3
HE	ולכן;ל	ל ולכן	pour|donc	2
HE	הפך;למעצמה	הפך למעצמה	devenu|superpuissance	2
HE	הדבר;התאפשר	התאפשר הדבר	c'était|possible	2
HE	החלון;עיצב	עיצב החלון	conçu|fenêtre	2
HE	העברה;מימש	מימש העברה	transfert|réalisé	2
HE	הציע;מנדט	הציע מנדט	proposition|d'un|mandat	3
HE	הפזור;מאבטח	מאבטח הפזור	dispatch|gardien|de|sécurité	4
HE	אלוני;יער	יער אלוני	forêt|d'aloni	2
HE	מחלקה;פיתח	פיתח מחלקה	développer|département	2
HE	התרשם;שיש	התרשם שיש	impressionné|qu'il|y|avait	4
HE	הרוויח;מטבע	הרוויח מטבע	gagnez|pièce	2
HE	ה"עוול;עשה	עשה ה"עוול	a|fait|le|mal	4
HE	חילץ;קורבנה	חילץ קורבנה	victime|secourue	2
HE	נווכח;שיש	נווכח שיש	nous|réalisons|qu'il|y|a	5
HE	נמסר;נתון	נמסר נתון	étant|donné	2
HE	יישם;תוכנית	יישם תוכנית	mettre|en|œuvre|un|plan	5
HE	הכבל;זג	זג הכבל	câble|câble	2
HE	רשימה;תיקבע	תיקבע רשימה	une|liste|sera|établie	4
HE	גרר;חילוף	גרר חילוף	frein|rechange	2
HE	המשטר;צמח	צמח המשטר	usine|régime	2
HE	ביקש;חיסיון	ביקש חיסיון	demandé|privilège	2
HE	זיהה;חוליית	זיהה חוליית	identifié|vertèbre	2
HE	אישר;בית	אישר בית	maison|approuvée	2
HE	איש;עודד	עודד איש	encouragez|tout|le|monde	4
HE	בפתח;עמד	עמד בפתח	se|tenait|dans|l'embrasure|de|la|porte	7
HE	באיש;נעזר	נעזר באיש	aidé|par|l'homme	3
HE	הביא;מזל	הביא מזל	porte|chance	2
HE	בפיתוחן;המשיך	המשיך בפיתוחן	poursuivant|leur|développement	3
HE	האדירה;המלאי	המלאי האדירה	le|formidable|inventaire	3
HE	ראה;שגם	ראה שגם	voir|aussi	2
HE	אימים;הילך	הילך אימים	est|allé|horrible	3
HE	ה;סיכון	ה סיכון	le|risque	2
HE	הגיע;תורה	הגיע תורה	c'était|torah	2
HE	במאה;האחוזי	במאה האחוזי	au|100e|siècle	3
HE	נשאר;ספק	נשאר ספק	il|y|a|un|doute	5
HE	בשאלה;החליט	החליט בשאלה	décidé|sur|la|question	4
HE	השיג;שלם	השיג שלם	obtenu|tout	2
HE	חילוק;שרר	שרר חילוק	il|y|avait|une|différence	5
HE	הקודם;מועדו	מועדו הקודם	date|précédente	2
HE	השאיל;מתנדבי	השאיל מתנדבי	bénévoles|prêtés	2
HE	המוגר;הקומוניזם	המוגר הקומוניזם	le|marteau|communiste	3
HE	מטוס;ראה	ראה מטוס	voir|l'avion	2
HE	בפתח;המושב	המושב בפתח	le|siège|de|la|porte	5
HE	ועדה;מנה	מנה ועדה	nommer|comité	2
HE	מהריבית;נמנע	נמנע מהריבית	évitez|l'intérêt	2
HE	חיפש;עובדה	חיפש עובדה	recherche|d'emploi	2
HE	באמון;להכחשה	להכחשה באמון	dans|un|déni|de|confiance	5
HE	המוצר;טיב	טיב המוצר	la|nature|du|produit	4
HE	בזה;ראה	ראה בזה	le|voir	2
HE	במחנה;חיינו	חיינו במחנה	nous|vivions|dans|un|camp	5
HE	במהלך;האימון	במהלך האימון	pendant|formation	2
HE	בקרינה;נגע	נגע בקרינה	touché|par|le|rayonnement	4
HE	אדם;הרג	הרג אדם	tuer|personne	2
HE	אפשר;העלאה	אפשר העלאה	activer|téléchargement	2
HE	מאמר;פרסמה	פרסמה מאמר	publié|article	2
HE	השיג;יעד	השיג יעד	atteindre|but	2
HE	בגודלה;תלה	תלה בגודלה	dépend|de|sa|taille	4
HE	בהשוואה;הקפה	הקפה בהשוואה	le|café|en|comparaison	4
HE	הקים;פורום	הקים פורום	création|d'un|forum	3
HE	העניק;שירות	העניק שירות	service|rendu	2
HE	דע;הסובר	דע הסובר	connaître|l'auteur	2
HE	הבקש;מהוועדה	הבקש מהוועדה	demandez|au|comité	3
HE	הקמה;השפיע	השפיע הקמה	érection|affectée	2
HE	טבח;שבסוד	שבסוד טבח	secrètement|cuisinier	2
HE	כשבעים;נרצחו	נרצחו כשבעים	ils|ont|été|assassinés|environ|soixante-dix	6
HE	חילק;מפעולה	חילק מפעולה	séparé|l'action	2
HE	הזכיר;לשרים	הזכיר לשרים	rappel|aux|ministres	3
HE	ההלך;ומתייקר	ההלך ומתייקר	monter|et|descendre	3
HE	נתן;רשות	נתן רשות	a|donné|la|permission	4
HE	המגזין;מסע	המגזין מסע	magazine|journey	2
HE	צינור;ראה	ראה צינור	voir|tube	2
HE	אדם;שאות	שאות אדם	cette|personne	2
HE	הושפע;מלחץ	הושפע מלחץ	a|été|affecté|par|la|pression	6
HE	לחייב;משקיע	לחייב משקיע	charger|investisseur	2
HE	הבכיר;הפקיד	הפקיד הבכיר	le|haut|fonctionnaire	3
HE	הסובייטי;הפרלמנט	הפרלמנט הסובייטי	parlement|soviétique	2
HE	חשב;שרוסיה	חשב שרוסיה	il|pensait|que|la|russie	5
HE	אמר;לשכה	אמר לשכה	le|bureau|a|déclaré	4
HE	לרמה;שקשר	שקשר לרמה	lié|au|niveau	3
HE	נשא;עיניו	נשא עיניו	il|a|regardé|en|haut	5
HE	עבודה;שעשה	שעשה עבודה	qui|a|travaillé	3
HE	הכדורגל;שלט	שלט הכדורגל	le|signe|du|football	4
HE	החמם;התמתן	החמם התמתן	le|radiateur|modérait	3
HE	אופציה;בדק	בדק אופציה	coché|option	2
HE	אוכזב;מהוועידה	אוכזב מהוועידה	déçu|par|la|conférence	4
HE	אפשר;לחלק	אפשר לחלק	vous|pouvez|diviser	3
HE	איש;על	על איש	à|propos|d'un|homme	4
HE	במכונית;ישב	ישב במכונית	assis|dans|la|voiture	4
HE	בחיץ;הנחל	הנחל בחיץ	le|flux|dans|le|tampon	5
HE	השופט;התבקש	התבקש השופט	on|a|demandé|au|juge	5
HE	מאמר;קורע	קורע מאמר	article|déchirant	2
HE	וקביעה;שנ	שנ וקביעה	encore|fois	2
HE	הפורש;מקום	הפורש מקום	lieu|retraite	2
HE	מסלל;שירות	מסלל שירות	pavé|service	2
HE	צוות;שלח	שלח צוות	envoyer|du|personnel	3
HE	המעצר;סוגיית	סוגיית המעצר	la|question|de|la|détention	5
HE	בסמינריון;השתתף	השתתף בסמינריון	assister|à|un|séminaire	4
HE	מימן;שירות	מימן שירות	service|d'hydrogène	2
HE	ביטחנן;פנים	ביטחנן פנים	sécurité|du|visage	3
HE	טל;תפר	תפר טל	téléphone|point	2
HE	התרשם;מערכיו	התרשם מערכיו	impressionné|par|ses|valeurs	4
HE	הבטיח;התמודדות	הבטיח התמודדות	coping|promis	2
HE	גרם;שלסדר	גרם שלסדר	fait|commande	2
HE	ליום;סיור	ליום סיור	pour|une|excursion|d'une|journée	5
HE	הדרום;התותח	התותח הדרום	le|canon|sud	3
HE	השופט;שאלה	שאלה השופט	le|juge|a|demandé	4
HE	במאבק;לניצחון	לניצחון במאבק	à|la|victoire|dans|le|combat	6
HE	בתוקפה;פקפק	פקפק בתוקפה	vous|doutiez|de|la|validité	5
HE	בטבע;לנשגב	לנשגב בטבע	sublime|dans|la|nature	4
HE	ה"לאוטובוס;השחקן	ה"לאוטובוס השחקן	le|"bus|des|joueurs"	4
HE	בפעולה;פתח	פתח בפעולה	ouvert|en|action	3
HE	הוציא;הנחיה	הוציא הנחיה	a|émis|une|directive	4
HE	אישר;סיפוח	אישר סיפוח	annexion|approuvée	2
HE	ואולי;שגריר	שגריר ואולי	ambassadeur|et|peut-être	3
HE	חיים;סיכן	סיכן חיים	risque|vie	2
HE	הבטיח;ריבונות	הבטיח ריבונות	souveraineté|promise	2
HE	דיבר;הנורא	דיבר הנורא	a|parlé|de|l'affreux	4
HE	הגאה;מועדן	מועדן הגאה	le|fier|club	3
HE	אישר;הקצאה	אישר הקצאה	affectation|approuvée	2
HE	גרם;ליירוטם	גרם ליירוטם	causé|érosion	2
HE	במשטרה;חקיר	חקיר במשטרה	enquête|policière	2
HE	בגוש;הלך	הלך בגוש	a|marché|le|bloc	4
HE	ולהגברה;זירז	זירז ולהגברה	accéléré|et|amplifié	3
HE	ומתן;למשא	למשא ומתן	pour|négociation	2
HE	מסכום;ניכה	ניכה מסכום	montant|déduit	2
HE	החברה;שגשג	שגשג החברה	l'entreprise|prospère	2
HE	ביצוע;הפגין	הפגין ביצוע	exécution|démontrée	2
HE	ביקש;משילנסק	ביקש משילנסק	il|a|demandé|à|shilansk	5
HE	השיג;מיכל	השיג מיכל	obtention|d'un|conteneur	3
HE	עצמאות;שיקם	שיקם עצמאות	une|indépendance|retrouvée	3
HE	הביא;מידע	הביא מידע	informations|apportées	2
HE	הכיל;עזב	עזב הכיל	gauche|contenu	2
HE	הטעות;שירשרת	שירשרת הטעות	que|tu|as|fait|l'erreur	5
HE	הוריד;פרופיל	הוריד פרופיל	téléchargez|profil	2
HE	ביישוב;ביקר	ביקר ביישוב	visité|localité	2
HE	בחן;הסחר	בחן הסחר	examen|professionnel	2
HE	בהחזר;עמד	עמד בהחזר	pris|du|recul	3
HE	בצוות;לעבוד	לעבוד בצוות	travailler|en|équipe	3
HE	הנהג;עולה	הנהג עולה	le|conducteur|monte	3
HE	המפונה;שטח	שטח המפונה	zone|évacuée	2
HE	המוחלטה;סרבנה	סרבנה המוחלטה	refus|absolu	2
HE	ללוב;מועמר	ללוב מועמר	la|libye|est|en|marche	5
HE	נענה;תביעה	נענה תביעה	une|réclamation|a|été|faite	5
HE	ביצע;דבר	ביצע דבר	rien|commis	2
HE	הבנייה;מחיר	מחיר הבנייה	prix|​​de|construction	3
HE	המשא;סים	סים המשא	fret|sim	2
HE	הגיש;התקדמות	הגיש התקדמות	progrès|soumis	2
HE	פטור;קיבל	קיבל פטור	reçu|exemption	2
HE	חווה;נתן	נתן חווה	nathan|expérimenté	2
HE	הצוטט;פישר	הצוטט פישר	cité|fisher	2
HE	הפחית;עלות	הפחית עלות	coût|réduit	2
HE	מבוך;עבר	עבר מבוך	a|traversé|un|labyrinthe	4
HE	ביצע;התאמה	ביצע התאמה	fait|match	2
HE	מפגיעה;רסיס	מפגיעה רסיס	de|blessure|au|ruban	4
HE	ספרות;תרגום	תרגום ספרות	traduction|littérature	2
HE	בהסכמה;ראה	ראה בהסכמה	voir|en|accord	3
HE	ממתחם;נהנה	נהנה ממתחם	j'ai|apprécié|le|complexe	4
HE	בתחנה;המתין	המתין בתחנה	attendu|à|la|gare	4
HE	חוג;פיגוע	פיגוע חוג	une|attaque|terroriste	3
HE	בעבודה;המשיך	המשיך בעבודה	il|a|continué|à|travailler	5
HE	העניק;ערבות	העניק ערבות	libération|sous|caution	3
HE	טעם;מהגבין	טעם מהגבין	un|goût|de|fromage	4
HE	אזרח;שהבנק	אזרח שהבנק	un|citoyen|de|la|banque	5
HE	דרש;משרון	דרש משרון	demanda|sharon	2
HE	זימן;פעם	זימן פעם	invoqué|fois	2
HE	לבניי;נמל	לבניי נמל	pour|port	2
HE	לחשבון;נפש	לחשבון נפש	pour|un|compte|mental	4
HE	קו;שדרג	שדרג קו	ligne|de|mise|à|niveau	5
HE	עיתונאי;שאלה	שאלה עיתונאי	un|journaliste|a|demandé	4
HE	כיפר;עוגה	כיפר עוגה	gâteau|tarte	2
HE	מפגש;עשה	עשה מפגש	prenez|rendez-vous	2
HE	קפה;שתיית	שתיית קפה	buvant|du|café	3
HE	לבניי;מסילה	לבניי מסילה	pour|les|bâtiments|ferroviaires	4
HE	מורשת;נושא	נושא מורשת	thème|du|patrimoine	3
HE	בהתנהגה;דן	דן בהתנהגה	discute|du|comportement	3
HE	יצר;ליחידה	יצר ליחידה	créé|pour|l'unité	3
HE	הפיתוח;שילב	שילב הפיתוח	développement|intégré	2
HE	מקסם;ציבר	ציבר מקסם	charm|zimmer	2
HE	הסב;חלק	הסב חלק	expliquez|partie	2
HE	מהדירה;נפטר	נפטר מהדירה	débarrassé|l'appartement	2
HE	העתיקה;עיר	עיר העתיקה	vieille|ville	2
HE	בנה;ישיבה	בנה ישיבה	construisez|siège	2
HE	טיסה;לונדן	לונדן טיסה	vol|lunden	2
HE	בירושל;פעל	פעל בירושל	agissez|à|jérusalem	3
HE	לגאון;ניהול	לגאון ניהול	au|génie|de|la|gestion	5
HE	השכלה;מרמה	מרמה השכלה	éducation|à|la|tricherie	4
HE	קיים;שיח	קיים שיח	il|y|a|un|discours	5
HE	הביטחון;לשר	לשר הביטחון	au|ministre|de|la|défense	5
HE	ממדין;מנע	מנע ממדין	empêcher|poursuites	2
HE	מקדמה;שילם	שילם מקדמה	acompte|versé	2
HE	יישום;שיווק	שיווק יישום	application|marketing	2
HE	חווה;חקלאי	חווה חקלאי	agriculteur|agricole	2
HE	בפרשה;משפט	משפט בפרשה	procès|dans|l'affaire	3
HE	להשמד;סמים	להשמד סמים	pour|détruire|les|drogues	4
HE	נקט;סחבה	נקט סחבה	prendre|chiffon	2
HE	הקבוצה;לסגל	לסגל הקבוצה	vers|la|composition|de|l'équipe	5
HE	גביית;עדות	גביית עדות	recueil|témoignages	2
HE	ביקור;ציבר	ציבר ביקור	accru|visite	2
HE	רשם;תשואה	רשם תשואה	registraire|rendements	2
HE	הדעה;מחוות	מחוות הדעה	le|geste|d'opinion	3
HE	אזור;סגר	סגר אזור	fermeture|zone	2
HE	יצר;מקור	יצר מקור	source|créée	2
HE	המפגין;טענה	טענה המפגין	le|manifestant|a|affirmé	4
HE	מימן;תשלום	מימן תשלום	paiement|à|l'hydrogène	3
HE	השופט;ידע	ידע השופט	le|juge|savait	3
HE	אזר;המרדף	אזר המרדף	la|zone|de|poursuite	4
HE	בית;לכך	לכך בית	c'est|une|maison|pour|ça	5
HE	מטורף;קומץ	קומץ מטורף	une|poignée|de|fous	4
HE	הביא;קטע	הביא קטע	apporté|section	2
HE	זדן;ממשלה	זדן ממשלה	quel|gouvernement	2
HE	הביא;ליצירתו	הביא ליצירתו	a|donné|lieu|à|sa|création	6
HE	מהערכת;מומחה	מהערכת מומחה	de|l'expertise	2
HE	חגיגה;ערך	ערך חגיגה	valeur|célébration	2
HE	לבד;לנזק	לבד לנזק	seul|pour|les|dommages	4
HE	משקל;שימש	שימש משקל	le|poids|a|été|utilisé	5
HE	אות;קיבל	קיבל אות	reçu|signal	2
HE	יצירה;עודד	עודד יצירה	encourager|création	2
HE	מגמה;עלייה	מגמה עלייה	tendance|à|la|hausse	4
HE	הת;שיווק	הת שיווק	marketing|marketing	2
HE	בשקט;ישב	ישב בשקט	il|s'est|assis|tranquillement	4
HE	היתרה;שספרותיות	שספרותיות היתרה	équilibre|littéraire	2
HE	ייריד;שלגי	ייריד שלגי	foire|de|la|neige	4
HE	חוק;יישום	חוק יישום	loi|d'application	2
HE	התכנס;מעת	התכנס מעת	rassemblez|de|temps|en|temps	5
HE	עבר;קורס	עבר קורס	a|suivi|un|cours	4
HE	בים;קיים	קיים בים	existe|en|mer	3
HE	לסמוך;עלייה	לסמוך עלייה	comptez|sur|la|hausse	4
HE	נשא;ציוד	נשא ציוד	matériel|porté	2
HE	לעוד;שבוע	לעוד שבוע	pour|une|autre|semaine	4
HE	ובאיזון;וחירות	וחירות ובאיזון	et|la|liberté|et|l'équilibre	5
HE	היחס;כוחם	כוחם היחס	leur|force|relative	3
HE	כינס;סולידריה	כינס סולידריה	solidarité|rassemblée	2
HE	חץ;שילב	שילב חץ	flèche|combinée	2
HE	וצה;שיפוט	וצה שיפוט	et|jugement	2
HE	המוגמר;ליצירה	ליצירה המוגמר	pour|la|pièce|finie	4
HE	באזור;נרכש	נרכש באזור	acheté|dans|la|région	4
HE	הזרוע;לכוח	לכוח הזרוע	à|la|force|du|bras	5
HE	וסיפורי;יהק	יהק וסיפורי	casting|et|histoires	3
HE	בית;הבראה	בית הבראה	maison|repos	2
HE	בעקבותיה;הביא	הביא בעקבותיה	apporté|dans|son|sillage	4
HE	איש;צירף	צירף איש	attacher|homme	2
HE	בשעה;נאבק	נאבק בשעה	luttant|pendant|une|heure	4
HE	אינטראקטיבי;ערוץ	ערוץ אינטראקטיבי	chaîne|interactive	2
HE	הגיש;מכתב	הגיש מכתב	a|déposé|une|lettre	4
HE	יצר;מקום	יצר מקום	créé|lieu	2
HE	השער;משקף	משקף השער	reflète|porte	2
HE	אסיפה;בחר	בחר אסיפה	choisissez|assemblage	2
HE	הרצחן;פיגוע	פיגוע הרצחן	l'attentat|meurtrier	2
HE	דיבור;הפך	הפך דיבור	transformé|en|discours	3
HE	אישר;החל	אישר החל	démarrage|confirmé	2
HE	ניכה;שליש	ניכה שליש	une|troisième|déduction	3
HE	טעם;נתן	נתן טעם	a|donné|un|avant-goût	4
HE	ההתאבדה;פיגוע	פיגוע ההתאבדה	l'attentat|suicide	2
HE	הפך;לדמוקרטיה	הפך לדמוקרטיה	devenu|démocratie	2
HE	נטש;תעסוקה	נטש תעסוקה	נטש|תעסוקה	2
HE	סיפק;עומק	סיפק עומק	profondeur|fournie	2
HE	במהירה;חיפש	חיפש במהירה	recherche|rapide	2
HE	גייס;תמיכה	גייס תמיכה	obtenir|du|soutien	3
HE	הכנס;סעיף	הכנס סעיף	insérer|section	2
HE	בזה;טיפל	טיפל בזה	prends|en|soin	3
HE	באימפריאליזם;נאבק	נאבק באימפריאליזם	aux|prises|avec|l'impérialisme	4
HE	העניק;סיכה	העניק סיכה	accordé|épingle	2
HE	נתן;צו	נתן צו	a|donné|l'ordre	3
HE	ר;שיקם	שיקם ר	shikam|r.	2
HE	בעל;לצינורות	לצינורות בעל	pour|support|de|tube	4
HE	ידע;פוליטיקאי	ידע פוליטיקאי	connaissances|politiques	2
HE	הניח;קו	הניח קו	a|posé|une|ligne	4
HE	כראמה;עייר	עייר כראמה	ville|en|tant|que|rama	5
HE	גיבש;פשרה	גיבש פשרה	formulé|compromis	2
HE	טעום;מהגבין	טעום מהגבין	טעום|מהגבין	2
HE	טרוריסטים;סיוע	סיוע טרוריסטים	סיוע|טרוריסטים	2
HE	דפוס;זיהה	זיהה דפוס	détecté|motif	2
HE	אישר;הקמה	אישר הקמה	construction|approuvée	2
HE	הראשון;רבען	רבען הראשון	premier|quart	2
HE	לבניין;שלג	לבניין שלג	vers|un|bâtiment|enneigé	4
HE	בכל;התגורר	התגורר בכל	vécu|en|tout	3
HE	הממשל;לעמד	לעמד הממשל	au|poste|d'administration	3
HE	אות;היווה	היווה אות	היווה|אות	2
HE	בהתפייסה;המשיך	המשיך בהתפייסה	réconciliation|continue	2
HE	במהירה;מקום	מקום במהירה	endroit|rapide	2
HE	החדש;לנשיא	לנשיא החדש	au|nouveau|président	3
HE	הבטיח;שיציבה	הבטיח שיציבה	הבטיח|שיציבה	2
HE	המאמן;מיגרש	מיגרש המאמן	le|terrain|d'entraîneur	3
HE	יצר;מיפנה	יצר מיפנה	יצר|מיפנה	2
HE	התך;וציוד	התך וציוד	התך|וציוד	2
HE	התקשורה;לוויין	לוויין התקשורה	לוויין|התקשורה	2
HE	הפחתה;מהירות	הפחתה מהירות	réduction|vitesse	2
HE	כליאה;תא	תא כליאה	cellule|prison	2
HE	שטח;שימר	שימר שטח	שימר|שטח	2
HE	העדיף;נהנה	נהנה העדיף	apprécié|préféré	2
HE	ערך;רפורמה	ערך רפורמה	réforme|de|la|valeur	4
HE	הטרור;הפלסטין	הטרור הפלסטין	terrorisme|palestinien	2
HE	חשבון;ערך	ערך חשבון	valeur|du|compte	3
HE	ההיסטוריה;עיוות	עיוות ההיסטוריה	la|distorsion|de|l'histoire	4
HE	בצמוד;נסע	נסע בצמוד	נסע|בצמוד	2
HE	במהירה;נסע	נסע במהירה	נסע|במהירה	2
HE	יישוב;פסגה	יישוב פסגה	règlement|pointe	2
HE	הפקה;עשה	עשה הפקה	עשה|הפקה	2
HE	בחפירה;סייע	סייע בחפירה	סייע|בחפירה	2
HE	הקדיש;יום	הקדיש יום	הקדיש|יום	2
HE	כר;שימש	שימש כר	servi|d'oreiller	2
HE	ביצע;מחטף	ביצע מחטף	a|effectué|un|détournement	4
HE	בתוצאה;דן	דן בתוצאה	דן|בתוצאה	2
HE	ביצע;העקירה	ביצע העקירה	effectué|déplacement	2
HE	ביצע;ההתנתקה	ביצע ההתנתקה	ביצע|ההתנתקה	2
HE	בתגובה;הקל	הקל בתגובה	הקל|בתגובה	2
HE	חיבור;יצר	יצר חיבור	יצר|חיבור	2
HE	ועזרה;סיוע	סיוע ועזרה	assistance|et|aide	3
HE	במה;לתפקיד	לתפקיד במה	pour|un|rôle|scénique	4
HE	החול;מבתי	מבתי החול	depuis|sandhouses	2
HE	לכך;שבים	לכך שבים	לכך|שבים	2
HE	בפגרה;שימש	שימש בפגרה	utilisé|comme|carcasse	3
HE	במפגע;טיפל	טיפל במפגע	géré|victime	2
HE	יהורד;רמה	יהורד רמה	niveau|jhord	2
HE	העקרון;התוויית	התוויית העקרון	התוויית|העקרון	2
HE	בקלטה;שמע	שמע בקלטה	שמע|בקלטה	2
HE	החדש;מצב	מצב החדש	מצב|החדש	2
HE	חפיפה;עשה	עשה חפיפה	se|chevauchaient	2
HE	בגוש;נשאר	נשאר בגוש	נשאר|בגוש	2
HE	יחסים;כונן	כונן יחסים	relation|conduite	2
HE	לוח;עץ	לוח עץ	לוח|עץ	2
HE	הוזמן;לערבי	הוזמן לערבי	הוזמן|לערבי	2
HE	בביקור;המשיך	המשיך בביקור	המשיך|בביקור	2
HE	גרם;לפגיעה	גרם לפגיעה	blessure|causée	2
HE	התופע;למיגור	למיגור התופע	למיגור|התופע	2
HE	פרה;שימש	שימש פרה	שימש|פרה	2
HE	המפיקים;לגשת	לגשת המפיקים	approcher|producteurs	2
HE	במחלות;חלה	חלה במחלות	חלה|במחלות	2
HE	התחמק;ממעורבות	התחמק ממעורבות	התחמק|ממעורבות	2
HE	מעמד;קיבל	קיבל מעמד	statut|reçu	2
HE	השקם;חווה	חווה השקם	la|ferme|aux|sycomores	4
HE	והמפלגות;ליום	ליום והמפלגות	ליום|והמפלגות	2
HE	ספר;ראה	ראה ספר	voir|livre	2
HE	הפיץ;חוברת	הפיץ חוברת	distribuez|livret	2
HE	אזור;עניין	עניין אזור	intérêt|de|la|région	4
HE	טקסט;קרא	קרא טקסט	קרא|טקסט	2
HE	בטווח;מימש	מימש בטווח	מימש|בטווח	2
HE	בחן;הצעה	בחן הצעה	envisagez|proposition	2
HE	מכ"ל;תבע	תבע מכ"ל	a|poursuivi|le|pdg	4
HE	קידם;שתפעל	קידם שתפעל	promu|pour|agir	3
HE	איש;העסק	איש העסק	איש|העסק	2
HE	יחידה;מכר	מכר יחידה	מכר|יחידה	2
HE	הוציא;רווח	הוציא רווח	הוציא|רווח	2
HE	בנה;השכלה	בנה השכלה	construire|éducation	2
HE	הכרזה;מימש	מימש הכרזה	la|proclamation|a|été|mise|en|œuvre	7
HE	בחיפזון;פשוט	פשוט בחיפזון	juste|pressé	2
HE	המקצוע;שירות	שירות המקצוע	service|professionnel	2
HE	הצריכה;צמצם	צמצם הצריכה	צמצם|הצריכה	2
HE	הקפאה;וץ	וץ הקפאה	et|geler	2
HE	איכות;הציע	הציע איכות	הציע|איכות	2
HE	סיור;קיים	קיים סיור	il|y|a|une|visite	5
HE	טיפול;שיטה	שיטה טיפול	méthode|traitement	2
HE	מאהדה;נהנה	נהנה מאהדה	j'ai|apprécié|la|sympathie	4
HE	העבודה;לשר	לשר העבודה	לשר|העבודה	2
HE	בגד;מכיר	מכיר בגד	מכיר|בגד	2
HE	בחדר;ישב	ישב בחדר	assis|dans|la|chambre	4
HE	בגופן;השתיל	השתיל בגופן	semis|dans|la|police	4
HE	הפרלמנט;ציר	ציר הפרלמנט	ציר|הפרלמנט	2
HE	לתהלי;שלום	לתהלי שלום	aux|processus|de|paix	4
HE	המבנה;שבבעלות	שבבעלות המבנה	שבבעלות|המבנה	2
HE	במה;פגע	פגע במה	פגע|במה	2
HE	ביקש;מאמא	ביקש מאמא	demanda|maman	2
HE	פיאט;תכנן	תכנן פיאט	תכנן|פיאט	2
HE	ולפנות;ניסה	ניסה ולפנות	ניסה|ולפנות	2
HE	פיתח;שוק	פיתח שוק	פיתח|שוק	2
HE	לעם;מצב	לעם מצב	pour|situation	2
HE	חוקה;לכינון	לכינון חוקה	pour|établir|une|constitution	4
HE	ידע;לב	ידע לב	connaissance|du|cœur	3
HE	ביר;הגיב	הגיב ביר	bir|a|répondu	3
HE	אפשר;משטר	אפשר משטר	אפשר|משטר	2
HE	גמל;קיבל	קיבל גמל	reçu|chameau	2
HE	באובייקטיבת;פגע	פגע באובייקטיבת	פגע|באובייקטיבת	2
HE	בכוח;ליטא	ליטא בכוח	la|lituanie|de|force	4
HE	המון;פיגוע	פיגוע המון	פיגוע|המון	2
HE	הם;שק	שק הם	שק|הם	2
HE	בזהירה;עצר	עצר בזהירה	arrêté|avec|prudence	3
HE	בעוון;משפט	משפט בעוון	משפט|בעוון	2
HE	הפסיק;תהליך	הפסיק תהליך	processus|arrêté	2
HE	מפלגתו;שינוי	מפלגתו שינוי	מפלגתו|שינוי	2
HE	דינן;שלח	שלח דינן	envoyez|s'il|vous|plaît	4
HE	הרתיע;שימוש	הרתיע שימוש	utilisation|découragée	2
HE	ענב;עשה	עשה ענב	fait|raisin	2
HE	החברות;רב	רב החברות	la|plupart|des|entreprises	4
HE	ההעניין;התנער	התנער ההעניין	secouez|l'intérêt	2
HE	משמעותי;שיפר	שיפר משמעותי	שיפר|משמעותי	2
HE	דרכה;לסוף	לסוף דרכה	jusqu'au|bout	2
HE	הנה;ממנוחה	הנה ממנוחה	הנה|ממנוחה	2
HE	הדמוקרטיה;לכינון	לכינון הדמוקרטיה	pour|l'instauration|de|la|démocratie	5
HE	מנע;עשייה	מנע עשייה	מנע|עשייה	2
HE	במשחק;הפסד	הפסד במשחק	une|perte|dans|le|jeu	5
HE	דח;ועדה	דח ועדה	דח|ועדה	2
HE	בחולון;פעל	פעל בחולון	suivez|holon	2
HE	אכל;פלפלון	אכל פלפלון	a|mangé|du|pepperoni	4
HE	וקלטה;מחשב	מחשב וקלטה	מחשב|וקלטה	2
HE	הזדמנות;היה	היה הזדמנות	היה|הזדמנות	2
HE	ההארץ;ירד	ירד ההארץ	la|terre|est|tombée	4
HE	בשיעור;להקטין	להקטין בשיעור	diminuer|taux	2
HE	במצב;הבטוח	הבטוח במצב	la|situation|la|plus|sûre	5
HE	דבר;קיבל	קיבל דבר	קיבל|דבר	2
HE	מערכת;שילב	שילב מערכת	système|intégré	2
HE	הזדמנות;קידם	קידם הזדמנות	opportunité|promue	2
HE	מהורדה;נמנע	נמנע מהורדה	évitez|téléchargement	2
HE	ערך;צעדה	ערך צעדה	valeur|mars	2
HE	בכנס;הודיע	הודיע בכנס	הודיע|בכנס	2
HE	המוצר;שיפר	שיפר המוצר	produit|amélioré	2
HE	היה;שירה	היה שירה	il|y|avait|du|chant	5
HE	ההיסטור;ותשמרו	ותשמרו ההיסטור	ותשמרו|ההיסטור	2
HE	ברכב;נפצע	נפצע ברכב	נפצע|ברכב	2
HE	אוגדה;הפך	הפך אוגדה	devenu|division	2
HE	הדרישה;הצטרף	הצטרף הדרישה	הצטרף|הדרישה	2
HE	ההסכם;הצטרף	הצטרף ההסכם	הצטרף|ההסכם	2
HE	העיד;כישלון	העיד כישלון	échec|attesté	2
HE	בכיר;נפגש	נפגש בכיר	rencontre|une|personne|âgée	4
HE	מצביע;עלייה	מצביע עלייה	indique|augmentation	2
HE	חתם;פרוטוקול	חתם פרוטוקול	protocole|signé	2
HE	הברך;הפסגה	הברך הפסגה	genou|sommet	2
HE	דובר;ניסיון	דובר ניסיון	conférencier|d'expérience	2
HE	בניין;הונף	הונף בניין	הונף|בניין	2
HE	לטענה;פער	לטענה פער	לטענה|פער	2
HE	אירוע;דובר	דובר אירוע	conférencier|l'événement	2
HE	אעזב;התחנן	התחנן אעזב	il|a|supplié|de|partir	5
HE	החפשה;הכוונה	החפשה הכוונה	החפשה|הכוונה	2
HE	מיצוא;ציין	ציין מיצוא	ציין|מיצוא	2
HE	ויוקץ;מקור	ויוקץ מקור	ויוקץ|מקור	2
HE	בתקופה;הכיר	הכיר בתקופה	reconnaître|période	2
HE	להזהרות;שעה	שעה להזהרות	une|heure|pour|les|avertissements	5
HE	בכנס;נוצר	נוצר בכנס	נוצר|בכנס	2
HE	הגדיר;הוצאה	הגדיר הוצאה	dépenses|définies	2
HE	הקיימה;השיט	השיט הקיימה	השיט|הקיימה	2
HE	חגג;ראש	חגג ראש	tête|célébrée	2
HE	וגדר;כמות	וגדר כמות	et|définir|la|quantité	4
HE	בנושא;עסק	עסק בנושא	lié|aux|affaires	3
HE	בבית;הלדין	הלדין בבית	הלדין|בבית	2
HE	הפרקליטה;שבעניינין	שבעניינין הפרקליטה	du|procureur|général	3
HE	הנוגע;למגעים	הנוגע למגעים	relatif|aux|contacts	3
HE	אהבה;מוסד	מוסד אהבה	une|institution|amoureuse	3
HE	הכתובה;למל	למל הכתובה	למל|הכתובה	2
HE	במוקד;החינוך	החינוך במוקד	החינוך|במוקד	2
HE	ההחלטה;הראה	ההחלטה הראה	la|décision|a|montré	4
HE	מנגנון;קבע	קבע מנגנון	établir|mécanisme	2
HE	האמיץ;שנוצר	האמיץ שנוצר	le|courageux|créé	3
HE	וארץ;עזר	עזר וארץ	aidé|et|débarqué	3
HE	התאפשר;כניסה	התאפשר כניסה	entrée|autorisée	2
HE	החדש;המזרח	המזרח החדש	המזרח|החדש	2
HE	המעמיד;עובד	המעמיד עובד	המעמיד|עובד	2
HE	במחוז;נערך	נערך במחוז	réalisé|dans|le|comté	4
HE	החריף;מתקפתו	מתקפתו החריף	מתקפתו|החריף	2
HE	יהודי;ירה	ירה יהודי	tuer|juif	2
HE	הפן;ממשרד	ממשרד הפן	du|bureau|à|domicile	4
HE	בשעה;שיודע	שיודע בשעה	qui|sait|à|l'heure	4
HE	ועדה;מינה	מינה ועדה	מינה|ועדה	2
HE	בים;נערך	נערך בים	conduit|en|mer	3
HE	ובעבירה;תאגיד	תאגיד ובעבירה	corporation|et|infraction	3
HE	בשטח;החזיק	החזיק בשטח	החזיק|בשטח	2
HE	מיזם;מימש	מימש מיזם	mis|en|œuvre|une|entreprise	5
HE	במסיבה;ולהשתתף	ולהשתתף במסיבה	ולהשתתף|במסיבה	2
HE	משרד;שקיבל	שקיבל משרד	qui|a|un|bureau	4
HE	חל;חסיון	חל חסיון	un|privilège|s'applique	3
HE	בהנפקה;קנה	קנה בהנפקה	acheter|en|cause	3
HE	מרדף;ניהל	ניהל מרדף	conduit|poursuite	2
HE	בתחילה;קם	קם בתחילה	je|me|suis|levé|au|départ	6
HE	לביצועה;סייע	סייע לביצועה	aidé|à|son|exécution	4
HE	לידיה;משחק	משחק לידיה	jouer|à|lydia	3
HE	ברגע;שתשב	ברגע שתשב	ברגע|שתשב	2
HE	התמון;לש	לש התמון	לש|התמון	2
HE	העמותה;הפעיל	הפעיל העמותה	activation|l'association	2
HE	החלל;חקר	חקר החלל	recherche|spatiale	2
HE	מחוסר;נבע	נבע מחוסר	était|dû|au|manque	4
HE	מטבעה;פעולה	מטבעה פעולה	par|nature|de|l'action	4
HE	אוטובוס;לייצור	לייצור אוטובוס	pour|la|production|de|bus	5
HE	ביצוע;עיכב	עיכב ביצוע	exécution|retardée	2
HE	גוף;ישראלי	גוף ישראלי	גוף|ישראלי	2
HE	חשש;ממדין	חשש ממדין	חשש|ממדין	2
HE	מקום;שריין	שריין מקום	שריין|מקום	2
HE	עיריית;תל	עיריית תל	tel|municipality	2
HE	הפוליטיקה;נהשחתן	נהשחתן הפוליטיקה	la|politique|est|devenue|corrompue	5
HE	כירורגיית;כלי	כירורגיית כלי	chirurgie|vaisseaux	2
HE	בוועדה;העיד	העיד בוועדה	témoigné|en|comité	3
HE	הביקוש;צמצם	צמצם הביקוש	réduisez|demande	2
HE	לשכה;נשיא	נשיא לשכה	נשיא|לשכה	2
HE	אתר;נראה	נראה אתר	נראה|אתר	2
HE	נוהל;שנה	שנה נוהל	שנה|נוהל	2
HE	המציא;לוועד	המציא לוועד	inventé|comité	2
HE	העסק;קיום	קיום העסק	entreprise|existante	2
HE	בנושא;ערך	ערך בנושא	ערך|בנושא	2
HE	בהתאגדה;הכיר	הכיר בהתאגדה	incorporation|reconnue	2
HE	הביטחון;תקציב	תקציב הביטחון	le|budget|de|la|défense	5
HE	בדרגה;נמצא	נמצא בדרגה	est|dans|le|rang	4
HE	המערבי;לגבול	לגבול המערבי	jusqu'à|la|frontière|ouest	4
HE	החדש;עריצה	עריצה החדש	le|nouveau|tyran	3
HE	ללכוד;סוחר	ללכוד סוחר	capturer|marchand	2
HE	ביטוח;ענף	ענף ביטוח	ענף|ביטוח	2
HE	בכל;דן	דן בכל	discute|tout	2
HE	באיוולת;מצטט	באיוולת מצטט	citations|stupides	2
HE	בעבירה;דין	דין בעבירה	dean|en|attaque	3
HE	המלצה;יישום	יישום המלצה	mise|en|œuvre|des|recommandations	5
HE	לאנשים;מכ"ל	לאנשים מכ"ל	pour|les|gens|en|général	5
HE	במערב;נשמע	נשמע במערב	sons|à|l'ouest	3
HE	השיב;והעדיף	השיב והעדיף	répondu|et|préféré	3
HE	הקים;צוות	הקים צוות	constitué|équipe	2
HE	מחקר;פרסם	פרסם מחקר	publier|étude	2
HE	המעוותות;מערכה	מערכה המעוותות	l'ensemble|déformé	2
HE	עובדה;קבע	קבע עובדה	définir|fait	2
HE	איתר;מילה	איתר מילה	trouvez|mot	2
HE	העמיד;סכום	העמיד סכום	montez|montant	2
HE	סיוע;שיווק	סיוע שיווק	סיוע|שיווק	2
HE	הפליט;ולמחנה	ולמחנה הפליט	et|au|camp|de|réfugiés	5
HE	מרעום;משלוח	משלוח מרעום	livraison|choquée	2
HE	סוג;עניין	עניין סוג	type|d'intérêt	2
HE	חימוש;פירק	פירק חימוש	bras|démontés	2
HE	הליקוי;תיקן	תיקן הליקוי	correction|l'éclipse	2
HE	בעיר;סיר	סיר בעיר	pot|en|ville	3
HE	ביצע;מודרניזציה	ביצע מודרניזציה	a|modernisé	2
HE	טיל;להשמיד	להשמיד טיל	détruisez|missile	2
HE	הליך;מדיני	הליך מדיני	procédure|politique	2
HE	הפיקוד;לאלוף	לאלוף הפיקוד	לאלוף|הפיקוד	2
HE	גינן;ובה	גינן ובה	jardiné|avec	2
HE	בחודש;הקים	הקים בחודש	établi|en	2
HE	טיפול;נתן	נתן טיפול	gave|care	2
HE	בדמשק;ישב	ישב בדמשק	assis|à|damas	3
HE	הסם;עניין	עניין הסם	la|question|de|la|drogue	5
HE	זיכה;ליאון	ליאון זיכה	leon|a|gagné	3
HE	הישליך;לפרוזדורים	הישליך לפרוזדורים	jeter|dans|les|couloirs	4
HE	גיס;מנהל	גיס מנהל	beau-frère|manager	2
HE	לחבי;סוג	לחבי סוג	pour|genre	2
HE	המאמר;מוצא	המאמר מוצא	l'article|trouve	2
HE	השני;מקם	מקם השני	place|deuxième	2
HE	בחרמה;עסק	עסק בחרמה	affaires|en|boycott	3
HE	בירר;נסיבה	בירר נסיבה	בירר|נסיבה	2
HE	בב;נקודה	בב נקודה	bab|dot	2
HE	ציר;קרן	ציר קרן	axe|de|la|corne	4
HE	כפילות;מנע	מנע כפילות	élimine|duplication	2
HE	בהצבעה;לתמוך	לתמוך בהצבעה	soutenir|vote	2
HE	בתחזיה;לעמוד	לעמוד בתחזיה	défendez|l'identité	2
HE	מהמס;נפטר	נפטר מהמס	je|me|suis|débarrassé|de|la|taxe	7
HE	גרשם;שלום	גרשם שלום	gershom|shalom	2
HE	במלחמה;לאוייב	לאוייב במלחמה	à|l'ennemi|en|guerre	4
HE	הרעיון;קידם	קידם הרעיון	l'idée|a|été|promue	4
HE	הכושר;פיתח	פיתח הכושר	fitness|développé	2
HE	בגוש;תמיכתו	תמיכתו בגוש	son|soutien|au|bloc	4
HE	התפטר;ולהתרחק	התפטר ולהתרחק	démissionner|et|s'éloigner	3
HE	במחסום;פיגוע	פיגוע במחסום	une|attaque|terroriste|au|checkpoint	5
HE	בשכון;טיפל	טיפל בשכון	טיפל|בשכון	2
HE	מנע;שימח	מנע שימח	מנע|שימח	2
HE	ולהנהגה;לבנין	לבנין ולהנהגה	לבנין|ולהנהגה	2
HE	לשפה;תרגום	תרגום לשפה	la|traduction|de|la|langue	5
HE	חשב;שנשק	חשב שנשק	il|pensait|que|nous|nous|embrassions	6
HE	ביצר;הדמוקרטיה	ביצר הדמוקרטיה	ביצר|הדמוקרטיה	2
HE	שיתוף;תיאם	תיאם שיתוף	partage|coordonnées	2
HE	הקבוצה;סיגל	סיגל הקבוצה	groupe|sigal	2
HE	הציג;חתימה	הציג חתימה	a|présenté|une|signature	4
HE	ימדיד;רעש	ימדיד רעש	bruit|mesuré	2
HE	מצביע;סנן	סנן מצביע	pointeur|filtre	2
HE	ישיר;שיוק	שיוק ישיר	marketing|direct	2
HE	יום;נעדר	נעדר יום	manquer|jour	2
HE	הרי;סרבנה	סרבנה הרי	sarbana,|après|tout	3
HE	ביטחון;העניק	העניק ביטחון	העניק|ביטחון	2
HE	הצטרף;למאמצי	הצטרף למאמצי	joignez|mes|efforts	3
HE	לייצור;קני	לייצור קני	pour|la|production|de|canne	5
HE	ממתן;נמנע	נמנע ממתן	évitez|modération	2
HE	קואליציה;רקום	רקום קואליציה	coalition|brodée	2
HE	החמור;מצב	מצב החמור	l'état|l'âne	2
HE	בלימוד;התקדם	התקדם בלימוד	progrès|dans|l'apprentissage	3
HE	בפרק;דרש	דרש בפרק	exigé|dans|le|chapitre	4
HE	במסע;השתלב	השתלב במסע	participez|au|voyage	3
HE	חוסר;לבעיה	לבעיה חוסר	au|problème|du|manque	4
HE	בית;תיק	תיק בית	תיק|בית	2
HE	במדיניות;התחשב	התחשב במדיניות	considérez|politique	2
HE	כאורחה;קהיר	קהיר כאורחה	le|caire|en|invité	4
HE	יהשב;מוסד	יהשב מוסד	sera|institution	2
HE	בידה;קיים	קיים בידה	קיים|בידה	2
HE	באמצע;נקט	נקט באמצע	pris|au|milieu	3
HE	זכר;צוות	זכר צוות	זכר|צוות	2
HE	בעתיד;עבר	עבר בעתיד	passé|dans|le|futur	4
HE	לנשים;נווה	לנשים נווה	oasis|femmes	2
HE	ביבטחון;פגע	פגע ביבטחון	frappez|avec|confiance	3
HE	מוצר;פיתח	פיתח מוצר	développer|produit	2
HE	טילים;רכש	רכש טילים	acquisition|missiles	2
HE	היה;התחלה	היה התחלה	היה|התחלה	2
HE	היה;הסבר	היה הסבר	il|y|avait|une|explication	5
HE	חסד;נאבק	נאבק חסד	lutter|contre|la|gentillesse	4
HE	בהתנתקה;הטרר	הטרר בהתנתקה	la|terreur|dans|le|désengagement	5
HE	הוחלט;הרשיון	הוחלט הרשיון	la|licence|a|été|décidée	5
HE	הוטל;שר	הוטל שר	un|ministre|a|été|nommé	5
HE	הוחלט;נקיטה	הוחלט נקיטה	il|a|été|décidé|de|le|prendre	7
HE	הופעל;נשיא	הופעל נשיא	le|président|a|été|activé	5
HE	השאר;מימן	מימן השאר	financer|reste	2
HE	האכזבה;התנצל	התנצל האכזבה	la|déception|s'est|excusée	4
HE	הודיע;הפעלה	הודיע הפעלה	activation|annoncée	2
HE	בגד;להלבשה	להלבשה בגד	pour|habiller|le|vêtement	4
HE	באיש;היה	היה באיש	était|dans|l'homme	3
HE	בייר;גישר	גישר בייר	brayer|byrne	2
HE	הנחיה;קבע	קבע הנחיה	faire|invite	2
HE	היה;חומה	היה חומה	il|y|avait|un|mur	5
HE	היה;המדינה	היה המדינה	l'état|était-il	2
HE	הוסיף;כשני	הוסיף כשני	il|a|ajouté|environ|deux	5
HE	הוצע;מכונית	הוצע מכונית	une|voiture|a|été|offerte	5
HE	ולבצע;חזר	חזר ולבצע	revenez|en|arrière|et|effectuez	5
HE	הבולשוויק;נין	נין הבולשוויק	neuf|bolcheviks	2
HE	היה;פראייר	היה פראייר	il|y|avait|une|ventouse	5
HE	במבצעי;התבטא	התבטא במבצעי	exprimé|dans|les|promotions	4
HE	משלה;רב	רב משלה	sa|propre	2
HE	בהעתקה;הסתפק	הסתפק בהעתקה	contentez-vous|copier	2
HE	בטרוריסט;פגע	פגע בטרוריסט	frappez|terroriste	2
HE	הראייה;לאור	לאור הראייה	au|vu|de|la|vue	5
HE	היה;ניהול	היה ניהול	il|y|avait|de|la|gestion	6
HE	החזיק;חלק	החזיק חלק	tiens|peu	2
HE	גורם;היה	היה גורם	il|y|avait|un|facteur	5
HE	הוכחה;נכנס	נכנס הוכחה	preuve|saisie	2
HE	ההיסטור;מתחם	מתחם ההיסטור	le|complexe|historique	3
HE	השתחרר;מהמעמד	השתחרר מהמעמד	sortez|de|la|classe	4
HE	הוצאה;הכנס	הכנס הוצאה	insérer|dépense	2
HE	היה;מועל	היה מועל	a|été|téléchargé	3
HE	העובדה;לאר	לאר העובדה	en|raison|du|fait	4
HE	נבחר;שר	נבחר שר	un|ministre|a|été|élu	5
HE	הנאה;הפיק	הפיק הנאה	plaisir|produit	2
HE	היה;מצב	היה מצב	il|y|avait|une|situation	5
HE	באירוח;השקיע	השקיע באירוח	investi|dans|l'hospitalité	3
HE	במכתב;טיפל	טיפל במכתב	géré|lettre	2
HE	לתפקיד;סגן	לתפקיד סגן	pour|le|poste|de|lieutenant	5
HE	גיבש;הצעה	גיבש הצעה	formulé|proposition	2
HE	הצטרף;לחברה	הצטרף לחברה	rejoignez|l'entreprise	2
HE	היה;מוצא	היה מוצא	il|y|avait|un|moyen|de|sortir	7
HE	התנתק;מהמסורת	התנתק מהמסורת	déconnectez-vous|de|la|tradition	4
HE	לאר;מבול	לאר מבול	inondation|plus|importante	3
HE	המדע;קידם	קידם המדע	la|science|a|avancé	4
HE	בנווה;גר	גר בנווה	vit|dans|l'oasis	3
HE	בפיתוח;עסק	עסק בפיתוח	développement|affaires	2
HE	בהדרגה;פתח	פתח בהדרגה	ouvert|progressivement	2
HE	הגיד;טרוריסט	הגיד טרוריסט	tendre|terroriste	2
HE	מוסד;רב	מוסד רב	une|grande|institution	3
HE	לטף;עז	לטף עז	caresse|chèvre	2
HE	טיסה;לעידוד	לעידוד טיסה	pour|encourager|le|vol	4
HE	בישיבה;השתתף	השתתף בישיבה	assister|à|une|réunion	4
HE	בשמעון;לתמוך	לתמוך בשמעון	pour|soutenir|simon	3
HE	הרתיע;חבר	הרתיע חבר	dissuadé|ami	2
HE	היה;הנושא	היה הנושא	le|problème|était-il	3
HE	טרנר;שיצליח	טרנר שיצליח	turner|réussit	2
HE	אוגדה;רב	רב אוגדה	multi|division	2
HE	אנוש;היה	היה אנוש	sois|humain	2
HE	ננקט;עמדה	ננקט עמדה	une|position|a|été|prise	5
HE	בפעיל;עסק	עסק בפעיל	activiste|d'entreprise	2
HE	ממשל;שיטה	שיטה ממשל	mode|gouvernance	2
HE	מפעילה;נמנע	נמנע מפעילה	évitez|d'activer	2
HE	התקיים;כפיל	התקיים כפיל	un|double|a|été|détenu	5
HE	המחיר;כתב	כתב המחיר	le|reporter|des|prix	4
HE	היפאן;חיפש	חיפש היפאן	recherché|au|japon	3
HE	מהפרעה;סבל	סבל מהפרעה	a|souffert|de|désordre	4
HE	הועדף;והקצאה	הועדף והקצאה	préféré|et|attribution	3
HE	חסימה;נודע	נודע חסימה	le|blocage|est|devenu|connu	5
HE	המכתב;חתם	חתם המכתב	signé|lettre	2
HE	השווא;קופה	השווא קופה	en|vain|caisse|enregistreuse	4
HE	אמון;הצבעה	הצבעה אמון	vote|confiance	2
HE	דובר;דיבה	דובר דיבה	un|orateur|en|diffamation	4
HE	הקהל;יש	יש הקהל	il|y|a|la|foule	5
HE	הוואקף;המשיך	המשיך הוואקף	le|waqf|a|continué	4
HE	בהפעלה;הצדד	הצדד בהפעלה	côté|en|fonctionnement	3
HE	הביא;חוסר	הביא חוסר	apporté|manque	2
HE	הרוויח;כסף	הרוויח כסף	faire|l'argent	2
HE	במצב;שימצא	שימצא במצב	être|dans|la|situation	4
HE	ותוסף;משופר	משופר ותוסף	amélioré|et|plugin	3
HE	%;ביצע	ביצע %	%|réalisé	2
HE	הצעה;נדון	נדון הצעה	nous|discuterons|d'une|proposition	4
HE	הצבעה;ותערוך	ותערוך הצבעה	et|votera	2
HE	אפשר;התקדמות	אפשר התקדמות	autoriser|progrès	2
HE	מוזמביק;קשר	מוזמביק קשר	mozambique|contact	2
HE	הגיע;לפגישה	הגיע לפגישה	entré|à|la|réunion	4
HE	כגבול;שימש	שימש כגבול	servi|frontière	2
HE	משלוח;שקל	שקל משלוח	expédition|shekel	2
HE	באירוע;דובר	דובר באירוע	porte-parole|l'événement	2
HE	מתקציב;קיצץ	קיצץ מתקציב	réduire|budget	2
HE	כלל;תוספת	כלל תוספת	règle|d'incrémentation	2
HE	בשעה;נעדר	נעדר בשעה	absent|dans|l'heure	3
HE	המדינה;שתשלם	שתשלם המדינה	payer|l'etat	2
HE	ברפורמה;פתח	פתח ברפורמה	réforme|ouverte	2
HE	מקח;עשה	עשה מקח	fait|une|bonne|affaire	4
HE	חלק;קיבץ	קיבץ חלק	regroupé|en|douceur	3
HE	האני;מכירה	מכירה האני	vente|auto	2
HE	בכל;הוביל	הוביל בכל	led|en|tout	3
HE	איים;המקור	איים המקור	îles|sourcing	2
HE	אפשר;בנייה	אפשר בנייה	autoriser|construction	2
HE	ההעבר;נבע	נבע ההעבר	issu|du|passé	3
HE	זוהה;סימן	זוהה סימן	un|signe|a|été|identifié	5
HE	דוכין;ומיכה	דוכין ומיכה	duchin|et|micah	3
HE	התקפה;תכנן	תכנן התקפה	planifiez|attaque	2
HE	בנסיון;עסק	עסק בנסיון	expérience|en|affaires	3
HE	פסל;שימוש	פסל שימוש	utiliser|sculpture	2
HE	הצטבר;מידע	הצטבר מידע	les|informations|se|sont|accumulées	5
HE	החל;העברה	החל העברה	commencer|transfert	2
HE	משיגה;שיעור	משיגה שיעור	atteint|leçon	2
HE	בתוקף;נשאר	נשאר בתוקף	resté|en|vigueur	3
HE	אסיר;שוחרר	שוחרר אסיר	un|détenu|a|été|libéré	5
HE	המשטרה;תיגבר	המשטרה תיגבר	la|police|va|augmenter	4
HE	המועצה;טען	טען המועצה	le|conseil|a|fait|valoir	5
HE	חוליה;נתפס	נתפס חוליה	pris|lien	2
HE	הוועד;הקרואה	הוועד הקרואה	le|comité|de|lecture	4
HE	מהספר;נמחק	נמחק מהספר	supprimé|du|livre	3
HE	בוראה;ויוצר	בוראה ויוצר	créateur|et|créateur	3
HE	נתן;שרנסקי	נתן שרנסקי	nathan|sharansky	2
HE	הציע;שהממשלה	הציע שהממשלה	suggère|que|le|gouvernement	4
HE	נרשם;עלייה	נרשם עלייה	une|augmentation|a|été|enregistrée	5
HE	הביא;הדבר	הביא הדבר	je|l'ai|apporté	3
HE	בדחיפות;הגיע	הגיע בדחיפות	arrivé|de|toute|urgence	4
HE	העובד;ממלצר	ממלצר העובד	de|serveuse	2
HE	בסבלנות;חיכה	חיכה בסבלנות	attendu|patiemment	2
HE	בהתמדה;גדל	גדל בהתמדה	croissance|régulière	2
HE	מפתחת;עוצמה	מפתחת עוצמה	développe|pouvoir	2
HE	התקבל;מגורמים	התקבל מגורמים	accepté|agences	2
HE	התרף;שהגדיל	התרף שהגדיל	l'augmentation,|il|a|augmenté	4
HE	הרג;כוח	הרג כוח	tuer|pouvoir	2
HE	האישור;הליך	הליך האישור	procédure|d'approbation	2
HE	ביקש;פינס	ביקש פינס	pins|demandés	2
HE	גל;פרץ	פרץ גל	vague|rafale	2
HE	הרב;מספרם	מספרם הרב	leur|grand|nombre	3
HE	חי;נתיב	נתיב חי	chemin|en|direct	3
HE	האזינו;מתנחלים	האזינו מתנחלים	écoutez|colons	2
HE	שנה;תמך	תמך שנה	pris|en|charge|pendant|un|an	6
HE	בבית;בקר	בקר בבית	visiter|maison	2
HE	התיר;שפרשה	התיר שפרשה	le|détachement|qu'elle|a|retiré	5
HE	גילוי;נראה	נראה גילוי	semble|être|une|découverte	4
HE	הגיב;מפקד	הגיב מפקד	répondit|commandant	2
HE	בטרור;ללוחמה	ללוחמה בטרור	contre|terrorisme	2
HE	חזק;שמע	שמע חזק	audio|puissant	2
HE	לעדיפה;שזכה	שזכה לעדיפה	quel|a|été|préféré	4
HE	ההענש;יימנע	יימנע ההענש	évitez|punition	2
HE	כתוקפנות;נחשב	נחשב כתוקפנות	agression|envisagée	2
HE	הקיר;יועצה	הקיר יועצה	conseiller|mural	2
HE	הוסר;השלט	הוסר השלט	le|signe|a|été|supprimé	5
HE	בכדור;וניסתה	בכדור וניסתה	dans|le|ballon|et|essayé	5
HE	דעת;שופט	דעת שופט	opinion|du|juge	3
HE	בעמדה;טמונות	טמונות בעמדה	dans|position	2
HE	הגיע;שיעור	הגיע שיעור	il|y|avait|une|leçon	5
HE	ההסביב;מודאג	מודאג ההסביב	préoccupé|par|les|environs	4
HE	לכהונה;מועמדה	מועמדה לכהונה	nominé|pour|le|bureau	4
HE	ההתנתקה;תמך	תמך ההתנתקה	le|soutien|au|désengagement	4
HE	חמור;מעשה	מעשה חמור	un|acte|grave	3
HE	בעמידה;הסתכם	הסתכם בעמידה	montant|debout	2
HE	אחה;הושלך	הושלך אחה	elle|a|été|jetée	4
HE	הפתוח;לתנועה	הפתוח לתנועה	ouvert|à|la|circulation	4
HE	הסכם;קיים	קיים הסכם	un|accord|existe	3
HE	באפריקה;רב	רב באפריקה	rabbin|en|afrique	3
HE	העניק;ש	העניק ש	accordé|que	2
HE	לקרינה;שנחשף	שנחשף לקרינה	exposé|aux|radiations	3
HE	הושלם;ממקורת	הושלם ממקורת	terminé|à|partir|d'une|source	5
HE	חילץ;ראש	חילץ ראש	tête|extraite	2
HE	במקומה;מאבטח	מאבטח במקומה	un|gardien|de|sécurité|à|sa|place	7
HE	אסיר;לבש	לבש אסיר	portait|prisonnier	2
HE	השאל;זמן	השאל זמן	temps|prêt	2
HE	המחיר;העסקה	המחיר העסקה	le|prix|de|la|transaction	5
HE	הפרסום;קרא	קרא הפרסום	lire|publication	2
HE	מחזמר;שאף	שאף מחזמר	viser|une|comédie|musicale	4
HE	פלשתינאי;תקף	תקף פלשתינאי	palestinien|valide	2
HE	דחה;האפשרות	דחה האפשרות	option|rejet	2
HE	יכולת;ניצל	ניצל יכולת	capacité|utilisée	2
HE	האשר;ההסכם	האשר ההסכם	confirmer|l'accord	2
HE	המאפיין;עיצוב	המאפיין עיצוב	propriété|conception	2
HE	חוק;שקם	שקם חוק	restaurer|loi	2
HE	הבעיה;למד	למד הבעיה	apprenez|problème	2
HE	הצעה;קרא	קרא הצעה	lire|suggestion	2
HE	בלם;ההתבוללות	בלם ההתבוללות	le|frein|d'assimilation	3
HE	דחה;הדימוי	דחה הדימוי	l'image|a|été|rejetée	4
HE	הסיכה;סיפר	סיפר הסיכה	la|broche|a|dit	4
HE	הפצוע;והעביר	והעביר הפצוע	et|livré|les|blessés	4
HE	השמיד;ראש	השמיד ראש	tête|détruite	2
HE	מימן;משכורתו	מימן משכורתו	hydrogène|son|salaire	3
HE	גרוש;מנע	מנע גרוש	empêcher|divorce	2
HE	הבידוק;עבר	עבר הבידוק	passé|l'inspection	2
HE	נבל;סכום	נבל סכום	quantité|harpe	2
HE	בהיקף;השנתי	השנתי בהיקף	le|volume|annuel	3
