{'usare=VERB': 86789}	0	invalide: mot absent Conllst	n_a_abs
{'divenire=VERB': 24665, 'difensore=NOUN': 2765}	27		5.192524922035089
{'volpoca=NOUN': 4}	0	invalide: mot absent Conllst	n_a_abs
{'richiedere=VERB': 43019}	0	invalide: mot absent Conllst	n_a_abs
{'stanziare=VERB': 1337, 'contributo=NOUN': 13865}	20		6.646952711465368
{'mostrare=VERB': 30349, 'rivendicazione=NOUN': 657}	7		5.01917213038216
{'trattare=VERB': 50853}	0	invalide: mot absent Conllst	n_a_abs
{'coinvolgere=VERB': 14412, 'metodo=NOUN': 19861}	50		4.005014738143814
{'descrivere=VERB': 18089, 'anno=NOUN': 306017}	631		3.434762803461018
{'dare=VERB': 123201, 'affluenza=NOUN': 680}	26		4.8820846266449145
{'comparire=VERB': 7123, 'pelo=NOUN': 3434}	5		4.226241368530756
{'prendere=VERB': 87082, 'forma=NOUN': 51737}	1335		4.818773768065684
{'fare=VERB': 493699, 'base=NOUN': 69620}	3591		3.3417592711121826
{'fornire=VERB': 40789, 'servizio=NOUN': 126408}	4075		6.373229233809072
{'fare=VERB': 493699, 'rivendicazione=NOUN': 657}	54		4.050900601335504
{'votare=VERB': 23411, 'domenica=NOUN': 26593}	74		3.4495247997133713
{'inviare=VERB': 29068, 'supplica=NOUN': 209}	9		7.144513055480663
{'impiegare=VERB': 9218}	0	invalide: mot absent Conllst	n_a_abs
{'prevedere=VERB': 49745}	0	invalide: mot absent Conllst	n_a_abs
{'utilizzare=VERB': 85074, 'simbolo=NOUN': 11315}	291		4.830169454473628
{'fare=VERB': 493699, 'battuta=NOUN': 3973}	633		5.134149734341588
{'chiedere=VERB': 58139, 'venia=NOUN': 12}	4		9.618022305181471
{'generare=VERB': 8934, 'infezione=NOUN': 5096}	5		3.329053529745755
{'commettere=VERB': 4442, 'fallo=NOUN': 776}	77		11.171013636891475
{'avere=VERB': 437934, 'bandiera=NOUN': 6205}	316		3.4858029156999195
{'morire=VERB': 29004, 'papa=NOUN': 8287}	115		5.475925597235322
{'trasportare=VERB': 5493, 'rifiuto=NOUN': 7093}	30		6.150489186835377
{'considerare=VERB': 44025, 'occupazione=NOUN': 6840}	71		4.446454955812755
{'dipingere=VERB': 4561, 'immagine=NOUN': 59912}	149		5.690128174650971
{'aggiungere=VERB': 46507, 'funzione=NOUN': 32452}	321		4.304724921122105
{'lasciare=VERB': 59503}	0	invalide: mot absent Conllst	n_a_abs
{'portare=VERB': 77610, 'morte=NOUN': 33204}	1010		5.22572026835078
{'esistere=VERB': 42154, 'povertà=NOUN': 4142}	27		3.830894906818326
{'considerare=VERB': 44025, 'alga=NOUN': 726}	10		4.857546350372932
{'sembrare=VERB': 54926, 'banalità=NOUN': 544}	33		6.748021751645326
{'portare=VERB': 77610}	0	invalide: mot absent Conllst	n_a_abs
{'diventare=VERB': 62014, 'commissario=NOUN': 3242}	35		4.007924201089827
{'suscitare=VERB': 3582, 'reazione=NOUN': 9626}	145		8.667293114950605
{'studiare=VERB': 16532, 'oggetto=NOUN': 35808}	107		4.059326051529265
{'chiedere=VERB': 58139, 'elezione=NOUN': 11939}	136		4.181898641928203
{'ricavare=VERB': 5211, 'nota=NOUN': 10507}	12		4.328671194749127
{'ottenere=VERB': 54921, 'credito=NOUN': 14147}	179		4.4187590896179625
{'parere=VERB': 14479, 'oggetto=NOUN': 35808}	55		3.2845410305019174
{'permettere=VERB': 48908, 'effetto=NOUN': 41783}	400		4.186312177719224
{'esprimere=VERB': 17864, 'dubbio=NOUN': 14332}	156		5.827267352298176
{'diventare=VERB': 62014, 'succubo=NOUN': 29}	0	invalide: coocc nulle dans Conllst	n_a
{'intercalare=VERB': 112, 'anno=NOUN': 306017}	6		4.0789597382377245
{'creare=VERB': 57098, 'era=NOUN': 3149}	39		4.3276781915103335
{'dare=VERB': 123201, 'atto=NOUN': 23342}	624		4.355666912290933
{'diventare=VERB': 62014, 'killer=NOUN': 1213}	19		4.5516178282845345
{'vendere=VERB': 24310, 'gas=NOUN': 8640}	34		3.8942342911114034
{'svariare=VERB': 185, 'partecipazione=NOUN': 13179}	0	invalide: coocc nulle dans Conllst	n_a
{'diventare=VERB': 62014, 'storia=NOUN': 70436}	1098		4.569911824727121
{'essere=VERB': 255757, 'materia=NOUN': 18062}	500		3.349165434019155
{'produrre=VERB': 40229, 'tessuto=NOUN': 10073}	174		5.325323377533572
{'auspicare=VERB': 1078, 'azione=NOUN': 30695}	18		5.660348348462898
{'dare=VERB': 123201, 'forma=NOUN': 51737}	1848		4.801606341801225
{'avere=VERB': 437934}	0	invalide: mot absent Conllst	n_a_abs
{'dettagliare=VERB': 1737, 'rispetto=NOUN': 10433}	0	invalide: coocc nulle dans Conllst	n_a
{'rimuovere=VERB': 7812, 'programma=NOUN': 45316}	138		5.184570302719643
{'produrre=VERB': 40229, 'integrato=NOUN': 331}	5		5.12257268632459
{'provocare=VERB': 11702, 'dipendenza=NOUN': 3839}	51		6.722180240993289
{'annullare=VERB': 3629, 'processo=NOUN': 27694}	45		5.374700172330838
{'introdurre=VERB': 13912, 'effetto=NOUN': 41783}	107		4.08677620291128
{'rimpinguare=VERB': 60}	0	invalide: mot absent Conllst	n_a_abs
{'rivelare=VERB': 15292, 'servizio=NOUN': 126408}	120		2.516550585516049
{'rimanere=VERB': 49781, 'filantropo=NOUN': 255}	0	invalide: coocc nulle dans Conllst	n_a
{'investire=VERB': 6189, 'miliardo=NOUN': 11093}	145		7.645383105573963
{'bere=VERB': 5706}	0	invalide: mot absent Conllst	n_a_abs
{'andare=VERB': 114310, 'percorso=NOUN': 21135}	337		3.699256713275252
{'commentare=VERB': 7234}	0	invalide: mot absent Conllst	n_a_abs
{'fare=VERB': 493699}	0	invalide: mot absent Conllst	n_a_abs
{'aggiungere=VERB': 46507, 'commento=NOUN': 49305}	463		4.233449855938931
{'trovare=VERB': 190104, 'condizione=NOUN': 41124}	1387		4.078833550382677
{'riguardare=VERB': 32211, 'dettaglio=NOUN': 28406}	174		4.135590023991615
{'sapere=VERB': 102200}	0	invalide: mot absent Conllst	n_a_abs
{'trovare=VERB': 190104, 'sistema=NOUN': 74415}	1362		3.1739407982437533
{'proporre=VERB': 34000, 'consiglio=NOUN': 39628}	243		4.061696452099121
{'chiudere=VERB': 24854, 'negozio=NOUN': 23416}	123		4.286014387865687
{'accettare=VERB': 22328, 'trasferimento=NOUN': 7555}	49		4.742626091462108
{'mettere=VERB': 88156}	0	invalide: mot absent Conllst	n_a_abs
{'comporre=VERB': 28494, 'binario=NOUN': 3231}	67		6.088722752091865
{}	0	invalide: mot absent Conllst	n_a_abs
{'avere=VERB': 437934, 'inviato=NOUN': 729}	42		3.6730772466747004
{'attaccare=VERB': 10497}	0	invalide: mot absent Conllst	n_a_abs
{'fare=VERB': 493699}	0	invalide: mot absent Conllst	n_a_abs
{'imparare=VERB': 14028, 'mestiere=NOUN': 2987}	124		8.152813668661937
{'scoprire=VERB': 49949, 'cometa=NOUN': 1078}	81		7.217715265416019
{'vedere=VERB': 200588, 'vaso=NOUN': 3960}	72		3.0768963436179084
{'chiedere=VERB': 58139, 'rispetto=NOUN': 10433}	193		4.8932491671816365
{'mantenere=VERB': 23499, 'salute=NOUN': 19468}	268		5.778648542868122
{'funzionare=VERB': 22456, 'schema=NOUN': 6558}	25		3.9622616270366007
{'soddisfare=VERB': 11482}	0	invalide: mot absent Conllst	n_a_abs
{'soffocare=VERB': 924, 'intellettuale=NOUN': 1546}	0	invalide: coocc nulle dans Conllst	n_a
{'avere=VERB': 437934, 'frontiera=NOUN': 3106}	162		3.5216095701237715
{'avere=VERB': 437934, 'rom=NOUN': 1352}	128		4.447821636601912
{'ricevere=VERB': 49411, 'milione=NOUN': 34347}	371		4.34651730478407
{'vedere=VERB': 200588, 'protagonista=NOUN': 20264}	1531		5.229283828979575
{'venire=VERB': 49786, 'svolta=NOUN': 2877}	21		3.7548350157655372
{'controllare=VERB': 16791, 'prezzo=NOUN': 113588}	451		4.478293644530807
{'avere=VERB': 437934}	0	invalide: mot absent Conllst	n_a_abs
{'liberare=VERB': 7762, 'leone=NOUN': 2893}	7		4.8367299517317655
{'causare=VERB': 13750, 'problema=NOUN': 68050}	898		6.570865301472638
{'risultare=VERB': 23968, 'traccia=NOUN': 13277}	62		4.164364050790505
{'lanciare=VERB': 15368, 'diffamazione=NOUN': 482}	1		3.6277006722720104
{'richiedere=VERB': 43019, 'intervento=NOUN': 26630}	607		5.651009820980252
{'prendere=VERB': 87082, 'provvedimento=NOUN': 6640}	408		6.108775837997873
{'nascondere=VERB': 11172, 'documento=NOUN': 21668}	54		4.359741046350918
{'utilizzare=VERB': 85074, 'finanziamento=NOUN': 8103}	84		3.493246997916722
{'migliorare=VERB': 20248, 'rispetto=NOUN': 10433}	45		4.292082559482767
{'costruire=VERB': 34355, 'vettura=NOUN': 6031}	145		6.03984845950809
{'ambire=VERB': 164, 'classe=NOUN': 23223}	1		4.593208916317306
{'contenere=VERB': 34855, 'zirconio=NOUN': 92}	6		7.515009788333876
{'preoccupare=VERB': 5747, 'parte=NOUN': 214162}	178		3.7705291317772907
{'scegliere=VERB': 50146, 'carabina=NOUN': 154}	2		4.583424702172648
{'correre=VERB': 10234, 'rischio=NOUN': 25517}	983		8.628300829289431
{'trovare=VERB': 190104, 'rifugio=NOUN': 2934}	471		6.525673498394381
{'sconfiggere=VERB': 8366, 'ignoranza=NOUN': 1846}	5		4.891336075801304
{'urbanizzare=VERB': 70, 'scarica=NOUN': 751}	0	invalide: coocc nulle dans Conllst	n_a
{'emozione=NOUN': 7594}	0	invalide: mot absent Conllst	n_a_abs
{'accumulare=VERB': 2861, 'fama=NOUN': 4162}	6		5.529849211655553
{'trovare=VERB': 190104, 'sbocco=NOUN': 766}	99		6.157277490831372
{'volere=VERB': 43237, 'fiore=NOUN': 12528}	71		3.5926119614112793
{'chiedere=VERB': 58139}	0	invalide: mot absent Conllst	n_a_abs
{'costituire=VERB': 31831, 'modello=NOUN': 43581}	267		4.157299397980821
{'necessitare=VERB': 3830, 'cura=NOUN': 33158}	51		5.2189295528050845
{'trovare=VERB': 190104, 'copertura=NOUN': 7454}	153		3.3333833766538272
{'fare=VERB': 493699, 'glia=NOUN': 24}	1		3.0083104489476704
{'avere=VERB': 437934, 'lunghezza=NOUN': 9977}	1025		4.581582254536836
{'diventare=VERB': 62014, 'lingua=NOUN': 29892}	243		3.599616291730517
{'sfuggire=VERB': 2948}	0	invalide: mot absent Conllst	n_a_abs
{'gareggiare=VERB': 750, 'lunedì=NOUN': 12809}	3		4.840607453395289
{'porre=VERB': 33892, 'termine=NOUN': 46859}	473		4.801055286436423
{'offrire=VERB': 84867, 'denaro=NOUN': 8518}	164		4.404316809344194
{'sapere=VERB': 102200}	0	invalide: mot absent Conllst	n_a_abs
{'diventare=VERB': 62014, 'papà=NOUN': 3546}	86		5.196545878566891
{'fomentare=VERB': 331, 'discriminazione=NOUN': 1743}	1		7.3122905572441335
{}	0	invalide: mot absent Conllst	n_a_abs
{'entrare=VERB': 39533, 'persona=NOUN': 108976}	704		3.935425693333587
{}	0	invalide: mot absent Conllst	n_a_abs
{'richiamare=VERB': 5675, 'ordinanza=NOUN': 2931}	7		5.270144963275961
{'inserire=VERB': 44566, 'parametro=NOUN': 5742}	100		5.186591908812764
{'avere=VERB': 437934, 'fretta=NOUN': 3027}	498		5.36207986022442
{'offrire=VERB': 84867, 'difesa=NOUN': 10813}	64		2.6813991689821295
{'produrre=VERB': 40229, 'variazione=NOUN': 7078}	79		4.682876968268522
{'chiamare=VERB': 54574, 'ronda=NOUN': 175}	4		5.29146874194291
{'apprezzare=VERB': 9584}	0	invalide: mot absent Conllst	n_a_abs
{'dare=VERB': 123201, 'variabile=NOUN': 3320}	72		4.0399196968209194
{'impostare=VERB': 3744, 'figura=NOUN': 15876}	4		2.622122814926939
{'fare=VERB': 493699, 'shopping=NOUN': 4400}	784		5.32869320271874
{'rinnovare=VERB': 6867, 'condivisione=NOUN': 3759}	7		4.6350596285708665
{'avere=VERB': 437934, 'idea=NOUN': 39630}	5991		5.2353941813755736
{'avere=VERB': 437934}	0	invalide: mot absent Conllst	n_a_abs
{'utilizzare=VERB': 85074, 'personale=NOUN': 26267}	161		2.730266932157206
{'perdere=VERB': 42342, 'quota=NOUN': 10859}	133		4.746336548113217
{'portare=VERB': 77610, 'carta=NOUN': 28331}	306		3.689847324097342
{'vedere=VERB': 200588, 'padrone=NOUN': 4621}	185		4.248934910403985
{'variare=VERB': 8861, 'natura=NOUN': 24115}	29		3.638691016060341
{'subire=VERB': 9840, 'violenza=NOUN': 9014}	247		8.067875037399318
{'adeguare=VERB': 1836, 'dignità=NOUN': 4239}	1		3.5544094599860685
{'dare=VERB': 123201, 'comunicazione=NOUN': 23058}	607		4.332673453914252
{'avere=VERB': 437934, 'appoggio=NOUN': 3335}	319		4.464830916338743
{'bere=VERB': 5706, 'acqua=NOUN': 50726}	896		8.415948469918117
{'baciare=VERB': 1450, 'donna=NOUN': 63997}	57		5.86962102798442
{'trasformare=VERB': 16608, 'energia=NOUN': 19940}	267		6.2456996039958
{'causare=VERB': 13750, 'timore=NOUN': 3006}	17		5.2417981407191645
{'prendere=VERB': 87082, 'possesso=NOUN': 7260}	568		6.486021076374825
{'mancare=VERB': 21339, 'contributo=NOUN': 13865}	56		4.121761470689226
{'passare=VERB': 60666, 'parola=NOUN': 46682}	442		3.858139549363667
{'ottenere=VERB': 54921, 'udienza=NOUN': 2695}	21		3.708156823994297
{'minacciare=VERB': 3823, 'crisi=NOUN': 17565}	44		5.923986997720212
{'assicurare=VERB': 15288, 'produzione=NOUN': 42504}	103		3.869472249454091
{'estinguere=VERB': 861, 'incendio=NOUN': 3931}	13		8.48175926139912
{'gradire=VERB': 2695, 'ritorno=NOUN': 16681}	28		5.848000014112753
{'sollevare=VERB': 4361, 'dubbio=NOUN': 14332}	150		7.842239829556858
{'sistemare=VERB': 1694}	0	invalide: mot absent Conllst	n_a_abs
{'vedere=VERB': 200588, 'cacciatore=NOUN': 2096}	58		3.6967257794867776
{'gemellare=VERB': 488, 'pro=NOUN': 577}	0	invalide: coocc nulle dans Conllst	n_a
{'ottenere=VERB': 54921, 'soccorso=NOUN': 3641}	17		2.9646136419493327
{'togliere=VERB': 11499, 'validità=NOUN': 2571}	5		3.953170986051084
{'rimanere=VERB': 49781, 'prigioniero=NOUN': 2424}	57		5.467532966677145
{'citare=VERB': 19786, 'proprietà=NOUN': 20658}	143		5.0188938197813835
{'rubare=VERB': 4979, 'libro=NOUN': 56325}	40		3.716603647965744
{'chiedere=VERB': 58139, 'soccorso=NOUN': 3641}	54		4.565589125804122
{'apparire=VERB': 20751}	0	invalide: mot absent Conllst	n_a_abs
{'dire=VERB': 193971}	0	invalide: mot absent Conllst	n_a_abs
{'cambiare=VERB': 39486, 'rispetto=NOUN': 10433}	32		2.8328231049261565
{'mancare=VERB': 21339, 'pagamento=NOUN': 24020}	61		3.45052401150271
{'evitare=VERB': 22811}	0	invalide: mot absent Conllst	n_a_abs
{'trasmettere=VERB': 12781, 'senso=NOUN': 39107}	212		5.3081827963230905
{'domandare=VERB': 2354, 'scusa=NOUN': 2961}	6		6.303945072635022
{'anno=NOUN': 306017}	0	invalide: mot absent Conllst	n_a_abs
{'vedere=VERB': 200588, 'amico=NOUN': 47755}	3633		5.255370245975358
{'respirare=VERB': 2708, 'aria=NOUN': 21241}	573		10.212401485913006
{'dire=VERB': 193971, 'largo=NOUN': 3810}	80		3.3372235471749248
{'conservare=VERB': 16534, 'capolavoro=NOUN': 3907}	47		6.076304112424524
{'evitare=VERB': 22811, 'conflitto=NOUN': 8615}	129		5.936239736215925
{'sembrare=VERB': 54926, 'finto=NOUN': 397}	15		6.029795883256761
{'apportare=VERB': 3410, 'argomento=NOUN': 25085}	9		3.2693037763875625
{'riportare=VERB': 25005, 'soluzione=NOUN': 31589}	66		2.9393025823686556
{'spingere=VERB': 9760, 're=NOUN': 17539}	44		4.563771479963034
{'parlare=VERB': 65408, 'quotidiano=NOUN': 5393}	99		4.70936162300164
{'gestire=VERB': 20061, 'grafica=NOUN': 1830}	18		5.500888597254788
{'trattare=VERB': 50853, 'problema=NOUN': 68050}	827		4.48982741076231
{'determinare=VERB': 13944, 'situazione=NOUN': 31241}	195		5.383313141153686
{'aromatizzare=VERB': 632, 'prodotto=NOUN': 70425}	23		5.615076424755072
{'anticipare=VERB': 4973, 'difesa=NOUN': 10813}	11		4.228856445881689
{'prevedere=VERB': 49745}	0	invalide: mot absent Conllst	n_a_abs
{'ritenere=VERB': 22361, 'azione=NOUN': 30695}	214		4.856162386151998
{'avere=VERB': 437934, 'gastrite=NOUN': 2}	0	invalide: coocc nulle dans Conllst	n_a
{'occorrere=VERB': 11617, 'giorno=NOUN': 155826}	186		3.2557831337173275
{'usare=VERB': 86789, 'astronomia=NOUN': 1193}	26		4.552200235104739
{'chiamare=VERB': 54574}	0	invalide: mot absent Conllst	n_a_abs
{'essere=VERB': 255757}	0	invalide: mot absent Conllst	n_a_abs
{'significare=VERB': 17642, 'crisi=NOUN': 17565}	66		4.293231785489069
{'indire=VERB': 2055, 'incontro=NOUN': 26182}	19		5.026306989878154
{'accelerare=VERB': 2569, 'accordo=NOUN': 22643}	14		4.4675038150137345
{'andare=VERB': 114310}	0	invalide: mot absent Conllst	n_a_abs
{'approvare=VERB': 11681, 'fondo=NOUN': 28122}	76		4.415102887500512
{'votare=VERB': 23411, 'volta=NOUN': 124625}	185		2.5479792731699136
{'essere=VERB': 255757, 'cattolico=NOUN': 3710}	195		4.309849210280344
{'incappare=VERB': 453, 'anno=NOUN': 306017}	11		2.893470324119214
{'bisognare=VERB': 19421, 'giorno=NOUN': 155826}	401		3.631511427483638
{'specie=NOUN': 17962}	0	invalide: mot absent Conllst	n_a_abs
{'diventare=VERB': 62014, 'complice=NOUN': 987}	40		5.960473692495563
{'strappare=VERB': 1851, 'lacrima=NOUN': 2122}	10		7.876401744267816
{'durare=VERB': 8575, 'fatica=NOUN': 4956}	15		5.018049853961312
{'esistere=VERB': 42154}	0	invalide: mot absent Conllst	n_a_abs
{'dare=VERB': 123201, 'facoltà=NOUN': 4339}	142		4.6507554031760385
{'distruggere=VERB': 11036, 'pompa=NOUN': 2388}	3		3.380793120667618
{'combattere=VERB': 9886, 'crisi=NOUN': 17565}	69		5.197862131819496
{'vallata=NOUN': 1211}	0	invalide: mot absent Conllst	n_a_abs
{'vedere=VERB': 200588}	0	invalide: mot absent Conllst	n_a_abs
{'occultare=VERB': 478, 'colpa=NOUN': 7029}	1		4.768397748074926
{'fare=VERB': 493699, 'scalpore=NOUN': 364}	163		7.230022345669479
{'mettere=VERB': 88156, 'gente=NOUN': 18664}	429		4.614819625253927
{'scrivere=VERB': 98676}	0	invalide: mot absent Conllst	n_a_abs
{}	0	invalide: mot absent Conllst	n_a_abs
{'raffigurare=VERB': 4558, 'gara=NOUN': 18254}	2		1.1358227099350484
{'dominare=VERB': 7348, 'città=NOUN': 101217}	280		5.164242784733472
{'bloccare=VERB': 9040, 'comunicazione=NOUN': 23058}	35		3.9471259213471344
{'valutare=VERB': 13459, 'insieme=NOUN': 8484}	33		4.731887523275445
{'raccogliere=VERB': 20966, 'messaggio=NOUN': 33054}	96		3.6726201235231226
{'considerare=VERB': 44025, 'esempio=NOUN': 66045}	1006		5.037852446289473
{'concludere=VERB': 15646, 'trattato=NOUN': 4904}	98		6.9047891987349574
{'sottovalutare=VERB': 1031, 'lista=NOUN': 18936}	2		3.229422806409766
{'andare=VERB': 114310}	0	invalide: mot absent Conllst	n_a_abs
{'distribuire=VERB': 12918, 'documentazione=NOUN': 5647}	14		4.137278122751226
{'nascere=VERB': 51627, 'forma=NOUN': 51737}	441		3.9397561665858967
{'decidere=VERB': 37168}	0	invalide: mot absent Conllst	n_a_abs
{'conquistare=VERB': 9057, 'posizione=NOUN': 51242}	178		5.164674692168243
{'proporre=VERB': 34000, 'quesito=NOUN': 1869}	44		6.019513650383845
{'arrivare=VERB': 69964, 'mezzo=NOUN': 34168}	575		4.494267451160677
{'tentare=VERB': 11432, 'raid=NOUN': 622}	5		6.017784022542261
{'delineare=VERB': 1903, 'fondamento=NOUN': 3595}	6		6.331234009582416
{'pensare=VERB': 66790, 'assurdità=NOUN': 418}	16		5.767091143978802
{'acquistare=VERB': 51232, 'milione=NOUN': 34347}	374		4.30574803034357
{'attenuare=VERB': 847, 'tensione=NOUN': 7037}	18		8.142788601596544
{'condurre=VERB': 16930, 'questione=NOUN': 20290}	70		4.229612404413958
{'tramandare=VERB': 1261, 'mito=NOUN': 3562}	16		8.37123483223468
{'avere=VERB': 437934, 'progetto=NOUN': 76332}	2938		3.07174324514635
{'lanciare=VERB': 15368, 'segnale=NOUN': 8833}	103		6.1419362996610865
{'acquisire=VERB': 8653}	0	invalide: mot absent Conllst	n_a_abs
{'sbagliare=VERB': 7086, 'intervento=NOUN': 26630}	17		3.045470565216935
{'avere=VERB': 437934, 'dignità=NOUN': 4239}	476		4.723506883319387
{'avere=VERB': 437934, 'massimo=NOUN': 10694}	766		4.0112265855468365
{'colpire=VERB': 17531, 'regione=NOUN': 32765}	184		4.894561808368965
{'utilizzare=VERB': 85074, 'serbatoio=NOUN': 2159}	50		4.67107197757934
{'determinare=VERB': 13944, 'controllo=NOUN': 30435}	131		4.837604998794699
{'riservare=VERB': 11469, 'diritto=NOUN': 54372}	1385		7.887680710942549
{'mantenere=VERB': 23499, 'impiegato=NOUN': 1867}	10		4.388614000861947
{'fiorire=VERB': 1169, 'programma=NOUN': 45316}	1		0.7876160568723365
{'eludere=VERB': 400, 'protocollo=NOUN': 4200}	1		5.7690666710314495
{'comprendere=VERB': 40547}	0	invalide: mot absent Conllst	n_a_abs
{'mostrare=VERB': 30349, 'reattività=NOUN': 344}	6		5.740148633672967
{'garantire=VERB': 29943, 'risparmio=NOUN': 7148}	190		6.389792802311704
{'dare=VERB': 123201, 'vittoria=NOUN': 15990}	369		4.135092561277201
{'affittare=VERB': 3043, 'killer=NOUN': 1213}	3		6.219457240317064
{'vantare=VERB': 7370, 'conquista=NOUN': 4602}	15		5.344187457473178
{'dare=VERB': 123201, 'mossa=NOUN': 4065}	142		4.748156530984853
{'sopportare=VERB': 2555, 'sofferenza=NOUN': 4400}	51		8.741080181663623
{'trovare=VERB': 190104, 'tono=NOUN': 4368}	89		3.3220633619574715
{'avere=VERB': 437934, 'piantina=NOUN': 726}	79		4.671206865605812
{'giungere=VERB': 15147, 'mais=NOUN': 1522}	4		3.9908221772392896
{'accusare=VERB': 5998, 'russo=NOUN': 1397}	9		6.628175411974477
{'avvenire=VERB': 28485, 'giorno=NOUN': 155826}	1120		4.5952108362414394
{'accettare=VERB': 22328, 'principio=NOUN': 17710}	110		4.683772250308665
{'possedere=VERB': 12680}	0	invalide: mot absent Conllst	n_a_abs
{'bloccare=VERB': 9040, 'evacuazione=NOUN': 573}	4		6.1513882823891475
{'adottare=VERB': 12537, 'denominazione=NOUN': 4890}	63		6.578873948564601
{'ammettere=VERB': 14592, 'diritto=NOUN': 54372}	136		3.9862605698136955
{'richiedere=VERB': 43019, 'ciclo=NOUN': 10943}	76		3.8952677354671787
{'rispondere=VERB': 35220, 'ragazzo=NOUN': 30983}	151		3.673496891147659
{'avere=VERB': 437934, 'capacità=NOUN': 20801}	2821		5.041996634486271
{'prevedere=VERB': 49745, 'milione=NOUN': 34347}	492		4.752650905284703
{'presentare=VERB': 62890, 'baia=NOUN': 3680}	17		2.753641552788802
{'contribuire=VERB': 14088, 'malattia=NOUN': 22653}	99		4.841397384343199
{'chiudere=VERB': 24854, 'periodo=NOUN': 52320}	215		3.935544246390787
{'ridurre=VERB': 24566, 'anno=NOUN': 306017}	1155		3.886123067396346
{'alzare=VERB': 4592}	0	invalide: mot absent Conllst	n_a_abs
{'trovare=VERB': 190104, 'energia=NOUN': 19940}	337		3.0490900160104903
{'considerare=VERB': 44025, 'espulsione=NOUN': 1224}	9		3.942585658721772
{'avere=VERB': 437934, 'funzionamento=NOUN': 6996}	406		3.6853990264686938
{'effettuare=VERB': 34715, 'ricerca=NOUN': 66422}	2398		6.726426771715868
{'esistere=VERB': 42154, 'strumento=NOUN': 32113}	314		4.4304734212689825
{'permettere=VERB': 48908, 'localizzazione=NOUN': 1814}	36		5.24230654762111
{'pagare=VERB': 26183, 'cifra=NOUN': 6412}	237		7.078436987374477
{'partecipare=VERB': 31347, 'numero=NOUN': 156249}	378		2.838853913959339
{'lamentare=VERB': 3121, 'decisione=NOUN': 12765}	19		5.456329277084165
{'abbracciare=VERB': 3282, 'metodo=NOUN': 19861}	8		3.4912336636190786
{'affiancare=VERB': 4609, 'velivolo=NOUN': 1486}	1		3.738969462958373
{'votare=VERB': 23411, 'candidato=NOUN': 8504}	186		6.45888854539311
{'mantenere=VERB': 23499, 'possesso=NOUN': 7260}	71		5.267367232108178
{'definire=VERB': 27185, 'dimissione=NOUN': 2924}	11		3.6663439878144937
{'sottolineare=VERB': 10325, 'interpretazione=NOUN': 7622}	35		5.356155512868054
{'giocare=VERB': 29446, 'finale=NOUN': 12733}	520		7.0713002711386945
{'rivedere=VERB': 6178, 'regolamento=NOUN': 11787}	15		4.239543372988328
{'aggirare=VERB': 2051}	0	invalide: mot absent Conllst	n_a_abs
{'produrre=VERB': 40229, 'ione=NOUN': 1109}	35		6.21095388178358
{'sostenere=VERB': 24688, 'sviluppo=NOUN': 35258}	395		5.413188380936386
{'fermare=VERB': 14163, 'metropolitana=NOUN': 15}	1		8.848049356964065
{'spingere=VERB': 9760}	0	invalide: mot absent Conllst	n_a_abs
{'bollare=VERB': 305, 'programma=NOUN': 45316}	4		4.743916453246114
{'riguardare=VERB': 32211, 'musica=NOUN': 27020}	137		3.859650573933958
{'aggiungere=VERB': 46507, 'costo=NOUN': 35475}	235		3.7188804858949194
{'iniziare=VERB': 54372, 'vita=NOUN': 104505}	1004		4.053712726895444
{'trovare=VERB': 190104, 'coppia=NOUN': 18037}	392		3.4194283025582006
{'battere=VERB': 8031, 'punizione=NOUN': 1387}	25		7.7106209814639275
{'costituire=VERB': 31831}	0	invalide: mot absent Conllst	n_a_abs
{'leggere=VERB': 51992, 'articolo=NOUN': 89617}	2688		5.840492099086498
{'consumare=VERB': 6024, 'vendetta=NOUN': 1756}	21		7.525271202775054
{'aggiungere=VERB': 46507, 'strato=NOUN': 4749}	66		4.793207059545053
{'provocare=VERB': 11702, 'debito=NOUN': 6636}	26		4.943888346332583
{'esaminare=VERB': 5047, 'struttura=NOUN': 70444}	37		3.2605689065634365
{'lanciare=VERB': 15368, 'messaggio=NOUN': 33054}	250		5.525362168856805
{'favorire=VERB': 9972, 'evento=NOUN': 47493}	74		3.8484961005693905
{'rimanere=VERB': 49781, 'arco=NOUN': 8056}	69		3.9889216123988556
{'firmare=VERB': 11886, 'scheda=NOUN': 20583}	28		3.3917217693053145
{'raggiungere=VERB': 46369, 'zona=NOUN': 57487}	705		4.634705463167938
{'consigliare=VERB': 21237, 'lettura=NOUN': 16359}	329		6.486831204822252
{'avere=VERB': 437934, 'attacco=NOUN': 17418}	1176		3.9208977486411793
{'superare=VERB': 17839, 'lombardo=NOUN': 182}	0	invalide: coocc nulle dans Conllst	n_a
{'offrire=VERB': 84867, 'tregua=NOUN': 866}	13		4.036484417645556
{'inventare=VERB': 5303, 'dinamite=NOUN': 154}	6		9.449691021883634
{'vietare=VERB': 5769, 'residenza=NOUN': 6169}	5		3.6845640082866424
{'presentare=VERB': 62890, 'paio=NOUN': 9752}	106		3.9992377136708783
{'nascere=VERB': 51627, 'differenziazione=NOUN': 785}	3		2.7633250733583994
{'subire=VERB': 9840, 'ferita=NOUN': 1540}	28		7.429922659367742
{'riconoscere=VERB': 22720, 'legittimazione=NOUN': 448}	9		6.365885940937916
{'alzare=VERB': 4592, 'tasso=NOUN': 8510}	28		6.046224758261301
{'avere=VERB': 437934, 'circonferenza=NOUN': 1224}	131		4.644564681045527
{'nascere=VERB': 51627, 'necessità=NOUN': 13401}	214		4.849934316702486
{'proclamare=VERB': 3337, 'lutto=NOUN': 1309}	28		9.237262265492232
{'trovare=VERB': 190104, 'interesse=NOUN': 33343}	1519		4.531364870318081
{'esistere=VERB': 42154, 'procedimento=NOUN': 5750}	38		3.851208128172296
{'prevedere=VERB': 49745, 'realizzazione=NOUN': 15744}	456		5.788941540542538
{'fare=VERB': 493699, 'spia=NOUN': 1418}	156		4.516231444375383
{'iniziare=VERB': 54372, 'declino=NOUN': 1985}	112		6.653759990734144
{'proseguire=VERB': 11392}	0	invalide: mot absent Conllst	n_a_abs
{'invitare=VERB': 14348, 'giudice=NOUN': 8536}	22		4.042603697232153
{'utilizzare=VERB': 85074, 'elemento=NOUN': 29520}	656		4.620447031998331
{'aggiungere=VERB': 46507, 'milione=NOUN': 34347}	196		3.501144031682992
{'rivolgere=VERB': 18180, 'attenzione=NOUN': 24036}	566		6.966834750959412
{'concludere=VERB': 15646}	0	invalide: mot absent Conllst	n_a_abs
{'essere=VERB': 255757, 'soggiorno=NOUN': 26576}	574		2.9825409356428145
{'possedere=VERB': 12680, 'impianto=NOUN': 22633}	82		4.720882799602849
{'valutare=VERB': 13459, 'posizione=NOUN': 51242}	158		4.409091458253532
{'individuare=VERB': 10198}	0	invalide: mot absent Conllst	n_a_abs
{'incontrare=VERB': 19207, 'persona=NOUN': 108976}	1147		5.749895374348209
{'risultare=VERB': 23968, 'risorsa=NOUN': 15630}	57		3.805885574240348
{'avere=VERB': 437934, 'ciclo=NOUN': 10943}	915		4.253686853755816
{'divenire=VERB': 24665, 'icona=NOUN': 2686}	59		6.38186171526865
{'compiere=VERB': 12881, 'primavera=NOUN': 7103}	9		3.1707344558724904
{'dare=VERB': 123201, 'interpretazione=NOUN': 7622}	433		5.486214466877075
{'esaltare=VERB': 1721, 'concetto=NOUN': 11598}	6		4.785269440192866
{'provocare=VERB': 11702, 'blocco=NOUN': 7878}	47		5.55608831509639
{'conseguire=VERB': 5737, 'diploma=NOUN': 2457}	385		11.631185627343061
{'spiegare=VERB': 25628, 'acqua=NOUN': 50726}	139		3.300016535513339
{'mostrare=VERB': 30349, 'progresso=NOUN': 4830}	61		5.269949254553636
{'presentare=VERB': 62890, 'caricatura=NOUN': 350}	5		4.396188912608308
{'determinare=VERB': 13944, 'interruzione=NOUN': 2135}	26		6.338573726362868
{'apparire=VERB': 20751, 'lettera=NOUN': 21413}	117		4.604475642512379
{'dire=VERB': 193971}	0	invalide: mot absent Conllst	n_a_abs
{'espellere=VERB': 1509}	0	invalide: mot absent Conllst	n_a_abs
{'assaporare=VERB': 1391, 'rosso=NOUN': 4370}	3		5.498885512451453
{'comprendere=VERB': 40547, 'attività=NOUN': 78120}	746		4.468095203599333
{'avere=VERB': 437934, 'orbita=NOUN': 3131}	166		3.5465577474290653
{'vedere=VERB': 200588, 'mancanza=NOUN': 9219}	271		3.788015844581615
{'garantire=VERB': 29943, 'libertà=NOUN': 14936}	337		6.15456256677634
{'presentare=VERB': 62890, 'maschera=NOUN': 3396}	36		3.9611042242913337
{'sguinzagliare=VERB': 39, 'comandante=NOUN': 4842}	0	invalide: coocc nulle dans Conllst	n_a
{'rendere=VERB': 62094, 'figura=NOUN': 15876}	238		4.490565128644602
{'annullare=VERB': 3629, 'gara=NOUN': 18254}	49		6.102060531720525
{'compiere=VERB': 12881, 'viaggio=NOUN': 47145}	371		5.856203698263861
{'fermare=VERB': 14163, 'ricorso=NOUN': 5574}	13		3.915938343818601
{'desiderare=VERB': 15636, 'candidato=NOUN': 8504}	17		3.5505510911875287
{'dedicare=VERB': 44254, 'trasmissione=NOUN': 9318}	166		5.232211362824843
{'contestare=VERB': 2064, 'reato=NOUN': 5732}	101		9.705333269822406
{'avviare=VERB': 10549, 'produzione=NOUN': 42504}	214		5.483328958260986
{'istituire=VERB': 6767}	0	invalide: mot absent Conllst	n_a_abs
{'presentare=VERB': 62890, 'aspetto=NOUN': 23334}	546		5.133949029134544
{'raggiungere=VERB': 46369, 'larghezza=NOUN': 2912}	59		5.350484561277879
{'conquistare=VERB': 9057, 'città=NOUN': 101217}	482		5.671904556478682
{'celebrare=VERB': 8646, 'processo=NOUN': 27694}	59		4.505637260913067
{'sentire=VERB': 44342, 'edicolante=NOUN': 54}	0	invalide: coocc nulle dans Conllst	n_a
{'ottenere=VERB': 54921, 'indipendenza=NOUN': 4753}	284		6.731561820123949
{'possedere=VERB': 12680}	0	invalide: mot absent Conllst	n_a_abs
{'ampliare=VERB': 4628, 'mercato=NOUN': 40006}	71		5.155654051136608
{'avviare=VERB': 10549, 'fase=NOUN': 24391}	143		5.694306888106181
{'divenire=VERB': 24665, 'repubblica=NOUN': 9397}	137		5.784235303242963
{'riguardare=VERB': 32211, 'scelta=NOUN': 32145}	352		4.988738399633597
{'dare=VERB': 123201, 'commento=NOUN': 49305}	514		2.9718159347256323
{'commemorare=VERB': 743, 'scomparsa=NOUN': 2550}	7		8.4166188993993
{'tradizione=NOUN': 21146}	0	invalide: mot absent Conllst	n_a_abs
{'battere=VERB': 8031}	0	invalide: mot absent Conllst	n_a_abs
{'lamentare=VERB': 3121}	0	invalide: mot absent Conllst	n_a_abs
{'coprire=VERB': 11565, 'superficie=NOUN': 13902}	313		7.547115016533419
{'uscire=VERB': 34011, 'raccolta=NOUN': 12506}	165		5.1735944906308236
{'attaccare=VERB': 10497}	0	invalide: mot absent Conllst	n_a_abs
{'contrastare=VERB': 3895, 'modello=NOUN': 43581}	26		3.8172856592915254
{'raffigurare=VERB': 4558, 'salto=NOUN': 4409}	4		4.187296800144415
{'agevolare=VERB': 2096, 'proliferazione=NOUN': 706}	0	invalide: coocc nulle dans Conllst	n_a
{'avere=VERB': 437934, 'superficie=NOUN': 13902}	1290		4.419689585280932
{'vedere=VERB': 200588}	0	invalide: mot absent Conllst	n_a_abs
{'prendere=VERB': 87082, 'dimensione=NOUN': 28342}	234		3.1306082110295232
{'riportare=VERB': 25005, 'motivo=NOUN': 26592}	114		3.982188590014239
{'raggiungere=VERB': 46369, 'attenzione=NOUN': 24036}	142		3.554079911781354
{'avere=VERB': 437934, 'elettrone=NOUN': 1877}	216		4.762550637622112
{'giocare=VERB': 29446, 'torneo=NOUN': 7201}	577		8.106848717094914
{'rompere=VERB': 4003, 'uovo=NOUN': 9624}	67		7.346374261958234
{'coltivare=VERB': 4842, 'prodotto=NOUN': 70425}	176		5.616412638589279
{'risultare=VERB': 23968}	0	invalide: mot absent Conllst	n_a_abs
{'stanziare=VERB': 1337, 'somma=NOUN': 7268}	42		8.679741180861214
{'dare=VERB': 123201, 'aiuto=NOUN': 19446}	793		4.987860352338969
{'ricevere=VERB': 49411}	0	invalide: mot absent Conllst	n_a_abs
{'fare=VERB': 493699, 'scherzo=NOUN': 1324}	299		5.755336969819262
{'prevedere=VERB': 49745, 'sciopero=NOUN': 3047}	62		5.25535810458023
{'produrre=VERB': 40229, 'miglioramento=NOUN': 7082}	62		4.328359582589599
{'raggiungere=VERB': 46369}	0	invalide: mot absent Conllst	n_a_abs
{'ottenere=VERB': 54921, 'specializzazione=NOUN': 2076}	29		4.559519003517312
{'recuperare=VERB': 9469, 'fascicolo=NOUN': 1132}	3		4.680735203298605
{'compilare=VERB': 5848, 'pagina=NOUN': 72419}	136		4.911455493371787
{'aggiungere=VERB': 46507, 'interprete=NOUN': 2704}	13		3.246897793029175
{'cambiare=VERB': 39486, 'carta=NOUN': 28331}	187		3.949291390735689
{'conseguire=VERB': 5737, 'promozione=NOUN': 14885}	31		5.0625100959216
{'elaborare=VERB': 5183, 'convenzione=NOUN': 5695}	11		5.095375899673075
{'importare=VERB': 4453, 'divisa=NOUN': 1309}	2		4.973184468841111
{'rifiutare=VERB': 7883, 'trasferimento=NOUN': 7555}	21		5.017578136496087
{'subire=VERB': 9840, 'gioco=NOUN': 50141}	70		3.7085942019328124
{'ottenere=VERB': 54921, 'trasferimento=NOUN': 7555}	119		4.737707463599141
{'togliere=VERB': 11499, 'ragnatela=NOUN': 279}	3		6.432735377574463
{'produrre=VERB': 40229}	0	invalide: mot absent Conllst	n_a_abs
{'avere=VERB': 437934, 'dovere=NOUN': 6107}	1042		5.427017525640003
{'favorire=VERB': 9972, 'espressione=NOUN': 10228}	36		5.021467661054344
{'incontrare=VERB': 19207, 'amore=NOUN': 31816}	238		5.181971258287675
{'rendere=VERB': 62094, 'multimedialità=NOUN': 158}	7		6.092088259896873
{'avere=VERB': 437934, 'visuale=NOUN': 82}	12		5.160506760775698
{'continuare=VERB': 48433, 'consultazione=NOUN': 2979}	9		2.515384830132799
{'colpire=VERB': 17531}	0	invalide: mot absent Conllst	n_a_abs
{'implicare=VERB': 3232, 'possesso=NOUN': 7260}	10		5.289563716479947
{'avere=VERB': 437934, 'applicazione=NOUN': 25602}	1453		3.6547255100706377
{'rimanere=VERB': 49781, 'produzione=NOUN': 42504}	235		3.3578652971283
{'vincere=VERB': 31488, 'battaglia=NOUN': 16843}	460		6.369436702530384
{'esistere=VERB': 42154, 'edificio=NOUN': 22562}	358		5.139348221283608
{'rappresentare=VERB': 37331, 'sintesi=NOUN': 5191}	93		5.48409686374582
{'seguire=VERB': 55244, 'durata=NOUN': 12375}	96		3.6951777831781167
{'battere=VERB': 8031, 'primato=NOUN': 2313}	39		7.615186492266395
{'causare=VERB': 13750, 'sospensione=NOUN': 4792}	29		5.341369831924325
{'fissare=VERB': 7961, 'anidride=NOUN': 698}	7		6.862489854952948
{'rintuzzare=VERB': 47, 'attacco=NOUN': 17418}	2		7.865162891570932
{'istituire=VERB': 6767, 'esercito=NOUN': 12482}	28		4.929856227789884
{'sostenere=VERB': 24688, 'crescita=NOUN': 14197}	190		5.660760561510108
{'regalare=VERB': 8607, 'piano=NOUN': 49889}	32		2.7737122691297422
{'commentare=VERB': 7234, 'discussione=NOUN': 13917}	38		5.119473719124636
{'togliere=VERB': 11499, 'gesso=NOUN': 1016}	21		7.392322728369293
{'trovare=VERB': 190104, 'tubazione=NOUN': 549}	11		3.296765054686897
{'mettere=VERB': 88156, 'specie=NOUN': 17962}	188		3.4575585674205134
{'trascorrere=VERB': 9865, 'periodo=NOUN': 52320}	479		6.49092285352771
{'impegnare=VERB': 14261, 'reparto=NOUN': 3950}	38		5.963440360132613
{'accelerare=VERB': 2569, 'sviluppo=NOUN': 35258}	118		6.967803389688076
{'comprare=VERB': 24697, 'cammello=NOUN': 504}	2		3.8816667778722347
{'impegnare=VERB': 14261, 'persona=NOUN': 108976}	448		4.771049757310553
{'provare=VERB': 38488}	0	invalide: mot absent Conllst	n_a_abs
{'avere=VERB': 437934, 'dato=NOUN': 48293}	2837		3.7121314552268982
{'determinare=VERB': 13944, 'sospensione=NOUN': 4792}	36		5.635906330057842
{'fare=VERB': 493699, 'pubblicità=NOUN': 8347}	1039		4.720627884670906
{'sbarcare=VERB': 2060}	0	invalide: mot absent Conllst	n_a_abs
{'essere=VERB': 255757}	0	invalide: mot absent Conllst	n_a_abs
{'sapere=VERB': 102200, 'motivazione=NOUN': 3030}	90		4.775629700802821
{}	0	invalide: mot absent Conllst	n_a_abs
{'rielaborare=VERB': 654, 'progetto=NOUN': 76332}	19		5.162815189706985
{'automatismo=NOUN': 259}	0	invalide: mot absent Conllst	n_a_abs
{'fare=VERB': 493699, 'tifo=NOUN': 587}	211		6.698996539156875
{'spaccare=VERB': 1149, 'testa=NOUN': 20805}	47		7.552442194607019
{'salvare=VERB': 15161}	0	invalide: mot absent Conllst	n_a_abs
{'causare=VERB': 13750, 'riduzione=NOUN': 9319}	89		6.010984704639191
{'accompagnare=VERB': 16084, 'signorina=NOUN': 700}	2		4.024899239289427
{'creare=VERB': 57098, 'possibilità=NOUN': 34470}	701		5.07166967600601
{'rendere=VERB': 62094}	0	invalide: mot absent Conllst	n_a_abs
{'uscire=VERB': 34011}	0	invalide: mot absent Conllst	n_a_abs
{'ammortizzare=VERB': 312, 'capitale=NOUN': 14439}	2		5.3515339130662385
{'oltrepassare=VERB': 930, 'limite=NOUN': 16288}	91		9.256970317677274
{'essere=VERB': 255757, 'serie=NOUN': 62539}	1557		3.1979945582764637
{'sistemare=VERB': 1694}	0	invalide: mot absent Conllst	n_a_abs
{'fare=VERB': 493699, 'esperienza=NOUN': 46622}	4010		4.134049792441929
{'mandare=VERB': 11505}	0	invalide: mot absent Conllst	n_a_abs
{'numero=NOUN': 156249}	0	invalide: mot absent Conllst	n_a_abs
{'superare=VERB': 17839, 'concetto=NOUN': 11598}	62		4.787758282416513
{'chiedere=VERB': 58139, 'grazia=NOUN': 4189}	144		5.809501790047367
{'servire=VERB': 43079, 'conferenza=NOUN': 11200}	61		3.539894085223649
{'fare=VERB': 493699, 'bis=NOUN': 3506}	155		3.0980709314289063
{'creare=VERB': 57098, 'sollevamento=NOUN': 912}	8		3.824012275791085
{'rifiutare=VERB': 7883, 'funerale=NOUN': 1637}	15		6.746692929201529
{'ospitare=VERB': 15276}	0	invalide: mot absent Conllst	n_a_abs
{'spendere=VERB': 7544, 'soldo=NOUN': 13451}	966		10.06967956527361
{'chiedere=VERB': 58139}	0	invalide: mot absent Conllst	n_a_abs
{'utilizzare=VERB': 85074, 'forza=NOUN': 37212}	453		3.733970906575797
{'dare=VERB': 123201, 'registratore=NOUN': 645}	41		5.654114698449638
{'incoraggiare=VERB': 3864, 'scontro=NOUN': 6973}	4		3.7640206084034067
{'proporre=VERB': 34000}	0	invalide: mot absent Conllst	n_a_abs
{'vedere=VERB': 200588, 'riconoscimento=NOUN': 9093}	134		2.769197196895491
{'avere=VERB': 437934, 'marito=NOUN': 10751}	2008		5.58904882280178
{'iniziare=VERB': 54372, 'sondaggio=NOUN': 3547}	22		3.3911733417505583
{'lasciare=VERB': 59503, 'posto=NOUN': 59913}	1286		5.105386116420115
{'dominare=VERB': 7348, 'scena=NOUN': 16765}	139		6.727345822758726
{'comportare=VERB': 11055, 'salto=NOUN': 4409}	11		4.370966237283073
{'depredare=VERB': 216, 'paese=NOUN': 65596}	12		6.356622564203696
{'produrre=VERB': 40229, 'litro=NOUN': 3521}	70		5.528190213888691
{'evacuare=VERB': 534, 'stazione=NOUN': 25779}	6		5.332137203951083
{'uccidere=VERB': 19174, 'scrittore=NOUN': 20304}	28		2.7202557595564723
{'avere=VERB': 437934}	0	invalide: mot absent Conllst	n_a_abs
{'applicare=VERB': 18230, 'documento=NOUN': 21668}	90		4.392834409500103
{'elencare=VERB': 5295, 'azione=NOUN': 30695}	18		3.344694629720342
{'caldaia=NOUN': 1360}	0	invalide: mot absent Conllst	n_a_abs
{'depositare=VERB': 3632, 'pallone=NOUN': 1937}	3		5.287375759853794
{'significare=VERB': 17642, 'concessione=NOUN': 4290}	6		2.859125654443966
{'festeggiare=VERB': 5636, 'incasso=NOUN': 1649}	1		3.298441257846011
{'attirare=VERB': 4149}	0	invalide: mot absent Conllst	n_a_abs
{'educare=VERB': 1797, 'zingaro=NOUN': 461}	0	invalide: coocc nulle dans Conllst	n_a
{'volere=VERB': 43237, 'premio=NOUN': 23741}	82		2.8753521075423296
{'parlare=VERB': 65408, 'settimana=NOUN': 47165}	477		3.8456031601962644
{'ritrovare=VERB': 15006, 'equilibrio=NOUN': 6111}	123		6.978419936755802
{'mettere=VERB': 88156, 'seme=NOUN': 1328}	44		5.151092918452928
{'fare=VERB': 493699, 'meraviglia=NOUN': 5538}	384		3.786477729156391
{'coordinare=VERB': 3476, 'funzione=NOUN': 32452}	40		5.036315028607588
{'procurare=VERB': 2525, 'sistema=NOUN': 74415}	20		3.2935568445807895
{'vestire=VERB': 6427, 'ruolo=NOUN': 28199}	26		3.719474228238091
{'rimborsare=VERB': 1094, 'acquisto=NOUN': 31516}	40		6.7834460303528195
{'incrociare=VERB': 1088, 'risposta=NOUN': 28256}	4		3.57692725757098
{'alterare=VERB': 2406, 'caratteristica=NOUN': 21741}	40		6.153361512306581
{'respingere=VERB': 3167, 'rigore=NOUN': 2249}	11		7.1526974877362575
{'smascherare=VERB': 554, 'traditore=NOUN': 601}	5		10.447238915508816
{'rappresentare=VERB': 37331}	0	invalide: mot absent Conllst	n_a_abs
{'sciogliere=VERB': 5194, 'gruppo=NOUN': 63867}	184		5.71948806807231
{'rimanere=VERB': 49781, 'motivo=NOUN': 26592}	298		4.3872188423645335
{'costringere=VERB': 14513, 'portiere=NOUN': 1723}	6		4.45996827161036
{'rigettare=VERB': 793, 'domanda=NOUN': 37026}	41		7.0734521776942225
{'devastare=VERB': 872, 'ambiente=NOUN': 32365}	8		4.708463944803217
{'pagare=VERB': 26183, 'operaio=NOUN': 4064}	59		5.687110009245219
{'escludere=VERB': 9503, 'possibilità=NOUN': 34470}	315		6.519005385353028
{'accendere=VERB': 4865}	0	invalide: mot absent Conllst	n_a_abs
{'annunciare=VERB': 15220, 'ritiro=NOUN': 4463}	230		8.371454194879545
{'incarnare=VERB': 1078, 'personaggio=NOUN': 26973}	51		7.396848586344612
{'rivendicare=VERB': 1346, 'potere=NOUN': 24274}	28		6.32290281023375
{'chiudere=VERB': 24854, 'rubinetto=NOUN': 780}	85		8.817415445300792
{'costituire=VERB': 31831, 'tributo=NOUN': 1980}	17		4.63638590982536
{'continuare=VERB': 48433, 'autore=NOUN': 34236}	202		3.4909909606006693
{'estendere=VERB': 9579, 'conoscenza=NOUN': 19965}	27		3.6952089825742886
{'ridare=VERB': 922, 'euro=NOUN': 41838}	8		4.256840947499346
{'firmare=VERB': 11886, 'verbale=NOUN': 1236}	24		7.252870540886653
{'attendere=VERB': 11768, 'esito=NOUN': 4030}	49		6.584374520901425
{'democrazia=NOUN': 5673}	0	invalide: mot absent Conllst	n_a_abs
{'proseguire=VERB': 11392, 'manifestazione=NOUN': 14969}	51		4.783540274631459
{'rompere=VERB': 4003, 'cordialità=NOUN': 945}	0	invalide: coocc nulle dans Conllst	n_a
{'avere=VERB': 437934, 'miliardo=NOUN': 11093}	631		3.655493100280912
{'rivolgere=VERB': 18180, 'saluto=NOUN': 2960}	190		8.444419461344367
{'istruire=VERB': 422, 'giovane=NOUN': 21614}	13		7.070813883458936
{'attestare=VERB': 4351, 'orientamento=NOUN': 4400}	9		5.430588851789439
{'trattare=VERB': 50853, 'storia=NOUN': 70436}	789		4.3697636363136
{'perdonare=VERB': 2027, 'schiavo=NOUN': 1939}	0	invalide: coocc nulle dans Conllst	n_a
{'prospettare=VERB': 987, 'vita=NOUN': 104505}	21		4.248657215307619
{'sentire=VERB': 44342}	0	invalide: mot absent Conllst	n_a_abs
{'elogiare=VERB': 574}	0	invalide: mot absent Conllst	n_a_abs
{'dare=VERB': 123201, 'rendiconto=NOUN': 453}	6		3.3153889812802864
{'complicare=VERB': 961, 'vita=NOUN': 104505}	118		6.936813379283954
{'posto=NOUN': 59913}	0	invalide: mot absent Conllst	n_a_abs
{'rilevare=VERB': 9742, 'aspetto=NOUN': 23334}	86		5.129377486403048
{'conservare=VERB': 16534, 'presenza=NOUN': 31153}	109		4.287693415362788
{'tutelare=VERB': 3271, 'zona=NOUN': 57487}	38		4.224417241389255
{'dare=VERB': 123201, 'bellezza=NOUN': 10861}	232		4.019469286270781
{'svolgere=VERB': 31449, 'istruttoria=NOUN': 413}	4		4.828641632008899
{'controllare=VERB': 16791}	0	invalide: mot absent Conllst	n_a_abs
{'sapere=VERB': 102200, 'verità=NOUN': 15382}	568		5.1072199805866
{'assumere=VERB': 22032, 'psicologo=NOUN': 1948}	5		3.416014191418304
{'costituire=VERB': 31831, 'mezzo=NOUN': 34168}	277		4.564733978259502
{'criticare=VERB': 2638, 'tentativo=NOUN': 10200}	11		5.230647968980447
{'fare=VERB': 493699, 'mucchio=NOUN': 765}	102		4.831727861456065
{'chiedere=VERB': 58139, 'passo=NOUN': 23785}	190		3.6663075923432427
{'servire=VERB': 43079, 'soldo=NOUN': 13451}	254		5.359738354370975
{'distinguere=VERB': 9214, 'caso=NOUN': 104896}	219		4.409436216072973
{'considerare=VERB': 44025}	0	invalide: mot absent Conllst	n_a_abs
{'suscitare=VERB': 3582, 'polemica=NOUN': 3262}	96		9.634301786547104
{'ricevere=VERB': 49411, 'premio=NOUN': 23741}	1523		7.031024008185218
{'assorbire=VERB': 3434, 'anidride=NOUN': 698}	14		9.094863477487259
{'seguire=VERB': 55244}	0	invalide: mot absent Conllst	n_a_abs
{'considerare=VERB': 44025, 'dialetto=NOUN': 4733}	73		5.025210804351332
{'trovare=VERB': 190104, 'comprensione=NOUN': 4222}	137		4.0116641021353034
{'includere=VERB': 30163, 'norma=NOUN': 16838}	73		3.724804890066985
{'volere=VERB': 43237, 'soluzione=NOUN': 31589}	175		3.56310505068941
{'contenere=VERB': 34855, 'ossigeno=NOUN': 2043}	56		6.2093622166229965
{'utilizzare=VERB': 85074, 'composizione=NOUN': 8809}	127		3.975739282167074
{'presentare=VERB': 62890, 'malformazione=NOUN': 441}	12		5.3450026341410775
{'installare=VERB': 11779, 'pannello=NOUN': 4376}	60		6.7599912789980685
{'presentare=VERB': 62890, 'anomalia=NOUN': 1686}	64		5.8425094666895525
{'vendere=VERB': 24310, 'magazzino=NOUN': 3575}	72		6.27570836952397
{'chiamare=VERB': 54574}	0	invalide: mot absent Conllst	n_a_abs
{'chiamare=VERB': 54574, 'ione=NOUN': 1109}	17		4.704370685762121
{'divenire=VERB': 24665}	0	invalide: mot absent Conllst	n_a_abs
{'raccogliere=VERB': 20966, 'adesione=NOUN': 3808}	95		6.807415582476705
{'realizzare=VERB': 49895, 'insediamento=NOUN': 4616}	39		3.9648778042887303
{'ledere=VERB': 228, 'principio=NOUN': 17710}	8		7.552157219526903
{'dire=VERB': 193971, 'gente=NOUN': 18664}	1338		5.194857731597537
{'rubare=VERB': 4979, 'bicicletta=NOUN': 4439}	18		6.228494420684381
{'appartenere=VERB': 19645, 'cedro=NOUN': 341}	1		3.7739496367558014
{'giustificare=VERB': 2800}	0	invalide: mot absent Conllst	n_a_abs
{'servire=VERB': 43079, 'ponte=NOUN': 9230}	69		3.9999922521885583
{'sostituire=VERB': 17377, 'sistema=NOUN': 74415}	338		4.612730016454764
{'seguire=VERB': 55244, 'passo=NOUN': 23785}	622		5.489183432541984
{'perdere=VERB': 42342, 'sacco=NOUN': 6590}	104		5.116214186569793
{'funzionare=VERB': 22456, 'colpa=NOUN': 7029}	32		4.219864874741564
{'agitare=VERB': 420, 'vicenda=NOUN': 10212}	0	invalide: coocc nulle dans Conllst	n_a
{'dichiarare=VERB': 19239, 'neutralità=NOUN': 459}	19		7.681388764346626
{'includere=VERB': 30163, 'concetto=NOUN': 11598}	78		4.361934066304171
{'incontrare=VERB': 19207, 'favore=NOUN': 15578}	98		4.919769011528745
{'fare=VERB': 493699, 'accesso=NOUN': 31231}	909		2.4745874150774285
{'occupare=VERB': 24351, 'trono=NOUN': 3975}	45		5.427656308864926
{'acquistare=VERB': 51232, 'gas=NOUN': 8640}	35		2.859693565720688
{'attestare=VERB': 4351}	0	invalide: mot absent Conllst	n_a_abs
{'impiegare=VERB': 9218, 'strumento=NOUN': 32113}	100		4.9681259154946105
{'rendere=VERB': 62094, 'mondo=NOUN': 98084}	1490		4.539466940498023
{'fermare=VERB': 14163, 'legge=NOUN': 57699}	102		3.5244493929666523
{'cambiare=VERB': 39486, 'morfologia=NOUN': 804}	6		4.121024875243863
{'propagandare=VERB': 95, 'introduzione=NOUN': 7164}	0	invalide: coocc nulle dans Conllst	n_a
{'attribuire=VERB': 11882, 'mancanza=NOUN': 9219}	36		4.9182044804879785
{'esprimere=VERB': 17864, 'giudizio=NOUN': 10735}	554		8.165974089311291
{'dire=VERB': 193971, 'pizza=NOUN': 4607}	165		4.130216506808102
{'poggiare=VERB': 1107, 'piattaforma=NOUN': 9729}	14		6.912420636001806
{'favorire=VERB': 9972, 'crescita=NOUN': 14197}	296		7.651498941962781
{'conservare=VERB': 16534, 'denominazione=NOUN': 4890}	33		5.23342019098939
{'raccogliere=VERB': 20966, 'pallone=NOUN': 1937}	11		4.63817440986467
{'caratterizzare=VERB': 17696, 'città=NOUN': 101217}	350		4.1919426687967904
{'destinare=VERB': 13486, 'milione=NOUN': 34347}	263		5.736491725354534
{'escludere=VERB': 9503}	0	invalide: mot absent Conllst	n_a_abs
{'riscontrare=VERB': 4186, 'foce=NOUN': 1005}	1		4.442586218700335
{'facilitare=VERB': 4511, 'convergenza=NOUN': 772}	3		6.304992592675921
{'ricevere=VERB': 49411, 'diploma=NOUN': 2457}	59		5.509347855105907
{'permettere=VERB': 48908, 'interazione=NOUN': 4347}	94		5.3704580362393255
{'incontrare=VERB': 19207, 'esecutivo=NOUN': 884}	0	invalide: coocc nulle dans Conllst	n_a
{'ricevere=VERB': 49411, 'insegnamento=NOUN': 7768}	101		4.609314065946406
{'fare=VERB': 493699, 'gioco=NOUN': 50141}	4767		4.295155057288352
{'dominare=VERB': 7348, 'porto=NOUN': 7760}	22		5.148018299574335
{'avere=VERB': 437934, 'cittadinanza=NOUN': 3642}	303		4.243759874663056
{'guidare=VERB': 18321, 'veicolo=NOUN': 9659}	137		6.175742880675154
{'maneggiare=VERB': 536, 'elemento=NOUN': 29520}	7		5.356309732134573
{'ricoprire=VERB': 6921}	0	invalide: mot absent Conllst	n_a_abs
{'continuare=VERB': 48433, 'sviluppo=NOUN': 35258}	315		4.0973447856328695
{'gestire=VERB': 20061, 'parte=NOUN': 214162}	761		4.077373685445902
{'dipendere=VERB': 10787, 'fine=NOUN': 75015}	88		3.3261868920109348
{'fornire=VERB': 40789, 'accesso=NOUN': 31231}	675		5.652899083513301
{'fecondare=VERB': 248, 'donna=NOUN': 63997}	21		7.045667443019767
{'trasmettere=VERB': 12781, 'gene=NOUN': 2014}	23		6.37031156724591
{'sostenere=VERB': 24688, 'autonomia=NOUN': 5339}	47		5.041360000158504
{'prevedere=VERB': 49745, 'esenzione=NOUN': 1243}	125		7.685587377127917
{'conquistare=VERB': 9057, 'punto=NOUN': 91115}	379		5.458661406478816
{'giustificare=VERB': 2800, 'proprietà=NOUN': 20658}	14		4.475082144261115
{'implicare=VERB': 3232, 'giudizio=NOUN': 10735}	16		5.406207289603458
{'rubare=VERB': 4979, 'tempo=NOUN': 140919}	142		4.2519398554999
{'dirottare=VERB': 448, 'locomotiva=NOUN': 617}	0	invalide: coocc nulle dans Conllst	n_a
{'bloccare=VERB': 9040, 'pallone=NOUN': 1937}	11		5.8528308142542125
{'danneggiare=VERB': 4944, 'cuore=NOUN': 35203}	26		3.7793805483857406
{'necessitare=VERB': 3830, 'intervento=NOUN': 26630}	98		6.498672442814881
{'avere=VERB': 437934, 'requisito=NOUN': 6762}	662		4.503064114371013
{'misurare=VERB': 7701, 'linguaggio=NOUN': 10406}	12		3.7780605731293333
{'affermare=VERB': 18047, 'principio=NOUN': 17710}	311		6.524802625619416
{'sfruttare=VERB': 10445, 'lavoratore=NOUN': 15397}	47		4.749761056740221
{'negare=VERB': 5723, 'atto=NOUN': 23342}	51		5.140440242224524
{'agitare=VERB': 420, 'vita=NOUN': 104505}	7		3.889382825636572
{'proporre=VERB': 34000, 'commissione=NOUN': 16324}	250		5.395884716474447
{'passare=VERB': 60666, 'anno=NOUN': 306017}	5536		4.93230568291253
{'raggiungere=VERB': 46369}	0	invalide: mot absent Conllst	n_a_abs
{'sostenere=VERB': 24688, 'palla=NOUN': 4517}	13		3.4178278219185536
{'studiare=VERB': 16532, 'animale=NOUN': 18464}	89		4.750232561486958
{'dare=VERB': 123201}	0	invalide: mot absent Conllst	n_a_abs
{'ricostruire=VERB': 4558, 'città=NOUN': 101217}	177		5.191135712173946
{'costituire=VERB': 31831, 'accesso=NOUN': 31231}	222		4.371110391624458
{'sensibilizzare=VERB': 926, 'educazione=NOUN': 6986}	8		6.834193454480631
{'descrivere=VERB': 18089, 'algoritmo=NOUN': 2471}	28		5.857468300276132
{'oltrepassare=VERB': 930, 'membrana=NOUN': 1867}	0	invalide: coocc nulle dans Conllst	n_a
{'sormontare=VERB': 1348, 'cima=NOUN': 4732}	30		8.78883879703626
{'scagliare=VERB': 838, 'tiro=NOUN': 3732}	6		7.46625250372724
{'organizzare=VERB': 25339, 'comitato=NOUN': 9985}	313		6.884421900161926
{'fanciullo=NOUN': 803}	0	invalide: mot absent Conllst	n_a_abs
{'servire=VERB': 43079, 'umiltà=NOUN': 1155}	21		5.296260489021525
{'evitare=VERB': 22811}	0	invalide: mot absent Conllst	n_a_abs
{'volere=VERB': 43237, 'lavoro=NOUN': 120435}	674		3.594635593289434
{'sgozzare=VERB': 158, 'figlio=NOUN': 54053}	6		6.060249747659793
{'eleggere=VERB': 7994, 'cardinale=NOUN': 6714}	130		7.841713266355061
{'temere=VERB': 4684}	0	invalide: mot absent Conllst	n_a_abs
{'inaugurare=VERB': 6647, 'sviluppo=NOUN': 35258}	28		3.4555821922956054
{'stravolgere=VERB': 478, 'senso=NOUN': 39107}	24		6.949302101550535
{'vestire=VERB': 6427, 'immigrato=NOUN': 2016}	1		2.8188722912020716
{'intaccare=VERB': 541}	0	invalide: mot absent Conllst	n_a_abs
{'sfruttare=VERB': 10445, 'tracciato=NOUN': 1667}	5		4.718531016748583
{'tradire=VERB': 2253, 'menefreghismo=NOUN': 70}	0	invalide: coocc nulle dans Conllst	n_a
{'piantare=VERB': 1982, 'patata=NOUN': 584}	0	invalide: coocc nulle dans Conllst	n_a
{'combattere=VERB': 9886}	0	invalide: mot absent Conllst	n_a_abs
{'autorizzare=VERB': 7265, 'centrale=NOUN': 3712}	14		5.576002834255482
{'abbracciare=VERB': 3282, 'provincia=NOUN': 51544}	21		3.513431398699509
{'revocare=VERB': 1089, 'permesso=NOUN': 4781}	22		8.628786098741193
{'usare=VERB': 86789, 'magazzino=NOUN': 3575}	60		4.168496447073151
{'definire=VERB': 27185, 'pericolo=NOUN': 7415}	26		3.565275245229709
{'accumulare=VERB': 2861, 'credito=NOUN': 14147}	26		5.890893739989904
{'costituire=VERB': 31831}	0	invalide: mot absent Conllst	n_a_abs
{'vedere=VERB': 200588, 'tutto=NOUN': 3071}	93		3.8309657193787823
{'fondere=VERB': 2135, 'melodia=NOUN': 1161}	4		7.211653653198621
{'amare=VERB': 22660, 'arte=NOUN': 39192}	193		4.33092933143979
{'gestire=VERB': 20061, 'controller=NOUN': 590}	12		6.563935838738973
{'assorbire=VERB': 3434, 'raggio=NOUN': 8332}	34		6.782737548442438
{'redigere=VERB': 1970}	0	invalide: mot absent Conllst	n_a_abs
{'avere=VERB': 437934}	0	invalide: mot absent Conllst	n_a_abs
{'vivere=VERB': 50432, 'presenza=NOUN': 31153}	213		3.64672004360523
{'mostrare=VERB': 30349, 'video=NOUN': 28885}	690		6.236260173832117
{'dominare=VERB': 7348, 'modo=NOUN': 108481}	142		4.054712709235271
{'sponsorizzare=VERB': 1152, 'ciclismo=NOUN': 2068}	1		5.263146888531136
{'promuovere=VERB': 16394, 'interesse=NOUN': 33343}	184		4.966994287101925
{'scrivere=VERB': 98676, 'giorno=NOUN': 155826}	1755		3.4246395148979953
{'essere=VERB': 255757, 'ammasso=NOUN': 1279}	41		3.564715179070351
{'rivelare=VERB': 15292, 'personaggio=NOUN': 26973}	133		4.900440099163348
{'pensare=VERB': 66790, 'parola=NOUN': 46682}	688		4.369842081445012
{'danneggiare=VERB': 4944, 'struttura=NOUN': 70444}	103		4.788474603736638
{'coltivare=VERB': 4842, 'discarica=NOUN': 1118}	6		6.671564578837339
{'conoscere=VERB': 56859}	0	invalide: mot absent Conllst	n_a_abs
{'consegnare=VERB': 9283, 'medaglia=NOUN': 5920}	54		6.509909207418206
{'coprire=VERB': 11565, 'arco=NOUN': 8056}	94		6.555111830390517
{'raggiungere=VERB': 46369, 'massimo=NOUN': 10694}	290		5.788378298656935
{'avere=VERB': 437934, 'supporto=NOUN': 13427}	958		4.005770859706896
{'affondare=VERB': 2053, 'lingua=NOUN': 29892}	13		4.284383717468976
{'sperare=VERB': 17403, 'podio=NOUN': 1653}	8		4.674884752958957
{'emergere=VERB': 9070, 'mattino=NOUN': 4896}	3		2.627191043789146
{'richiedere=VERB': 43019, 'atmosfera=NOUN': 9204}	16		1.8874568497153095
{'perseguire=VERB': 2689, 'strategia=NOUN': 8937}	37		7.162140364864054
{'riempire=VERB': 5889, 'città=NOUN': 101217}	66		3.355837838823191
{'incrementare=VERB': 2672, 'potenza=NOUN': 14171}	37		6.504125605528487
{'ricevere=VERB': 49411, 'lettera=NOUN': 21413}	533		5.576401677967659
{'usare=VERB': 86789, 'ragione=NOUN': 21673}	253		3.640451579762695
{'studiare=VERB': 16532, 'uomo=NOUN': 85530}	205		3.748968783512867
{'esprimere=VERB': 17864, 'dramma=NOUN': 2550}	14		4.820521118203185
{'riassumere=VERB': 2523, 'conoscenza=NOUN': 19965}	16		4.869366590611181
{'bloccare=VERB': 9040, 'afflusso=NOUN': 648}	9		7.1547245301690285
{'presentare=VERB': 62890}	0	invalide: mot absent Conllst	n_a_abs
{'sfoggiare=VERB': 729, 'azione=NOUN': 30695}	2		3.033708081799484
{'causare=VERB': 13750, 'tragedia=NOUN': 3204}	24		5.650669491294668
{'precedere=VERB': 4159, 'colpo=NOUN': 12797}	10		4.106131625050622
{'costringere=VERB': 14513, 'distruzione=NOUN': 4176}	24		5.1878430463187435
{'installare=VERB': 11779, 'nuovo=NOUN': 2594}	9		4.756291416403022
{'chiudere=VERB': 24854, 'giorno=NOUN': 155826}	638		3.95522385496262
{'regolare=VERB': 5910, 'atletica=NOUN': 1146}	3		5.343284595972781
{'polarizzare=VERB': 159, 'fenomeno=NOUN': 11784}	5		7.976353790629605
{'prendere=VERB': 87082, 'comando=NOUN': 11215}	379		5.203856747681353
{'bloccare=VERB': 9040, 'progetto=NOUN': 76332}	68		3.1826760351853776
{'costruire=VERB': 34355, 'sistema=NOUN': 74415}	523		4.256577413923081
{'costituire=VERB': 31831, 'articolazione=NOUN': 1790}	21		5.091548018750239
{'ingerire=VERB': 546}	0	invalide: mot absent Conllst	n_a_abs
{'battere=VERB': 8031, 'mare=NOUN': 38031}	20		2.585173787260974
{'considerare=VERB': 44025, 'vernacolo=NOUN': 112}	1		4.224723200409346
{'funzionare=VERB': 22456, 'manifestazione=NOUN': 14969}	12		1.7075287680800268
{'rendere=VERB': 62094, 'informatica=NOUN': 1521}	16		3.967799450693311
{'maturare=VERB': 2876, 'cemento=NOUN': 3840}	1		3.0492805945227643
{'leggere=VERB': 51992, 'cartello=NOUN': 2001}	34		4.925765000781079
{'affermare=VERB': 18047, 'necessità=NOUN': 13401}	96		5.1986466965585505
{'girare=VERB': 13875, 'mondo=NOUN': 98084}	434		4.9170076318178655
{'controllare=VERB': 16791}	0	invalide: mot absent Conllst	n_a_abs
{'ritirare=VERB': 8289}	0	invalide: mot absent Conllst	n_a_abs
{'sentire=VERB': 44342, 'vuoto=NOUN': 2732}	73		5.824289013042479
{'occhio=NOUN': 28173}	0	invalide: mot absent Conllst	n_a_abs
{'morire=VERB': 29004, 'gente=NOUN': 18664}	172		4.881409491741431
{'fare=VERB': 493699}	0	invalide: mot absent Conllst	n_a_abs
{'prestare=VERB': 7125, 'soldo=NOUN': 13451}	171		7.402399317012796
{'usare=VERB': 86789}	0	invalide: mot absent Conllst	n_a_abs
{'scoppiare=VERB': 2609, 'cuore=NOUN': 35203}	31		4.96516168870334
{'vedere=VERB': 200588, 'candidato=NOUN': 8504}	147		3.0032264894623832
{'apparire=VERB': 20751, 'usciere=NOUN': 2}	0	invalide: coocc nulle dans Conllst	n_a
{'sostituire=VERB': 17377, 'riga=NOUN': 5518}	26		4.639734295674127
{'morire=VERB': 29004, 'zio=NOUN': 4242}	116		6.47441186438126
{'cancellare=VERB': 6807, 'diritto=NOUN': 54372}	157		5.314219357969991
{'valutare=VERB': 13459, 'quantità=NOUN': 13486}	49		4.634906455835331
{'offrire=VERB': 84867, 'risoluzione=NOUN': 7360}	123		4.195656522677443
{'assorbire=VERB': 3434, 'nitroglicerina=NOUN': 69}	1		8.612424696881217
{'proporre=VERB': 34000, 'norma=NOUN': 16838}	123		4.310781949854706
{'vedere=VERB': 200588, 'fase=NOUN': 24391}	526		3.3313643128492356
{'affidare=VERB': 12013, 'lavoro=NOUN': 120435}	464		4.935316171261195
{'osservare=VERB': 14597, 'territorio=NOUN': 43698}	79		3.5106982524102617
{'ricordare=VERB': 43609, 'alleanza=NOUN': 3661}	36		4.380154576000562
{'aiutare=VERB': 38948, 'parte=NOUN': 214162}	1141		3.6942228659519816
{'consolare=VERB': 1026, 'lupo=NOUN': 3337}	0	invalide: coocc nulle dans Conllst	n_a
{'fare=VERB': 493699, 'anatema=NOUN': 54}	6		4.531887016187497
{'comprendere=VERB': 40547, 'valore=NOUN': 39217}	521		4.9417345932327565
{'registrare=VERB': 25677, 'media=NOUN': 11539}	136		5.414951319603776
{'aumentare=VERB': 22509, 'contenzioso=NOUN': 180}	5		6.857964825829147
{'combinare=VERB': 5157}	0	invalide: mot absent Conllst	n_a_abs
{'sparire=VERB': 2388, 'testimonianza=NOUN': 8549}	1		2.1627876363472254
{'avere=VERB': 437934, 'pazienza=NOUN': 3083}	730		6.018661653839967
{'insediare=VERB': 1616, 'azienda=NOUN': 47249}	40		5.618243652450614
{'lavorare=VERB': 40701, 'carcerato=NOUN': 230}	5		5.64068920489651
{'vedere=VERB': 200588, 'fenomeno=NOUN': 11784}	352		3.812441246660087
{'ridurre=VERB': 24566}	0	invalide: mot absent Conllst	n_a_abs
{'contrastare=VERB': 3895, 'bonifica=NOUN': 1287}	3		5.777378698906555
{'ritirare=VERB': 8289, 'apparecchio=NOUN': 3548}	3		3.2220741637038834
{'sparire=VERB': 2388, 'sindaco=NOUN': 11160}	4		3.7804409405983392
{'partire=VERB': 49382, 'diagonale=NOUN': 580}	14		5.516549780068445
{'sfiorare=VERB': 1342, 'pallone=NOUN': 1937}	5		7.466406646047049
{'essere=VERB': 255757, 'ecologista=NOUN': 103}	5		4.187973934425009
{'trasformare=VERB': 16608, 'sistema=NOUN': 74415}	235		4.143884910853409
{'occorrere=VERB': 11617, 'algoritmo=NOUN': 2471}	5		3.9957838339466747
{'ridurre=VERB': 24566, 'incidenza=NOUN': 1606}	59		7.151620979515511
{'produrre=VERB': 40229, 'tappeto=NOUN': 2203}	16		4.055029826334466
{'formare=VERB': 27431, 'lista=NOUN': 18936}	60		3.4074062954548228
{'revocare=VERB': 1089, 'stato=NOUN': 55187}	26		5.340294525802105
{'disegnare=VERB': 6451, 'modello=NOUN': 43581}	120		5.316380845858929
{'mostrare=VERB': 30349, 'scarpa=NOUN': 7540}	32		3.6830893661327666
{'trovare=VERB': 190104, 'motivazione=NOUN': 3030}	112		4.206153287568724
{'rimuovere=VERB': 7812, 'presidente=NOUN': 40919}	42		3.594758520556221
{'preservare=VERB': 1471, 'fiducia=NOUN': 9110}	9		5.949529726398922
{'sconfiggere=VERB': 8366, 'depressione=NOUN': 3610}	9		4.772115376817433
{'chiudere=VERB': 24854, 'strada=NOUN': 44837}	235		4.289353301881503
{'consentire=VERB': 35696, 'collegamento=NOUN': 49614}	228		3.5719868315926537
{'conoscere=VERB': 56859, 'punto=NOUN': 91115}	716		3.6881197284291987
{'assicurare=VERB': 15288, 'fonte=NOUN': 19279}	54		4.0743260241470685
{'morire=VERB': 29004, 'dittatore=NOUN': 941}	14		5.572803360572127
{'festeggiare=VERB': 5636, 'evento=NOUN': 47493}	207		6.20303238248291
{'distribuire=VERB': 12918, 'sostanza=NOUN': 12391}	18		3.365075513269812
{'incentivare=VERB': 1044, 'installazione=NOUN': 9505}	9		6.386547409502531
{'includere=VERB': 30163, 'supporto=NOUN': 13427}	203		5.548856584635562
{'variare=VERB': 8861, 'schema=NOUN': 6558}	20		4.982442267363753
{'esporre=VERB': 10275, 'cartello=NOUN': 2001}	38		7.432719367667476
{'celebrare=VERB': 8646, 'sacrificio=NOUN': 3564}	72		7.779476136084713
{'togliere=VERB': 11499, 'puntello=NOUN': 132}	0	invalide: coocc nulle dans Conllst	n_a
{'mantenere=VERB': 23499, 'città=NOUN': 101217}	339		3.7286834576179513
{'intrappolare=VERB': 854, 'goccia=NOUN': 3180}	1		5.074382447632547
{'effettuare=VERB': 34715, 'deframmentazione=NOUN': 111}	13		8.44814036170602
{'aumentare=VERB': 22509, 'memoria=NOUN': 14953}	75		4.359668131666546
{'indurre=VERB': 5161, 'folla=NOUN': 2607}	5		5.089627979896729
{'esistere=VERB': 42154, 'quantità=NOUN': 13486}	143		4.542738056438911
{'moltiplicare=VERB': 2056}	0	invalide: mot absent Conllst	n_a_abs
{'montare=VERB': 6716, 'chipset=NOUN': 289}	10		8.931711695353204
{'arrivare=VERB': 69964, 'spagnolo=NOUN': 1113}	25		4.907725480785552
{'operare=VERB': 12500, 'giorno=NOUN': 155826}	222		3.4082499703762417
{'rivalutare=VERB': 801, 'arte=NOUN': 39192}	15		5.475927467208512
{'cambiare=VERB': 39486}	0	invalide: mot absent Conllst	n_a_abs
{'evitare=VERB': 22811, 'pioggia=NOUN': 6148}	43		4.8209109083896635
{'raggiungere=VERB': 46369, 'stadio=NOUN': 6938}	133		5.27131569781794
{'formare=VERB': 27431, 'gamete=NOUN': 11}	1		8.379746583465812
{'essere=VERB': 255757}	0	invalide: mot absent Conllst	n_a_abs
{'instaurare=VERB': 1615, 'teocrazia=NOUN': 85}	1		9.396399394032272
{'stimolare=VERB': 4186, 'sensazione=NOUN': 6999}	30		6.564316397263156
{'avvertire=VERB': 4310, 'sensazione=NOUN': 6999}	100		8.297221806747338
{'terrificare=VERB': 95}	0	invalide: mot absent Conllst	n_a_abs
{'soddisfare=VERB': 11482, 'compatibilità=NOUN': 2115}	4		3.914847157674388
{'riacquistare=VERB': 535, 'indipendenza=NOUN': 4753}	19		9.47299794737453
{'pagare=VERB': 26183, 'salario=NOUN': 783}	25		6.847979213309492
{'industria=NOUN': 8338, 'l=VERB': 7}	0	invalide: coocc nulle dans Conllst	n_a
{'affrontare=VERB': 17944, 'emergenza=NOUN': 5578}	135		6.991452067474687
{'fondare=VERB': 16002, 'borsa=NOUN': 8347}	16		3.4563463436515725
{'fare=VERB': 493699, 'calza=NOUN': 1368}	148		4.4890899687478685
{'salvaguardare=VERB': 1135, 'carattere=NOUN': 16375}	4		4.302903637005194
{'superare=VERB': 17839}	0	invalide: mot absent Conllst	n_a_abs
{'depauperare=VERB': 49, 'patrimonio=NOUN': 7761}	7		10.939454159616476
{'ottenere=VERB': 54921, 'concime=NOUN': 329}	13		6.097071907803049
{'riprendere=VERB': 15339}	0	invalide: mot absent Conllst	n_a_abs
{'stampare=VERB': 5310}	0	invalide: mot absent Conllst	n_a_abs
{'passare=VERB': 60666, 'camion=NOUN': 1746}	42		5.2151480581330265
{'avere=VERB': 437934, 'influenza=NOUN': 7970}	1162		5.157999864528384
{'abbandonare=VERB': 10578, 'lettura=NOUN': 16359}	37		4.296340700709462
{'raggiungere=VERB': 46369, 'posizione=NOUN': 51242}	2103		6.464882543841308
{'comportare=VERB': 11055, 'aumento=NOUN': 12705}	227		7.262111901071212
{'concentrare=VERB': 7285, 'raggio=NOUN': 8332}	35		5.7322853464231045
{'rispondere=VERB': 35220, 'coso=NOUN': 567}	4		4.204207138117026
{'sognare=VERB': 4422}	0	invalide: mot absent Conllst	n_a_abs
{'superare=VERB': 17839, 'interesse=NOUN': 33343}	88		3.7676769677791144
{'testimoniare=VERB': 4252, 'fatto=NOUN': 44206}	114		5.835084466188449
{'scardinare=VERB': 247, 'difesa=NOUN': 10813}	7		7.946061039910467
{'recitare=VERB': 4859, 'pubblicità=NOUN': 8347}	19		5.428523508071025
{'cogliere=VERB': 5234, 'ricchezza=NOUN': 5212}	16		5.75267473582348
{'rappresentare=VERB': 37331, 'ritardo=NOUN': 6086}	22		3.151283189153614
{'aprire=VERB': 36909}	0	invalide: mot absent Conllst	n_a_abs
{'esaltare=VERB': 1721}	0	invalide: mot absent Conllst	n_a_abs
{'suscitare=VERB': 3582, 'indignazione=NOUN': 545}	47		11.252234100001608
{'segnalare=VERB': 15545, 'interpretazione=NOUN': 7622}	28		4.440290279873184
{'abbandonare=VERB': 10578, 'nave=NOUN': 10544}	82		6.0922706254108165
{'abbandonare=VERB': 10578, 'insediamento=NOUN': 4616}	31		5.872086896886423
{'vedere=VERB': 200588, 'biscia=NOUN': 60}	0	invalide: coocc nulle dans Conllst	n_a
{'salvare=VERB': 15161, 'vita=NOUN': 104505}	1170		6.208253574585248
{'svolgere=VERB': 31449, 'esequie=NOUN': 1}	0	invalide: coocc nulle dans Conllst	n_a
{'risparmiare=VERB': 8228, 'croce=NOUN': 8889}	5		2.644626983882264
{'prevenire=VERB': 4501, 'elezione=NOUN': 11939}	5		3.0898533932003494
{'favorire=VERB': 9972}	0	invalide: mot absent Conllst	n_a_abs
{'essere=VERB': 255757, 'pentito=NOUN': 364}	31		5.055720300221649
{'scavalcare=VERB': 607, 'blocco=NOUN': 7878}	0	invalide: coocc nulle dans Conllst	n_a
{'fare=VERB': 493699, 'sforzo=NOUN': 8232}	1516		5.388973900913743
{'suggerire=VERB': 12236, 'ipotesi=NOUN': 9441}	80		6.005241875130621
{'mantenere=VERB': 23499, 'potere=NOUN': 24274}	337		5.795319517059049
{'pubblicare=VERB': 68726, 'paio=NOUN': 9752}	74		3.347087692085896
{'trovare=VERB': 190104, 'nesso=NOUN': 582}	27		4.547460775314468
{'volere=VERB': 43237, 'nuovo=NOUN': 2594}	5		2.02907856575038
{'insediare=VERB': 1616, 'iter=NOUN': 1051}	3		7.341150456116877
{'liberare=VERB': 7762, 'l=NOUN': 2359}	1		2.319766837703153
{'recuperare=VERB': 9469, 'documento=NOUN': 21668}	53		4.572418313830302
{'fallire=VERB': 4873, 'obiettivo=NOUN': 21405}	53		5.556161113392722
{'perdere=VERB': 42342, 'staffa=NOUN': 443}	30		7.293255044236549
{'contenere=VERB': 34855, 'interprete=NOUN': 2704}	21		4.359619236461117
{'utilizzare=VERB': 85074, 'termine=NOUN': 46859}	1632		5.304184222888581
{'fare=VERB': 493699, 'inizio=NOUN': 38740}	2501		3.6822303363837827
{'ridere=VERB': 4716, 'pane=NOUN': 9100}	8		4.093861106232522
{'soccorrere=VERB': 808, 'ferito=NOUN': 3034}	19		9.511245416731493
{'indurre=VERB': 5161, 'aumento=NOUN': 12705}	92		7.038594346744837
{'dare=VERB': 123201, 'sberla=NOUN': 29}	3		6.419045152763394
{'compensare=VERB': 1524, 'effetto=NOUN': 41783}	34		5.642053884837177
{'studiare=VERB': 16532, 'strategia=NOUN': 8937}	81		5.666664513521327
{'mantenere=VERB': 23499, 'anonimato=NOUN': 489}	38		8.358108682719468
{'fare=VERB': 493699, 'dispetto=NOUN': 968}	188		5.479677501920468
{'lasciare=VERB': 59503, 'seme=NOUN': 1328}	21		4.62525014069099
{'datare=VERB': 214, 'roccia=NOUN': 4718}	4		8.528160119172522
{'permettere=VERB': 48908}	0	invalide: mot absent Conllst	n_a_abs
{'acquistare=VERB': 51232}	0	invalide: mot absent Conllst	n_a_abs
{'attizzare=VERB': 73, 'fuoco=NOUN': 17421}	8		9.33489670828588
{'aumentare=VERB': 22509, 'fascia=NOUN': 8886}	37		4.087455422333103
{'durare=VERB': 8575, 'cosa=NOUN': 91609}	134		3.986942771532548
{'guidare=VERB': 18321, 'auto=NOUN': 27832}	289		5.732397475631498
{'considerare=VERB': 44025}	0	invalide: mot absent Conllst	n_a_abs
{'evitare=VERB': 22811, 'contatto=NOUN': 20473}	271		5.764880319834298
{'centrare=VERB': 2091, 'obiettivo=NOUN': 21405}	166		8.535110160368932
{'consentire=VERB': 35696, 'informazione=NOUN': 92006}	966		4.8029133314611885
{'documentare=VERB': 3788, 'azione=NOUN': 30695}	11		3.1163492843231326
{'organizzare=VERB': 25339, 'cena=NOUN': 9592}	169		6.024632791949535
{'trattenere=VERB': 2217}	0	invalide: mot absent Conllst	n_a_abs
{'costruire=VERB': 34355, 'tavola=NOUN': 5746}	29		3.755065970527563
{'giudicare=VERB': 5044, 'impresa=NOUN': 21439}	15		3.6690361922942367
{'scatenare=VERB': 3551}	0	invalide: mot absent Conllst	n_a_abs
{'analizzare=VERB': 7501, 'realtà=NOUN': 32266}	81		4.953687363068199
{'insegnare=VERB': 9894, 'tolleranza=NOUN': 1587}	7		5.355470642180573
{'fare=VERB': 493699}	0	invalide: mot absent Conllst	n_a_abs
{'promuovere=VERB': 16394, 'esclusione=NOUN': 2678}	10		4.38552682379159
{'contattare=VERB': 16391, 'persona=NOUN': 108976}	285		3.8947762115988436
{'organizzare=VERB': 25339, 'attacco=NOUN': 17418}	87		4.182907860113271
{'cessare=VERB': 2979, 'relazione=NOUN': 26210}	12		3.8181459116135876
{'rendere=VERB': 62094}	0	invalide: mot absent Conllst	n_a_abs
{'avere=VERB': 437934, 'diametro=NOUN': 3636}	497		5.047438679732393
{'acquistare=VERB': 51232, 'azione=NOUN': 30695}	172		3.333891371304699
{'pagare=VERB': 26183}	0	invalide: mot absent Conllst	n_a_abs
{'incitare=VERB': 777, 'popolo=NOUN': 17604}	21		7.173323055926648
{'avere=VERB': 437934, 'decenza=NOUN': 192}	46		6.038676688497909
{'giustificare=VERB': 2800, 'riforma=NOUN': 8835}	7		4.697025829586853
{'raggiungere=VERB': 46369, 'stato=NOUN': 55187}	463		4.073728888815667
{'segnalare=VERB': 15545, 'veduta=NOUN': 1293}	5		4.512454013566486
{'avanzare=VERB': 6432, 'idea=NOUN': 39630}	57		4.367593248965012
{'sospendere=VERB': 7923, 'autorizzazione=NOUN': 6044}	29		5.802232849259842
{'affidare=VERB': 12013, 'compito=NOUN': 10751}	616		8.928503255043275
{'ingannare=VERB': 1315, 'consumatore=NOUN': 7994}	11		6.593129848751657
{'mettere=VERB': 88156, 'naso=NOUN': 2698}	136		5.784006009715597
{'fare=VERB': 493699, 'produzione=NOUN': 42504}	1502		2.765527775811846
{'raggiungere=VERB': 46369, 'lido=NOUN': 338}	3		4.141307245296959
{'postare=VERB': 6722, 'cronaca=NOUN': 3576}	5		4.251356042816357
{'riparare=VERB': 2557, 'falla=NOUN': 329}	3		8.362833216876169
{'fare=VERB': 493699, 'guardia=NOUN': 7258}	603		4.069423897023858
{'disdegnare=VERB': 344, 'rettile=NOUN': 430}	0	invalide: coocc nulle dans Conllst	n_a
{'diffondere=VERB': 12634, 'dispositivo=NOUN': 13210}	33		4.182550861378951
{'utilizzare=VERB': 85074, 'fondo=NOUN': 28122}	407		3.9861351265770715
{'conquistare=VERB': 9057, 'prima=NOUN': 814}	5		5.963053013279305
{'dare=VERB': 123201, 'cacciatore=NOUN': 2096}	35		3.6550513783327205
{'scegliere=VERB': 50146, 'indirizzo=NOUN': 27001}	154		3.3900453322443864
{'rivestire=VERB': 3519, 'tetto=NOUN': 5677}	15		6.110149182190412
{'intendere=VERB': 19935, 'senso=NOUN': 39107}	623		6.259048933194991
{'avere=VERB': 437934, 'mente=NOUN': 11293}	1255		4.709215470501931
{'fare=VERB': 493699, 'perizia=NOUN': 1021}	75		3.875210982779743
{'evitare=VERB': 22811}	0	invalide: mot absent Conllst	n_a_abs
{'ascoltare=VERB': 15866, 'invocazione=NOUN': 561}	4		5.370321094870661
{'ricoverare=VERB': 880}	0	invalide: mot absent Conllst	n_a_abs
{'leggere=VERB': 51992, 'brano=NOUN': 15761}	152		4.101200603062563
{'succedere=VERB': 14841, 'incendio=NOUN': 3931}	5		2.9714107650069943
{'appoggiare=VERB': 4463, 'proposta=NOUN': 15800}	34		5.475310180255066
{'garantire=VERB': 29943, 'sicurezza=NOUN': 31552}	1503		7.328107769629673
{'portare=VERB': 77610}	0	invalide: mot absent Conllst	n_a_abs
{'modificare=VERB': 23140, 'titolo=NOUN': 45578}	172		3.9134734905731094
{'problema=NOUN': 68050}	0	invalide: mot absent Conllst	n_a_abs
{'illuminare=VERB': 3907, 'strada=NOUN': 44837}	87		5.5391281910880865
{'indicare=VERB': 39703, 'ammalato=NOUN': 469}	1		2.297852895567465
{'trattare=VERB': 50853, 'concetto=NOUN': 11598}	154		4.599954767486586
{'ritornare=VERB': 10640}	0	invalide: mot absent Conllst	n_a_abs
{'indurre=VERB': 5161, 'differenziazione=NOUN': 785}	4		6.503646611747617
{'chiedere=VERB': 58139}	0	invalide: mot absent Conllst	n_a_abs
