langue source	NF	mwe à traduire	mwe traduite	Nbmots traduction
GA	déan;leithcheal	déan leithcheal	non|discrimination	2
GA	cion;féad	féad cion	infraction|sifflé	2
GA	litir;tóg	tóg litir	montée|lettre	2
GA	lipéad;ngream-aí	ngream-aí lipéad	ngream|de-étiquette	2
GA	céas;duine	céas duine	personne|raec	2
GA	buíon;cuir	cuir buíon	ajouter|groupe	2
GA	fionraigh;oibriú	fionraigh oibriú	suspendre|fonctionnement	2
GA	faigh;solas	faigh solas	obtenir|lumière	2
GA	ceann;faigh	faigh ceann	trouver|un	2
GA	boilg;glaoigh	glaoigh boilg	estomac|d'appel	2
GA	féad;teacht	féad teacht	siffla|venir	2
GA	aimsigh;leigheas	aimsigh leigheas	trouvé|remède	2
GA	alt;cuir	cuir alt	ajouter|section	2
GA	ruathar;tabhair	tabhair ruathar	s'il|vous|plaît|un|raid	5
GA	feic;saighdiúir	feic saighdiúir	voir|soldat	2
GA	barraíocht;doirt	doirt barraíocht	verser|trop	2
GA	clann;feic	feic clann	voir|enfants	2
GA	cuir;éadach	cuir éadach	tissu|add	2
GA	feic;iomad	feic iomad	voir|beaucoup	2
GA	beirt;feic	feic beirt	voir|deux	2
GA	feic;leathanach	feic leathanach	voir|page	2
GA	liúntas;íoc	íoc liúntas	indemnité|versée	2
GA	briathar;úsáid	úsáid briathar	utiliser|mot	2
GA	déan;léiriú	déan léiriú	ne|pas|montrer	3
GA	mac;saolaigh	saolaigh mac	fils|saolaigh	2
GA	cuir;rópa	cuir rópa	s'il|vous|plaît|corde	4
GA	alt;foilsigh	foilsigh alt	publier|l'article	2
GA	déan;taibhreamh	déan taibhreamh	ne|rêve|pas	3
GA	tabhair;íocaíochta	tabhair íocaíochta	paiement|s'il|vous|plaît	4
GA	liúntas;tabhair	tabhair liúntas	allocation|s'il|vous|plaît	4
GA	féad;fógra	féad fógra	avis|sifflé	2
GA	gearr;téarma	gearr téarma	court|terme	2
GA	ball;déan	déan ball	pas|membre	2
GA	cúisigh;duine	cúisigh duine	accuser|un	2
GA	cad;féach	féach cad	voir|quoi	2
GA	faigh;fuinneamh	faigh fuinneamh	trouver|l'énergie	2
GA	athrá;tabhair	tabhair athrá	répetez|s'il-vous-plait	2
GA	bonn;cuir	cuir bonn	base|add	2
GA	caith;mairstin	caith mairstin	lancer|survie	2
GA	déan;feall	déan feall	pas|trahie	2
GA	caith;tús	caith tús	début|jet	2
GA	dochar;déan	déan dochar	pas|préjudice	2
GA	cailleadh;déan	déan cailleadh	pas|perdu	2
GA	rialaigh;trádáil	rialaigh trádáil	régissant|commerce	2
GA	fógra;seirbheáil	seirbheáil fógra	avis|service	2
GA	sonraigh;údarás	sonraigh údarás	préciser|l'autorité	2
GA	cuir;píce	cuir píce	ajouter|fourchette	2
GA	ionsaigh;othar	ionsaigh othar	malade|atteint	2
GA	déan;íocaíocht	déan íocaíocht	effectuer|paiement	2
GA	scéal;thairring	thairring scéal	histoire|thairring	2
GA	bain;pléisiúr	bain pléisiúr	plaisir|smash	2
GA	tabhair;treoir	tabhair treoir	s'il|vous|plaît|guider	4
GA	beir;bunadh	beir bunadh	chercher|sources	2
GA	ceannaigh;deoch	ceannaigh deoch	achat|boissons	2
GA	cóip;áirigh	áirigh cóip	inclus|copie	2
GA	cuir;fearg	cuir fearg	ajouter|colère	2
GA	déan;freastal	déan freastal	pas|servir	2
GA	cuir;obair	cuir obair	s'il|vous|plaît|travail	4
GA	glac;spás	glac spás	prendre|l'espace	2
GA	léirigh;meas	léirigh meas	a|montré|le|respect	4
GA	loit;timpeallacht	loit timpeallacht	environnement|lésions	2
GA	ainm;faigh	faigh ainm	obtenir|nom	2
GA	cum;rann	cum rann	cum|rime	2
GA	glac;páirt	glac páirt	être|impliqué	2
GA	feic;tada	feic tada	ne|rien|voir	3
GA	abair;tada	abair tada	ne|dis|rien	3
GA	feic;trua	feic trua	voir|compassion	2
GA	córas;spreag	spreag córas	système|inspiré	2
GA	bréag;inis	inis bréag	dis|mensonge	2
GA	caill;meabhair	caill meabhair	miss|folle	2
GA	mothaigh;piléar	mothaigh piléar	sensation|balle	2
GA	roghnaigh;seapánaigh	roghnaigh seapánaigh	sélectionnez|japonais	2
GA	téarma;úsáid	úsáid téarma	utilisation|à|long|terme	4
GA	bróisiúr;foilsigh	foilsigh bróisiúr	publier|brochures	2
GA	ith;píosa	ith píosa	mangé|morceau	2
GA	cuir;ghnéasúlacht	cuir ghnéasúlacht	ajouter|sexualité	2
GA	aistriú;déan	déan aistriú	non|traduites	2
GA	déan;trócaire	déan trócaire	aies|pitié	2
GA	baile;bain	bain baile	maison|smash	2
GA	caith;lá	caith lá	jour|jeter	2
GA	bunaigh;comhrialtas	bunaigh comhrialtas	coalition|d'origine	2
GA	cineál;measc	measc cineál	dans|nature	2
GA	cáin;tír	cáin tír	pays|d'impôt	2
GA	airigh;coisméig	airigh coisméig	coisméig|détectée	2
GA	creim;ithir	creim ithir	sol|creim	2
GA	coinnigh;cuid	coinnigh cuid	garder|peu	2
GA	caith;áit	caith áit	lieu|jeter	2
GA	deilbhpháipéar;seol	seol deilbhpháipéar	envoyer|deilbhpháipéar	2
GA	sroich;stad	sroich stad	arrêt|sroich	2
GA	cuir;masc	cuir masc	ajouter|masque	2
GA	feic;mórán	feic mórán	pour|beaucoup,	2
GA	lorg;árach	lorg árach	rechercher|recours	2
GA	ith;mil	ith mil	le|miel|a|mangé	4
GA	scadán;tóg	tóg scadán	montée|du|hareng	3
GA	oscail;teach	oscail teach	journée|portes|ouvertes	3
GA	achomharc;déan	déan achomharc	pas|appel	2
GA	cuid;úsáid	úsáid cuid	utiliser|certains	2
GA	dath;measc	measc dath	entre|couleur	2
GA	caith;saol	caith saol	vie|jeter	2
GA	léirmheas;scríobh	scríobh léirmheas	écrire|critique	2
GA	faigh;fliú	faigh fliú	obtenir|grippe	2
GA	béile;tabhair	tabhair béile	s'il|vous|plaît|repas	4
GA	deon;paitinn	deon paitinn	brevet|deon	2
GA	abair;paidreachaí	abair paidreachaí	prières|disons	2
GA	fiafraigh;scéala	fiafraigh scéala	demander|nouvelles	2
GA	luach;tabhair	tabhair luach	valeur|donner	2
GA	ceann;mínigh	mínigh ceann	expliquer|un	2
GA	cuir;spás	cuir spás	ajouter|place	2
GA	déan;iarraidh	déan iarraidh	s'il|vous|plaît|demander	4
GA	dathaigh;pictiúr	dathaigh pictiúr	image|couleur	2
GA	aistriúchán;foilsigh	foilsigh aistriúchán	publier|traduction	2
GA	cuid;foilsigh	foilsigh cuid	publier|son	2
GA	eilimint;feic	feic eilimint	voir|élément	2
GA	bunaigh;iris	bunaigh iris	le|magazine|d'origine	3
GA	aigne;athraigh	athraigh aigne	changer|d'esprit	2
GA	eochair;tóg	tóg eochair	clé|montée	2
GA	amharc;méid	amharc méid	voir|ce|que	3
GA	bain;cuid	bain cuid	supprimer|certains	2
GA	ceannaigh;milseán	ceannaigh milseán	acheter|bonbons	2
GA	ceannaigh;leabhar	ceannaigh leabhar	acheter|livres	2
GA	cuir;imní	cuir imní	ajouter|soucis	2
GA	cuardaigh;cuas	cuardaigh cuas	fouille|d'une|grotte	3
GA	tabhair;titim	tabhair titim	s'il|vous|plaît|déposer	4
GA	cuir;tograch	cuir tograch	ajouter|tograch	2
GA	creideamh;iontaigh	iontaigh creideamh	superbe|foi	2
GA	dhiongbháilteacht;léirigh	léirigh dhiongbháilteacht	a|montré|la|détermination	4
GA	cuir;fáilte	cuir fáilte	s'il|vous|plaît|accueil	4
GA	faigh;seol	faigh seol	veuillez|trouver	2
GA	cas;trup	cas trup	tourner|bruit	2
GA	deisigh;rothar	deisigh rothar	réparation|vélos	2
GA	fág;leanbh	fág leanbh	laisser|enfant	2
GA	tabhair;éachtaint	tabhair éachtaint	donner|impression	2
GA	caith;cloigeann	caith cloigeann	crâne|jeter	2
GA	ceardaí;tóg	tóg ceardaí	artisan|montée	2
GA	déan;turas	déan turas	faire|voyage	2
GA	tóg;uair	tóg uair	prendre|du|temps	3
GA	caith;oíche	caith oíche	nuit|jeter	2
GA	bunaigh;caighdeán	bunaigh caighdeán	qualité|originale	2
GA	liosta;áirigh	áirigh liosta	liste|inclus	2
GA	buail;dálach	buail dálach	baisse|en|semaine	3
GA	n-athfhoirgn;teach	n-athfhoirgn teach	athfhoirgn|leur|maison	3
GA	cos;cuir	cuir cos	jambe|add	2
GA	dalta;déileáil	déileáil dalta	beaucoup|d'étudiants	2
GA	déan;páirt	déan páirt	ne|fait|pas|partie	4
GA	clois;torann	clois torann	entendre|bruit	2
GA	faigh;post	faigh post	trouver|emplois	2
GA	tabhair;taisléine	tabhair taisléine	s'il|vous|plaît|taisléine	4
GA	fostaí;scor	scor fostaí	employés|retraités	2
GA	cuir;áis	cuir áis	installation|add	2
GA	cruthaigh;múnla	cruthaigh múnla	créer|modèle	2
GA	neart;tabhair	tabhair neart	donner|de|la|force	4
GA	bain;craiceann	bain craiceann	enlever|peau	2
GA	caith;cúpla	caith cúpla	jeter|couple	2
GA	caoi;mínigh	mínigh caoi	expliquer|commodément	2
GA	feic;rud	feic rud	ne|rien|voir	3
GA	agallamh;socraigh	socraigh agallamh	organiser|entrevue	2
GA	gné;láimhseál	láimhseál gné	fonction|gestion	2
GA	ceathrú;saothraigh	saothraigh ceathrú	quatrième|poursuivre	2
GA	tabhair;ucht	tabhair ucht	donner|leur	2
GA	líon;píop	líon píop	numéro|du|tuyau	3
GA	cuir;eagar	cuir eagar	s'il|vous|plaît|modifier	4
GA	mothaigh;súil	mothaigh súil	sensation|d'espoir	2
GA	canna;sín	sín canna	signe|étain	2
GA	cuid;mol	mol cuid	une|plaque|tournante	3
GA	faigh;sliogán	faigh sliogán	trouver|coquillages	2
GA	feidhmigh;tionscadal	feidhmigh tionscadal	effectuer|projet	2
GA	abair;staic	abair staic	participation|l'état	2
GA	ith;leon	ith leon	lion|a|mangé	3
GA	fág;scoilt	fág scoilt	congé|partagé	2
GA	déan;meá	déan meá	ne|pesant|pas	3
GA	fíor;tarraing	tarraing fíor	véritable|frein	2
GA	féad;ráiteas	féad ráiteas	déclaration|sifflé	2
GA	casaoid;déan	déan casaoid	ne|pas|se|plaindre	4
GA	bréid;cuir	cuir bréid	ajouter|tresses	2
GA	cupán;tairg	tairg cupán	offrez|tasse	2
GA	croch;t-urramhach	croch t-urramhach	accrocher|urramhach	2
GA	feic;leithéid	feic leithéid	voir|par|exemple	3
GA	cadhan;cuir	cuir cadhan	ajouter|cadhan	2
GA	eisigh;moladh	eisigh moladh	recommandation|émise	2
GA	bain;geit	bain geit	s'il|vous|plaît|sursauter	4
GA	oireachtas;soláthair	soláthair oireachtas	législature|offre	2
GA	cinneadh;spreag	spreag cinneadh	décision|inspirée	2
GA	draoi;déan	déan draoi	assistant|s'il|vous|plaît	4
GA	díbirt;fulaing	fulaing díbirt	expulsion|de|la|souffrance	4
GA	fág;lorg	fág lorg	partir|pour	2
GA	bí;doras	bí doras	porte|make	2
GA	leag;súil	leag súil	ensemble|prévu	2
GA	buaigh;crannchur	buaigh crannchur	loterie|gagnant	2
GA	bréagthochtán;tabhair	tabhair bréagthochtán	s'il|vous|plaît|bréagthochtán	4
GA	caiteachas;tabhaigh	tabhaigh caiteachas	dépenses|ont|été|encourues	4
GA	déan;taighde	déan taighde	faire|recherches	2
GA	fuil;gluais	gluais fuil	glossaire|du|sang	3
GA	léirigh;planda	léirigh planda	plante|a|montré	3
GA	cuntas;léigh	léigh cuntas	lire|compte	2
GA	glac;gníomh	glac gníomh	passer|à|l'action	3
GA	breithiúnas;deán	deán breithiúnas	jugement|dan	2
GA	múch;pian	múch pian	la|douleur|d'arrêt	3
GA	anró;bí	bí anró	être|lourde	2
GA	bí;ceantar	bí ceantar	faire|surface	2
GA	bí;ordú	bí ordú	rendre|l'ordonnance	2
GA	cuir;póilíos	cuir póilíos	ajouter|póilíos	2
GA	leasainm;tuill	tuill leasainm	surnom|tuill	2
GA	cuid;stróic	stróic cuid	déchira|son	2
GA	currach;tiontaigh	tiontaigh currach	convertir|currach	2
GA	déan;ordú	déan ordú	rendre|l'ordonnance	2
GA	cúirt;roghnaigh	roghnaigh cúirt	cour|sélection	2
GA	bain;gus	bain gus	et|smash	2
GA	abair;ceart	abair ceart	devrait|dire	2
GA	beir;cuid	beir cuid	chercher|quelques-uns	2
GA	dath;tóg	tóg dath	couleur|montée	2
GA	caith;corp	caith corp	corps|jeter	2
GA	drithlín;mothaigh	mothaigh drithlín	sentir|drithlín	2
GA	caith;tréimhse	caith tréimhse	période|jeter	2
GA	bosca;tarraing	tarraing bosca	faire|glisser|la	3
GA	coimirce;iarr	iarr coimirce	appelé|sauvegarde	2
GA	cuid;scuab	scuab cuid	une|partie|brosse	3
GA	scilling;tabhair	tabhair scilling	s'il|vous|plaît|shilling	4
GA	déan;múscailt	déan múscailt	ne|pas|augmenter	3
GA	cuir;dallóg	cuir dallóg	ajouter|stores	2
GA	cúpla;tabhair	tabhair cúpla	s'il|vous|plaît|quelques-uns	4
GA	fág;radharc	fág radharc	scène|congé	2
GA	duine;meall	meall duine	tumeur|humaine	2
GA	cláraigh;páiste	cláraigh páiste	registre|enfants	2
GA	cúnamh;tabhair	tabhair cúnamh	aide|s'il|vous|plaît	4
GA	cuir;fuil-shrón	cuir fuil-shrón	ajouter|sang-nez	2
GA	peaca;tabhair	tabhair peaca	s'il|vous|plaît|péché	4
GA	cuir;seirbhís	cuir seirbhís	ajouter|service	2
GA	bí;té	bí té	il|fait	2
GA	bí;síol	bí síol	graine|s'il|vous|plaît	4
GA	bí;dochar	bí dochar	être|nocif	2
GA	déan;leas	déan leas	aucun|avantage	2
GA	caiteachas;cuir	cuir caiteachas	ajouter|frais	2
GA	aiseolas;déan	déan aiseolas	commentez|s'il|vous|plait	4
GA	abair;líne	abair líne	ligne|d'état	2
GA	múin;rud	múin rud	chose|d'urine	2
GA	cúis;déan	déan cúis	pas|raison	2
GA	bris;ciorcad	bris ciorcad	break|circuit	2
GA	baile;fág	fág baile	quitter|maison	2
GA	croí;fág	fág croí	coeur|congé	2
GA	clúdach;shuigh	shuigh clúdach	couverture|sam.	2
GA	feisteoir;mol	mol feisteoir	plaque|tournante|en|meilleure|forme	5
GA	bheitheá;seasamh	bheitheá seasamh	position|bheitheá	2
GA	athrú;bí	bí athrú	être|changé	2
GA	baile;fan	fan baile	rester|à|la|maison	4
GA	bí;gluaisteán	bí gluaisteán	faire|voiture	2
GA	bearna;bí	bí bearna	écart|s'il|vous|plaît	4
GA	breatain;bí	bí breatain	faire|grande-bretagne	2
GA	fianaise;tar	tar fianaise	avoir|preuves	2
GA	buachaill;cuir	cuir buachaill	ajouter|garçon	2
GA	bí;ceathrar	bí ceathrar	etre|quatre	2
GA	duine;seirbheáil	seirbheáil duine	personne|service	2
GA	bean;cuir	cuir bean	femme|enregistrement	2
GA	ionsaigh;víreas	ionsaigh víreas	attaque|virus	2
GA	rith;rás	rith rás	pendant|course	2
GA	bí;sreang	bí sreang	fil|marque	2
GA	mac;tar	tar mac	après|que|le|fils	4
GA	ainmhí;feic	feic ainmhí	voir|animaux	2
GA	abair;diabhal	abair diabhal	dire|sacrément	2
GA	bí;réimse	bí réimse	champ|marque	2
GA	dhleathacht;déan	déan dhleathacht	non|validité	2
GA	bí;gaeilgeoir	bí gaeilgeoir	être|gaeilgeoirs	2
GA	airíonna;tarlaigh	tarlaigh airíonna	propriétés|tarlaigh	2
GA	cuir;ráta	cuir ráta	veuillez|noter|s'il|vous|plaît	5
GA	bí;ceart	bí ceart	avoir|raison	2
GA	tabhair;turas	tabhair turas	faire|voyage	2
GA	corr;tar	tar corr	après|impair	2
GA	fulaing;treascairt	fulaing treascairt	d'abus|souffrance	2
GA	cuir;líon	cuir líon	numéro|de|la|fiche	4
GA	cloigeann;smúr	smúr cloigeann	crasse|crâne	2
GA	saol;tar	tar saol	ont|vie	2
GA	bí;fiú	bí fiú	être|encore	2
GA	bliain;caill	caill bliain	lose|année	2
GA	focal;úsáid	úsáid focal	en|utilisant|des|mots	4
GA	déan;tadhg	déan tadhg	pas|balconytv	2
GA	lonnaigh;timpeall	lonnaigh timpeall	installés|autour	2
GA	las;solas	las solas	lumière|allumée	2
GA	tit;ualach	tit ualach	charge|tit	2
GA	bí;glaoch	bí glaoch	appelez|s'il|vous|plaît	4
GA	abair;véarsa	abair véarsa	verset|dit	2
GA	bí;limistéar	bí limistéar	faire|surface	2
GA	beir;eaglais	beir eaglais	chercher|l'église	2
GA	coinníoll;sonraigh	sonraigh coinníoll	préciser|l'état	2
GA	déan;dóigh	déan dóigh	pas|probable	2
GA	agallamh;déan	déan agallamh	pas|entrevue	2
GA	achtachán;déan	déan achtachán	adoption|do	2
GA	lá;tagair	tagair lá	reportez-vous|jour	2
GA	déan;leasú	déan leasú	non|modifié	2
GA	bain;leithreas	bain leithreas	toilettes|smash	2
GA	léirigh;suim	léirigh suim	un|intérêt	2
GA	bain;iarratasóir	bain iarratasóir	s'il|vous|plaît|candidat	4
GA	deon;droim	deon droim	retour|deon	2
GA	coincleach;fás	fás coincleach	la|croissance|de|la|moisissure	5
GA	imeacht;tagair	tagair imeacht	départ|reportez-vous	2
GA	bí;áitreabh	bí áitreabh	être|habitation	2
GA	aerfótagraf;gabh	gabh aerfótagraf	photo|s'il|vous|plaît	4
GA	aoi;bí	bí aoi	make|invité	2
GA	bealach;féad	féad bealach	itinéraire|sifflé	2
GA	aidiacht;críochnaigh	críochnaigh aidiacht	finition|adjectif	2
GA	déan;saineolaí	déan saineolaí	pas|expert	2
GA	bí;nua-aimsearthacht	bí nua-aimsearthacht	s'il|vous|plaît|la|modernité	5
GA	caith;cros	caith cros	croix|jeter	2
GA	cineál;sonraigh	sonraigh cineál	préciser|type	2
GA	meas;méid	meas méid	apprécier|ce|que	3
GA	ceap;duine	ceap duine	un|plot	2
GA	ball;tiomáin	tiomáin ball	l'élément|d'entraînement	2
GA	scoil;téigh	téigh scoil	aller|à|l'école	3
GA	déan;sórt	déan sórt	faire|pareil	2
GA	fulaing;míle	fulaing míle	pour|soutenir|miles	3
GA	fadhb;féad	féad fadhb	problème|sifflé	2
GA	mair;taise	mair taise	se|conformer|à|l'humidité	4
GA	deireadh;suigh	suigh deireadh	sit|final	2
GA	lá;tar	tar lá	après|jour	2
GA	clog;téigh	téigh clog	regarde|s'il|te|plait	4
GA	drochuair;tit	tit drochuair	malheureusement|tit	2
GA	caith;té	caith té	il|jette	2
GA	ciallaigh;rud	ciallaigh rud	ce|qui|a|conduit	4
GA	tabhair;tuairisc	tabhair tuairisc	s'il|vous|plaît|signaler	4
GA	bris;earra	bris earra	article|bris	2
GA	bí;poll	bí poll	faire|trou	2
GA	déan;tromaíocht	déan tromaíocht	pas|l'intimidation	2
GA	comaoin;faigh	faigh comaoin	obtenir|l'examen	2
GA	míle;téigh	téigh míle	il|vous|plaît|miles	4
GA	cumadóireacht;éiligh	éiligh cumadóireacht	invention|revendiquée	2
GA	cruthú;léirigh	léirigh cruthú	la|création|a|montré	4
GA	beart;cuir	cuir beart	ajouter|mesures	2
GA	bí;eagraíocht	bí eagraíocht	rejoindre|l'organisation	2
GA	buail;eachtra	buail eachtra	a|frappé|l'événement	3
GA	bí;foilsitheoir	bí foilsitheoir	s'il|vous|plaît|éditeur	4
GA	cás;n-athfhoirgn	n-athfhoirgn cás	athfhoirgn|leur|cas	3
GA	bí;coire	bí coire	un|crime	2
GA	déan;rialachán	déan rialachán	règlements|maquillage	2
GA	bí;cluiche	bí cluiche	rejoins|partie	2
GA	cuma;iompair	iompair cuma	pas|de|transport|de|matière	5
GA	foilsigh;fógra	foilsigh fógra	publier|avis	2
GA	bí;radharc	bí radharc	faire|scène	2
GA	cuir;uair	cuir uair	ajouter|du|temps	3
GA	strainséir;tabhair	tabhair strainséir	les|gens|s'il|vous|plaît	5
GA	aiste;mill	mill aiste	moulin|à|essai	3
GA	feic;mí-ádh	feic mí-ádh	voir|malheur	2
GA	dóigh;pléigh	pléigh dóigh	discuter|de|la|façon	4
GA	gabhann;teach	gabhann teach	maison|passe	2
GA	léiriú;tabhair	tabhair léiriú	donner|expression	2
GA	tóg;uirlis	tóg uirlis	montée|outil	2
GA	deis;tabhair	tabhair deis	donner|chance	2
GA	fadhb;réitigh	réitigh fadhb	résolution|problèmes	2
GA	cartún;foilsigh	foilsigh cartún	publier|dessins	2
GA	beart;glac	glac beart	passer|à|l'action	3
GA	caith;dúthracht	caith dúthracht	dévouement|jeter	2
GA	laoch;roghnaigh	roghnaigh laoch	sélectionnez|héros	2
GA	eiteachas;tabhair	tabhair eiteachas	s'il|vous|plaît|eiteachas	4
GA	ollchruinniú;tarraing	tarraing ollchruinniú	sucer|agm	2
GA	béimnigh;easpa	béimnigh easpa	manque|béimnigh	2
GA	braith;uaigneas	braith uaigneas	solitude|reliance	2
GA	abhlann;luigh	luigh abhlann	mettre|abhlann	2
GA	airgead;lorg	lorg airgead	pour|l'argent	2
GA	bí;ghaelscoil	bí ghaelscoil	être|gaelscoil	2
GA	bí;leanbh	bí leanbh	s'il|te|plaît|bébé	4
GA	cionchothrom;measc	measc cionchothrom	parmi|équilibré	2
GA	bí;spleodar	bí spleodar	être|l'excitation	2
GA	caith;earra	caith earra	articles|jeter	2
GA	ceo;fás	fás ceo	la|croissance|du|brouillard	4
GA	féach;matán	féach matán	voir|muscle	2
GA	bonnóg;caith	caith bonnóg	jeter|chignon	2
GA	bí;liúntas	bí liúntas	indemnité|marque	2
GA	leáigh;sreang	leáigh sreang	fil|fondu	2
GA	airleacan;tabhair	tabhair airleacan	donner|l'avance	2
GA	ball;bí	bí ball	être|membres	2
GA	bí;cogadh	bí cogadh	faire|guerre	2
GA	bí;shamhlú	bí shamhlú	être|imaginé	2
GA	comórtas;glac	glac comórtas	accepter|concurrence	2
GA	acmhainn;bí	bí acmhainn	être|ressource	2
GA	bí;taca	bí taca	être|pris|en|charge	4
GA	ceangail;intinn	ceangail intinn	connexion|esprit	2
GA	léirigh;seó	léirigh seó	spectacle|révélé	2
GA	dráma;tarlaigh	tarlaigh dráma	drame|tarlaigh	2
GA	cothaigh;máthair	cothaigh máthair	mère|nourrissez	2
GA	bí;dram	bí dram	faire|dram	2
GA	aos;clois	clois aos	les|gens|d'entendre|les	4
GA	píosa;tit	tit píosa	tit|pièce	2
GA	bí;compánach	bí compánach	être|compagnons	2
GA	bí;othar	bí othar	sois|patient	2
GA	airgead;tar	tar airgead	avoir|l'argent	2
GA	drochshaol;téigh	téigh drochshaol	go|bad|times	3
GA	cinn;ábhar	cinn ábhar	matériaux|avancés	2
GA	coimeád;gníomh	coimeád gníomh	acte|rétention	2
GA	beartaigh;tosach	beartaigh tosach	décider|avant	2
GA	cruthaigh;taise	cruthaigh taise	créer|l'humidité	2
GA	bí;éifeacht	bí éifeacht	sois|efficace	2
GA	ais;bí	bí ais	être|retourné	2
GA	airgeadra;tar	tar airgeadra	après|devise	2
GA	cúrsa;labhair	labhair cúrsa	discussion|cours	2
GA	clár;déan	déan clár	s'il|vous|plait|enregistrez|vous	5
GA	múinteoir;oil	oil múinteoir	enseignant|formé	2
GA	lár;meas	meas lár	sincèrement|centre	2
GA	feamainn;labhair	labhair feamainn	algues|rayons	2
GA	seas;taobh	seas taobh	côté|stand	2
GA	bí;ceartlár	bí ceartlár	rendre|coeur	2
GA	am;tabhair	tabhair am	laisser|du|temps	3
GA	comhairle;téigh	téigh comhairle	s'il|vous|plaît|donnez|votre|avis	6
GA	alt;bí	bí alt	section|do	2
GA	corraigh;linn	corraigh linn	nous|remuons	2
GA	tuig;tír	tuig tír	comprendre|pays	2
GA	buail;píosa	buail píosa	hit|pièce	2
GA	bí;conradh	bí conradh	être|sous|contrat	3
GA	déan;neamhchead	déan neamhchead	pas|défi	2
GA	caoi;déan	déan caoi	pas|occasion	2
GA	abair;meangadh	abair meangadh	sourire|tell	2
GA	am;imigh	imigh am	le|temps|passait	3
GA	corrán;imigh	imigh corrán	crochet|gauche	2
GA	bí;seó	bí seó	s'il|vous|plaît|montrez	4
GA	cuid;teip	teip cuid	certains|échouent	2
GA	gabh;mionsonraí	gabh mionsonraí	de|détails,	2
GA	fadhb;lig	lig fadhb	laissez|problème	2
GA	leithéid;tharla	tharla leithéid	tel|est|arrivé	3
GA	dua;féad	féad dua	effort|sifflé	2
GA	luas;rith	rith luas	vitesse|course	2
GA	feidhmigh;teannta	feidhmigh teannta	effectuer|gonflé	2
GA	teitheadh;tit	tit teitheadh	tit|fuyez	2
GA	diúltú;seas	seas diúltú	rejet|support	2
GA	abair;television	abair television	la|télévision|publique	3
GA	bí;formhór	bí formhór	par|plupart	2
GA	bith;cúisigh	cúisigh bith	accuser|une	2
GA	choimisiún;iarr	iarr choimisiún	commission|a|demandé	3
GA	bráid;leag	leag bráid	mettre|en|avant|son	4
GA	stair;tar	tar stair	après|l'histoire	2
GA	ceann;tar	tar ceann	après|un	2
GA	cuir;teacht	cuir teacht	s'il|te|plaît|viens	4
GA	bí;oíche	bí oíche	être|nuit	2
GA	cuimhnigh;reibiliúnaí	cuimhnigh reibiliúnaí	rappelez-vous|reibiliúnaí	2
GA	rí;tar	tar rí	été|roi	2
GA	buail;doras	buail doras	porte|goutte	2
GA	figiúr;taispeáin	taispeáin figiúr	chiffres|montrent	2
GA	aghaidh;lean	lean aghaidh	se|pencher|en|avant	4
GA	déan;ngrianghraf	déan ngrianghraf	do|photo	2
GA	cuir;cás	cuir cás	ajouter|cas	2
GA	bí;linn	bí linn	adhérer|maintenant	2
GA	bí;díth	bí díth	être|privé	2
GA	toirbhirt;áirigh	áirigh toirbhirt	présentation|inclus	2
GA	sleá;sáigh	sáigh sleá	pousser|lance	2
GA	cruthú;tar	tar cruthú	après|création	2
GA	balla;seas	seas balla	support|mural	2
GA	féad;oibríochta	féad oibríochta	coup|de|sifflet|d'exploitation	4
GA	cuir;muirear	cuir muirear	s'il|vous|plaît|charger	4
GA	bí;cúige	bí cúige	province|do	2
GA	gluais;áth	gluais áth	glossaire|ford	2
GA	bí;finbarr	bí finbarr	être|finbarr	2
GA	ceap;tús	ceap tús	début|pad	2
GA	labhair;seirbhís	labhair seirbhís	service|conversation	2
GA	cuir;leith	cuir leith	s'il|vous|plaît|respecter	4
GA	abair;béarla	abair béarla	disons|anglais	2
GA	aghaidh;cuir	cuir aghaidh	continuez|s'il|vous|plaît	4
GA	bí;glas	bí glas	être|vert	2
GA	caith;cloch	caith cloch	jet|pierre	2
GA	bí;eachtra	bí eachtra	être|l'aventure	2
GA	fág;solas	fág solas	lumière|apporter	2
GA	duine;tar	tar duine	après|un	2
GA	tarraing;teas	tarraing teas	aspirer|chaleur	2
GA	bog;tír	bog tír	doux|pays	2
GA	bord;tóg	tóg bord	monter|à|bord	3
GA	cuimhnigh;meascán	cuimhnigh meascán	souvenir|mélange	2
GA	cuimhne;cuir	cuir cuimhne	mémoire|add	2
GA	léigh;páipéar	léigh páipéar	papier|lecture	2
GA	bealach;doirt	doirt bealach	itinéraire|répandrai	2
GA	litrigh;téacs	litrigh téacs	sort|texte	2
GA	bí;comhdháil	bí comhdháil	joindre|conférence	2
GA	feic;solas	feic solas	voir|lumière	2
GA	cuir;sparán	cuir sparán	s'il|vous|plaît|portefeuille	4
GA	feic;timpeallacht	feic timpeallacht	voir|l'environnement	2
GA	coinníoll;rialaigh	rialaigh coinníoll	état|gouverné	2
GA	lean;liosta	lean liosta	liste|continue	2
GA	bí;scrúdú	bí scrúdú	être|examiné	2
GA	bí;feachtas	bí feachtas	faire|campagne	2
GA	buntáiste;bí	bí buntáiste	être|avantageux	2
GA	eachtra;feic	feic eachtra	voir|événement	2
GA	bí;siopa	bí siopa	magasin|s'il|vous|plaît	4
GA	bí;cuntas	bí cuntas	être|pris|en|compte	4
GA	bí;curach	bí curach	être|curach	2
GA	caill;londain	caill londain	miss|londres	2
GA	cogadh;fág	fág cogadh	guerre|congé	2
GA	galar;tabhair	tabhair galar	la|maladie|apporter	3
GA	bain;duine	bain duine	les|gens|s'il|vous|plaît	5
GA	lá;shuidh	shuidh lá	sam.|jour	2
GA	gluais;gréasán	gluais gréasán	glossaire|réseau	2
GA	ainneoin;tabhair	tabhair ainneoin	malgré|s'il|vous|plaît	4
GA	cónaí;tar	tar cónaí	ont|vécu	2
GA	bí;éineacht	bí éineacht	être|combiné	2
GA	déan;muileata	déan muileata	faire|diamant	2
GA	bí;rómhánach	bí rómhánach	être|romaine	2
GA	caidreamh;tabhair	tabhair caidreamh	relation|s'il|vous|plaît	4
GA	fan;seomra	fan seomra	chambre|d'attente	2
GA	bí;seomra	bí seomra	faire|de|la|place	4
GA	bí;comaoin	bí comaoin	faire|l'examen	2
GA	bí;dream	bí dream	rejoindre|groupe	2
GA	cuntas;déan	déan cuntas	pas|compte	2
GA	dtoghachán;seas	seas dtoghachán	position|électorale	2
GA	séid;síoraíocht	séid síoraíocht	éternité|coup	2
GA	alt;tabhair	tabhair alt	envoyer|l'article	2
GA	abair;buachaill	abair buachaill	dire|garçon	2
GA	mair;seal	mair seal	tour|mair	2
GA	féad;measúnú	féad measúnú	sifflées|évaluation	2
GA	bí;muileann	bí muileann	moulin|à|faire	3
GA	niamh;tairg	tairg niamh	offre|niamh	2
GA	proinnteach;tit	tit proinnteach	restaurant|tit	2
GA	tabhair;áit	tabhair áit	donner|lieu	2
GA	caith;ifreann	caith ifreann	enfer|jeter	2
GA	athair;tabhair	tabhair athair	s'il|vous|plaît|père	4
GA	ainmhí;rialaigh	rialaigh ainmhí	animaux|a|décidé	3
GA	alt;seirbheáil	seirbheáil alt	section|service	2
GA	can;fuinneamh	can fuinneamh	énergie|chantez	2
GA	acht;déan	déan acht	pas|agir	2
langue source	NF	mwe à traduire	mwe traduite	Nbmots traduction
GA	cuir;saoirse	cuir saoirse	la|liberté|d'ajouter	3
GA	iníon;tabhair	tabhair iníon	s'il|vous|plaît|fille	4
GA	diaidh;fág	fág diaidh	éventuellement|congé	2
GA	críochnú;léirigh	léirigh críochnú	a|montré|l'achèvement	3
GA	dáta;fabhraigh	fabhraigh dáta	date|préférentielle	2
GA	dáta;toibhigh	toibhigh dáta	date|toibhigh	2
GA	bí;mian	bí mian	être|comme	2
GA	leaba;éirigh	éirigh leaba	lit|réussi	2
GA	beatha;tar	tar beatha	ont|vie	2
GA	cuir;páiste	cuir páiste	ajouter|enfant	2
GA	céir;fás	fás céir	la|croissance|de|la|cire	5
GA	bí;tionscadal	bí tionscadal	make|projet	2
GA	tabhair;taoiseach	tabhair taoiseach	s'il|vous|plaît|chef|de|clan	6
GA	am;déan	déan am	prendre|temps	2
GA	bí;ábharachas	bí ábharachas	matérialisme|marque	2
GA	acht;éirigh	éirigh acht	loi|adoptée	2
GA	abair;córas	abair córas	système|d'état	2
GA	mothúchán;téigh	téigh mothúchán	go|sentiment	2
GA	caol;téigh	téigh caol	go|mince	2
GA	sealbhaigh;traidisiún	sealbhaigh traidisiún	tradition|adhésions	2
GA	luaigh;teideal	luaigh teideal	titre|l'état	2
GA	seas;spota	seas spota	position|place	2
GA	bí;árasán	bí árasán	être|plat	2
GA	cloch;tóg	tóg cloch	pierre|montée	2
GA	binn;bí	bí binn	faire|doux	2
GA	alt;déan	déan alt	section|do	2
GA	alt;tagair	tagair alt	reportez-vous|à|la|section	4
GA	amhranaí;bí	bí amhranaí	être|chanteur	2
GA	faigh;leith	faigh leith	trouver|uniques	2
GA	chaitlicigh;déan	déan chaitlicigh	les|catholiques	2
GA	troid;téigh	téigh troid	va|combattre	2
GA	áireamhacht;éiligh	éiligh áireamhacht	spécifications|requises	2
GA	eagrán;foilsigh	foilsigh eagrán	publier|éditions	2
GA	ceilt;coinnigh	coinnigh ceilt	garder|dissimulation	2
GA	airteagal;tagair	tagair airteagal	consultez|l'article	2
GA	fhoirgni;tabhaigh	tabhaigh fhoirgni	a|été|engagé|fhoirgni	4
GA	beir;oileán	beir oileán	chercher|île	2
GA	deireadh;foilsigh	foilsigh deireadh	dernière|publication	2
GA	consan;críochnaigh	críochnaigh consan	finition|conforme	2
GA	canna;úsáid	úsáid canna	utiliser|boîte	2
GA	mír;sonraigh	sonraigh mír	préciser|l'article	2
GA	fás;réimse	fás réimse	zone|croissance	2
GA	dream;foilsigh	foilsigh dream	publier|groupe	2
GA	bí;iontaise	bí iontaise	faire|fossile	2
GA	corrabhuais;éirigh	éirigh corrabhuais	succès|corrabhuais	2
GA	bí;siopadóir	bí siopadóir	faire|boutiquier	2
GA	bí;uachtar	bí uachtar	crème|maquillage	2
GA	bí;cabhrú	bí cabhrú	aide|s'il|vous|plaît	4
GA	ticéad;íoc	íoc ticéad	paiement|billets	2
GA	bronn;rud	bronn rud	tout|donner	2
GA	bí;líne	bí líne	être|en|ligne	3
GA	bí;halla	bí halla	rejoindre|salle	2
GA	ceannas;tar	tar ceannas	commande|suivante	2
GA	beartaigh;dóigh	beartaigh dóigh	décider|comment	2
GA	bí;dornálaíocht	bí dornálaíocht	faire|boxe	2
GA	bí;píosa	bí píosa	rejoindre|pièce	2
GA	bí;foirm	bí foirm	formulaire|jointure	2
GA	bí;lasadh	bí lasadh	être|éclairé	2
GA	bí;póca	bí póca	être|mobile	2
GA	bunscoil;bí	bí bunscoil	faire|primaire	2
GA	feidhm;téigh	téigh feidhm	s'il|vous|plaît|appliquer	4
GA	labhair;té	labhair té	il|a|parlé	3
GA	céile;leath	leath céile	mari|semi-	2
GA	bí;maitheamh	bí maitheamh	être|pardonné	2
GA	gearr;merrill	gearr merrill	merrill|court	2
GA	gléas;úsáid	úsáid gléas	dispositif|d'utilisation	2
GA	cosain;gearán	cosain gearán	plaintes|protéger	2
GA	bí;tiománaí	bí tiománaí	faire|pilote	2
GA	buail;cluiche	buail cluiche	jeu|baisse	2
GA	obair;téigh	téigh obair	va|travailler	2
GA	bí;roinn	bí roinn	division|make	2
GA	duine;tabhair	tabhair duine	les|gens|s'il|vous|plaît	5
GA	cuir;gné	cuir gné	fonctionnalité|add	2
GA	tabhair;teach	tabhair teach	maison|donnent	2
GA	tabhair;áisínteacht	tabhair áisínteacht	agence|s'il|vous|plaît	4
GA	féachaint;seas	seas féachaint	montent|garde	2
GA	líon;tobac	líon tobac	le|tabac|en|nombre	4
GA	iarratas;tabhair	tabhair iarratas	demande|s'il|vous|plaît	4
GA	crannóg;tionóil	tionóil crannóg	ensemble|trémie	2
GA	bí;scáth	bí scáth	ombre|marque	2
GA	iomláine;tar	tar iomláine	été|pleinement	2
GA	aontas;bí	bí aontas	adhérer|au|syndicat	3
GA	leag;rialachán	leag rialachán	ensemble|règlements	2
GA	sampla;tóg	tóg sampla	prélever|échantillon	2
GA	ghealaigh;mí	ghealaigh mí	mois|lune	2
GA	foilsigh;teideal	foilsigh teideal	publier|titre	2
GA	bran;ith	ith bran	son|mangé	2
GA	déan;taca	déan taca	pas|support	2
GA	deifir;téigh	téigh deifir	dépêche|toi|s'il|te|plaît	5
GA	iarracht;tacaigh	tacaigh iarracht	soutenu|l'effort	2
GA	lean;tonnchrith	lean tonnchrith	vibration|continue	2
GA	cuir;rang	cuir rang	classe|add	2
GA	iarracht;tar	tar iarracht	ont|essayé	2
GA	bí;diaidh	bí diaidh	être|suivi	2
GA	ciorcal;cruinnigh	cruinnigh ciorcal	cercle|collect	2
GA	bí;cuireadh	bí cuireadh	être|invité	2
GA	cuir;máthair	cuir máthair	ajouter|mère	2
GA	foinse;tar	tar foinse	après|sources	2
GA	beir;sliocht	beir sliocht	chercher|extrait	2
GA	ceantar;déan	déan ceantar	zone|do	2
GA	bain;lámh	bain lámh	s'il|vous|plaît|la|main	5
GA	seas;sóisialaí	seas sóisialaí	position|sociale	2
GA	aonar;seas	seas aonar	stand|alone	2
GA	déan;sorcóir	déan sorcóir	rouleau|do	2
GA	béal;líon	líon béal	bouche|numéro	2
GA	airteagal;féad	féad airteagal	article|sifflé	2
GA	ceann;téigh	téigh ceann	vas|y	2
GA	geit;tit	tit geit	tit|effaré	2
GA	eagla;laghdaigh	laghdaigh eagla	la|peur|a|diminué	4
GA	bí;lion	bí lion	être|numéro	2
GA	feic;ál	feic ál	voir|couvée	2
GA	bí;tábhairne	bí tábhairne	être|pub	2
GA	bí;príosún	bí príosún	faire|de|la|prison	4
GA	dúisigh;maidin	dúisigh maidin	se|réveiller|le|matin	4
GA	géill;tuairim	géill tuairim	otages|opinion	2
GA	cloch;daingnigh	daingnigh cloch	pierre|sécurisée	2
GA	bí;corrán	bí corrán	faire|faucille	2
GA	labhair;tsainidrín	labhair tsainidrín	rayons|tsainidrín	2
GA	déan;guta	déan guta	faire|voyelle	2
GA	foilsigh;frainc	foilsigh frainc	frank|publie	2
GA	ceann;tabhair	tabhair ceann	donner|un	2
GA	feic;úrscéal	feic úrscéal	voir|roman	2
GA	déan;meanma	déan meanma	pas|l'esprit	2
GA	babhta;imir	imir babhta	tour|joué	2
GA	tabhair;traenáil	tabhair traenáil	formation|donnent	2
GA	bain;briathar	bain briathar	verbe|s'il|vous|plaît	4
GA	ceannáras;foilsigh	foilsigh ceannáras	publier|siège	2
GA	crom;ullamhú	crom ullamhú	préparation|pli	2
GA	fág;míle	fág míle	miles|congé	2
GA	buail;pluc	buail pluc	déposer|pluc	2
GA	bradán;déan	déan bradán	le|saumon|do	3
GA	oiliúint;téigh	téigh oiliúint	formation|go	2
GA	cúnamh;sonraigh	sonraigh cúnamh	préciser|l'aide	2
GA	cinn;foirmle	cinn foirmle	formule|avancée	2
GA	cruinne;déan	déan cruinne	pas|précis	2
GA	léigh;ócáid	léigh ócáid	événement|lecture	2
GA	tabhaigh;toradh	tabhaigh toradh	résultat|a|été|engagé	4
GA	bí;náisiúnach	bí náisiúnach	ressortissants|maquillage	2
GA	bí;réir	bí réir	être|par	2
GA	cás;áirigh	áirigh cás	inclus|cas	2
GA	cladach;feic	feic cladach	voir|rivage	2
GA	bí;scoláireacht	bí scoláireacht	faire|bourse	2
GA	crom;teaghlach	crom teaghlach	famille|bend	2
GA	déan;tsecoind	déan tsecoind	pas|tsecoind	2
GA	tabhair;trá	tabhair trá	plage|apporter	2
GA	focal;léirigh	léirigh focal	parole|révélée	2
