{'utilizar=VERB': 14738, 'elemento=NOUN': 3896}	93		5.6130277966523545
{'retomar=VERB': 937, 'protesto=NOUN': 1159}	2		5.759916078059154
{'levar=VERB': 18254, 'jeito=NOUN': 3171}	54		4.802206014506323
{'buscar=VERB': 6080, 'orientação=NOUN': 2413}	31		5.978669449115089
{'solicitar=VERB': 2504, 'cada=NOUN': 3014}	4		3.9616516307451293
{'garantir=VERB': 6121, 'sobrevida=NOUN': 40}	0	invalide: coocc nulle dans Conllst	n_a
{'tocar=VERB': 3485, 'ficha=NOUN': 811}	1		3.3766047755707915
{'atender=VERB': 5574, 'reivindicação=NOUN': 261}	24		9.06285897763971
{'haver=VERB': 40643, 'horário=NOUN': 3871}	105		4.333352722299316
{'alertar=VERB': 925, 'prefeitura=NOUN': 3022}	3		4.981396300719836
{'integrar=VERB': 2575, 'palavra=NOUN': 10714}	9		3.2635341530214013
{'haver=VERB': 40643, 'punição=NOUN': 577}	40		5.748762892740196
{'haver=VERB': 40643, 'enlace=NOUN': 35}	1		4.406765162007037
{'sair=VERB': 12146, 'ordem=NOUN': 4471}	28		3.9300842877623006
{'oferecer=VERB': 12720, 'dinheiro=NOUN': 6754}	80		4.796795062582221
{'resgatar=VERB': 798, 'criança=NOUN': 15436}	20		5.611072675547092
{'preparar=VERB': 4916, 'ataque=NOUN': 2684}	16		5.164802796867126
{'garantir=VERB': 6121, 'marco=NOUN': 637}	0	invalide: coocc nulle dans Conllst	n_a
{'colocar=VERB': 15354, 'caliça=NOUN': 1}	0	invalide: coocc nulle dans Conllst	n_a
{'ter=VERB': 140459, 'autonomia=NOUN': 854}	137		5.318732866086535
{'arranjar=VERB': 392, 'emprego=NOUN': 5397}	33		8.972372345572571
{'haver=VERB': 40643, 'penetração=NOUN': 331}	18		5.374737743873433
{'possuir=VERB': 10784, 'tecnologia=NOUN': 4404}	72		5.507079010451318
{'comprar=VERB': 11838, 'mantimento=NOUN': 71}	6		7.8371001325352765
{'faltar=VERB': 3388, 'investimento=NOUN': 2492}	10		5.127598863897263
{'tomar=VERB': 10663, 'tempo=NOUN': 29567}	342		5.054553752952075
{'atingir=VERB': 4440, 'nível=NOUN': 7317}	167		7.32385494618147
{'consumir=VERB': 1450, 'álcool=NOUN': 1254}	30		8.982739320465466
{'ter=VERB': 140459, 'vocação=NOUN': 469}	71		5.218974183361684
{'haver=VERB': 40643, 'prova=NOUN': 7820}	388		5.248409469324703
{'receber=VERB': 19749, 'carro=NOUN': 10294}	61		3.149678636711809
{'aprender=VERB': 6255, 'arquitetura=NOUN': 903}	2		3.3791956842169704
{'haver=VERB': 40643, 'fundamento=NOUN': 1106}	49		5.064883079633648
{'ter=VERB': 140459, 'filial=NOUN': 269}	32		4.816707708283715
{'apoiar=VERB': 2269, 'iniciativa=NOUN': 1938}	45		8.291365109844104
{'enviar=VERB': 11193, 'carregamento=NOUN': 182}	4		5.879384868043421
{'produzir=VERB': 6528, 'metástase=NOUN': 38}	1		6.92325409234866
{'configurar=VERB': 1151, 'posição=NOUN': 3972}	4		4.687065795538943
{'enfrentar=VERB': 2653, 'vaia=NOUN': 48}	0	invalide: coocc nulle dans Conllst	n_a
{'fixar=VERB': 1523, 'pensão=NOUN': 736}	10		8.059817866616518
{'impugnar=VERB': 120, 'concorrência=NOUN': 595}	0	invalide: coocc nulle dans Conllst	n_a
{'prever=VERB': 4098, 'inflação=NOUN': 722}	13		7.039589319810173
{'ficar=VERB': 44825, 'triste=NOUN': 469}	65		6.719145696354547
{'dar=VERB': 45414, 'samba=NOUN': 548}	13		3.9715199646547448
{'cantar=VERB': 1734, 'blues=NOUN': 50}	1		8.431145998666265
{'aconselhar=VERB': 820, 'time=NOUN': 2980}	0	invalide: coocc nulle dans Conllst	n_a
{'distribuir=VERB': 1868, 'presente=NOUN': 2612}	20		6.935240832528323
{'comparar=VERB': 2267, 'gestão=NOUN': 2991}	2		3.114169265329951
{'ter=VERB': 140459, 'consumo=NOUN': 2505}	196		4.1487942034655605
{'atenuar=VERB': 136, 'problema=NOUN': 16430}	7		6.597609379804155
{'combinar=VERB': 2029, 'nota=NOUN': 5360}	12		5.027095163956484
{'apresentar=VERB': 16533, 'quadro=NOUN': 3316}	121		6.079711364489345
{'camuflar=VERB': 98, 'improviso=NOUN': 45}	0	invalide: coocc nulle dans Conllst	n_a
{'ter=VERB': 140459, 'oitava-de-final=NOUN': 6}	0	invalide: coocc nulle dans Conllst	n_a
{'sentir=VERB': 8856, 'vergonha=NOUN': 1005}	50		7.445139919856363
{'apontar=VERB': 2635, 'melhoria=NOUN': 1412}	11		6.454550155530039
{'haver=VERB': 40643, 'ligação=NOUN': 2025}	73		4.755873321165138
{'iniciar=VERB': 5849, 'perseguição=NOUN': 651}	10		6.291153734417783
{'querer=VERB': 40664, 'detalhe=NOUN': 4604}	117		4.236433477333458
{'faltar=VERB': 3388, 'estrutura=NOUN': 4177}	5		3.3762289725152512
{'acumular=VERB': 1169, 'avanço=NOUN': 972}	6		7.290359522353808
{'levar=VERB': 18254, 'cigarro=NOUN': 586}	12		5.069991065361373
{'provocar=VERB': 3141, 'engarrafamento=NOUN': 53}	4		9.575032123982831
{'haver=VERB': 40643, 'participação=NOUN': 3777}	117		4.531088403376216
{'descer=VERB': 1708, 'macia=NOUN': 100}	0	invalide: coocc nulle dans Conllst	n_a
{'percorrer=VERB': 901, 'trecho=NOUN': 1293}	14		8.498675860816546
{'prego=NOUN': 202}	0	invalide: mot absent Conllst	n_a_abs
{'haver=VERB': 40643, 'exceção=NOUN': 953}	49		5.290463778601143
{'receber=VERB': 19749, 'currículo=NOUN': 1220}	19		4.554715524068674
{'mandar=VERB': 4665, 'palpite=NOUN': 114}	0	invalide: coocc nulle dans Conllst	n_a
{'pedir=VERB': 11040, 'detalhe=NOUN': 4604}	53		4.957354473763812
{'enviar=VERB': 11193, 'representação=NOUN': 1403}	7		3.7157768628040135
{'criar=VERB': 15580, 't-shirts=NOUN': 36}	1		5.748313754187725
{'mostrar=VERB': 15755, 'obra=NOUN': 8259}	91		4.3817742216588424
{'receber=VERB': 19749, 'status=NOUN': 499}	17		5.711235714967528
{'impedir=VERB': 2706, 'exibição=NOUN': 1367}	0	invalide: coocc nulle dans Conllst	n_a
{'escolher=VERB': 7205, 'caderno=NOUN': 587}	2		3.7982367785193034
{'trazer=VERB': 7696, 'clássico=NOUN': 879}	15		6.049836441090209
{'intreguir=VERB': 39, 'morador=NOUN': 2023}	0	invalide: coocc nulle dans Conllst	n_a
{'usar=VERB': 29680, 'anel=NOUN': 590}	26		5.509861046468154
{'apurar=VERB': 811, 'chacina=NOUN': 56}	1		9.361773970644997
{'fazer=VERB': 123703, 'respiração=NOUN': 461}	27		3.882042012562875
{'fazer=VERB': 123703, 'lipo=NOUN': 14}	4		6.566509375204337
{'haver=VERB': 40643, 'suspeito=NOUN': 872}	21		4.154240231870364
{'baitar=VERB': 13, 'susto=NOUN': 225}	0	invalide: coocc nulle dans Conllst	n_a
{'abrigar=VERB': 613, 'instalação=NOUN': 3058}	6		6.568782329572588
{'prever=VERB': 4098, 'crescimento=NOUN': 3292}	35		6.276537145259618
{'separar=VERB': 2692, 'pertence=NOUN': 88}	0	invalide: coocc nulle dans Conllst	n_a
{'haver=VERB': 40643}	0	invalide: mot absent Conllst	n_a_abs
{'tocar=VERB': 3485, 'guitarra=NOUN': 623}	79		10.287366969189865
{'usar=VERB': 29680, 'banheiro=NOUN': 3485}	77		4.4835329353243
{'usar=VERB': 29680, 'cola=NOUN': 490}	77		7.528244584130693
{'haver=VERB': 40643, 'queixa=NOUN': 539}	30		5.410626551767794
{'haver=VERB': 40643, 'cancelamento=NOUN': 502}	18		4.745893353531456
{'responsabilizar=VERB': 461, 'atleta=NOUN': 1401}	2		6.512381191363081
{'pegar=VERB': 6648, 'onda=NOUN': 988}	21		6.585716921167131
{'publicar=VERB': 10782, 'foto=NOUN': 17203}	266		5.452005054220952
{'colocar=VERB': 15354, 'bandeira=NOUN': 877}	16		5.15021960025059
{'haver=VERB': 40643, 'etapa=NOUN': 2498}	45		3.727312323225559
{'reunir=VERB': 3111, 'olheiro=NOUN': 16}	0	invalide: coocc nulle dans Conllst	n_a
{'alterar=VERB': 3231, 'comportamento=NOUN': 2688}	21		6.167869513159812
{'acertar=VERB': 1236, 'chute=NOUN': 205}	11		10.405864524501881
{'usar=VERB': 29680, 'perfume=NOUN': 758}	32		5.445438877918626
{'ter=VERB': 140459, 'brechó=NOUN': 70}	5		4.004733877694091
{'apoiar=VERB': 2269, 'repressão=NOUN': 315}	2		6.368324259268238
{'produzir=VERB': 6528, 'carro=NOUN': 10294}	54		4.577429539008576
{'render=VERB': 1271, 'busca=NOUN': 5444}	3		3.6718791394635413
{'haver=VERB': 40643, 'vacinação=NOUN': 289}	12		4.965838864809038
{'ter=VERB': 140459, 'canção=NOUN': 1334}	88		3.8823696608209026
{'haver=VERB': 40643, 'rompimento=NOUN': 156}	15		6.26206429902702
{'sejar=VERB': 126, 'crítico=NOUN': 367}	0	invalide: coocc nulle dans Conllst	n_a
{'aprender=VERB': 6255, 'técnica=NOUN': 3327}	111		7.363313456391665
{'atrair=VERB': 1516, 'peemedebista=NOUN': 26}	0	invalide: coocc nulle dans Conllst	n_a
{'acionar=VERB': 560, 'viatura=NOUN': 305}	3		9.029936025997689
{'doutor=NOUN': 588}	0	invalide: mot absent Conllst	n_a_abs
{'oferecer=VERB': 12720, 'cardápio=NOUN': 577}	36		7.264629837453301
{'incluir=VERB': 8916, 'disquete=NOUN': 52}	0	invalide: coocc nulle dans Conllst	n_a
{'ganhar=VERB': 10481, 'destaque=NOUN': 2588}	131		7.238309493842879
{'gostar=NOUN': 9}	0	invalide: mot absent Conllst	n_a_abs
{'pôr=VERB': 2800, 'culpa=NOUN': 1276}	12		6.641078688617273
{'ganhar=VERB': 10481, 'aparência=NOUN': 948}	6		4.1556284095759395
{'fazer=VERB': 123703, 'ginástica=NOUN': 286}	27		4.6267849573208
{'ocupar=VERB': 2745, 'fundo=NOUN': 4084}	10		4.717284494183198
{'apoiar=VERB': 2269, 'ação=NOUN': 11112}	37		5.455224757411662
{'estudar=VERB': 4219, 'medicina=NOUN': 923}	24		7.543241881821166
{'conseguir=VERB': 15536, 'clique=NOUN': 2173}	21		4.204390765747698
{'fazer=VERB': 123703, 'mistério=NOUN': 870}	58		4.081712484749323
{'possuir=VERB': 10784, 'dimensionamento=NOUN': 79}	0	invalide: coocc nulle dans Conllst	n_a
{'considerar=VERB': 11250, 'réu=NOUN': 691}	10		5.258974473708645
{'causar=VERB': 5048, 'interrupção=NOUN': 385}	13		7.668416626080558
{'possuir=VERB': 10784, 'graduação=NOUN': 1281}	36		6.301126150415347
{'pedir=VERB': 11040, 'cerveja=NOUN': 1200}	15		5.072639998432295
{'trocar=VERB': 3225, 'farpa=NOUN': 26}	7		11.712390579832215
{'pedir=VERB': 11040, 'empenho=NOUN': 399}	3		4.330457200889059
{'fazer=VERB': 123703, 'arranjo=NOUN': 425}	51		5.014516614909389
{'gerar=VERB': 4069, 'debate=NOUN': 1681}	24		6.713592408124007
{'acolher=VERB': 670, 'criança=NOUN': 15436}	16		5.539249811641164
{'inventar=VERB': 1003, 'sistema=NOUN': 13471}	12		4.720849433841595
{'haver=VERB': 40643, 'seleção=NOUN': 2660}	54		3.9033767395048344
{'obter=VERB': 7164, 'vaga=NOUN': 7739}	36		4.264350451884857
{'vender=VERB': 6622, 'bala=NOUN': 512}	8		6.136324528250612
{'trazer=VERB': 7696, 'saúde=NOUN': 8582}	119		5.765365061389675
{}	0	invalide: mot absent Conllst	n_a_abs
{'orientar=VERB': 1761, 'coletivo=NOUN': 288}	1		5.858645141741295
{'deixar=VERB': 19912, 'recado=NOUN': 510}	78		8.0597384582556
{'brigar=NOUN': 1}	0	invalide: mot absent Conllst	n_a_abs
{'anunciar=VERB': 3337, 'primário=NOUN': 31}	0	invalide: coocc nulle dans Conllst	n_a
{'aguardar=VERB': 2277, 'cena=NOUN': 2197}	4		4.555839716450201
{'pedir=VERB': 11040, 'contraprova=NOUN': 2}	0	invalide: coocc nulle dans Conllst	n_a
{'usar=VERB': 29680, 'celular=NOUN': 2429}	124		5.7373936437917
{'manter=VERB': 9884, 'garrafa=NOUN': 1001}	7		4.385307467782092
{'mostrar=VERB': 15755, 'irregularidade=NOUN': 509}	7		4.697842152889434
{'virar=VERB': 2899, 'tragédia=NOUN': 519}	2		5.290547342356305
{'receber=VERB': 19749, 'cabelo=NOUN': 5993}	31		2.950301826447817
{'servir=VERB': 6255, 'suco=NOUN': 1044}	17		6.2812863194996345
{'retirar=VERB': 3454, 'agenda=NOUN': 838}	1		3.3421933505379124
{'ter=VERB': 140459, 'inspiração=NOUN': 993}	117		4.801902140111696
{'denunciar=VERB': 1252, 'local=NOUN': 9803}	7		4.072359618479825
{'haver=VERB': 40643, 'passe=NOUN': 440}	10		4.068282762684373
{'ostentar=VERB': 131, 'marca=NOUN': 5760}	2		6.302332452954954
{'conceituar=VERB': 237, 'editoração=NOUN': 24}	0	invalide: coocc nulle dans Conllst	n_a
{'responder=VERB': 9668, 'acusação=NOUN': 706}	20		6.468760918756108
{'ter=VERB': 140459}	0	invalide: mot absent Conllst	n_a_abs
{'haver=VERB': 40643, 'vento=NOUN': 1463}	71		5.203518603983063
{'usar=VERB': 29680, 'calça=NOUN': 1106}	184		7.6316190964755
{'querer=VERB': 40664, 'reconhecimento=NOUN': 1377}	21		3.4813684656975803
{'combater=VERB': 1304, 'grupo=NOUN': 11936}	25		5.587960502083445
{'trocar=VERB': 3225, 'profissional=NOUN': 5434}	11		4.2093137318886376
{'dominar=VERB': 1359, 'tv=NOUN': 3620}	2		3.5777300839015473
{'adquirir=VERB': 3174, 'vala=NOUN': 43}	0	invalide: coocc nulle dans Conllst	n_a
{'reunir=VERB': 3111, 'técnica=NOUN': 3327}	9		4.679755641392002
{'reunir=VERB': 3111, 'pesquisador=NOUN': 1327}	19		7.1053678659622985
{'traumatismo=NOUN': 75}	0	invalide: mot absent Conllst	n_a_abs
{'odiar=VERB': 276, 'time=NOUN': 2980}	0	invalide: coocc nulle dans Conllst	n_a
{'cortar=VERB': 2613, 'cruzamento=NOUN': 351}	1		5.002761488562883
{'significar=VERB': 5359, 'risco=NOUN': 5449}	25		4.662624399029098
{'sofrer=VERB': 5388, 'estiramento=NOUN': 35}	2		8.365519148081518
{'aprovar=VERB': 4084, 'protocolo=NOUN': 568}	5		5.995848972956253
{'pedir=VERB': 11040, 'documento=NOUN': 7126}	60		4.502533909766948
{'dar=VERB': 45414, 'lavagem=NOUN': 688}	13		3.6361713540050613
{'prometer=VERB': 1850, 'performance=NOUN': 693}	2		5.520620840137327
{'ler=VERB': 13414, 'adriano=NOUN': 19}	1		6.923642449235532
{'haver=VERB': 40643, 'maratona=NOUN': 126}	2		3.5400671909461385
{'comprar=VERB': 11838, 'bebida=NOUN': 1674}	16		4.580496985195001
{'disparar=VERB': 486, 'munição=NOUN': 203}	2		9.23499685348812
{'valer=VERB': 5261, 'ouro=NOUN': 1900}	21		5.966128756875535
{'haver=VERB': 40643, 'controvérsia=NOUN': 243}	39		7.108554421431427
{'localizar=VERB': 5270, 'foto=NOUN': 17203}	22		2.8382650071146065
{'ter=VERB': 140459}	0	invalide: mot absent Conllst	n_a_abs
{'oferecer=VERB': 12720, 'rota=NOUN': 711}	5		4.029071661980356
{'providenciar=VERB': 382, 'flor=NOUN': 2467}	0	invalide: coocc nulle dans Conllst	n_a
{'colocar=VERB': 15354, 'lei=NOUN': 8859}	67		3.869007609366687
{'incentivar=VERB': 993, 'invasão=NOUN': 623}	2		6.573721076534674
{'enfrentar=VERB': 2653, 'travessia=NOUN': 154}	0	invalide: coocc nulle dans Conllst	n_a
{'virar=VERB': 2899, 'mistério=NOUN': 870}	2		4.543016580226761
{'reunir=VERB': 3111, 'clássico=NOUN': 879}	3		5.013316434653916
{'constatar=VERB': 1037, 'previsão=NOUN': 1743}	3		5.610982221611774
{'existir=VERB': 16117, 'objeto=NOUN': 2355}	25		4.288597709549094
{'enfrentar=VERB': 2653, 'soldado=NOUN': 934}	6		6.161750808039828
{'recolher=VERB': 1088, 'depoimento=NOUN': 950}	2		5.831360145239022
{'assistir=VERB': 4508, 'faceira=NOUN': 3}	0	invalide: coocc nulle dans Conllst	n_a
{'elaborar=VERB': 2053, 'ficha=NOUN': 811}	4		6.147782649652616
{'recolher=VERB': 1088, 'documento=NOUN': 7126}	15		5.848531275859991
{'flagrar=VERB': 378}	0	invalide: mot absent Conllst	n_a_abs
{'prever=VERB': 4098, 'terra=NOUN': 6126}	7		3.0349486982764433
{'haver=VERB': 40643, 'mancha=NOUN': 863}	35		4.931231487546178
{'buscar=VERB': 6080, 'patrocínio=NOUN': 304}	7		6.829753929348408
{'haver=VERB': 40643, 'banda=NOUN': 2873}	56		3.843592769325158
{'receber=VERB': 19749, 'motociclista=NOUN': 176}	1		3.084281740368217
{'publicar=VERB': 10782, 'documento=NOUN': 7126}	49		4.240933659817595
{'ter=VERB': 140459, 'guarda=NOUN': 1079}	118		4.680585188606547
{'ganhar=VERB': 10481, 'elogio=NOUN': 511}	15		6.4041835235485705
{'receber=VERB': 19749, 'asfalto=NOUN': 253}	11		6.076791971076156
{'ter=VERB': 140459, 'correção=NOUN': 1076}	72		3.904243408412828
{'dar=VERB': 45414, 'espetáculo=NOUN': 755}	17		3.894588275487254
{'provocar=VERB': 3141, 'perda=NOUN': 2826}	47		7.323893032969682
{'pedir=VERB': 11040, 'reforço=NOUN': 664}	7		4.82297963442744
{'buscar=VERB': 6080, 'oxigênio=NOUN': 375}	0	invalide: coocc nulle dans Conllst	n_a
{'deixar=VERB': 19912, 'pra=NOUN': 810}	21		5.293519527121823
{'preparar=VERB': 4916, 'jantar=NOUN': 1172}	33		7.442201806954521
{'incluir=VERB': 8916, 'elemento=NOUN': 3896}	49		5.395873151569266
{'mostrar=VERB': 15755, 'progresso=NOUN': 774}	8		4.280921817084752
{'ter=VERB': 140459, 'filho=NOUN': 11680}	2273		5.679522827557815
{'fazer=VERB': 123703, 'valeta=NOUN': 21}	2		4.640486630940096
{'pedir=VERB': 11040, 'nó=NOUN': 239}	10		6.858490918253316
{'ter=VERB': 140459, 'premonição=NOUN': 24}	5		5.779174177278961
{'fazer=VERB': 123703, 'alongamento=NOUN': 162}	32		5.866396256580708
{'afugentar=VERB': 29, 'invasor=NOUN': 165}	0	invalide: coocc nulle dans Conllst	n_a
{'receber=VERB': 19749, 'comida=NOUN': 1801}	26		4.444156799297656
{'furtar=VERB': 389, 'pão=NOUN': 1799}	0	invalide: coocc nulle dans Conllst	n_a
{'oferecer=VERB': 12720, 'expectativa=NOUN': 1507}	16		4.629852042515243
{'prestar=VERB': 3423, 'auxílio=NOUN': 829}	33		8.485611722732742
{'merecer=VERB': 1326, 'parabéns=NOUN': 2991}	19		7.163577469051199
{'desinfetar=VERB': 24, 'bueiro=NOUN': 39}	0	invalide: coocc nulle dans Conllst	n_a
{'provocar=VERB': 3141, 'colorado=NOUN': 16}	0	invalide: coocc nulle dans Conllst	n_a
{'dizer=VERB': 48437, 'término=NOUN': 663}	12		3.479896121119185
{'influenciar=VERB': 1328, 'pessoa=NOUN': 41303}	83		5.5669643019065065
{'rever=VERB': 1067, 'colega=NOUN': 2166}	1		3.6667687495683805
{'conseguir=VERB': 15536, 'telefone=NOUN': 4654}	66		4.768470648947874
{'libertar=VERB': 795, 'centena=NOUN': 963}	2		6.2653421054639145
{'distribuir=VERB': 1868, 'questionário=NOUN': 280}	1		5.814284257886253
{'criar=VERB': 15580, 'raiz=NOUN': 760}	9		4.495593706237674
{'buscar=VERB': 6080, 'sabedoria=NOUN': 839}	15		6.459009920359071
{'colocar=VERB': 15354, 'vídeos=NOUN': 39}	0	invalide: coocc nulle dans Conllst	n_a
{'saldar=VERB': 46, 'dívida=NOUN': 1729}	22		13.942133556830045
{'haver=VERB': 40643, 'flagrante=NOUN': 326}	12		4.7849602819666
{'haver=VERB': 40643, 'interessado=NOUN': 898}	22		4.1796182053668085
{'requerer=VERB': 2100, 'internação=NOUN': 239}	2		6.881369570466116
{'haver=VERB': 40643, 'contágio=NOUN': 66}	5		5.885560758125362
{'apanhar=VERB': 639, 'feio=NOUN': 256}	2		8.501077532913177
{'merecer=VERB': 1326, 'análise=NOUN': 3885}	8		5.520052107182411
{'ganhar=VERB': 10481, 'fôlego=NOUN': 230}	15		7.610186984345987
{'suscitar=VERB': 277, 'amore=NOUN': 269}	0	invalide: coocc nulle dans Conllst	n_a
{'possuir=VERB': 10784, 'nota=NOUN': 5360}	30		3.9392968036281553
{'haver=VERB': 40643, 'desfile=NOUN': 613}	11		3.72039496520244
{'ter=VERB': 140459, 'regra=NOUN': 4054}	380		4.435750314956472
{'confeccionar=VERB': 707}	0	invalide: mot absent Conllst	n_a_abs
{'trazer=VERB': 7696, 'alimentação=NOUN': 2128}	14		4.659240794085498
{'fazer=VERB': 123703, 'digressão=NOUN': 51}	7		5.236395762781174
{'assistir=VERB': 4508, 'anúncio=NOUN': 2773}	3		2.8168926310253477
{'jogar=VERB': 6979, 'sério=NOUN': 461}	4		5.200883925279661
{'realizar=VERB': 17454, 'agachamento=NOUN': 32}	0	invalide: coocc nulle dans Conllst	n_a
{'ter=VERB': 140459, 'miopia=NOUN': 37}	5		5.027101690722545
{'desejar=VERB': 6706, 'reabilitação=NOUN': 263}	0	invalide: coocc nulle dans Conllst	n_a
{'disputar=VERB': 1149, 'taça=NOUN': 362}	4		8.159964121693081
{'solar=VERB': 542, 'fator=NOUN': 3199}	12		7.702042429434385
{'distribuir=VERB': 1868, 'megafone=NOUN': 10}	0	invalide: coocc nulle dans Conllst	n_a
{'significar=VERB': 5359, 'gravidez=NOUN': 1388}	6		4.571200444959547
{'confirmar=VERB': 2995, 'candidatura=NOUN': 544}	16		8.219905254333659
{'ficar=VERB': 44825, 'caro=NOUN': 726}	37		5.135180350969728
{'trazer=VERB': 7696, 'pijama=NOUN': 64}	2		6.941197357258154
{'cobrar=VERB': 1945, 'dinheiro=NOUN': 6754}	28		5.992099018804513
{'levar=VERB': 18254, 'acento=NOUN': 224}	5		5.196523027634672
{'fazer=VERB': 123703, 'balé=NOUN': 124}	8		4.030503127511595
{'tiver=VERB': 20, 'concentração=NOUN': 1606}	0	invalide: coocc nulle dans Conllst	n_a
{'executar=VERB': 2708, 'projeto=NOUN': 10310}	84		6.519722889415376
{'importar=VERB': 2952, 'insumo=NOUN': 195}	5		8.031952923374059
{'cultura=NOUN': 4700}	0	invalide: mot absent Conllst	n_a_abs
{'aceitar=VERB': 5607, 'encomenda=NOUN': 607}	22		7.624709020737497
{'haver=VERB': 40643, 'escassez=NOUN': 183}	20		6.468102556755016
{'ouvir=VERB': 9273, 'xingamento=NOUN': 55}	3		7.511080941008814
{'unir=VERB': 1852, 'tecido=NOUN': 2327}	12		6.367587753570826
{'usar=VERB': 29680, 'avental=NOUN': 26}	2		6.362843029634922
{'prever=VERB': 4098, 'operação=NOUN': 3603}	30		5.91877821510739
{'montar=VERB': 2680, 'guarda=NOUN': 1079}	8		6.356464724717335
{'gerenciar=VERB': 472, 'publicidade=NOUN': 1180}	0	invalide: coocc nulle dans Conllst	n_a
{'trazer=VERB': 7696, 'investimento=NOUN': 2492}	12		4.206108073723034
{'render=VERB': 1271, 'ponto=NOUN': 14217}	15		4.623375137202763
{'atingir=VERB': 4440, 'r=NOUN': 115}	0	invalide: coocc nulle dans Conllst	n_a
{'declarar=VERB': 2450, 'simpatia=NOUN': 1861}	2		3.68721288432951
{'juntar=VERB': 2312, 'autocarro=NOUN': 152}	0	invalide: coocc nulle dans Conllst	n_a
{'atingir=VERB': 4440, 'preço=NOUN': 17430}	20		2.9293806400117477
{'criar=VERB': 15580, 'transtorno=NOUN': 637}	4		3.5718129237930065
{'envolver=VERB': 5362, 'documento=NOUN': 7126}	25		4.273148184272281
{'enviar=VERB': 11193, 'vídeo=NOUN': 8256}	586		7.721928720935432
{'cobrar=VERB': 1945, 'dedicação=NOUN': 697}	3		6.027754944665346
{'encaminhar=VERB': 1705, 'heitor=NOUN': 3}	0	invalide: coocc nulle dans Conllst	n_a
{'falar=VERB': 21910, 'grego=NOUN': 652}	17		5.1635798012709
{'destruir=VERB': 1973, 'célula=NOUN': 1945}	27		7.728116284305869
{'reunir=VERB': 3111, 'papel=NOUN': 6922}	12		4.037817247800962
{'testemunhar=VERB': 205, 'oscilação=NOUN': 130}	0	invalide: coocc nulle dans Conllst	n_a
{'investigar=VERB': 1390, 'contrato=NOUN': 3804}	19		6.745748854732909
{'interpretar=VERB': 1527, 'escravo=NOUN': 688}	1		4.805206246289012
{'denunciar=VERB': 1252}	0	invalide: mot absent Conllst	n_a_abs
{'significar=VERB': 5359, 'povo=NOUN': 5729}	27		4.702085895078186
{'salvar=VERB': 2397, 'casamento=NOUN': 4513}	16		5.452812708002293
{'vitimar=VERB': 82, 'policial=NOUN': 1879}	1		7.590080431403244
{'suspender=VERB': 1098, 'demissão=NOUN': 457}	2		6.877156963895057
{'pleitear=VERB': 177, 'vaga=NOUN': 7739}	11		7.973424590396243
{'controlar=VERB': 2755, 'artéria=NOUN': 348}	5		7.279559207356809
{'ingerir=VERB': 538, 'cápsula=NOUN': 355}	11		10.796419494239627
{'ter=VERB': 140459, 'prosseguimento=NOUN': 129}	15		4.779276897486402
{'receber=VERB': 19749, 'comunicado=NOUN': 416}	21		6.303563277253099
{'provocar=VERB': 3141, 'alteração=NOUN': 3909}	62		7.261343825987087
{'rolar=VERB': 1099, 'solto=NOUN': 53}	5		11.446480353315293
{'prestar=VERB': 3423, 'conta=NOUN': 9604}	132		6.9555422245467975
{'ficar=VERB': 44825, 'contigo=NOUN': 193}	5		4.120395996753612
{'buscar=VERB': 6080, 'escândalo=NOUN': 372}	1		3.7000181018741984
{'usar=VERB': 29680, 'pedra=NOUN': 2394}	87		5.2230846519333465
{'provocar=VERB': 3141, 'polêmica=NOUN': 513}	14		8.038807194736945
{'criar=VERB': 15580}	0	invalide: mot absent Conllst	n_a_abs
{'trazer=VERB': 7696, 'modificação=NOUN': 920}	17		6.167089713250328
{'transformar=VERB': 3689, 'sucata=NOUN': 80}	1		6.652508093335202
{'dizer=VERB': 48437, 'gracinha=NOUN': 92}	3		4.350408316990557
{'comemorar=VERB': 1692, 'gol=NOUN': 1809}	26		8.003087827092193
{'distribuir=VERB': 1868, 'leite=NOUN': 2852}	9		5.641327344786946
{'fazer=VERB': 123703, 'mutirão=NOUN': 99}	24		6.244814558141847
{'tiver=VERB': 20, 'consciência=NOUN': 1823}	0	invalide: coocc nulle dans Conllst	n_a
{'usar=VERB': 29680, 'luva=NOUN': 340}	51		7.447689126734473
{'escapar=VERB': 805, 'ileso=NOUN': 20}	3		12.654953014957542
{'promover=VERB': 4347, 'comício=NOUN': 76}	1		6.490620632264479
{'recrutar=VERB': 282, 'adolescente=NOUN': 1579}	4		8.064834595943495
{'exercer=VERB': 2086, 'pressão=NOUN': 2639}	63		8.468994222768659
{'selecionar=VERB': 2638, 'parte=NOUN': 22913}	43		4.408488968099463
{'explorar=VERB': 1611, 'jogo=NOUN': 17541}	28		4.887682543807956
{'construir=VERB': 4928, 'campanha=NOUN': 3152}	7		3.728686601102456
{'haver=VERB': 40643, 'facilidade=NOUN': 1413}	53		4.814604580782085
{'inscrever=VERB': 1694, 'incentiva=NOUN': 12}	0	invalide: coocc nulle dans Conllst	n_a
{'mascarar=VERB': 125, 'substância=NOUN': 1548}	0	invalide: coocc nulle dans Conllst	n_a
{'fazer=VERB': 123703, 'baile=NOUN': 309}	24		4.318815139585624
{'tentar=VERB': 11013, 'drible=NOUN': 47}	1		5.854560931289069
{'tomar=VERB': 10663, 'medicamento=NOUN': 2552}	243		8.209604170607438
{'exigir=VERB': 4013, 'funcionário=NOUN': 3494}	20		5.4012004814855645
{'oferecer=VERB': 12720, 'médico=NOUN': 5314}	38		4.057115784628107
{'comprar=VERB': 11838, 'terreno=NOUN': 1933}	58		6.266165978080786
{'causar=VERB': 5048, 'diarréia=NOUN': 137}	15		9.483862157490373
{'ter=VERB': 140459, 'férias=NOUN': 1711}	155		4.37921322770248
{'pedir=VERB': 11040, 'isenção=NOUN': 912}	14		5.373073183166988
{'jogar=VERB': 6979, 'confete=NOUN': 24}	1		7.5127519436902555
{'fazer=VERB': 123703, 'besteira=NOUN': 269}	83		6.7252397575871035
{'ter=VERB': 140459, 'carteira=NOUN': 1285}	199		5.258983907120542
{'relacionar=VERB': 5506, 'elemento=NOUN': 3896}	33		5.515683797860677
{'tratar=VERB': 9246, 'mulher=NOUN': 16744}	151		4.874171471290792
{'vincular=VERB': 740, 'show=NOUN': 3325}	1		3.5767765610251474
{'supervisionar=VERB': 333, 'programa=NOUN': 10410}	14		6.951113171762177
{'oferecer=VERB': 12720, 'informação=NOUN': 19197}	197		4.600959209182834
{'atravessar=VERB': 1032}	0	invalide: mot absent Conllst	n_a_abs
{'produzir=VERB': 6528, 'alfabeto=NOUN': 235}	3		5.860131101190618
{'enviar=VERB': 11193, 'arquivo=NOUN': 4091}	167		6.821884862105346
{'prometer=VERB': 1850, 'inflação=NOUN': 722}	1		4.458526823296625
{'acabar=VERB': 4243, 'surpreender=NOUN': 1}	0	invalide: coocc nulle dans Conllst	n_a
{'criar=VERB': 15580, 'produto=NOUN': 16538}	215		4.651125871269772
{'haver=VERB': 40643, 'político=NOUN': 1027}	40		4.870634896269211
{'promover=VERB': 4347, 'cirurgia=NOUN': 2271}	3		3.157860969916209
{'utilizar=VERB': 14738, 'adereço=NOUN': 77}	2		5.729035745354427
{'achar=VERB': 18613, 'tempo=NOUN': 29567}	467		4.696095045559014
{'adquirir=VERB': 3174, 'conhecimento=NOUN': 7686}	201		8.048473124267147
{'processar=VERB': 777, 'urânio=NOUN': 70}	0	invalide: coocc nulle dans Conllst	n_a
{'ensinar=VERB': 3583, 'tática=NOUN': 204}	2		6.340553495869323
{'unir=VERB': 1852, 'gente=NOUN': 7972}	11		4.459335542086096
{'comandar=VERB': 861, 'sessão=NOUN': 2226}	2		4.939456388079672
{'pensar=VERB': 12897, 'palavra=NOUN': 10714}	131		4.82885482023969
{'passar=VERB': 21322, 'vergonha=NOUN': 1005}	50		6.172742986935589
{'encontrar=VERB': 25296, 'torcedor=NOUN': 705}	2		1.7210233200929976
{'alimentar=VERB': 1611, 'investigação=NOUN': 1886}	0	invalide: coocc nulle dans Conllst	n_a
{'resolver=VERB': 5611, 'gargalo=NOUN': 88}	2		6.9251191595577595
{'falar=VERB': 21910, 'francês=NOUN': 618}	33		6.2398857928178275
{'trocar=VERB': 3225, 'casa=NOUN': 20609}	67		4.919916485537406
{'cair=VERB': 6403, 'descrédito=NOUN': 39}	9		10.425443158994916
{'falsificar=VERB': 136, 'exame=NOUN': 3501}	0	invalide: coocc nulle dans Conllst	n_a
{'ampliar=VERB': 1880, 'vantagem=NOUN': 2343}	15		6.661967119499277
{'orientar=VERB': 1761, 'devolução=NOUN': 362}	1		5.527697041529812
{'ignorar=VERB': 1401, 'agressão=NOUN': 592}	3		6.738601813456902
{'solicitar=VERB': 2504, 'ampliação=NOUN': 633}	4		6.220283195512905
{'haver=VERB': 40643, 'ruído=NOUN': 394}	11		4.372814060037185
{'liber=VERB': 6, 'área=NOUN': 16868}	0	invalide: coocc nulle dans Conllst	n_a
{'receber=VERB': 19749, 'casaco=NOUN': 248}	1		2.5871256206158684
{'poupar=VERB': 470, 'jovem=NOUN': 356}	0	invalide: coocc nulle dans Conllst	n_a
{'abrir=VERB': 12883, 'documento=NOUN': 7126}	56		4.177876034778525
{'esquecer=VERB': 4219, 'diferença=NOUN': 4980}	14		4.2965080726799
{'consertar=VERB': 259, 'trator=NOUN': 252}	0	invalide: coocc nulle dans Conllst	n_a
{'trazer=VERB': 7696, 'umidade=NOUN': 899}	5		4.413753378356225
{'ter=VERB': 140459, 'vara=NOUN': 475}	30		3.814659479823039
{'merecer=VERB': 1326, 'vaga=NOUN': 7739}	3		3.1029048569072812
{'estudar=VERB': 4219, 'conversão=NOUN': 786}	3		4.735346633734544
{'ver=VERB': 60427, 'assalto=NOUN': 747}	13		3.1031199573758528
{'dispor=VERB': 1865, 'espaço=NOUN': 8783}	27		5.6198219936351315
{'inventar=VERB': 1003, 'título=NOUN': 5230}	3		4.072322554040819
{'pensar=VERB': 12897, 'técnico=NOUN': 1667}	7		3.261334534515947
{'gente=NOUN': 7972}	0	invalide: mot absent Conllst	n_a_abs
{'ganhar=VERB': 10481, 'parado=NOUN': 8}	0	invalide: coocc nulle dans Conllst	n_a
{'encontrar=VERB': 25296, 'ligação=NOUN': 2025}	57		5.071920161104095
{'perturbar=VERB': 173, 'tranquilidade=NOUN': 501}	1		8.412862742577458
{'pegar=VERB': 6648, 'arma=NOUN': 2710}	42		6.126124999250293
{'hipotecar=VERB': 15, 'casa=NOUN': 20609}	1		6.666639981769422
{'refizer=VERB': 2, 'vida=NOUN': 28467}	0	invalide: coocc nulle dans Conllst	n_a
{'ter=VERB': 140459, 'bebé=NOUN': 219}	29		4.993545523417795
{'distender=VERB': 9, 'músculo=NOUN': 1021}	2		13.004618523718225
{'levantar=VERB': 2380, 'discussão=NOUN': 2826}	13		5.8386136720334205
{'machucar=VERB': 383, 'costa=NOUN': 1836}	1		5.385918606175319
{'formar=VERB': 6179, 'força-tarefa=NOUN': 36}	0	invalide: coocc nulle dans Conllst	n_a
{'possuar=VERB': 90, 'esquema=NOUN': 1101}	0	invalide: coocc nulle dans Conllst	n_a
{'assinar=VERB': 2691, 'balanço=NOUN': 680}	2		5.006916278932426
{'acatar=VERB': 151, 'denúncia=NOUN': 1117}	3		9.058887399693818
{'haver=VERB': 40643, 'gravadora=NOUN': 195}	5		4.2464424873573
{'conseguir=VERB': 15536, 'pontuação=NOUN': 936}	19		5.29049933313603
{'receber=VERB': 19749, 'manifestante=NOUN': 327}	0	invalide: coocc nulle dans Conllst	n_a
{'licenciar=VERB': 128, 'canção=NOUN': 1334}	0	invalide: coocc nulle dans Conllst	n_a
{'atrapalhar=VERB': 552, 'negociação=NOUN': 1180}	2		6.49950014969916
{'segurar=VERB': 1012, 'cabeça=NOUN': 5606}	30		7.327208317367046
{'hospedar=VERB': 711, 'turista=NOUN': 910}	5		7.841541521587257
{'ser=VERB': 38005, 'emergência=NOUN': 875}	22		4.314875231769967
{'ter=VERB': 140459, 'disciplina=NOUN': 1953}	169		4.306838667870979
{'elaborar=VERB': 2053, 'metodologia=NOUN': 880}	8		7.038842329335606
{'haver=VERB': 40643, 'distinção=NOUN': 592}	48		5.993397017196903
{'revelar=VERB': 3867, 'norma=NOUN': 3070}	5		3.6300360693002105
{'arremessar=VERB': 127, 'menina=NOUN': 3800}	0	invalide: coocc nulle dans Conllst	n_a
{'violar=VERB': 451, 'ética=NOUN': 731}	2		7.484565142873559
{'acatar=VERB': 151, 'sugestão=NOUN': 2434}	5		8.690868543313123
{'apertar=VERB': 990, 'gatilho=NOUN': 84}	5		10.879079214308165
{'receber=VERB': 19749, 'recomendação=NOUN': 915}	12		4.302677007066035
{'aguardar=VERB': 2277, 'posicionamento=NOUN': 509}	6		7.266347702150384
{'decorrer=VERB': 975, 'excesso=NOUN': 1365}	5		6.795608003616814
{'ver=VERB': 60427, 'cozinheiro=NOUN': 170}	3		3.123335918643126
{'adjetivo=NOUN': 246}	0	invalide: mot absent Conllst	n_a_abs
{'manter=VERB': 9884, 'coerência=NOUN': 254}	9		6.768633811542195
{'desconhecer=VERB': 1300, 'atividade=NOUN': 11618}	10		4.2908527224516435
{'marcar=VERB': 5148, 'entrevista=NOUN': 2895}	48		6.598365973174314
{'descumprir=VERB': 105, 'contrato=NOUN': 3804}	3		7.825285630829338
{'mudar=VERB': 7432, 'padrão=NOUN': 3335}	35		5.393219929305757
{'produzir=VERB': 6528, 'equivalente=NOUN': 78}	2		6.885000996406194
{'juntar=VERB': 2312, 'força=NOUN': 6289}	35		6.170712718824947
{'construir=VERB': 4928, 'túnel=NOUN': 300}	8		7.350644622835023
{'haver=VERB': 40643, 'uso=NOUN': 10682}	321		4.4931860580658896
{'apoiar=VERB': 2269, 'rompimento=NOUN': 156}	0	invalide: coocc nulle dans Conllst	n_a
{'atravessar=VERB': 1032, 'avenida=NOUN': 624}	12		9.138133003111289
{'ocorrer=VERB': 9554, 'racha=NOUN': 43}	0	invalide: coocc nulle dans Conllst	n_a
{'comprovar=VERB': 2120, 'dano=NOUN': 2376}	21		6.960231408928104
{'sugerir=VERB': 2467, 'caminho=NOUN': 6182}	17		5.043923410011848
{'ganhar=VERB': 10481, 'lugar=NOUN': 13473}	105		4.471698517294878
{'tratar=VERB': 9246, 'asma=NOUN': 161}	6		6.940072741085142
{'ter=VERB': 140459}	0	invalide: mot absent Conllst	n_a_abs
{'evitar=VERB': 5247, 'reajuste=NOUN': 562}	1		3.3160527290678656
{'corrigir=VERB': 1054, 'imposto=NOUN': 2748}	0	invalide: coocc nulle dans Conllst	n_a
{'estabelecer=VERB': 4960, 'convênio=NOUN': 379}	6		6.572464309161199
{'trazer=VERB': 7696, 'melhoria=NOUN': 1412}	42		6.875270841204019
{'levantar=VERB': 2380, 'fervura=NOUN': 58}	23		12.996454677803523
{'reaver=VERB': 68, 'recurso=NOUN': 8029}	1		5.767997690121254
{'fazer=VERB': 123703, 'propaganda=NOUN': 932}	166		5.68416695542488
{'mitigar=VERB': 45, 'impacto=NOUN': 1515}	4		10.88607183215873
{'definir=VERB': 5085, 'teto=NOUN': 732}	5		5.310415541249883
{'marcar=VERB': 5148, 'época=NOUN': 5104}	78		6.487349013032534
{'formular=VERB': 561, 'regra=NOUN': 4054}	8		6.711495507148653
{'evitar=VERB': 5247, 'contestação=NOUN': 233}	1		4.589928694549086
{'acumular=VERB': 1169, 'média=NOUN': 2248}	8		6.49447650813111
{'encontrar=VERB': 25296, 'inspiração=NOUN': 993}	25		4.904709600522733
{'passar=VERB': 21322, 'férias=NOUN': 1711}	90		6.260143847383583
{'apoiar=VERB': 2269, 'candidatura=NOUN': 544}	22		9.102652994829148
{'exigir=VERB': 4013, 'cuidado=NOUN': 3657}	78		7.342825251992658
{'ter=VERB': 140459, 'vago=NOUN': 27}	2		4.061286591424343
{'furtar=VERB': 389, 'fio=NOUN': 3088}	0	invalide: coocc nulle dans Conllst	n_a
{'haver=VERB': 40643, 'quorum=NOUN': 18}	2		6.494263501333013
{'ter=VERB': 140459, 'travesseiro=NOUN': 183}	24		4.977448315919754
{'doar=VERB': 743, 'roupa=NOUN': 4992}	12		6.5942166597549186
{'aproveitar=VERB': 3942, 'cruzamento=NOUN': 351}	4		6.422872533461828
{'camisar=VERB': 15, 'listrada=NOUN': 21}	1		16.675628764996677
{'ter=VERB': 140459, 'água=NOUN': 11373}	795		3.979342900184749
{'permanecer=VERB': 2933}	0	invalide: mot absent Conllst	n_a_abs
{'haver=VERB': 40643, 'lixeira=NOUN': 104}	1		2.8077274760741586
{'haver=VERB': 40643, 'iluminação=NOUN': 808}	26		4.584530638120583
{'ocasionar=VERB': 404, 'rejeição=NOUN': 321}	0	invalide: coocc nulle dans Conllst	n_a
{'definir=VERB': 5085, 'grau=NOUN': 2578}	28		5.991919109125743
{'alcançar=VERB': 3229, 'equiparação=NOUN': 54}	1		7.420566464100664
{'colocar=VERB': 15354, 'enxerto=NOUN': 33}	1		5.898678814403394
{'violentar=VERB': 73, 'mulher=NOUN': 16744}	13		8.568224848112424
{'haver=VERB': 40643, 'centena=NOUN': 963}	40		4.967354333079834
{'receber=VERB': 19749, 'garantia=NOUN': 2025}	43		5.012087947621359
{'ter=VERB': 140459, 'maturidade=NOUN': 293}	50		5.424679580543953
{'ter=VERB': 140459, 'credor=NOUN': 381}	38		4.531375347549702
{'tomar=VERB': 10663, 'metade=NOUN': 2132}	20		4.704828509499767
{'pedir=VERB': 11040, 'comida=NOUN': 1801}	32		5.589928694549087
{'pra=VERB': 343}	0	invalide: mot absent Conllst	n_a_abs
{'causar=VERB': 5048, 'rebuliço=NOUN': 10}	3		11.281880806611476
{'insinuar=VERB': 83, 'moleza=NOUN': 38}	0	invalide: coocc nulle dans Conllst	n_a
{'conter=VERB': 5250, 'risada=NOUN': 209}	0	invalide: coocc nulle dans Conllst	n_a
{'formar=VERB': 6179, 'engenheiro=NOUN': 726}	13		6.437474059531673
{'incluir=VERB': 8916, 'desenho=NOUN': 3953}	18		3.9134234798133196
{'esconder=VERB': 1789, 'marca=NOUN': 5760}	4		3.512352546284883
{'utilizar=VERB': 14738, 'bactéria=NOUN': 693}	15		5.460876865905496
{'devorar=VERB': 199, 'material=NOUN': 5745}	2		5.695271116099238
{'chamar=VERB': 14322, 'ouro=NOUN': 1900}	21		4.517651442509516
{'haver=VERB': 40643, 'mistura=NOUN': 1528}	48		4.5494783979309315
{'mostrar=VERB': 15755, 'equilíbrio=NOUN': 1262}	12		4.159739035277929
{'vender=VERB': 6622, 'entorpecente=NOUN': 121}	1		5.205187771332354
{'financiar=VERB': 760, 'empresa=NOUN': 19307}	40		6.401142449039184
{'ter=VERB': 140459, 'camping=NOUN': 78}	9		4.766615227704664
{'ter=VERB': 140459, 'brasão=NOUN': 130}	15		4.766676860706768
{'garantir=VERB': 6121, 'base=NOUN': 7920}	27		4.0402674655315804
{'viver=VERB': 9422, 'eletricista=NOUN': 93}	0	invalide: coocc nulle dans Conllst	n_a
{'gravar=VERB': 1905, 'comercial=NOUN': 174}	5		8.83417673732851
{'sonhar=VERB': 2248, 'chance=NOUN': 2183}	4		4.583604340216944
{'afundar=VERB': 181, 'asfalto=NOUN': 253}	1		9.335778762112051
{'sortear=VERB': 277, 'prêmio=NOUN': 1711}	32		11.154887328002042
{'trazer=VERB': 7696, 'reportagem=NOUN': 1174}	20		6.0482733719881425
{'pulverizar=VERB': 40, 'espanhola=NOUN': 63}	0	invalide: coocc nulle dans Conllst	n_a
{'trazer=VERB': 7696, 'documento=NOUN': 7126}	63		5.098091848286112
{'intensificar=VERB': 391, 'trabalho=NOUN': 25487}	19		5.8772824353933615
{'manter=VERB': 9884, 'pitbull=NOUN': 19}	0	invalide: coocc nulle dans Conllst	n_a
{'conhecer=VERB': 13835, 'medicação=NOUN': 555}	4		3.9433854247595823
{'abrigar=VERB': 613, 'vendedor=NOUN': 947}	0	invalide: coocc nulle dans Conllst	n_a
{'perder=VERB': 10042, 'aula=NOUN': 5503}	35		4.2286753584979015
{'acompanhar=VERB': 6476, 'visita=NOUN': 4372}	41		5.430254896384094
{'comemorar=VERB': 1692, 'decisão=NOUN': 5348}	11		5.167426095354457
{'iniciar=VERB': 5849, 'semana=NOUN': 12470}	79		5.017331923978931
{'possuir=VERB': 10784, 'durabilidade=NOUN': 364}	20		7.30664844648649
{'falar=VERB': 21910, 'árbitro=NOUN': 316}	2		3.0911208680214783
{'dispor=VERB': 1865, 'jogador=NOUN': 4657}	7		4.569716916733838
{'estrelar=VERB': 289, 'editorial=NOUN': 220}	1		8.860199720898157
{'história=NOUN': 11250}	0	invalide: mot absent Conllst	n_a_abs
{'deixar=VERB': 19912, 'tarefa=NOUN': 2300}	39		4.669046668270366
{'antecipar=VERB': 723, 'clima=NOUN': 1782}	1		4.510584953952853
{'dominar=VERB': 1359, 'tecnologia=NOUN': 4404}	11		5.76674783530432
{'reforçar=VERB': 1224, 'dúvida=NOUN': 7022}	2		2.7726278969309903
{'comandar=VERB': 861, 'ação=NOUN': 11112}	16		5.644352178448494
{'vender=VERB': 6622, 'equipamento=NOUN': 3583}	21		4.710288520886084
{'esquentar=VERB': 277, 'chapa=NOUN': 526}	4		9.684248644451905
{'descobrir=VERB': 5532, 'hotel=NOUN': 29119}	46		3.0795425028715115
{'ser=VERB': 38005, 'doador=NOUN': 238}	10		5.080427905343244
{'abrir=VERB': 12883, 'conta=NOUN': 9604}	178		5.445106491951971
{'propor=VERB': 2586, 'auditoria=NOUN': 288}	1		5.304056290063658
{'medida=NOUN': 5183}	0	invalide: mot absent Conllst	n_a_abs
{'mostrar=VERB': 15755, 'complexidade=NOUN': 574}	10		5.044682387407439
{'explicar=VERB': 5352, 'fuga=NOUN': 534}	0	invalide: coocc nulle dans Conllst	n_a
{'preparar=VERB': 4916, 'entrada=NOUN': 4206}	16		4.5136112194649955
{'reunir=VERB': 3111, 'talento=NOUN': 930}	7		6.1621670241663455
{'droga=NOUN': 2433, 'entregazer=VERB': 2}	0	invalide: coocc nulle dans Conllst	n_a
{'suspender=VERB': 1098, 'negociação=NOUN': 1180}	5		6.834317149704739
{'empurrar=VERB': 403, 'veículo=NOUN': 4311}	1		4.080387936786254
{'solicitar=VERB': 2504, 'talento=NOUN': 930}	1		3.6559344198706576
{'descrever=VERB': 2426, 'fase=NOUN': 4226}	2		2.5173436791102386
{'temer=VERB': 747, 'violência=NOUN': 2743}	8		6.858156110115573
{'abrir=VERB': 12883, 'perspectiva=NOUN': 1426}	40		6.041433713773715
{'perder=VERB': 10042, 'sistema=NOUN': 13471}	48		3.390608254813311
{'fazer=VERB': 123703, 'notificação=NOUN': 965}	46		3.5685683018660943
{'deixar=VERB': 19912, 'calha=NOUN': 78}	1		4.256847181632765
{'oportunar=VERB': 9, 'reportagem=NOUN': 1174}	0	invalide: coocc nulle dans Conllst	n_a
{'identificar=VERB': 3914, 'instrumento=NOUN': 2728}	14		5.2768032899434205
{'formar=VERB': 6179, 'base=NOUN': 7920}	98		5.91620693113585
{'prever=VERB': 4098, 'destino=NOUN': 2165}	7		4.538549732623184
{'acabar=VERB': 4243, 'caminho=NOUN': 6182}	17		4.25741239196684
{'perder=VERB': 10042, 'autonomia=NOUN': 854}	6		4.369057072690428
{'associar=VERB': 2279, 'doação=NOUN': 893}	1		3.8504598503132272
{'aquecer=VERB': 784, 'gauchada=NOUN': 9}	0	invalide: coocc nulle dans Conllst	n_a
{'pôr=VERB': 2800, 'colher=NOUN': 1271}	3		4.6318707140472
{'contar=VERB': 11207, 'trajetória=NOUN': 582}	29		7.103382647171714
{'ganhar=VERB': 10481, 'poder=NOUN': 7789}	45		4.028620412179271
{'abrigar=VERB': 613, 'hectare=NOUN': 319}	3		8.833428102035448
{'desenvolver=VERB': 8086, 'conceito=NOUN': 4364}	107		6.528765162632185
{'responder=VERB': 9668, 'sim=NOUN': 49}	1		5.981096754904832
{'falar=VERB': 21910, 'povo=NOUN': 5729}	181		5.459671436016762
{'privilegiar=VERB': 677, 'ato=NOUN': 4557}	2		4.252932751314036
{'pedir=VERB': 11040, 'suspensão=NOUN': 1076}	30		6.254608392851489
{'revelar=VERB': 3867, 'história=NOUN': 11250}	64		5.462582943325471
{'aproveitar=VERB': 3942, 'permissão=NOUN': 640}	2		4.543519253833035
{'desconhecer=VERB': 1300, 'circunstância=NOUN': 1062}	4		6.417937866942993
{'assumir=VERB': 3268, 'palavra=NOUN': 10714}	26		4.458978832091142
{'revelar=VERB': 3867}	0	invalide: mot absent Conllst	n_a_abs
{'carro=NOUN': 10294}	0	invalide: mot absent Conllst	n_a_abs
{'determinar=VERB': 6427, 'recontagem=NOUN': 21}	0	invalide: coocc nulle dans Conllst	n_a
{'recusar=VERB': 945, 'beijo=NOUN': 1944}	4		6.005019932138617
{'conservar=VERB': 903, 'bicicleta=NOUN': 846}	4		7.2750580533608
{'revoltar=VERB': 274, 'técnico=NOUN': 1667}	1		6.009981955656244
{'marcar=VERB': 5148, 'formação=NOUN': 5701}	11		3.4634201050380367
{'mandar=VERB': 4665, 'recado=NOUN': 510}	51		9.463184491816348
{'revelar=VERB': 3867, 'crescimento=NOUN': 3292}	13		4.914170457393953
{'investir=VERB': 2006, 'símbolo=NOUN': 1479}	0	invalide: coocc nulle dans Conllst	n_a
{'contar=VERB': 11207, 'tradição=NOUN': 1830}	29		5.399935851500145
{'mandar=VERB': 4665, 'brother=NOUN': 56}	0	invalide: coocc nulle dans Conllst	n_a
{'detectar=VERB': 858}	0	invalide: mot absent Conllst	n_a_abs
{'repetir=VERB': 2953, 'dose=NOUN': 1828}	35		7.615270858100343
{'planejar=VERB': 1642, 'temporada=NOUN': 3754}	1		2.250723683540954
{'haver=VERB': 40643, 'confusão=NOUN': 793}	51		5.633153943228396
{'rolar=VERB': 1099, 'show=NOUN': 3325}	18		7.2053786454581905
{'ter=VERB': 140459, 'trilha=NOUN': 1224}	99		4.199786788627324
{'brindar=VERB': 71, 'chegada=NOUN': 1506}	1		8.120080993349612
{'colocar=VERB': 15354, 'avental=NOUN': 26}	2		7.313810285025107
{'enfrentar=VERB': 2653, 'desesperado=NOUN': 11}	0	invalide: coocc nulle dans Conllst	n_a
{'colocar=VERB': 15354, 'mão=NOUN': 8967}	338		6.256600621091803
{'ter=VERB': 140459, 'favorito=NOUN': 1185}	31		2.4872094853299402
{'expor=VERB': 1878, 'revista=NOUN': 3310}	9		5.4180985064162615
{'entregar=VERB': 4648, 'vaga=NOUN': 7739}	15		3.6189389615662395
{'dirigir=VERB': 2929, 'carro=NOUN': 10294}	149		7.2747298901489135
{'coração=NOUN': 6611}	0	invalide: mot absent Conllst	n_a_abs
{'viabilizar=VERB': 308, 'ingresso=NOUN': 1276}	2		7.232374376992691
{'colar=VERB': 1062, 'ponta=NOUN': 1726}	7		6.821885590926639
{'enterrer=VERB': 28, 'sujeira=NOUN': 222}	0	invalide: coocc nulle dans Conllst	n_a
{'lembrar=VERB': 6734, 'luta=NOUN': 3186}	14		4.266844130629146
{'fundar=VERB': 1675, 'produtor=NOUN': 1695}	9		6.553275277076326
{'provocar=VERB': 3141, 'morte=NOUN': 6089}	118		7.582032714299883
{'ceder=VERB': 647, 'fortificação=NOUN': 70}	0	invalide: coocc nulle dans Conllst	n_a
{'haver=VERB': 40643, 'tomador=NOUN': 147}	4		4.334463163326335
{'inaugurar=VERB': 1219, 'estado=NOUN': 15437}	27		5.429051522240802
{'incluir=VERB': 8916, 'santuário=NOUN': 206}	1		4.0034125999238395
{'lei=NOUN': 8859}	0	invalide: mot absent Conllst	n_a_abs
{'decorir=VERB': 119, 'borda=NOUN': 766}	0	invalide: coocc nulle dans Conllst	n_a
{'escrever=VERB': 11008, 'salva=NOUN': 91}	0	invalide: coocc nulle dans Conllst	n_a
{'gravar=VERB': 1905, 'episódio=NOUN': 1913}	19		7.284504719241748
{'dar=VERB': 45414, 'integração=NOUN': 1024}	21		3.7569410961596126
{'cortar=VERB': 2613, 'parte=NOUN': 22913}	98		5.645583908030947
{'mandar=VERB': 4665, 'abraço=NOUN': 2102}	39		6.904236344281216
{'quebrar=VERB': 1995, 'vidro=NOUN': 2127}	58		8.728566608605952
{'fazer=VERB': 123703, 'pouquinho=NOUN': 683}	77		4.912901673860042
{'registrar=VERB': 4690, 'briga=NOUN': 735}	0	invalide: coocc nulle dans Conllst	n_a
{'investir=VERB': 2006, 'tempo=NOUN': 29567}	102		5.735804714866226
{'conduzir=VERB': 1842, 'votação=NOUN': 895}	0	invalide: coocc nulle dans Conllst	n_a
{'manter=VERB': 9884, 'ambiente=NOUN': 5707}	102		5.76892471688256
{'exaltar=VERB': 285, 'compositore=NOUN': 89}	0	invalide: coocc nulle dans Conllst	n_a
{'invadir=VERB': 931, 'estacionamento=NOUN': 1535}	0	invalide: coocc nulle dans Conllst	n_a
{'disponibilizar=VERB': 2272, 'equipe=NOUN': 6350}	13		4.7342986444958015
{'apoiar=VERB': 2269, 'atitude=NOUN': 2447}	10		5.73448078571258
{'considerar=VERB': 11250, 'rapaz=NOUN': 1485}	2		1.813228020414477
{'ler=VERB': 13414, 'íntegra=NOUN': 414}	60		8.539212502574184
{'beneficiar=VERB': 1327, 'brasileiro=NOUN': 2714}	13		6.746324015251439
{'merecer=VERB': 1326, 'final=NOUN': 7403}	2		2.580719874113146
{'párar=VERB': 2, 'caminhão=NOUN': 1305}	0	invalide: coocc nulle dans Conllst	n_a
{'conceder=VERB': 1966, 'personalidade=NOUN': 1705}	1		3.1298885645698356
{'ter=VERB': 140459, 'regulamentação=NOUN': 378}	27		4.004959871805328
{'preferir=VERB': 3961, 'estrada=NOUN': 2073}	5		4.1629926957549594
{'lançar=VERB': 6446, 'hit=NOUN': 239}	17		8.447580121444172
{'doar=VERB': 743, 'bicicleta=NOUN': 846}	0	invalide: coocc nulle dans Conllst	n_a
{'alugar=VERB': 1329, 'carro=NOUN': 10294}	98		7.838290921550192
{'anunciar=VERB': 3337, 'colega=NOUN': 2166}	6		4.611319046937617
{'representar=VERB': 5096, 'valor=NOUN': 14475}	124		5.67063386208868
{'defender=VERB': 3720, 'cobrança=NOUN': 983}	5		5.334002726450813
{'agarrar=VERB': 330, 'camisa=NOUN': 1259}	0	invalide: coocc nulle dans Conllst	n_a
{'manter=VERB': 9884, 'romance=NOUN': 935}	8		4.678775132173331
{'seguir=VERB': 12982, 'sinal=NOUN': 4112}	56		4.968436490717967
{'conhecer=VERB': 13835, 'potencial=NOUN': 869}	10		4.6253336956811095
{'soar=VERB': 316, 'cumplicidade=NOUN': 102}	0	invalide: coocc nulle dans Conllst	n_a
{'confirmar=VERB': 2995, 'vitória=NOUN': 2669}	28		6.7106089063518874
{'desenvolver=VERB': 8086, 'estilo=NOUN': 5255}	45		4.976538006515713
{'preocupação=NOUN': 1626}	0	invalide: mot absent Conllst	n_a_abs
{'integrar=VERB': 2575, 'pelotão=NOUN': 66}	1		7.452747630692487
{'conseguir=VERB': 15536, 'seqüência=NOUN': 435}	4		4.130411730944067
{'fixar=VERB': 1523, 'preço=NOUN': 17430}	22		4.625172297707913
{'enviar=VERB': 11193, 'carteira=NOUN': 1285}	4		3.0320635386681714
{'possuir=VERB': 10784, 'carisma=NOUN': 179}	3		5.534239281883809
{'provocar=VERB': 3141, 'argumento=NOUN': 1557}	4		4.588899853710739
{'obrigar=VERB': 9123, 'construtor=NOUN': 403}	2		4.002477064860984
{'defender=VERB': 3720, 'lateral=NOUN': 199}	1		5.314856129250046
{'acompanhar=VERB': 6476, 'programação=NOUN': 2037}	35		6.313899563470687
{'esconder=VERB': 1789, 'balão=NOUN': 687}	0	invalide: coocc nulle dans Conllst	n_a
{'ajudar=VERB': 14890, 'crescimento=NOUN': 3292}	64		5.292645122613923
{'achar=VERB': 18613, 'facão=NOUN': 75}	0	invalide: coocc nulle dans Conllst	n_a
{'avisar=VERB': 1172, 'governo=NOUN': 7531}	3		3.320764155402606
{'reajustar=VERB': 129, 'preço=NOUN': 17430}	12		7.431218205731576
{'ter=VERB': 140459, 'cm=NOUN': 2171}	290		5.01072894811072
{'render=VERB': 1271, 'provocação=NOUN': 129}	0	invalide: coocc nulle dans Conllst	n_a
{'levar=VERB': 18254}	0	invalide: mot absent Conllst	n_a_abs
{'ofuscar=VERB': 60, 'momento=NOUN': 13223}	2		6.256387104815479
{'interromper=VERB': 1105, 'tradição=NOUN': 1830}	2		4.861644351292191
{'amarrer=VERB': 70, 'pacote=NOUN': 2394}	1		7.471782643624976
{'aprender=VERB': 6255, 'receita=NOUN': 6162}	63		5.61164494873126
{'investigar=VERB': 1390, 'assassinato=NOUN': 604}	14		8.981430805047946
{'confessar=VERB': 1085, 'timidez=NOUN': 138}	0	invalide: coocc nulle dans Conllst	n_a
{'registrar=VERB': 4690, 'total=NOUN': 2397}	59		7.319387575068134
{'movimentar=VERB': 750, 'reta=NOUN': 310}	0	invalide: coocc nulle dans Conllst	n_a
{'cavar=VERB': 119, 'buraco=NOUN': 909}	14		12.092277314181505
{'ordenar=VERB': 799, 'recontagem=NOUN': 21}	0	invalide: coocc nulle dans Conllst	n_a
{'ler=VERB': 13414, 'documento=NOUN': 7126}	774		8.14239749787863
{'facilitar=VERB': 2557, 'amizade=NOUN': 1711}	4		4.749686616506786
{'conhecer=VERB': 13835, 'museu=NOUN': 759}	12		5.090126713105364
{'emplacar=VERB': 88, 'sucesso=NOUN': 5906}	7		8.746162007286022
{'divulgar=VERB': 5011, 'vaga=NOUN': 7739}	111		6.443672486089059
{'esconder=VERB': 1789, 'simpatia=NOUN': 1861}	0	invalide: coocc nulle dans Conllst	n_a
{'ter=VERB': 140459, 'salto=NOUN': 813}	73		4.364315335878832
{'exigir=VERB': 4013, 'direito=NOUN': 16163}	149		6.141154832704909
{'deixar=VERB': 19912, 'piscina=NOUN': 2222}	18		3.5888825135124134
{'receber=VERB': 19749, 'convite=NOUN': 1598}	88		6.440961484754475
{'assumir=VERB': 3268, 'incumbência=NOUN': 40}	0	invalide: coocc nulle dans Conllst	n_a
{'desfilar=VERB': 350, 'ônibus=NOUN': 2222}	0	invalide: coocc nulle dans Conllst	n_a
{'exiber=VERB': 82, 'arma=NOUN': 2710}	1		7.061517100855005
{'eliminar=VERB': 2136, 'ameaça=NOUN': 991}	2		4.7957406103581075
{'ocupar=VERB': 2745, 'principado=NOUN': 37}	0	invalide: coocc nulle dans Conllst	n_a
{'cumprir=VERB': 3185, 'ano=NOUN': 58251}	195		5.041154771904705
{'cobrir=VERB': 2397, 'poço=NOUN': 442}	1		4.7938647435953365
{'iniciar=VERB': 5849, 'virada=NOUN': 271}	0	invalide: coocc nulle dans Conllst	n_a
{'pegar=VERB': 6648, 'vidro=NOUN': 2127}	13		4.763711088442497
{'manter=VERB': 9884, 'cenário=NOUN': 1723}	14		4.604495652979347
{'atrapalhar=VERB': 552, 'ambicioso=NOUN': 12}	0	invalide: coocc nulle dans Conllst	n_a
{'babar=VERB': 310}	0	invalide: mot absent Conllst	n_a_abs
{'ter=VERB': 140459, 'pano=NOUN': 670}	70		4.606305734402301
{'iniciar=VERB': 5849, 'colheita=NOUN': 354}	6		6.434437212869033
{'ocupar=VERB': 2745, 'baia=NOUN': 36}	1		8.253563998823864
{'namorar=VERB': 1542, 'estudante=NOUN': 3194}	0	invalide: coocc nulle dans Conllst	n_a
{'fazer=VERB': 123703, 'capa=NOUN': 1741}	154		4.524888101758796
{'descartar=VERB': 546, 'nome=NOUN': 18037}	4		3.584410935144997
{'transmitir=VERB': 1778, 'festa=NOUN': 6431}	4		3.36219173060396
{'determinar=VERB': 6427, 'construção=NOUN': 5299}	43		5.231182040099066
{'revelar=VERB': 3867, 'taxa=NOUN': 4749}	10		4.0032095005676425
{'propor=VERB': 2586, 'análise=NOUN': 3885}	39		6.866587709189799
{'conhecer=VERB': 13835, 'dor=NOUN': 5087}	15		2.648993352135133
{'fazer=VERB': 123703, 'surpresa=NOUN': 1115}	120		4.838128887016878
{'tirar=VERB': 7674, 'melhor=NOUN': 197}	0	invalide: coocc nulle dans Conllst	n_a
{'marcar=VERB': 5148, 'sepultamento=NOUN': 78}	1		6.208609174040208
{'relatar=VERB': 1664, 'tortura=NOUN': 344}	1		5.683274562481562
{'comar=VERB': 178, 'espetáculo=NOUN': 755}	0	invalide: coocc nulle dans Conllst	n_a
{'atribuir=VERB': 1664, 'derrota=NOUN': 830}	2		5.4127201576719735
{'escolher=VERB': 7205}	0	invalide: mot absent Conllst	n_a_abs
{'recuperar=VERB': 2053, 'história=NOUN': 11250}	12		3.938716130665878
{'trancar=VERB': 249, 'investigação=NOUN': 1886}	0	invalide: coocc nulle dans Conllst	n_a
{'alinhar=VERB': 348, 'motivo=NOUN': 4063}	1		4.3781454050672295
{'criticar=VERB': 1284, 'escalação=NOUN': 58}	1		8.64671631268722
{'suspender=VERB': 1098, 'fornecimento=NOUN': 665}	7		8.158887543940399
{'acrescentar=VERB': 2099, 'bacalhau=NOUN': 249}	7		8.662736330477712
{'conhecer=VERB': 13835, 'talento=NOUN': 930}	11		4.6655348471264375
{'confirmar=VERB': 2995, 'quadro=NOUN': 3316}	5		3.8878588123465385
{'arrebentar=VERB': 112, 'portão=NOUN': 495}	0	invalide: coocc nulle dans Conllst	n_a
{'separar=VERB': 2692, 'jogador=NOUN': 4657}	6		3.8153054687107453
{'escutar=VERB': 1177, 'confusão=NOUN': 793}	1		4.975882817025669
{'investigar=VERB': 1390}	0	invalide: mot absent Conllst	n_a_abs
{'melhorar=VERB': 3889, 'oleosidade=NOUN': 146}	2		6.710545388160134
{'achar=VERB': 18613, 'data=NOUN': 8262}	26		2.3156170723508516
{'ganhar=VERB': 10481, 'par=NOUN': 1385}	16		5.032720359540672
{'animar=VERB': 1557, 'atleta=NOUN': 1401}	2		4.752032669758925
{'fazer=VERB': 123703}	0	invalide: mot absent Conllst	n_a_abs
{'lembrar=VERB': 6734, 'som=NOUN': 2553}	18		4.953680236556222
{'trazer=VERB': 7696, 'essencial=NOUN': 221}	0	invalide: coocc nulle dans Conllst	n_a
{'ter=VERB': 140459, 'frota=NOUN': 385}	31		4.192031443892425
{'restar=VERB': 1187, 'leitura=NOUN': 3487}	1		2.8256666332699543
{'enfrentar=VERB': 2653, 'apagão=NOUN': 69}	1		7.344583880578716
{'ouçar=VERB': 245, 'novena=NOUN': 108}	0	invalide: coocc nulle dans Conllst	n_a
{'acostumar=VERB': 402, 'economia=NOUN': 3253}	0	invalide: coocc nulle dans Conllst	n_a
{'colocar=VERB': 15354, 'foto=NOUN': 17203}	354		5.359467103221934
{'fazer=VERB': 123703, 'traço=NOUN': 620}	60		4.666698321743019
{'atribuir=VERB': 1664, 'queda=NOUN': 2076}	4		5.091135968020802
{'receber=VERB': 19749, 'temível=NOUN': 5}	0	invalide: coocc nulle dans Conllst	n_a
{'procurar=VERB': 11122}	0	invalide: mot absent Conllst	n_a_abs
{'utilizar=VERB': 14738, 'atleta=NOUN': 1401}	20		4.850048253292196
{'ocultar=VERB': 502, 'perfuração=NOUN': 194}	0	invalide: coocc nulle dans Conllst	n_a
{'ter=VERB': 140459, 'apêndice=NOUN': 91}	15		5.364239398207558
{'diminuir=VERB': 3016, 'velocidade=NOUN': 2689}	37		7.1008876792084745
{'haver=VERB': 40643, 'ênfase=NOUN': 476}	17		4.739908575144026
{'esquecer=VERB': 4219, 'derrota=NOUN': 830}	0	invalide: coocc nulle dans Conllst	n_a
{'correr=VERB': 3615, 'ficha=NOUN': 811}	0	invalide: coocc nulle dans Conllst	n_a
{'roubar=VERB': 1693, 'objeto=NOUN': 2355}	3		4.467394406656888
{'iniciar=VERB': 5849, 'entrevista=NOUN': 2895}	6		3.381026220153145
{'contrariar=VERB': 320, 'expectativa=NOUN': 1507}	8		8.969724895131536
{'completar=VERB': 2641, 'borboleta=NOUN': 335}	1		5.054885275221775
{'água=NOUN': 11373}	0	invalide: mot absent Conllst	n_a_abs
{'ter=VERB': 140459, 'caloria=NOUN': 452}	58		4.941647271964443
{'convidar=VERB': 1621, 'galera=NOUN': 638}	2		5.831141556354721
{'ver=VERB': 60427, 'área=NOUN': 16868}	425		3.6583219235930837
{'mudar=VERB': 7432, 'entonação=NOUN': 28}	0	invalide: coocc nulle dans Conllst	n_a
{'derrubar=VERB': 712, 'parte=NOUN': 22913}	12		4.455540194550858
{'complicar=VERB': 875, 'tricolor=NOUN': 18}	0	invalide: coocc nulle dans Conllst	n_a
{'exibir=VERB': 3204, 'reportagem=NOUN': 1174}	18		7.162380549357967
{'deixar=VERB': 19912, 'esposo=NOUN': 2044}	58		5.430100792507146
{'utilizar=VERB': 14738, 'sistema=NOUN': 13471}	487		6.269466922444106
{'iniciar=VERB': 5849, 'inquérito=NOUN': 457}	6		6.06039708546238
{'encontrar=VERB': 25296, 'cartucho=NOUN': 202}	4		4.549161657688038
{'trabalhar=VERB': 12989, 'volante=NOUN': 526}	5		4.437253030002525
{'recomendar=VERB': 4318, 'paralisação=NOUN': 291}	0	invalide: coocc nulle dans Conllst	n_a
{'acabar=VERB': 4243, 'sonho=NOUN': 4740}	37		5.7767663959808315
{'unir=VERB': 1852, 'estilo=NOUN': 5255}	16		5.607485691858776
{'publicar=VERB': 10782, 'autorização=NOUN': 1257}	66		7.243869337593603
{'causar=VERB': 5048, 'aumento=NOUN': 3704}	84		7.098167822619479
{'retirar=VERB': 3454, 'atleta=NOUN': 1401}	6		5.192280816857151
{'arrancar=VERB': 522, 'lista=NOUN': 6798}	2		4.052073831728968
{'enfrentar=VERB': 2653, 'realidade=NOUN': 4166}	26		6.130735962562416
{'lavar=VERB': 1558, 'batente=NOUN': 37}	0	invalide: coocc nulle dans Conllst	n_a
{'lidar=VERB': 1262, 'regulamento=NOUN': 690}	0	invalide: coocc nulle dans Conllst	n_a
{'fechar=VERB': 5359, 'marcador=NOUN': 398}	0	invalide: coocc nulle dans Conllst	n_a
{'colocar=VERB': 15354, 'título=NOUN': 5230}	57		4.400055196552914
{'tornar=VERB': 13074, 'código=NOUN': 3216}	28		4.302510876825474
{'filme=NOUN': 10307}	0	invalide: mot absent Conllst	n_a_abs
{'trazer=VERB': 7696, 'responsável=NOUN': 4}	0	invalide: coocc nulle dans Conllst	n_a
{'filmar=VERB': 719, 'estréia=NOUN': 234}	0	invalide: coocc nulle dans Conllst	n_a
{'assistir=VERB': 4508, 'árvore=NOUN': 2171}	1		1.5834807198944423
{'vasculhar=VERB': 94, 'área=NOUN': 16868}	1		4.223837195607765
{'diminuir=VERB': 3016, 'ponto=NOUN': 14217}	45		4.96927623831759
{'olhar=VERB': 5852, 'faca=NOUN': 479}	1		3.3895774711416244
{'comandar=VERB': 861, 'festa=NOUN': 6431}	9		5.591320213432348
{'retirar=VERB': 3454, 'benefício=NOUN': 4295}	10		4.311890960432299
{'falar=VERB': 21910, 'especialista=NOUN': 1607}	19		4.001793859099106
{'enaltecer=VERB': 104, 'integração=NOUN': 1024}	0	invalide: coocc nulle dans Conllst	n_a
{'destacar=VERB': 3677, 'perspectiva=NOUN': 1426}	12		6.084710394832227
{'sentir=VERB': 8856}	0	invalide: mot absent Conllst	n_a_abs
{'mudar=VERB': 7432, 'entrada=NOUN': 4206}	21		4.310764787538651
{'metralhar=VERB': 6, 'delegacia=NOUN': 505}	0	invalide: coocc nulle dans Conllst	n_a
{'mudar=VERB': 7432, 'educação=NOUN': 6277}	42		4.739696710969857
{'utilizar=VERB': 14738, 'espaço=NOUN': 8783}	141		5.033929344743212
{'ter=VERB': 140459, 'gurizada=NOUN': 3}	0	invalide: coocc nulle dans Conllst	n_a
{'comparar=VERB': 2267, 'reajuste=NOUN': 562}	1		4.527122675512334
{'ostentar=VERB': 131, 'patamar=NOUN': 259}	0	invalide: coocc nulle dans Conllst	n_a
{'dedicar=VERB': 2531, 'página=NOUN': 7100}	25		5.3690828397879
{'complicar=VERB': 875, 'campanha=NOUN': 3152}	1		3.411828273423505
{'deixar=VERB': 19912, 'prisão=NOUN': 1989}	30		4.496725425787092
{'medir=VERB': 1360, 'pressão=NOUN': 2639}	39		8.378603341641247
{'marcar=VERB': 5148, 'meia-noite=NOUN': 412}	0	invalide: coocc nulle dans Conllst	n_a
{'parar=VERB': 3511, 'táxi=NOUN': 234}	3		6.761692208802009
{'conhecer=VERB': 13835, 'produto=NOUN': 16538}	223		4.879308878917713
{'cobrir=VERB': 2397, 'corpo=NOUN': 10046}	56		6.133088522207454
{'jogar=VERB': 6979, 'resto=NOUN': 1953}	25		5.772251283758778
{'desmanchar=VERB': 52, 'meio-campo=NOUN': 96}	0	invalide: coocc nulle dans Conllst	n_a
{'receber=VERB': 19749, 'teto=NOUN': 732}	21		5.455566370698149
{'ministr=VERB': 37, 'curso=NOUN': 11205}	10		9.921385466925576
{'bloquear=VERB': 902, 'trânsito=NOUN': 1872}	6		6.716786089753436
{'afastar=VERB': 2262, 'dúvida=NOUN': 7022}	3		2.4713559388308832
{'comemorar=VERB': 1692, 'passagem=NOUN': 3796}	10		5.524419190870155
{'assumir=VERB': 3268, 'custo=NOUN': 4065}	15		5.06054107784968
{'visitar=VERB': 4386, 'irmão=NOUN': 4148}	12		4.281116307299771
{'ter=VERB': 140459, 'comprovação=NOUN': 522}	45		4.299592160878614
{'haver=VERB': 40643, 'contraste=NOUN': 421}	19		5.091742924558794
{'cedir=VERB': 19, 'amostra=NOUN': 820}	0	invalide: coocc nulle dans Conllst	n_a
{'alterar=VERB': 3231, 'trajeto=NOUN': 417}	0	invalide: coocc nulle dans Conllst	n_a
{'somar=VERB': 1054, 'tacada=NOUN': 15}	0	invalide: coocc nulle dans Conllst	n_a
{'constatar=VERB': 1037, 'óbito=NOUN': 258}	1		6.782478945061211
{'segurar=VERB': 1012, 'bandeira=NOUN': 877}	3		6.639674354055844
{'mostrar=VERB': 15755, 'papel=NOUN': 6922}	84		4.522060873535925
{'interpretar=VERB': 1527, 'empregada=NOUN': 233}	0	invalide: coocc nulle dans Conllst	n_a
{'ressaltar=VERB': 1487, 'qualidade=NOUN': 9651}	20		5.374716833633538
{'iniciar=VERB': 5849, 'retorno=NOUN': 1590}	8		4.6653782280274
{'achar=VERB': 18613, 'idéia=NOUN': 4060}	96		5.260570274159565
{'acarretar=VERB': 326, 'dano=NOUN': 2376}	16		9.324216232418202
{'vasculhar=VERB': 94, 'apartamento=NOUN': 3480}	0	invalide: coocc nulle dans Conllst	n_a
{'ocorrar=VERB': 103, 'mudança=NOUN': 4942}	11		9.473116907020808
{'concentrar=VERB': 1126, 'esforço=NOUN': 2308}	36		8.734977244214985
{'desdenhar=VERB': 18, 'risco=NOUN': 5449}	0	invalide: coocc nulle dans Conllst	n_a
{'servir=VERB': 6255, 'subsídio=NOUN': 335}	8		6.842817141878046
{'descobrir=VERB': 5532, 'ponto=NOUN': 14217}	67		4.666480759233541
{'dificultar=VERB': 599, 'visão=NOUN': 3302}	6		6.491485460933577
{'unir=VERB': 1852, 'pessoa=NOUN': 41303}	86		5.113955028028864
{'conceder=VERB': 1966, 'liberdade=NOUN': 3301}	48		7.816932170603536
{'pedir=VERB': 11040, 'dobro=NOUN': 475}	4		4.495398790975587
{'extrapolar=VERB': 105, 'domínio=NOUN': 1602}	0	invalide: coocc nulle dans Conllst	n_a
{'reconhecer=VERB': 4502, 'assaltante=NOUN': 255}	1		4.680197245783925
{'disputar=VERB': 1149, 'prova=NOUN': 7820}	36		6.928302911260884
{'emprestar=VERB': 521, 'carro=NOUN': 10294}	15		6.401396505585451
{'inventar=VERB': 1003, 'kit=NOUN': 952}	0	invalide: coocc nulle dans Conllst	n_a
{'usar=VERB': 29680}	0	invalide: mot absent Conllst	n_a_abs
{'excluir=VERB': 1540, 'voto=NOUN': 2926}	10		6.037748934922054
{'quadruplicar=VERB': 14, 'superfície=NOUN': 1417}	0	invalide: coocc nulle dans Conllst	n_a
{'contabilizar=VERB': 206, 'empresa=NOUN': 19307}	6		5.50963011674337
{'agilizar=VERB': 195, 'andamento=NOUN': 658}	3		9.44956068551683
{'desaconselhar=VERB': 33, 'ida=NOUN': 574}	0	invalide: coocc nulle dans Conllst	n_a
{'discutir=VERB': 2657, 'vida=NOUN': 28467}	39		3.9410396348972636
{'pregar=VERB': 900, 'metáfora=NOUN': 163}	0	invalide: coocc nulle dans Conllst	n_a
{'apresentar=VERB': 16533, 'vice=NOUN': 368}	1		2.27230188072389
{'realizar=VERB': 17454}	0	invalide: mot absent Conllst	n_a_abs
{'vencer=VERB': 3755}	0	invalide: mot absent Conllst	n_a_abs
{'paralisar=VERB': 180, 'máquina=NOUN': 3388}	5		7.9515413032026885
{'fazer=VERB': 123703, 'pênalti=NOUN': 124}	16		5.133689930096698
{'envolver=VERB': 5362, 'policial=NOUN': 1879}	29		6.428851608982546
{'afastar=VERB': 2262, 'torcedor=NOUN': 705}	2		5.205423845566558
{'ligar=VERB': 6576, 'terminal=NOUN': 554}	23		7.597965870804361
{'justificar=VERB': 1473, 'presença=NOUN': 3905}	14		6.1755772711085015
{'tirar=VERB': 7674, 'gordura=NOUN': 1579}	10		4.607328394124727
{'presentear=VERB': 316, 'motorista=NOUN': 1559}	0	invalide: coocc nulle dans Conllst	n_a
{'significar=VERB': 5359, 'pessoa=NOUN': 41303}	230		5.000037270761648
{'beijar=VERB': 995, 'lona=NOUN': 157}	1		7.562407521517108
{'anunciar=VERB': 3337, 'vitória=NOUN': 2669}	11		5.188645558015496
{'arbitrar=VERB': 67, 'jogo=NOUN': 17541}	0	invalide: coocc nulle dans Conllst	n_a
{'vitória=NOUN': 2669, 'perfeger=VERB': 3}	0	invalide: coocc nulle dans Conllst	n_a
{'criar=VERB': 15580, 'fundo=NOUN': 4084}	56		4.7142060182070145
{'conferir=VERB': 6554, 'lista=NOUN': 6798}	145		6.639147999055437
{'classificar=VERB': 2219, 'fato=NOUN': 8909}	17		4.669483636600623
{'dar=VERB': 45414, 'dimensão=NOUN': 1499}	67		4.918465705367415
{'continuar=VERB': 6140, 'promessa=NOUN': 1163}	10		5.37399172059909
{'fazer=VERB': 123703, 'social=NOUN': 102}	5		3.61046438578737
{'escrever=VERB': 11008, 'salmo=NOUN': 254}	5		5.741228632821856
{'confrontar=VERB': 319, 'titular=NOUN': 612}	0	invalide: coocc nulle dans Conllst	n_a
{'rejeitar=VERB': 1021, 'instituição=NOUN': 4267}	5		5.080840312274136
{'considerar=VERB': 11250, 'informação=NOUN': 19197}	118		4.02543170200818
{'aplicar=VERB': 5087, 'vacina=NOUN': 644}	20		7.534521544444216
{'superar=VERB': 1673, 'custo=NOUN': 4065}	4		4.112524230654719
{'ter=VERB': 140459, 'sugestão=NOUN': 2434}	245		4.548222601471545
{'invadir=VERB': 931, 'praia=NOUN': 3305}	7		6.073141979145722
{'encerrar=VERB': 1523, 'participação=NOUN': 3777}	15		6.276097530758303
{'ler=VERB': 13414, 'moeda=NOUN': 1251}	5		3.132837494547494
{'virar=VERB': 2899, 'algarismo=NOUN': 136}	0	invalide: coocc nulle dans Conllst	n_a
{'denunciar=VERB': 1252, 'alimentação=NOUN': 2128}	0	invalide: coocc nulle dans Conllst	n_a
{'revelar=VERB': 3867, 'destino=NOUN': 2165}	10		5.140104292223783
{'promover=VERB': 4347, 'formação=NOUN': 5701}	76		6.534843731751325
{'haver=VERB': 40643, 'teoria=NOUN': 2617}	87		4.635305860951563
{'fiscalizar=VERB': 358, 'trecho=NOUN': 1293}	0	invalide: coocc nulle dans Conllst	n_a
{'esperar=VERB': 10682, 'vencedor=NOUN': 945}	9		4.722793933881654
{'comprovar=VERB': 2120, 'fraude=NOUN': 681}	14		8.190434031788945
{'retratar=VERB': 665, 'medo=NOUN': 3927}	2		4.493569783162704
{'promover=VERB': 4347, 'despoluição=NOUN': 15}	0	invalide: coocc nulle dans Conllst	n_a
{'exigir=VERB': 4013, 'demissão=NOUN': 457}	6		6.60458386497662
{'envolver=VERB': 5362, 'casal=NOUN': 3136}	11		4.2691101125407656
{'mostrar=VERB': 15755, 'unha=NOUN': 1276}	7		3.3599093529990998
{'afetar=VERB': 1497, 'fígado=NOUN': 537}	5		7.528525621072578
{'realizar=VERB': 17454, 'carnaval=NOUN': 1250}	23		4.978186486897168
{'capturar=VERB': 646, 'serviço=NOUN': 17196}	3		2.9916656736978897
{'separar=VERB': 2692, 'quadrado=NOUN': 341}	0	invalide: coocc nulle dans Conllst	n_a
{'conferir=VERB': 6554, 'novidade=NOUN': 3493}	70		6.53048084635923
{'mostrar=VERB': 15755, 'mágoa=NOUN': 149}	0	invalide: coocc nulle dans Conllst	n_a
{'faltar=VERB': 3388, 'homem=NOUN': 18239}	23		3.4591643723643535
{'considerar=VERB': 11250, 'data=NOUN': 8262}	95		4.9337739847747875
{'basear=VERB': 3740, 'fato=NOUN': 8909}	95		6.437483109780855
{'possuir=VERB': 10784, 'janela=NOUN': 1991}	17		4.551139640198351
{'dirigir=VERB': 2929, 'história=NOUN': 11250}	29		4.707141959954766
{'produzir=VERB': 6528, 'guia=NOUN': 2727}	6		3.308854315664655
{'anotar=VERB': 461, 'frase=NOUN': 3044}	7		7.217287023540871
{'defender=VERB': 3720, 'credenciamento=NOUN': 71}	0	invalide: coocc nulle dans Conllst	n_a
{'incendiar=VERB': 219, 'partida=NOUN': 2447}	0	invalide: coocc nulle dans Conllst	n_a
{'levar=VERB': 18254, 'pedra=NOUN': 2394}	41		4.809497222763519
{'desligar=VERB': 937, 'telefone=NOUN': 4654}	28		7.60858066916895
{'usar=VERB': 29680, 'apelido=NOUN': 237}	17		6.254638016403129
{'dizer=VERB': 48437, 'supervisor=NOUN': 130}	3		3.8374570611847894
{'levar=VERB': 18254, 'cpu=NOUN': 11}	0	invalide: coocc nulle dans Conllst	n_a
{'retirar=VERB': 3454, 'microfone=NOUN': 255}	0	invalide: coocc nulle dans Conllst	n_a
{'encaminhar=VERB': 1705, 'viatura=NOUN': 305}	2		6.82787507879015
{'conter=VERB': 5250, 'sucesso=NOUN': 5906}	9		3.093444910924124
{'acompanhar=VERB': 6476, 'voto=NOUN': 2926}	18		4.81215350385038
{'retomar=VERB': 937, 'proposta=NOUN': 3582}	9		6.313935589671113
{'descansar=VERB': 701, 'guidom=NOUN': 2}	0	invalide: coocc nulle dans Conllst	n_a
{'seqüestrar=VERB': 42, 'menino=NOUN': 2152}	2		9.412862742577458
{'abrir=VERB': 12883, 'programa=NOUN': 10410}	193		5.4472803485197305
{'apreender=VERB': 1093, 'espingarda=NOUN': 64}	6		11.445757062507917
{'amiga=NOUN': 3056}	0	invalide: mot absent Conllst	n_a_abs
{'examinar=VERB': 661, 'caso=NOUN': 19492}	34		6.351977181212981
{'criar=VERB': 15580, 'cardápio=NOUN': 577}	15		5.651358100972693
{'eleger=VERB': 1666, 'fiasco=NOUN': 33}	0	invalide: coocc nulle dans Conllst	n_a
{'apresentar=VERB': 16533, 'mistura=NOUN': 1528}	18		4.403014599998627
{'ver=VERB': 60427, 'parte=NOUN': 22913}	693		3.9357874152739285
{'colocar=VERB': 15354, 'diálogo=NOUN': 1184}	13		4.4067212323399225
{'realizar=VERB': 17454}	0	invalide: mot absent Conllst	n_a_abs
{'sentir=VERB': 8856, 'fisgada=NOUN': 13}	6		11.471057620747473
{'abrir=VERB': 12883, 'peito=NOUN': 1515}	30		5.525737646241497
{'expor=VERB': 1878, 'tempo=NOUN': 29567}	50		4.7634591385106955
{'incluir=VERB': 8916, 'setor=NOUN': 3446}	31		4.904282168235025
{'apresentar=VERB': 16533, 'aproveitamento=NOUN': 463}	11		5.432063722012184
{'revelar=VERB': 3867, 'mudança=NOUN': 4942}	23		5.155931777501578
{'cantarar=VERB': 31, 'nome=NOUN': 18037}	0	invalide: coocc nulle dans Conllst	n_a
{'visitar=VERB': 4386, 'exposição=NOUN': 2411}	39		6.792621325979803
{'haver=VERB': 40643, 'esgotamento=NOUN': 113}	3		4.297901787478612
{'arrombar=VERB': 251, 'apartamento=NOUN': 3480}	1		5.074670533659666
{'citar=VERB': 3736, 'habilidade=NOUN': 1801}	8		5.1325658644189875
{'notar=VERB': 1808, 'buraco=NOUN': 909}	3		5.74872392084203
{'ajudar=VERB': 14890, 'brasileiro=NOUN': 2714}	17		3.6348267578317244
{'trazer=VERB': 7696, 'prosperidade=NOUN': 285}	8		6.782776995118704
{'diminuir=VERB': 3016, 'doce=NOUN': 1598}	8		5.615511880092288
{'postar=VERB': 5198, 'emoticon=NOUN': 5}	0	invalide: coocc nulle dans Conllst	n_a
{'incentivar=VERB': 993, 'eleitor=NOUN': 515}	0	invalide: coocc nulle dans Conllst	n_a
{'desenvolver=VERB': 8086, 'campanha=NOUN': 3152}	36		5.394584197432945
{'conhecer=VERB': 13835, 'peça=NOUN': 6365}	37		3.6346597179353575
{'finalizar=VERB': 1001, 'série=NOUN': 6227}	4		4.240067556656073
{'misturar=VERB': 2083, 'açúcar=NOUN': 1579}	103		10.012650588097493
{'tirar=VERB': 7674, 'interesse=NOUN': 5500}	11		2.9383221862401516
{'possuir=VERB': 10784, 'm2=NOUN': 1744}	31		5.624347060478833
{'amigão=NOUN': 29}	0	invalide: mot absent Conllst	n_a_abs
{'apresentar=VERB': 16533, 'concerto=NOUN': 342}	12		6.011538674544949
{'indagar=VERB': 165, 'vez=NOUN': 25744}	6		5.425378996142373
{'identificar=VERB': 3914, 'motivo=NOUN': 4063}	14		4.699658367685816
{'favorecer=VERB': 1049, 'vida=NOUN': 28467}	34		5.10983190403595
{'virar=VERB': 2899, 'atração=NOUN': 2951}	4		3.7805328039410435
{'tirar=VERB': 7674, 'dica=NOUN': 8529}	54		4.6152263488133585
{'enveredar=VERB': 47, 'esforço=NOUN': 2308}	0	invalide: coocc nulle dans Conllst	n_a
{'deixar=VERB': 19912, 'clube=NOUN': 2769}	61		5.055713030991589
{'conquistar=VERB': 2409, 'torcida=NOUN': 803}	7		6.745621647749965
{'ganhar=VERB': 10481, 'boneca=NOUN': 663}	10		5.421789086821742
{'preservar=VERB': 1182, 'saúde=NOUN': 8582}	28		6.377455703477431
{'atrapalhar=VERB': 552, 'time=NOUN': 2980}	4		6.167720887873085
{'impedir=VERB': 2706, 'triunfo=NOUN': 176}	1		5.952287791395136
{'agitar=VERB': 521, 'noite=NOUN': 9045}	19		6.94142467822197
{'cair=VERB': 6403, 'expulsão=NOUN': 180}	0	invalide: coocc nulle dans Conllst	n_a
{'sangue=NOUN': 3069, 'empapar=VERB': 8}	3		12.48580420611666
{'ter=VERB': 140459, 'deslize=NOUN': 29}	3		4.5896758352513745
{'fazer=VERB': 123703, 'pátina=NOUN': 16}	3		5.772948589770612
{'mostrar=VERB': 15755, 'riqueza=NOUN': 1062}	12		4.411277802273893
{'dividir=VERB': 3063, 'conquista=NOUN': 1287}	3		4.484128857960482
{'ter=VERB': 140459, 'alegria=NOUN': 2260}	253		4.719891891223895
{'acometer=VERB': 171, 'família=NOUN': 10410}	2		5.058627098941663
{'desviar=VERB': 651, 'atenção=NOUN': 5666}	47		8.66499820933
{'disponibilizar=VERB': 2272, 'telefone=NOUN': 4654}	29		6.356441221691907
{'ter=VERB': 140459}	0	invalide: mot absent Conllst	n_a_abs
{'autorizar=VERB': 1710, 'liberação=NOUN': 618}	4		6.806415005253174
{'xingar=VERB': 160, 'juiz=NOUN': 1604}	1		6.8454701165027405
{'confirmar=VERB': 2995, 'causa=NOUN': 6855}	19		4.774743802601058
{'haver=VERB': 40643, 'prioridade=NOUN': 872}	22		4.223086233942917
{'animar=VERB': 1557, 'galera=NOUN': 638}	10		8.236961646488343
{'estabelecer=VERB': 4960, 'linha=NOUN': 7706}	25		4.272855168076123
{'ter=VERB': 140459, 'coloração=NOUN': 477}	37		4.133595978350816
{'comandar=VERB': 861, 'quadrilha=NOUN': 519}	8		9.071330369685732
{'agradecer=VERB': 3079, 'participação=NOUN': 3777}	41		6.726278892347982
{'fazer=VERB': 123703, 'compactação=NOUN': 31}	3		4.6660333858541
{'colocar=VERB': 15354, 'amor=NOUN': 9711}	60		3.574661497432909
