{'ta=VERB': 78465, 'hand=NOUN': 9223}	2124		7.0500044608832955
{'ta=VERB': 78465, 'reda=NOUN': 1299}	496		8.065334094941019
{'gå=VERB': 65206, 'hand=NOUN': 9223}	481		4.845116954136171
{'kalla=VERB': 9872, 'neutron=NOUN': 30}	1		6.8840454460492255
{'bli=VERB': 93121, 'skada=NOUN': 2690}	164		4.561644164691457
{'fullgöra=VERB': 202, 'uppgift=NOUN': 7694}	37		9.951574582238214
{'starta=VERB': 6748, 'frigörelse=NOUN': 78}	1		6.024189985632758
{'ha=VERB': 189857, 'halt=NOUN': 353}	56		5.069914706174675
{'binda=VERB': 470, 'hand=NOUN': 9223}	3		4.558139698521427
{'börja=VERB': 26123, 'verksamhet=NOUN': 8363}	77		3.592559200568291
{'tillverka=VERB': 2257}	0	invalide: mot absent Conllst	n_a_abs
{'få=VERB': 102267, 'utbildning=NOUN': 6833}	468		4.610063029697488
{'fullgöra=VERB': 202, 'tjänst=NOUN': 9727}	3		5.712010674975412
{'ta=VERB': 78465, 'uppmärksamhet=NOUN': 1412}	53		4.071810848960801
{'skicka=VERB': 11456, 'blankett=NOUN': 583}	66		8.565900495274677
{'skilja=VERB': 2711, 'station=NOUN': 2054}	5		4.930284674726212
{'beröra=VERB': 1019, 'attityd=NOUN': 487}	2		7.099062071894644
{'främja=VERB': 1239, 'likställdhet=NOUN': 4}	0	invalide: coocc nulle dans Conllst	n_a
{'passa=VERB': 8026, 'part=NOUN': 1503}	3		3.075296606244677
{'ambition=NOUN': 1121}	0	invalide: mot absent Conllst	n_a_abs
{'innehålla=VERB': 7654, 'cylinder=NOUN': 54}	0	invalide: coocc nulle dans Conllst	n_a
{'hämta=VERB': 7193, 'post=NOUN': 2508}	34		6.0202976647418796
{'sakna=VERB': 5475, 'kommunikationsmöjlighet=NOUN': 10}	1		9.422702252019365
{'ha=VERB': 189857, 'närvaro=NOUN': 734}	85		4.544415621593399
{'ha=VERB': 189857, 'hälft=NOUN': 1773}	188		4.402204324894018
{'ha=VERB': 189857, 'ursprung=NOUN': 1079}	371		6.546945064798805
{'putsa=VERB': 137, 'fiskart=NOUN': 172}	0	invalide: coocc nulle dans Conllst	n_a
{'visa=VERB': 40268, 'placering=NOUN': 1703}	21		3.3907687766462358
{'avge=VERB': 232, 'bedömning=NOUN': 1518}	1		6.5922525611635425
{'styra=VERB': 2636, 'samlevnad=NOUN': 43}	0	invalide: coocc nulle dans Conllst	n_a
{'tala=VERB': 7475, 'franska=NOUN': 254}	23		8.819407928525951
{'för=VERB': 965, 'krig=NOUN': 3174}	6		6.061225848450049
{'begränsa=VERB': 980, 'motorstorlek=NOUN': 6}	0	invalide: coocc nulle dans Conllst	n_a
{'söka=VERB': 16220, 'medlemskap=NOUN': 696}	9		4.772080217480084
{'känna=VERB': 13687, 'olust=NOUN': 16}	1		7.363703145184821
{'behöva=VERB': 15035, 'trygghet=NOUN': 1009}	28		6.006904587753248
{'ha=VERB': 189857, 'pengar=NOUN': 9735}	1275		4.75601410362385
{'få=VERB': 102267, 'provanställning=NOUN': 50}	4		4.845520287494578
{'erhålla=VERB': 1051, 'telefonsvar=NOUN': 4}	0	invalide: coocc nulle dans Conllst	n_a
{'behöva=VERB': 15035, 'vård=NOUN': 3965}	79		5.522280779560223
{'försvåra=VERB': 321, 'förhållande=NOUN': 2971}	0	invalide: coocc nulle dans Conllst	n_a
{'ge=VERB': 38036, 'besked=NOUN': 1121}	130		6.870494933806355
{'skilja=VERB': 2711, 'industri=NOUN': 1619}	3		4.5347459672209975
{'beröra=VERB': 1019}	0	invalide: mot absent Conllst	n_a_abs
{'innehålla=VERB': 7654}	0	invalide: mot absent Conllst	n_a_abs
{'hålla=VERB': 18941, 'produktion=NOUN': 2028}	24		4.419906987405668
{'studera=VERB': 2386}	0	invalide: mot absent Conllst	n_a_abs
{'sakna=VERB': 5475, 'underlag=NOUN': 1000}	21		7.055060361086435
{'anställa=VERB': 467, 'elev=NOUN': 5151}	2		4.819843512033782
{'lämna=VERB': 11189, 'kropp=NOUN': 6600}	38		4.1341291341688855
{'leda=VERB': 8320}	0	invalide: mot absent Conllst	n_a_abs
{'ha=VERB': 189857, 'inflytande=NOUN': 1116}	384		6.548636882569706
{'ha=VERB': 189857, 'ålder=NOUN': 4610}	559		4.623349433005349
{'ta=VERB': 78465, 'ställning=NOUN': 1441}	504		7.865916683060488
{'skapa=VERB': 13975, 'standard=NOUN': 3302}	27		4.320844634901222
{'samla=VERB': 4672, 'grus=NOUN': 249}	2		5.873432906644933
{'skilja=VERB': 2711, 'förälder=NOUN': 4963}	12		4.924255978118777
{'ha=VERB': 189857, 'folkpension=NOUN': 6}	0	invalide: coocc nulle dans Conllst	n_a
{'äta=VERB': 7587, 'p-piller=NOUN': 304}	10		7.245851690324447
{'bedöma=VERB': 1691, 'läge=NOUN': 8860}	11		4.6448943595395455
{'stryka=VERB': 392, 'namn=NOUN': 11767}	8		5.9045667157476895
{'studera=VERB': 2386, 'kibbutz=NOUN': 5}	0	invalide: coocc nulle dans Conllst	n_a
{'vålla=VERB': 91, 'oreda=NOUN': 32}	0	invalide: coocc nulle dans Conllst	n_a
{'ha=VERB': 189857, 'socialhjälp=NOUN': 4}	0	invalide: coocc nulle dans Conllst	n_a
{'välja=VERB': 17893, 'flytväst=NOUN': 62}	0	invalide: coocc nulle dans Conllst	n_a
{'börja=VERB': 26123, 'skola=NOUN': 9844}	291		5.317272440848573
{'ge=VERB': 38036, 'kommunikation=NOUN': 2524}	50		4.169053196680398
{'ha=VERB': 189857}	0	invalide: mot absent Conllst	n_a_abs
{'känna=VERB': 13687, 'motvilja=NOUN': 40}	1		5.985191521931092
{'göra=VERB': 110486, 'hål=NOUN': 1631}	128		4.705545988159189
{'göra=VERB': 110486, 'motsats=NOUN': 835}	33		3.654869587209992
{'ha=VERB': 189857, 'beröring=NOUN': 94}	14		4.961986521501505
{'göra=VERB': 110486, 'jobb=NOUN': 9375}	1151		5.435658761071141
{'behöva=VERB': 15035}	0	invalide: mot absent Conllst	n_a_abs
{'ha=VERB': 189857, 'auktoritet=NOUN': 188}	26		4.837240605405703
{'ge=VERB': 38036, 'utdelning=NOUN': 470}	49		6.694822233779289
{'få=VERB': 102267, 'tid=NOUN': 34418}	2792		4.907220348117135
{'ha=VERB': 189857, 'förebild=NOUN': 459}	58		4.687416675856462
{'få=VERB': 102267, 'jobb=NOUN': 9375}	1039		5.379598475557704
{'bereda=VERB': 215, 'plats=NOUN': 26049}	24		7.350930102437899
{'erbjuda=VERB': 21070, 'elev=NOUN': 5151}	45		3.8250640667193205
{'hålla=VERB': 18941, 'form=NOUN': 9973}	170		4.965172411899232
{'nå=VERB': 5593}	0	invalide: mot absent Conllst	n_a_abs
{'plocka=VERB': 2181, 'russin=NOUN': 215}	8		9.232047556146025
{'låta=VERB': 13229, 'barn=NOUN': 31270}	332		4.8142061927449635
{'göra=VERB': 110486, 'insättning=NOUN': 363}	86		6.57114891492665
{'bygga=VERB': 11164, 'vattenkraftverk=NOUN': 45}	4		8.207405561492
{'ha=VERB': 189857, 'utrymme=NOUN': 3809}	528		4.8449453300276755
{'sakna=VERB': 5475, 'förmåga=NOUN': 2645}	58		7.128645253798412
{'hålla=VERB': 18941, 'steg=NOUN': 3457}	66		5.1237169991724905
{'betyda=VERB': 4257, 'sjuklighet=NOUN': 44}	0	invalide: coocc nulle dans Conllst	n_a
{'hålla=VERB': 18941, 'bebyggelseområde=NOUN': 2}	0	invalide: coocc nulle dans Conllst	n_a
{'göra=VERB': 110486, 'värnplikt=NOUN': 153}	27		6.035463105382487
{'ta=VERB': 78465, 'del=NOUN': 36558}	3446		5.551679014206295
{'få=VERB': 102267, 'stöd=NOUN': 6229}	853		5.725194179673108
{'mildra=VERB': 88, 'bekymmer=NOUN': 237}	0	invalide: coocc nulle dans Conllst	n_a
{'bereda=VERB': 215, 'välfärd=NOUN': 784}	0	invalide: coocc nulle dans Conllst	n_a
{'hålla=VERB': 18941, 'öga=NOUN': 2396}	140		6.802216858863385
{'höja=VERB': 1927, 'levnadsstandard=NOUN': 71}	4		10.035774735028964
{'anamma=VERB': 96, 'värdering=NOUN': 1020}	1		8.448213028329873
{'ställa=VERB': 7872, 'förmåga=NOUN': 2645}	31		5.676337912925696
{'förverkliga=VERB': 289, 'möjlighet=NOUN': 11971}	17		7.465801145401029
{'förbjuda=VERB': 628, 'form=NOUN': 9973}	8		5.452228477825976
{'visa=VERB': 40268, 'nedgång=NOUN': 373}	3		2.7673493000873837
{'betyda=VERB': 4257, 'levnadsstandard=NOUN': 71}	1		6.826441520380478
{'ge=VERB': 38036, 'vård=NOUN': 3965}	149		5.1229147500453855
{'tåla=VERB': 458, 'giva=NOUN': 2}	0	invalide: coocc nulle dans Conllst	n_a
{'jämföra=VERB': 2432, 'plats=NOUN': 26049}	10		2.4225654940658674
{'ge=VERB': 38036, 'svar=NOUN': 15064}	396		4.600000034578677
{'föra=VERB': 3119, 'dagbok=NOUN': 335}	7		7.857183545279962
{'gå=VERB': 65206, 'omskolning=NOUN': 19}	0	invalide: coocc nulle dans Conllst	n_a
{'ha=VERB': 189857, 'jobb=NOUN': 9375}	1202		4.720187322938434
{'visa=VERB': 40268, 'hänsyn=NOUN': 1245}	53		5.2243128073365925
{'öva=VERB': 414, 'elev=NOUN': 5151}	4		6.0020108061146535
{'ha=VERB': 189857, 'kontakt=NOUN': 5240}	878		5.170443647193254
{'ge=VERB': 38036, 'spelrum=NOUN': 225}	13		5.7689414922969116
{'väcka=VERB': 1563}	0	invalide: mot absent Conllst	n_a_abs
{'ta=VERB': 78465, 'initiativ=NOUN': 1255}	288		7.00910329219342
{'dumpa=VERB': 117, 'avfall=NOUN': 473}	5		11.655215426072989
{'kolla=VERB': 5756, 'ljus=NOUN': 3772}	7		3.450832429911443
{'få=VERB': 102267, 'befordran=NOUN': 53}	4		4.754372399436382
{'göra=VERB': 110486, 'karriär=NOUN': 1480}	159		5.205048801803425
{'ge=VERB': 38036, 'mönster=NOUN': 2206}	32		3.711007095049978
{'kontrollera=VERB': 2976, 'broms=NOUN': 157}	0	invalide: coocc nulle dans Conllst	n_a
{'ladda=VERB': 6133, 'batteri=NOUN': 1787}	462		11.02159192894042
{'sluta=VERB': 5777, 'skola=NOUN': 9844}	54		5.026245438950076
{'bära=VERB': 2865, 'lönehöjning=NOUN': 11}	0	invalide: coocc nulle dans Conllst	n_a
{'låta=VERB': 13229, 'pengar=NOUN': 9735}	68		4.175635796020931
{'ta=VERB': 78465, 'abort=NOUN': 203}	12		4.758999649841624
{'ha=VERB': 189857, 'glasögon=NOUN': 416}	54		4.731905317892317
{'kolla=VERB': 5756, 'batteri=NOUN': 1787}	7		4.531605053616974
{'välja=VERB': 17893, 'aktivitet=NOUN': 4689}	54		4.464793727492226
{'hindra=VERB': 1148, 'människa=NOUN': 18848}	30		5.591367411217707
{'gälla=VERB': 17307, 'reform=NOUN': 612}	8		4.694201211277324
{'skapa=VERB': 13975, 'hälsorisk=NOUN': 79}	1		4.955147329032362
{'börja=VERB': 26123}	0	invalide: mot absent Conllst	n_a_abs
{'tvinga=VERB': 2934, 'mamma=NOUN': 4234}	9		4.621975438853908
{'sakna=VERB': 5475, 'partibeteckning=NOUN': 24}	2		9.133459212981847
{'leda=VERB': 8320, 'cykel=NOUN': 834}	5		4.616206228043614
{'få=VERB': 102267, 'syssla=NOUN': 193}	13		4.577795840190297
{'ha=VERB': 189857, 'utgift=NOUN': 533}	54		4.327869359239342
{'få=VERB': 102267, 'postnummer=NOUN': 190}	5		3.1596429856849277
{'ge=VERB': 38036}	0	invalide: mot absent Conllst	n_a_abs
{'innehålla=VERB': 7654, 'sida=NOUN': 17286}	194		5.68492629819005
{'se=VERB': 80226}	0	invalide: mot absent Conllst	n_a_abs
{'bygga=VERB': 11164}	0	invalide: mot absent Conllst	n_a_abs
{'höja=VERB': 1927, 'sjuktal=NOUN': 37}	0	invalide: coocc nulle dans Conllst	n_a
{'ha=VERB': 189857, 'körbana=NOUN': 29}	4		4.83262751244489
{'påbjuda=VERB': 26, 'tillvägagångssätt=NOUN': 150}	0	invalide: coocc nulle dans Conllst	n_a
{'ha=VERB': 189857}	0	invalide: mot absent Conllst	n_a_abs
{'få=VERB': 102267, 'bäck=NOUN': 232}	7		3.3626982980928948
{'spara=VERB': 7460, 'besvär=NOUN': 1229}	4		3.8882547942824197
{'få=VERB': 102267, 'yrkesutbildning=NOUN': 164}	16		5.15979818017589
{'gå=VERB': 65206}	0	invalide: mot absent Conllst	n_a_abs
{'få=VERB': 102267, 'avlöning=NOUN': 7}	0	invalide: coocc nulle dans Conllst	n_a
{'ge=VERB': 38036, 'intryck=NOUN': 1007}	235		8.088930102097121
{'driva=VERB': 3879, 'tes=NOUN': 176}	23		10.364291749961033
{'se=VERB': 80226}	0	invalide: mot absent Conllst	n_a_abs
{'rustad=VERB': 30, 'hus=NOUN': 8875}	0	invalide: coocc nulle dans Conllst	n_a
{'få=VERB': 102267, 'krona=NOUN': 7556}	607		4.86057740320394
{'få=VERB': 102267, 'skattesänkning=NOUN': 173}	31		6.173912392446589
{'göra=VERB': 110486, 'samhällsnytta=NOUN': 42}	3		4.557102380790302
{'visa=VERB': 40268}	0	invalide: mot absent Conllst	n_a_abs
{'dra=VERB': 8911}	0	invalide: mot absent Conllst	n_a_abs
{'ställa=VERB': 7872, 'fråga=NOUN': 27640}	1519		8.273768314803748
{'skriva=VERB': 26398, 'rapport=NOUN': 4541}	98		4.825623211864811
{'anställa=VERB': 467, 'extrapersonal=NOUN': 10}	0	invalide: coocc nulle dans Conllst	n_a
{'få=VERB': 102267, 'verkan=NOUN': 220}	19		4.966169696737343
{'betyda=VERB': 4257, 'frihet=NOUN': 1635}	12		5.879973350559418
{'ta=VERB': 78465, 'fart=NOUN': 830}	87		5.658570928952823
{'se=VERB': 80226, 'moderskap=NOUN': 22}	2		5.397332597105332
{'få=VERB': 102267, 'premie=NOUN': 714}	31		3.90791774366118
{'stämpla=VERB': 165, 'revir=NOUN': 60}	0	invalide: coocc nulle dans Conllst	n_a
{'ha=VERB': 189857, 'brist=NOUN': 2128}	285		4.785598359538257
{'avvisa=VERB': 239, 'påstående=NOUN': 777}	2		8.524211223766773
{'ha=VERB': 189857}	0	invalide: mot absent Conllst	n_a_abs
{'kräva=VERB': 9265, 'arbetskraft=NOUN': 314}	8		6.577290123516387
{'få=VERB': 102267, 'skyldighet=NOUN': 806}	59		4.707536991988005
{'fästa=VERB': 356, 'vikt=NOUN': 3149}	13		8.674672080679706
{'erfordra=VERB': 52, 'vattenmängd=NOUN': 19}	0	invalide: coocc nulle dans Conllst	n_a
{'anta=VERB': 2412, 'efternamn=NOUN': 361}	4		7.297607032037831
{'skifta=VERB': 232, 'modell=NOUN': 4957}	0	invalide: coocc nulle dans Conllst	n_a
{'avsluta=VERB': 3128, 'verksamhet=NOUN': 8363}	11		3.8365901552686785
{'ställa=VERB': 7872, 'ljus=NOUN': 3772}	21		4.591604138174733
{'bilda=VERB': 3894, 'enklav=NOUN': 33}	1		8.08434034347935
{'skapa=VERB': 13975, 'trevnad=NOUN': 11}	0	invalide: coocc nulle dans Conllst	n_a
{'hålla=VERB': 18941, 'ordning=NOUN': 2682}	124		6.444653717689314
{'få=VERB': 102267, 'besättning=NOUN': 346}	10		3.298777564303336
{'känna=VERB': 13687, 'samhällsansvar=NOUN': 36}	1		6.141310723848373
{'ge=VERB': 38036, 'behörighet=NOUN': 487}	52		6.733470880589729
{'ställa=VERB': 7872, 'förväntning=NOUN': 980}	12		5.736792639127226
{'få=VERB': 102267, 'behandling=NOUN': 5609}	602		5.321432344043637
{'hinna=VERB': 2929, 'tvättning=NOUN': 28}	0	invalide: coocc nulle dans Conllst	n_a
{'ha=VERB': 189857, 'flytförmåga=NOUN': 3}	0	invalide: coocc nulle dans Conllst	n_a
{'hissa=VERB': 90, 'bil=NOUN': 9692}	2		6.309294403886893
{'ge=VERB': 38036, 'andel=NOUN': 1768}	39		4.32708914141401
{'lämna=VERB': 11189, 'fimpa=NOUN': 11}	0	invalide: coocc nulle dans Conllst	n_a
{'ha=VERB': 189857, 'aning=NOUN': 1358}	581		7.0614985729793345
{'begränsa=VERB': 980, 'insyn=NOUN': 332}	0	invalide: coocc nulle dans Conllst	n_a
{'göra=VERB': 110486, 'översyn=NOUN': 262}	27		5.136226082317404
{'finna=VERB': 4921, 'arbetsområde=NOUN': 80}	0	invalide: coocc nulle dans Conllst	n_a
{'tåla=VERB': 458, 'åverkan=NOUN': 14}	0	invalide: coocc nulle dans Conllst	n_a
{'innefatta=VERB': 775, 'omnämnande=NOUN': 53}	0	invalide: coocc nulle dans Conllst	n_a
{'få=VERB': 102267, 'slutresultat=NOUN': 215}	13		4.411437453768177
{'gälla=VERB': 17307, 'idrottsplats=NOUN': 64}	0	invalide: coocc nulle dans Conllst	n_a
{'område=NOUN': 13067}	0	invalide: mot absent Conllst	n_a_abs
{'sätta=VERB': 14247, 'avgift=NOUN': 7129}	15		2.324601514106142
{'känna=VERB': 13687, 'människa=NOUN': 18848}	325		5.472424380111086
{'möta=VERB': 4538, 'exempel=NOUN': 15108}	21		3.3811568583679374
{'dra=VERB': 8911, 'miljard=NOUN': 3128}	20		4.613034301809005
{'sköta=VERB': 2179, 'mottagande=NOUN': 243}	1		6.003355496835132
{'slippa=VERB': 2179, 'procent=NOUN': 8279}	3		2.4937887024374406
{'lära=VERB': 7133, 'medmänsklighet=NOUN': 59}	0	invalide: coocc nulle dans Conllst	n_a
{'ha=VERB': 189857, 'sätt=NOUN': 21408}	2095		4.287911249236194
{'möta=VERB': 4538, 'motorfordon=NOUN': 57}	0	invalide: coocc nulle dans Conllst	n_a
{'avsluta=VERB': 3128, 'anförande=NOUN': 164}	6		8.683933903392779
{'invänta=VERB': 137}	0	invalide: mot absent Conllst	n_a_abs
{'kolla=VERB': 5756, 'punkt=NOUN': 2511}	5		3.5521672460028286
{'ordna=VERB': 1603, 'form=NOUN': 9973}	17		5.185942243391959
{'skapa=VERB': 13975, 'osäkerhet=NOUN': 333}	31		7.959441689762745
{'visa=VERB': 40268, 'förhållande=NOUN': 2971}	59		4.090624545759422
{'ta=VERB': 78465, 'paus=NOUN': 664}	231		7.849024690041537
{'behöva=VERB': 15035, 'morot=NOUN': 207}	1		3.4485651571458615
{'placera=VERB': 1987, 'uran=NOUN': 52}	0	invalide: coocc nulle dans Conllst	n_a
{'sätta=VERB': 14247, 'prägel=NOUN': 203}	63		10.067027058482894
{'kontrollera=VERB': 2976, 'trafik=NOUN': 1530}	9		6.075338325064183
{'ha=VERB': 189857, 'invandrare=NOUN': 807}	76		4.211230852277864
{'visa=VERB': 40268}	0	invalide: mot absent Conllst	n_a_abs
{'se=VERB': 80226, 'studie=NOUN': 4516}	71		2.752281491801385
{'förblinda=VERB': 23, 'kvinna=NOUN': 17852}	2		7.495053096244049
{'ha=VERB': 189857, 'mage=NOUN': 1858}	301		5.107808823335355
{'lösa=VERB': 2949, 'skilsmässa=NOUN': 272}	2		6.409160030651803
{'få=VERB': 102267, 'medinflytande=NOUN': 2}	0	invalide: coocc nulle dans Conllst	n_a
{'glömma=VERB': 2127, 'nytta=NOUN': 2317}	0	invalide: coocc nulle dans Conllst	n_a
{'få=VERB': 102267, 'hyresbidrag=NOUN': 2}	0	invalide: coocc nulle dans Conllst	n_a
{'ge=VERB': 38036, 'rätt=NOUN': 11128}	479		5.339664272539857
{'gälla=VERB': 17307, 'procent=NOUN': 8279}	69		4.043060144685955
{'komplettera=VERB': 1001, 'rostskydd=NOUN': 14}	0	invalide: coocc nulle dans Conllst	n_a
{'nå=VERB': 5593}	0	invalide: mot absent Conllst	n_a_abs
{'hjälpa=VERB': 16076, 'unge=NOUN': 928}	9		4.3651979665744856
{'få=VERB': 102267}	0	invalide: mot absent Conllst	n_a_abs
{'skydda=VERB': 2997, 'barn=NOUN': 31270}	104		5.285410699326586
{'markera=VERB': 1046, 'valkrets=NOUN': 101}	0	invalide: coocc nulle dans Conllst	n_a
{'välja=VERB': 17893, 'yrke=NOUN': 1047}	26		5.590669744877406
{'ge=VERB': 38036, 'företräde=NOUN': 75}	17		8.026055853600075
{'organisera=VERB': 669, 'undervisning=NOUN': 1400}	1		5.1771224331878285
{'märka=VERB': 2333, 'träd=NOUN': 1599}	3		4.769610297783801
{'angripa=VERB': 240}	0	invalide: mot absent Conllst	n_a_abs
{'byta=VERB': 6582, 'torkarblad=NOUN': 11}	4		11.520218757933627
{'skaffa=VERB': 2494, 'upplysning=NOUN': 503}	1		4.755796251384361
{'studera=VERB': 2386, 'park=NOUN': 4135}	2		2.7788648039899315
{'informera=VERB': 1115, 'hem=NOUN': 4809}	3		4.246407467694416
{'tappa=VERB': 1851, 'blick=NOUN': 611}	2		5.908179045516105
{'byta=VERB': 6582, 'namn=NOUN': 11767}	416		7.650795735698895
{'ge=VERB': 38036, 'strömstöt=NOUN': 3}	0	invalide: coocc nulle dans Conllst	n_a
{'studera=VERB': 2386, 'stad=NOUN': 22258}	19		3.6092861987645075
{'förbereda=VERB': 1305, 'ärende=NOUN': 1410}	5		6.53228474468989
{'handlägga=VERB': 172, 'tillstånd=NOUN': 2783}	1		6.151247753398496
{'ge=VERB': 38036, 'bidrag=NOUN': 3018}	150		5.544619146778828
{'bli=VERB': 93121, 'följd=NOUN': 1803}	219		5.653015377428461
{'skapa=VERB': 13975, 'människa=NOUN': 18848}	409		5.788783432358657
{'bestämma=VERB': 3225, 'riktning=NOUN': 1692}	6		5.224183791128029
{'kolla=VERB': 5756, 'däck=NOUN': 896}	4		4.720259112467031
{'hjälpa=VERB': 16076, 'industri=NOUN': 1619}	11		3.8477535399262277
{'få=VERB': 102267, 'besked=NOUN': 1121}	334		7.137229777159729
{'ha=VERB': 189857, 'förståelse=NOUN': 1136}	233		5.523828893258871
{'kräva=VERB': 9265, 'siffra=NOUN': 2482}	11		4.02369791256985
{'dela=VERB': 8307, 'uppgift=NOUN': 7694}	73		5.2976891983689836
{'se=VERB': 80226, 'tabell=NOUN': 1090}	85		5.157165231508012
{'få=VERB': 102267, 'utbildningsbidrag=NOUN': 8}	0	invalide: coocc nulle dans Conllst	n_a
{'hitta=VERB': 36412, 'lösning=NOUN': 6024}	382		5.989533818962658
{'se=VERB': 80226, 'pension=NOUN': 772}	31		4.140648881062977
{'få=VERB': 102267, 'undervisning=NOUN': 1400}	120		4.955682165560432
{'förkorta=VERB': 233, 'vårdtid=NOUN': 59}	0	invalide: coocc nulle dans Conllst	n_a
{'ha=VERB': 189857}	0	invalide: mot absent Conllst	n_a_abs
{'få=VERB': 102267}	0	invalide: mot absent Conllst	n_a_abs
{'jämföra=VERB': 2432, 'attityd=NOUN': 487}	0	invalide: coocc nulle dans Conllst	n_a
{'lämna=VERB': 11189, 'uppgift=NOUN': 7694}	327		7.11029012311381
{'räkna=VERB': 4965, 'riksdagsval=NOUN': 210}	2		6.033570515388422
{'träffa=VERB': 5184, 'ämbetsman=NOUN': 117}	0	invalide: coocc nulle dans Conllst	n_a
{'definiera=VERB': 936}	0	invalide: mot absent Conllst	n_a_abs
{'bygga=VERB': 11164, 'håla=NOUN': 68}	1		5.498480606521932
{'fatta=VERB': 1988, 'mod=NOUN': 1219}	5		6.133913399229466
{'lämna=VERB': 11189, 'bostadslån=NOUN': 48}	0	invalide: coocc nulle dans Conllst	n_a
{'styra=VERB': 2636, 'företag=NOUN': 17850}	36		4.7159121876453165
{'bedöma=VERB': 1691, 'förutsättning=NOUN': 2886}	27		7.584159852217912
{'följa=VERB': 10895, 'prisutveckling=NOUN': 76}	7		8.299386086602073
{'handha=VERB': 51, 'fråga=NOUN': 27640}	2		5.641931529039228
{'kapa=VERB': 186, 'sjukvårdskostnad=NOUN': 29}	0	invalide: coocc nulle dans Conllst	n_a
{'påbjuda=VERB': 26}	0	invalide: mot absent Conllst	n_a_abs
{'stimulera=VERB': 588, 'odlare=NOUN': 71}	0	invalide: coocc nulle dans Conllst	n_a
{'gäll=VERB': 45, 'adress=NOUN': 4963}	0	invalide: coocc nulle dans Conllst	n_a
{'diskutera=VERB': 3234, 'möjlighet=NOUN': 11971}	78		6.134702642433599
{'läsa=VERB': 29591, 'platsannons=NOUN': 59}	1		4.3002039016177775
{'ha=VERB': 189857, 'nyckel=NOUN': 860}	75		4.089293179629658
{'ge=VERB': 38036, 'grepp=NOUN': 672}	44		5.962409801713966
{'bromsa=VERB': 248}	0	invalide: mot absent Conllst	n_a_abs
{'kontrollera=VERB': 2976, 'bromsljus=NOUN': 6}	0	invalide: coocc nulle dans Conllst	n_a
{'begå=VERB': 731, 'äktenskapsbrott=NOUN': 26}	5		13.436791906939485
{'be=VERB': 3263, 'arbetsgivare=NOUN': 1486}	2		3.804632870457365
{'få=VERB': 102267, 'förslag=NOUN': 5278}	349		4.553961586841413
{'få=VERB': 102267}	0	invalide: mot absent Conllst	n_a_abs
{'lösa=VERB': 2949, 'problem=NOUN': 13027}	761		9.904985357896932
{'få=VERB': 102267}	0	invalide: mot absent Conllst	n_a_abs
{'forma=VERB': 714, 'liv=NOUN': 14943}	27		6.47715510439836
{'göra=VERB': 110486, 'kartläggning=NOUN': 318}	30		4.994860304146784
{'få=VERB': 102267, 'fraktkostnad=NOUN': 161}	10		4.452690247757017
{'klassificera=VERB': 269, 'stockholmsfamilj=NOUN': 1}	0	invalide: coocc nulle dans Conllst	n_a
{'främja=VERB': 1239, 'ändring=NOUN': 2735}	1		3.3204138460063084
{'göra=VERB': 110486, 'köttbulle=NOUN': 215}	24		5.265350017206879
{'göra=VERB': 110486}	0	invalide: mot absent Conllst	n_a_abs
{'lösa=VERB': 2949, 'bostadsfråga=NOUN': 24}	2		10.026544009065336
{'dra=VERB': 8911, 'järnväg=NOUN': 553}	6		5.380172554766252
{'acceptera=VERB': 1941, 'kamrat=NOUN': 315}	0	invalide: coocc nulle dans Conllst	n_a
{'avdramatisera=VERB': 15, 'problem=NOUN': 13027}	0	invalide: coocc nulle dans Conllst	n_a
{'ange=VERB': 4631, 'orsak=NOUN': 2680}	19		5.710004893596227
{'placera=VERB': 1987, 'ljus=NOUN': 3772}	5		4.500993502580115
{'bryta=VERB': 2234, 'kol=NOUN': 416}	2		6.19339870349812
{'röra=VERB': 4593, 'konvention=NOUN': 250}	3		6.483323803661942
{'tillgripa=VERB': 28, 'bombardemang=NOUN': 5}	0	invalide: coocc nulle dans Conllst	n_a
{'lansera=VERB': 3150, 'ide=NOUN': 170}	0	invalide: coocc nulle dans Conllst	n_a
{'lägga=VERB': 20389, 'märke=NOUN': 1613}	156		7.48320140213925
{'få=VERB': 102267, 'kontakt=NOUN': 5240}	556		5.302306496143631
{'vålla=VERB': 91, 'skada=NOUN': 2690}	14		11.165712953547876
{'ha=VERB': 189857, 'fru=NOUN': 1406}	167		4.586466693377569
{'få=VERB': 102267, 'daghemsplats=NOUN': 1}	1		n_a
{'göra=VERB': 110486}	0	invalide: mot absent Conllst	n_a_abs
{'få=VERB': 102267, 'människa=NOUN': 18848}	1151		4.44281012310635
{'ifrågasätta=VERB': 720, 'humanitet=NOUN': 10}	0	invalide: coocc nulle dans Conllst	n_a
{'få=VERB': 102267, 'balans=NOUN': 1021}	85		4.9092516360644725
{'klandra=VERB': 57, 'kvinna=NOUN': 17852}	1		5.079934775977486
{'få=VERB': 102267, 'prestation=NOUN': 541}	27		4.118669709961867
{'mäta=VERB': 1426, 'pris=NOUN': 43170}	8		2.143891059422338
{'analysera=VERB': 1195, 'problem=NOUN': 13027}	64		7.205511742525924
{'göra=VERB': 110486, 'reklam=NOUN': 1442}	200		5.625523566961236
{'överlämna=VERB': 374, 'skelettdel=NOUN': 9}	0	invalide: coocc nulle dans Conllst	n_a
{'hitta=VERB': 36412, 'kvarleva=NOUN': 91}	9		6.671610241139603
{'välja=VERB': 17893, 'leksak=NOUN': 780}	2		2.280434220614915
{'servera=VERB': 3797, 'potatis=NOUN': 1129}	103		9.84372433342036
{'bedöma=VERB': 1691, 'avstånd=NOUN': 2050}	5		5.615661118942802
{'hålla=VERB': 18941, 'grepp=NOUN': 672}	42		6.898094098312729
{'ha=VERB': 189857, 'vrå=NOUN': 66}	5		3.867682058575133
{'skaffa=VERB': 2494, 'lägenhet=NOUN': 7657}	8		3.830340959220876
{'fostra=VERB': 52, 'barn=NOUN': 31270}	12		8.34210352667195
{'behärska=VERB': 269, 'område=NOUN': 13067}	7		6.112071616912995
{'inneha=VERB': 567, 'roll=NOUN': 5327}	11		6.975372129464248
{'ha=VERB': 189857, 'grundutbildning=NOUN': 142}	16		4.499294969734022
{'visa=VERB': 40268, 'valdeltagande=NOUN': 80}	11		7.0649620902388515
{'rengöra=VERB': 354, 'hud=NOUN': 2011}	14		9.445352341302563
{'röra=VERB': 4593, 'sak=NOUN': 19405}	55		4.404479846759821
{'bygga=VERB': 11164}	0	invalide: mot absent Conllst	n_a_abs
{'förvandla=VERB': 848, 'inre=NOUN': 425}	1		6.5568683589312355
{'söka=VERB': 16220}	0	invalide: mot absent Conllst	n_a_abs
{'ge=VERB': 38036, 'bild=NOUN': 41188}	878		4.308848708184867
{'ge=VERB': 38036, 'underlag=NOUN': 1000}	57		5.749868727430921
{'göra=VERB': 110486, 'förändring=NOUN': 4082}	306		4.636248923704991
{'lätta=VERB': 150, 'möda=NOUN': 113}	0	invalide: coocc nulle dans Conllst	n_a
{'ställa=VERB': 7872, 'energibalans=NOUN': 17}	0	invalide: coocc nulle dans Conllst	n_a
{'kasta=VERB': 1229, 'roll=NOUN': 5327}	1		2.37007541424584
{'ha=VERB': 189857, 'hund=NOUN': 5349}	481		4.140892622689026
{'få=VERB': 102267, 'hörselskydd=NOUN': 42}	3		4.668628417786166
{'tolka=VERB': 1194, 'stimulus=NOUN': 44}	1		9.364363890429308
{'välja=VERB': 17893, 'kost=NOUN': 1201}	3		2.242691513819733
{'få=VERB': 102267, 'näring=NOUN': 722}	103		5.783184509643333
{'ha=VERB': 189857, 'bostadskostnad=NOUN': 11}	0	invalide: coocc nulle dans Conllst	n_a
{'påvisa=VERB': 353, 'ämne=NOUN': 5434}	1		4.144042022518012
{'klara=VERB': 4185, 'vinterkyla=NOUN': 26}	0	invalide: coocc nulle dans Conllst	n_a
{'ha=VERB': 189857, 'medlem=NOUN': 7687}	699		4.160259457721787
{'känna=VERB': 13687, 'människovärde=NOUN': 28}	0	invalide: coocc nulle dans Conllst	n_a
{'slå=VERB': 6694, 'larm=NOUN': 525}	40		8.711087979756641
{'få=VERB': 102267, 'stimulans=NOUN': 168}	18		5.310386075725177
{'få=VERB': 102267, 'hörselskada=NOUN': 29}	11		7.658687617979793
{'ha=VERB': 189857, 'vinterdäck=NOUN': 135}	32		5.79019596303685
{'besvara=VERB': 1616, 'fråga=NOUN': 27640}	361		8.47788721264903
{'ge=VERB': 38036, 'smak=NOUN': 2959}	146		5.53340817499588
{'kanalisera=VERB': 41, 'drift=NOUN': 786}	0	invalide: coocc nulle dans Conllst	n_a
{'få=VERB': 102267, 'återbäring=NOUN': 26}	6		6.632144865047915
{'ge=VERB': 38036, 'vänskap=NOUN': 391}	4		3.1998910287397884
{'hämta=VERB': 7193, 'återbäring=NOUN': 26}	0	invalide: coocc nulle dans Conllst	n_a
{'rymma=VERB': 822, 'dubb=NOUN': 60}	0	invalide: coocc nulle dans Conllst	n_a
{'plocka=VERB': 2181, 'dubb=NOUN': 60}	0	invalide: coocc nulle dans Conllst	n_a
{'tillträda=VERB': 309, 'anställning=NOUN': 677}	0	invalide: coocc nulle dans Conllst	n_a
{'ha=VERB': 189857, 'ratt=NOUN': 179}	22		4.64143136064839
{'föra=VERB': 3119, 'samtal=NOUN': 3677}	63		7.591477277426202
{'vinna=VERB': 3563, 'minut=NOUN': 13854}	12		3.0451950391226785
{'förväxla=VERB': 242, 'försändelse=NOUN': 122}	0	invalide: coocc nulle dans Conllst	n_a
{'ha=VERB': 189857, 'utseende=NOUN': 1097}	157		4.89575062196706
{'sköta=VERB': 2179, 'hushåll=NOUN': 779}	5		6.650609086542276
{'transportera=VERB': 460, 'energi=NOUN': 2915}	4		6.670817834539125
{'få=VERB': 102267, 'remiss=NOUN': 309}	85		6.972261433590273
{'bifoga=VERB': 228, 'deklaration=NOUN': 286}	1		9.029640376483615
{'göra=VERB': 110486, 'skoldag=NOUN': 84}	2		2.899977036299753
{'befria=VERB': 252, 'adressat=NOUN': 15}	0	invalide: coocc nulle dans Conllst	n_a
{'slopa=VERB': 100, 'hyresreglering=NOUN': 12}	0	invalide: coocc nulle dans Conllst	n_a
{'framkalla=VERB': 232, 'regn=NOUN': 1148}	2		8.003125593125352
{'kostnad=NOUN': 5707}	0	invalide: mot absent Conllst	n_a_abs
{'söka=VERB': 16220, 'hjälp=NOUN': 11776}	340		5.984179712302918
{'mata=VERB': 434, 'unge=NOUN': 928}	2		7.401251087402928
{'undvika=VERB': 2306, 'förväxling=NOUN': 20}	1		9.592528424066348
{'begära=VERB': 954, 'utträde=NOUN': 52}	2		10.472333019743965
{'välja=VERB': 17893}	0	invalide: mot absent Conllst	n_a_abs
{'ha=VERB': 189857, 'förmåga=NOUN': 2645}	609		5.739865016536946
{'undervisning=NOUN': 1400, 'individualisera=VERB': 12}	0	invalide: coocc nulle dans Conllst	n_a
{'låta=VERB': 13229, 'flicka=NOUN': 3212}	26		4.385337982326713
{'avhjälpa=VERB': 103, 'svält=NOUN': 148}	0	invalide: coocc nulle dans Conllst	n_a
{'slänga=VERB': 1118, 'cigarett=NOUN': 185}	0	invalide: coocc nulle dans Conllst	n_a
{'få=VERB': 102267, 'huvudansvar=NOUN': 46}	5		5.333472441583156
{'gälla=VERB': 17307, 'statsminister=NOUN': 299}	5		5.054611529552362
{'få=VERB': 102267, 'barntillsyn=NOUN': 2}	0	invalide: coocc nulle dans Conllst	n_a
{'ha=VERB': 189857, 'besök=NOUN': 5519}	529		4.242778521139745
{'byta=VERB': 6582, 'vara=NOUN': 4384}	34		5.334831521979366
{'sätta=VERB': 14247, 'dubb=NOUN': 60}	1		5.330094648515101
{'skapa=VERB': 13975, 'motsättning=NOUN': 207}	12		7.219317837258675
{'behålla=VERB': 1781, 'privilegium=NOUN': 199}	2		7.5921043581030965
{'öka=VERB': 9016, 'livsmedelsproduktion=NOUN': 47}	1		6.349333240449917
{'söka=VERB': 16220, 'socialhjälp=NOUN': 4}	0	invalide: coocc nulle dans Conllst	n_a
{'besöka=VERB': 8443, 'doktor=NOUN': 740}	8		5.453134781367663
{'skaffa=VERB': 2494, 'glasögon=NOUN': 416}	7		7.8622140697255825
{'ta=VERB': 78465, 'befäl=NOUN': 252}	22		5.36559144947932
{'inköpa=VERB': 94, 'materiel=NOUN': 146}	0	invalide: coocc nulle dans Conllst	n_a
{'bilda=VERB': 3894}	0	invalide: mot absent Conllst	n_a_abs
{'höja=VERB': 1927, 'lön=NOUN': 2006}	46		8.720646856357881
{'hålla=VERB': 18941, 'näsöppning=NOUN': 1}	0	invalide: coocc nulle dans Conllst	n_a
{'ha=VERB': 189857, 'kännetecken=NOUN': 268}	21		3.920563082385258
{'kräva=VERB': 9265, 'fördelning=NOUN': 405}	5		5.512282399791673
{'ha=VERB': 189857}	0	invalide: mot absent Conllst	n_a_abs
{'ha=VERB': 189857, 'förhållande=NOUN': 2971}	400		4.7952383482389855
{'träna=VERB': 2855, 'intelligens=NOUN': 233}	0	invalide: coocc nulle dans Conllst	n_a
{'importera=VERB': 399, 'arbetskraft=NOUN': 314}	2		9.092609556821428
{'nå=VERB': 5593, 'procent=NOUN': 8279}	48		5.152145726749943
{'sätta=VERB': 14247, 'skyddsnät=NOUN': 57}	2		6.431479258090761
{'komma=VERB': 57414}	0	invalide: mot absent Conllst	n_a_abs
{'göra=VERB': 110486, 'skada=NOUN': 2690}	213		4.720618370581855
{'möta=VERB': 4538, 'svårighet=NOUN': 801}	19		7.506121847291864
{'jämföra=VERB': 2432, 'ställning=NOUN': 1441}	3		4.859974738472626
{'trycka=VERB': 1939, 'valsedel=NOUN': 155}	5		9.186744297741273
{'köpa=VERB': 47127, 'hus=NOUN': 8875}	190		3.9781144337214176
{'skriva=VERB': 26398, 'partibeteckning=NOUN': 24}	0	invalide: coocc nulle dans Conllst	n_a
{'följa=VERB': 10895, 'mönster=NOUN': 2206}	51		6.205350762983956
{'fylla=VERB': 5110, 'sats=NOUN': 362}	3		5.789869096012323
{'få=VERB': 102267}	0	invalide: mot absent Conllst	n_a_abs
{'visa=VERB': 40268, 'fördelning=NOUN': 405}	17		5.20181996620334
{'lägga=VERB': 20389, 'vikt=NOUN': 3149}	232		7.059724981406089
{'kontrollera=VERB': 2976, 'däck=NOUN': 896}	14		7.5013711240378695
{'ge=VERB': 38036, 'rättighet=NOUN': 4639}	138		4.773667485946683
{'tro=VERB': 16440, 'procent=NOUN': 8279}	54		3.7599184119936937
{'innehålla=VERB': 7654, 'halskota=NOUN': 7}	0	invalide: coocc nulle dans Conllst	n_a
{'föra=VERB': 3119, 'förhandling=NOUN': 755}	8		6.862879860503014
{'ifrågasätta=VERB': 720, 'uppfattning=NOUN': 1561}	6		7.513490344500725
{'energikälla=NOUN': 103}	0	invalide: mot absent Conllst	n_a_abs
{'få=VERB': 102267, 'grepp=NOUN': 672}	97		5.802889552333137
{'finna=VERB': 4921, 'nöje=NOUN': 1734}	8		4.995401699896661
{'bygga=VERB': 11164, 'arbetslokal=NOUN': 3}	0	invalide: coocc nulle dans Conllst	n_a
{'få=VERB': 102267, 'skatt=NOUN': 5238}	169		3.4648058805753617
{'ha=VERB': 189857, 'timme=NOUN': 10645}	914		4.0710934282079725
{'jfr=VERB': 166, 'namnlag=NOUN': 10}	0	invalide: coocc nulle dans Conllst	n_a
{'iaktta=VERB': 171, 'plasticitet=NOUN': 26}	0	invalide: coocc nulle dans Conllst	n_a
{'ha=VERB': 189857, 'siffra=NOUN': 2482}	238		4.241223770226129
{'beräkna=VERB': 1395, 'tömning=NOUN': 46}	0	invalide: coocc nulle dans Conllst	n_a
{'ordna=VERB': 1603}	0	invalide: mot absent Conllst	n_a_abs
{'skaffa=VERB': 2494, 'kunskap=NOUN': 5230}	59		7.307716375735381
{'vinna=VERB': 3563, 'tid=NOUN': 34418}	57		3.9998023031848393
{'skjuta=VERB': 1486, 'belopp=NOUN': 1241}	0	invalide: coocc nulle dans Conllst	n_a
{'blottlägga=VERB': 19, 'utveckling=NOUN': 7455}	1		7.977282867655471
{'få=VERB': 102267, 'lön=NOUN': 2006}	307		5.904987928103028
{'göra=VERB': 110486}	0	invalide: mot absent Conllst	n_a_abs
{'ha=VERB': 189857}	0	invalide: mot absent Conllst	n_a_abs
{'ha=VERB': 189857, 'stab=NOUN': 98}	18		5.3245869988516885
{'ha=VERB': 189857, 'skyldighet=NOUN': 806}	167		5.541755044571177
{'visa=VERB': 40268, 'provkarta=NOUN': 4}	0	invalide: coocc nulle dans Conllst	n_a
{'känna=VERB': 13687, 'resultat=NOUN': 8831}	49		3.7900385282762965
{'acceptera=VERB': 1941, 'skäl=NOUN': 2558}	7		5.584142631804924
{'köra=VERB': 8646, 'kantlinje=NOUN': 9}	0	invalide: coocc nulle dans Conllst	n_a
{'visa=VERB': 40268, 'flexibilitet=NOUN': 343}	3		2.8893398244659942
{'lägga=VERB': 20389, 'tidning=NOUN': 5853}	43		3.620491709490253
{'ha=VERB': 189857, 'låda=NOUN': 825}	135		5.123842561648832
{'montera=VERB': 698}	0	invalide: mot absent Conllst	n_a_abs
{'möta=VERB': 4538, 'krav=NOUN': 4534}	68		6.847643162183819
{'komma=VERB': 57414, 'faktor=NOUN': 1581}	34		3.6949519849719104
{'nå=VERB': 5593, 'barn=NOUN': 31270}	81		3.993747126537979
{'klara=VERB': 4185, 'procent=NOUN': 8279}	23		4.500280423725058
{'visa=VERB': 40268, 'ljus=NOUN': 3772}	51		3.526439792764727
{'ge=VERB': 38036, 'otrygghet=NOUN': 55}	5		6.474190624210342
{'ha=VERB': 189857}	0	invalide: mot absent Conllst	n_a_abs
{'leverera=VERB': 3226, 'potatis=NOUN': 1129}	0	invalide: coocc nulle dans Conllst	n_a
{'hjälpa=VERB': 16076}	0	invalide: mot absent Conllst	n_a_abs
{'ge=VERB': 38036}	0	invalide: mot absent Conllst	n_a_abs
{'ha=VERB': 189857, 'dragning=NOUN': 166}	23		4.840318709932921
{'mönster=NOUN': 2206}	0	invalide: mot absent Conllst	n_a_abs
{'ha=VERB': 189857, 'lastning=NOUN': 51}	2		2.8617586601623994
{'förutsäga=VERB': 178, 'utveckling=NOUN': 7455}	4		6.704845129395465
{'få=VERB': 102267, 'tjänsteman=NOUN': 580}	25		3.896890764071587
{'tämja=VERB': 21, 'vattenkraft=NOUN': 138}	0	invalide: coocc nulle dans Conllst	n_a
{'innehålla=VERB': 7654, 'byggsten=NOUN': 70}	0	invalide: coocc nulle dans Conllst	n_a
{'förverkliga=VERB': 289, 'kärlek=NOUN': 2820}	0	invalide: coocc nulle dans Conllst	n_a
{'ha=VERB': 189857, 'ram=NOUN': 1479}	146		4.2869266593178414
{'få=VERB': 102267}	0	invalide: mot absent Conllst	n_a_abs
{'kräva=VERB': 9265, 'förälder=NOUN': 4963}	193		7.236485534259611
{'ha=VERB': 189857, 'rörelsemönster=NOUN': 28}	3		4.41758241417503
{'bestämma=VERB': 3225, 'arbetsplats=NOUN': 1326}	3		4.572631348562544
{'lägga=VERB': 20389, 'pengar=NOUN': 9735}	351		5.979895995746308
{'ha=VERB': 189857, 'hustru=NOUN': 1047}	75		3.7810295198028663
{'gälla=VERB': 17307}	0	invalide: mot absent Conllst	n_a_abs
{'motsätta=VERB': 277, 'byte=NOUN': 780}	1		7.2970029979867945
{'ställa=VERB': 7872, 'debattinlägg=NOUN': 71}	1		5.939392731371091
{'få=VERB': 102267, 'besvär=NOUN': 1229}	218		6.1587214961014265
{'nå=VERB': 5593, 'kompromiss=NOUN': 184}	3		6.647491018734032
{'ha=VERB': 189857, 'bondesamhälle=NOUN': 20}	1		3.2285333919230563
{'tanka=VERB': 552, 'bensin=NOUN': 251}	12		11.61828706851621
{'ha=VERB': 189857}	0	invalide: mot absent Conllst	n_a_abs
{'stoppa=VERB': 2181, 'hyreshöjning=NOUN': 50}	0	invalide: coocc nulle dans Conllst	n_a
{'planlägga=VERB': 28}	0	invalide: mot absent Conllst	n_a_abs
{'tanka=VERB': 552, 'liter=NOUN': 846}	3		7.775918313600508
{'ha=VERB': 189857, 'kondition=NOUN': 339}	21		3.5560473586855808
{'få=VERB': 102267, 'utveckling=NOUN': 7455}	293		3.761775189967039
{'erfara=VERB': 95, 'förnimmelse=NOUN': 26}	0	invalide: coocc nulle dans Conllst	n_a
{'uppgift=NOUN': 7694}	0	invalide: mot absent Conllst	n_a_abs
{'slippa=VERB': 2179, 'påverkan=NOUN': 421}	1		5.2079732164436034
{'samordna=VERB': 319, 'politik=NOUN': 3144}	3		6.675180497718722
{'komma=VERB': 57414, 'hinder=NOUN': 879}	24		4.047677109819899
{'slopa=VERB': 100, 'linje=NOUN': 2206}	1		7.275087412302141
{'komplettera=VERB': 1001, 'muskelkraft=NOUN': 12}	0	invalide: coocc nulle dans Conllst	n_a
{'vidta=VERB': 919, 'förbättring=NOUN': 962}	1		5.260264008639075
{'kompensera=VERB': 416}	0	invalide: mot absent Conllst	n_a_abs
{'tåla=VERB': 458, 'påfrestning=NOUN': 141}	6		11.698974914081772
{'konstruera=VERB': 181, 'moral=NOUN': 307}	0	invalide: coocc nulle dans Conllst	n_a
{'få=VERB': 102267}	0	invalide: mot absent Conllst	n_a_abs
{'ge=VERB': 38036, 'mat=NOUN': 8965}	198		4.33494784644751
{'ge=VERB': 38036, 'lycka=NOUN': 1777}	46		4.563846827964623
{'beräkna=VERB': 1395, 'hyreshöjning=NOUN': 50}	0	invalide: coocc nulle dans Conllst	n_a
{'vinna=VERB': 3563}	0	invalide: mot absent Conllst	n_a_abs
{'behålla=VERB': 1781, 'namn=NOUN': 11767}	25		5.35739549171804
{'acceptera=VERB': 1941, 'förbindelse=NOUN': 1613}	0	invalide: coocc nulle dans Conllst	n_a
{'reformera=VERB': 113, 'samhälle=NOUN': 6344}	5		7.948008012894431
{'påföra=VERB': 37, 'skatt=NOUN': 5238}	3		9.15453281047928
{'göra=VERB': 110486, 'insats=NOUN': 2536}	413		5.901015182813685
{'överblicka=VERB': 53, 'utveckling=NOUN': 7455}	1		6.446768150956691
{'klara=VERB': 4185, 'uppgift=NOUN': 7694}	36		5.259632087547135
{'torka=VERB': 882, 'ruta=NOUN': 826}	0	invalide: coocc nulle dans Conllst	n_a
{'bryta=VERB': 2234, 'boja=NOUN': 70}	2		8.799422819747107
{'ha=VERB': 189857, 'lånemöjlighet=NOUN': 4}	0	invalide: coocc nulle dans Conllst	n_a
{'ockupera=VERB': 129, 'hus=NOUN': 8875}	3		6.5036458998861635
{'räkna=VERB': 4965, 'familjemedlem=NOUN': 219}	2		5.972459001085034
{'antyda=VERB': 470, 'handelsväg=NOUN': 19}	0	invalide: coocc nulle dans Conllst	n_a
{'putsa=VERB': 137, 'fläck=NOUN': 447}	0	invalide: coocc nulle dans Conllst	n_a
{'byta=VERB': 6582, 'lägenhet=NOUN': 7657}	29		4.2939590232513085
{'stenkol=NOUN': 15, 'förgasa=VERB': 3}	0	invalide: coocc nulle dans Conllst	n_a
{'hämta=VERB': 7193, 'paket=NOUN': 3641}	107		7.174631884557851
{'skicka=VERB': 11456, 'postpaket=NOUN': 19}	7		10.750465421360786
{'vinna=VERB': 3563, 'sympati=NOUN': 154}	5		8.316915751984675
{'öka=VERB': 9016, 'halt=NOUN': 353}	18		7.657526037344765
{'ha=VERB': 189857, 'utkörning=NOUN': 86}	7		3.9800806733133207
{'underhålla=VERB': 385, 'lägenhet=NOUN': 7657}	0	invalide: coocc nulle dans Conllst	n_a
{'markera=VERB': 1046, 'gräns=NOUN': 3005}	9		6.613909886996969
{'få=VERB': 102267, 'hemarbete=NOUN': 19}	0	invalide: coocc nulle dans Conllst	n_a
{'få=VERB': 102267, 'prov=NOUN': 1272}	114		5.026105401217936
{'vinna=VERB': 3563, 'självständighet=NOUN': 346}	2		5.786675497761473
{'förebygga=VERB': 748}	0	invalide: mot absent Conllst	n_a_abs
{'göra=VERB': 110486, 'bild=NOUN': 41188}	1558		3.609165822346994
{'höja=VERB': 1927, 'ackord=NOUN': 87}	0	invalide: coocc nulle dans Conllst	n_a
{'dumpa=VERB': 117, 'smörja=NOUN': 45}	0	invalide: coocc nulle dans Conllst	n_a
{'ge=VERB': 38036, 'samlingspunkt=NOUN': 38}	0	invalide: coocc nulle dans Conllst	n_a
{'få=VERB': 102267, 'typ=NOUN': 10080}	451		3.959215565954522
{'ha=VERB': 189857, 'invånare=NOUN': 2806}	751		6.029917779150909
{'sätta=VERB': 14247, 'skatteåterbäring=NOUN': 10}	0	invalide: coocc nulle dans Conllst	n_a
{'ge=VERB': 38036, 'lösning=NOUN': 6024}	189		4.854841129576403
{'visa=VERB': 40268}	0	invalide: mot absent Conllst	n_a_abs
{'skildra=VERB': 500, 'man=NOUN': 13519}	11		5.81522147250422
{'få=VERB': 102267, 'snabbhet=NOUN': 129}	4		3.4032979588895036
{'möta=VERB': 4538, 'påstående=NOUN': 777}	4		5.270113693161001
{'lära=VERB': 7133, 'matematik=NOUN': 1004}	22		6.735022636215589
{'ge=VERB': 38036, 'förmån=NOUN': 996}	23		4.394067666834629
{'gälla=VERB': 17307}	0	invalide: mot absent Conllst	n_a_abs
{'göra=VERB': 110486, 'val=NOUN': 8087}	679		4.8187958528692105
{'ha=VERB': 189857, 'bestämmelse=NOUN': 1366}	96		3.7515326997396787
{'kräva=VERB': 9265, 'tid=NOUN': 34418}	270		4.893401539804896
{'producera=VERB': 2030, 'hormon=NOUN': 508}	26		9.829890561542555
{'få=VERB': 102267}	0	invalide: mot absent Conllst	n_a_abs
{'avslöja=VERB': 2182, 'överskott=NOUN': 272}	0	invalide: coocc nulle dans Conllst	n_a
{'skaffa=VERB': 2494, 'hund=NOUN': 5349}	51		7.057762038161251
{'brännmärka=VERB': 9}	0	invalide: mot absent Conllst	n_a_abs
{'dra=VERB': 8911, 'dansk=NOUN': 648}	3		4.141928280449384
{'ha=VERB': 189857, 'undervisningsväsende=NOUN': 7}	0	invalide: coocc nulle dans Conllst	n_a
{'köra=VERB': 8646, 'linje=NOUN': 2206}	28		5.656436273056948
{'ha=VERB': 189857, 'andel=NOUN': 1768}	227		4.715076618455782
{'fånga=VERB': 721, 'intresse=NOUN': 4801}	31		8.314977180655104
{'kräva=VERB': 9265, 'trottoar=NOUN': 40}	1		6.548185215975149
{'glömma=VERB': 2127, 'upplevelse=NOUN': 2903}	12		6.052174632063427
{'stoppa=VERB': 2181, 'valsedel=NOUN': 155}	2		7.664168649018075
{'belysa=VERB': 380, 'problematik=NOUN': 140}	0	invalide: coocc nulle dans Conllst	n_a
{'fylla=VERB': 5110, 'behov=NOUN': 5655}	41		5.606260180342717
{'fordra=VERB': 52, 'åtgärd=NOUN': 1922}	1		8.43093982718961
{'hjälp=VERB': 412, 'kamrat=NOUN': 315}	0	invalide: coocc nulle dans Conllst	n_a
{'ha=VERB': 189857, 'tanke=NOUN': 6385}	894		4.864540549194134
{'tappa=VERB': 1851, 'kylvatten=NOUN': 6}	0	invalide: coocc nulle dans Conllst	n_a
{'ge=VERB': 38036, 'struktur=NOUN': 1310}	74		5.7367289293152055
{'ge=VERB': 38036, 'gång=NOUN': 25691}	480		4.099376052015154
{'kräva=VERB': 9265, 'integration=NOUN': 683}	3		4.009470495706394
{'åskådliggöra=VERB': 32, 'förskjutning=NOUN': 68}	0	invalide: coocc nulle dans Conllst	n_a
{'få=VERB': 102267, 'inlåningsränta=NOUN': 6}	2		7.369054028440878
{'sakna=VERB': 5475, 'motivering=NOUN': 440}	4		5.825233807667128
{'ha=VERB': 189857, 'reklaminslag=NOUN': 4}	0	invalide: coocc nulle dans Conllst	n_a
{'gälla=VERB': 17307, 'vård=NOUN': 3965}	46		4.523070643596957
{'ha=VERB': 189857, 'val=NOUN': 8087}	675		4.024688196437938
{'klistra=VERB': 304}	0	invalide: mot absent Conllst	n_a_abs
{'gå=VERB': 65206, 'jobb=NOUN': 9375}	499		4.876574855080344
{'behöva=VERB': 15035}	0	invalide: mot absent Conllst	n_a_abs
{'täcka=VERB': 1744, 'behov=NOUN': 5655}	66		7.894499632082469
{'köpa=VERB': 47127, 'mjölk=NOUN': 1322}	45		4.661429273869397
{'ersätta=VERB': 2361, 'arbetsplats=NOUN': 1326}	2		4.436359862779954
{'bygga=VERB': 11164, 'bostadshus=NOUN': 150}	12		8.042430170901198
{'sätta=VERB': 14247}	0	invalide: mot absent Conllst	n_a_abs
{'ge=VERB': 38036, 'uppgörelse=NOUN': 279}	7		4.51608667132444
{'transportera=VERB': 460, 'kol=NOUN': 416}	3		9.069921147070275
{'lägga=VERB': 20389, 'tid=NOUN': 34418}	784		5.3291500511293455
{'ge=VERB': 38036, 'uppfostran=NOUN': 168}	1		2.4122626957539115
{'bära=VERB': 2865, 'börda=NOUN': 140}	9		9.667728708702397
{'få=VERB': 102267, 'nederbörd=NOUN': 122}	7		4.330989438365557
{'möta=VERB': 4538, 'beteende=NOUN': 1438}	7		5.189940162644181
{'tänka=VERB': 16967, 'förslag=NOUN': 5278}	39		3.8942095329057964
{'vinna=VERB': 3563, 'miljon=NOUN': 10595}	35		4.989332929968263
{'sopa=VERB': 123, 'makthavare=NOUN': 152}	0	invalide: coocc nulle dans Conllst	n_a
{'få=VERB': 102267, 'utkomst=NOUN': 28}	2		4.668614310299786
{'möta=VERB': 4538, 'stad=NOUN': 22258}	65		4.468530662301534
{'avancera=VERB': 75, 'delägare=NOUN': 149}	0	invalide: coocc nulle dans Conllst	n_a
{'kalla=VERB': 9872}	0	invalide: mot absent Conllst	n_a_abs
{'ha=VERB': 189857, 'mål=NOUN': 8205}	841		4.352546215104552
{'bli=VERB': 93121}	0	invalide: mot absent Conllst	n_a_abs
{'välja=VERB': 17893, 'riksdagsman=NOUN': 145}	0	invalide: coocc nulle dans Conllst	n_a
{'nämna=VERB': 1930, 'jämförelse=NOUN': 1120}	19		8.254223669728393
{'godta=VERB': 148, 'bevis=NOUN': 1315}	0	invalide: coocc nulle dans Conllst	n_a
{'fungera=VERB': 9205, 'balansvikt=NOUN': 1}	0	invalide: coocc nulle dans Conllst	n_a
{'bli=VERB': 93121, 'transport=NOUN': 1581}	50		3.5685605072061404
{'bli=VERB': 93121}	0	invalide: mot absent Conllst	n_a_abs
{'bli=VERB': 93121}	0	invalide: mot absent Conllst	n_a_abs
{'kalla=VERB': 9872, 'tryckvattenreaktor=NOUN': 7}	0	invalide: coocc nulle dans Conllst	n_a
{'minska=VERB': 5524, 'trafikolycka=NOUN': 145}	0	invalide: coocc nulle dans Conllst	n_a
{'samla=VERB': 4672, 'fukt=NOUN': 369}	4		6.3106654733519045
{'säga=VERB': 41517, 'system=NOUN': 6665}	150		4.234083485467715
{'tänka=VERB': 16967}	0	invalide: mot absent Conllst	n_a_abs
{'urskilja=VERB': 142}	0	invalide: mot absent Conllst	n_a_abs
{'kräva=VERB': 9265, 'förmögenhet=NOUN': 269}	3		5.363578996342906
{'slopa=VERB': 100, 'vara=NOUN': 4384}	1		6.283947389222369
{'avräkna=VERB': 19, 'grundavdrag=NOUN': 5}	0	invalide: coocc nulle dans Conllst	n_a
{'vinna=VERB': 3563, 'resultat=NOUN': 8831}	11		3.569459784668942
{'föda=VERB': 2409, 'osäkerhet=NOUN': 333}	0	invalide: coocc nulle dans Conllst	n_a
{'utfordra=VERB': 2, 'hund=NOUN': 5349}	0	invalide: coocc nulle dans Conllst	n_a
{'drabba=VERB': 3104, 'jordbruk=NOUN': 649}	4		6.079799122354417
{'dämpa=VERB': 240, 'befolkningsökning=NOUN': 33}	0	invalide: coocc nulle dans Conllst	n_a
{'förlänga=VERB': 730, 'hyresreglering=NOUN': 12}	0	invalide: coocc nulle dans Conllst	n_a
{'säga=VERB': 41517, 'roll=NOUN': 5327}	128		4.330028761374386
{'bygga=VERB': 11164, 'lägenhet=NOUN': 7657}	73		4.874986453899992
{'placera=VERB': 1987, 'kommitte=NOUN': 6}	0	invalide: coocc nulle dans Conllst	n_a
{'begränsa=VERB': 980, 'revir=NOUN': 60}	0	invalide: coocc nulle dans Conllst	n_a
{'se=VERB': 80226, 'åldersgräns=NOUN': 178}	6		3.8780303731438206
{'visa=VERB': 40268}	0	invalide: mot absent Conllst	n_a_abs
{'ange=VERB': 4631, 'pris=NOUN': 43170}	107		4.214929536792739
{'behandla=VERB': 3638, 'medborgare=NOUN': 1742}	7		5.231490732618408
{'ägna=VERB': 1113}	0	invalide: mot absent Conllst	n_a_abs
{'skriva=VERB': 26398, 'adress=NOUN': 4963}	92		4.6014623875655385
{'gynna=VERB': 660, 'art=NOUN': 3411}	3		5.5015102929996225
{'hindra=VERB': 1148, 'djur=NOUN': 5123}	6		5.117540020174905
{'bemästra=VERB': 76, 'kris=NOUN': 836}	2		10.09765003375302
{'knyta=VERB': 601, 'serviceföretag=NOUN': 28}	0	invalide: coocc nulle dans Conllst	n_a
{'köpa=VERB': 47127, 'borrigg=NOUN': 5}	0	invalide: coocc nulle dans Conllst	n_a
{'beteckna=VERB': 480, 'fynd=NOUN': 925}	1		6.255376085674396
{'avslöja=VERB': 2182, 'illusion=NOUN': 172}	0	invalide: coocc nulle dans Conllst	n_a
{'beräkna=VERB': 1395, 'avgift=NOUN': 7129}	9		4.946558906277972
{'beräkna=VERB': 1395}	0	invalide: mot absent Conllst	n_a_abs
{'kyla=VERB': 190, 'ånga=NOUN': 90}	0	invalide: coocc nulle dans Conllst	n_a
{'sköta=VERB': 2179, 'verksamhet=NOUN': 8363}	28		5.722603601587398
{'suga=VERB': 693}	0	invalide: mot absent Conllst	n_a_abs
{'ändra=VERB': 5581, 'förvärvsavdrag=NOUN': 1}	0	invalide: coocc nulle dans Conllst	n_a
{'köra=VERB': 8646, 'box=NOUN': 731}	10		5.762932090450668
{'bestämma=VERB': 3225, 'avvägning=NOUN': 138}	0	invalide: coocc nulle dans Conllst	n_a
{'behöva=VERB': 15035, 'postnummer=NOUN': 190}	1		3.572823260108007
{'räkna=VERB': 4965, 'ålder=NOUN': 4610}	16		4.572550504581707
{'sortera=VERB': 914, 'hålkort=NOUN': 9}	0	invalide: coocc nulle dans Conllst	n_a
{'göra=VERB': 110486, 'ansträngning=NOUN': 538}	60		5.264310388767363
{'aktualisera=VERB': 60, 'fråga=NOUN': 27640}	19		9.14790454974334
{'beräkna=VERB': 1395, 'prisstegring=NOUN': 4}	0	invalide: coocc nulle dans Conllst	n_a
{'reglera=VERB': 691, 'samhälle=NOUN': 6344}	4		4.956573558981764
{'förmedla=VERB': 777, 'lån=NOUN': 1538}	2		5.827991971943877
{'nedsätta=VERB': 56, 'bidrag=NOUN': 3018}	0	invalide: coocc nulle dans Conllst	n_a
{'leverera=VERB': 3226, 'elkraft=NOUN': 44}	1		7.929658772926556
{'ange=VERB': 4631, 'järvafältet=NOUN': 11}	0	invalide: coocc nulle dans Conllst	n_a
{'konstatera=VERB': 2480, 'graviditet=NOUN': 895}	0	invalide: coocc nulle dans Conllst	n_a
{'vidga=VERB': 235, 'begrepp=NOUN': 2249}	0	invalide: coocc nulle dans Conllst	n_a
{'mäta=VERB': 1426, 'prisutveckling=NOUN': 76}	0	invalide: coocc nulle dans Conllst	n_a
{'dela=VERB': 8307, 'kärna=NOUN': 758}	3		4.016045910977468
{'ställa=VERB': 7872, 'grupp=NOUN': 8189}	51		4.759836381467706
{'beröra=VERB': 1019, 'betydelse=NOUN': 3551}	2		4.2277061499081885
{'förverkliga=VERB': 289}	0	invalide: mot absent Conllst	n_a_abs
{'äta=VERB': 7587, 'gummi=NOUN': 136}	0	invalide: coocc nulle dans Conllst	n_a
{'ersätta=VERB': 2361, 'resekostnad=NOUN': 28}	0	invalide: coocc nulle dans Conllst	n_a
{'bryta=VERB': 2234, 'länk=NOUN': 4103}	2		2.8851256326702295
{'märka=VERB': 2333, 'hyreshöjning=NOUN': 50}	0	invalide: coocc nulle dans Conllst	n_a
{'godta=VERB': 148, 'dom=NOUN': 1557}	1		7.207708283004077
{'mena=VERB': 5387}	0	invalide: mot absent Conllst	n_a_abs
{'köpa=VERB': 47127}	0	invalide: mot absent Conllst	n_a_abs
{'bestämma=VERB': 3225, 'höjd=NOUN': 1388}	1		2.918618871975063
{'röra=VERB': 4593}	0	invalide: mot absent Conllst	n_a_abs
{'bevilja=VERB': 706, 'arbetstillstånd=NOUN': 54}	0	invalide: coocc nulle dans Conllst	n_a
{'göra=VERB': 110486, 'resa=NOUN': 8058}	424		4.092747031676744
{'göra=VERB': 110486, 'framsteg=NOUN': 802}	107		5.559498596854722
{'knyta=VERB': 601, 'förhoppning=NOUN': 670}	3		7.9904248481651
{'förbereda=VERB': 1305}	0	invalide: mot absent Conllst	n_a_abs
{'föra=VERB': 3119, 'sedel=NOUN': 185}	1		5.881039804071835
{'grunda=VERB': 1042}	0	invalide: mot absent Conllst	n_a_abs
{'skjuta=VERB': 1486, 'förmedling=NOUN': 79}	0	invalide: coocc nulle dans Conllst	n_a
{'reglera=VERB': 691, 'hjälp=NOUN': 11776}	6		4.653182595774094
{'öva=VERB': 414, 'samarbete=NOUN': 5172}	3		5.577305402920002
{'anordna=VERB': 852, 'företagsutbildning=NOUN': 9}	0	invalide: coocc nulle dans Conllst	n_a
{'index=NOUN': 430, 'opåverkad=VERB': 4}	0	invalide: coocc nulle dans Conllst	n_a
{'modernisera=VERB': 101, 'författning=NOUN': 153}	0	invalide: coocc nulle dans Conllst	n_a
{'spara=VERB': 7460, 'sötvatten=NOUN': 64}	0	invalide: coocc nulle dans Conllst	n_a
{'förlägga=VERB': 128, 'studiearbete=NOUN': 2}	0	invalide: coocc nulle dans Conllst	n_a
{'se=VERB': 80226, 'kommission=NOUN': 739}	19		3.4756408581923415
{'sälja=VERB': 5708, 'lägenhet=NOUN': 7657}	52		5.353147753546468
{'ordna=VERB': 1603, 'barntillsyn=NOUN': 2}	0	invalide: coocc nulle dans Conllst	n_a
{'förlänga=VERB': 730}	0	invalide: mot absent Conllst	n_a_abs
{'skicka=VERB': 11456, 'broschyr=NOUN': 733}	4		4.017920013500343
{'kräva=VERB': 9265, 'man=NOUN': 13519}	70		4.258444845700455
{'beräkna=VERB': 1395, 'ansökan=NOUN': 2220}	2		4.451983780063671
{'göra=VERB': 110486}	0	invalide: mot absent Conllst	n_a_abs
{'gälla=VERB': 17307, 'barn=NOUN': 31270}	503		5.039808335032154
{'rymmas=VERB': 4, 'kursplan=NOUN': 162}	0	invalide: coocc nulle dans Conllst	n_a
{'syssla=VERB': 486, 'invandrarfråga=NOUN': 1}	0	invalide: coocc nulle dans Conllst	n_a
{'finna=VERB': 4921, 'kibbutz=NOUN': 5}	0	invalide: coocc nulle dans Conllst	n_a
{'mana=VERB': 71, 'eftertanke=NOUN': 165}	4		13.614000904254244
{'fixera=VERB': 70, 'blick=NOUN': 611}	3		11.28195276964643
{'bygga=VERB': 11164}	0	invalide: mot absent Conllst	n_a_abs
{'förflyta=VERB': 11, 'avgång=NOUN': 421}	0	invalide: coocc nulle dans Conllst	n_a
{'finnas=VERB': 85935, 'samhälle=NOUN': 6344}	305		4.31774974261813
{'ha=VERB': 189857, 'könsroll=NOUN': 141}	14		4.295229929616702
{'behöva=VERB': 15035, 'hyreslag=NOUN': 13}	0	invalide: coocc nulle dans Conllst	n_a
{'komma=VERB': 57414, 'erfarenhet=NOUN': 4900}	149		4.2107939799290826
{'finnas=VERB': 85935, 'grupp=NOUN': 8189}	452		4.530277457350219
{'gå=VERB': 65206, 'krycka=NOUN': 48}	10		7.09251172187793
{'köpa=VERB': 47127, 'bokhandel=NOUN': 468}	13		4.357855753662285
{'vårda=VERB': 448, 'sjukhus=NOUN': 3132}	46		10.291994891133983
{'placera=VERB': 1987, 'reaktor=NOUN': 188}	0	invalide: coocc nulle dans Conllst	n_a
{'ske=VERB': 7532, 'boplats=NOUN': 80}	0	invalide: coocc nulle dans Conllst	n_a
{'ske=VERB': 7532, 'samhälle=NOUN': 6344}	60		5.433151363431294
{'jobba=VERB': 8127, 'skift=NOUN': 70}	8		9.069724333111564
{'sakna=VERB': 5475, 'broschyr=NOUN': 733}	1		3.076927415177635
{'presentera=VERB': 3964, 'översikt=NOUN': 1248}	5		5.102404134631414
{'få=VERB': 102267, 'läkarbesök=NOUN': 117}	14		5.490077722257269
{'stå=VERB': 18454, 'gräns=NOUN': 3005}	31		4.257793962695367
{'sända=VERB': 1626, 'tv=NOUN': 4442}	57		8.129906222691181
{'företa=VERB': 164, 'rökning=NOUN': 561}	0	invalide: coocc nulle dans Conllst	n_a
{'ske=VERB': 7532, 'kärnreaktion=NOUN': 14}	0	invalide: coocc nulle dans Conllst	n_a
{'driva=VERB': 3879, 'kol=NOUN': 416}	1		4.392942358485554
{'kräva=VERB': 9265, 'politiker=NOUN': 2644}	28		5.292006416620182
{'bilda=VERB': 3894, 'reaktor=NOUN': 188}	1		5.5374458835917135
{'erhålla=VERB': 1051}	0	invalide: mot absent Conllst	n_a_abs
{'kräva=VERB': 9265, 'befäl=NOUN': 252}	1		3.8620438808866253
{'kämpa=VERB': 1488, 'barrikad=NOUN': 35}	2		10.429394452929584
{'göra=VERB': 110486, 'samhälle=NOUN': 6344}	318		4.017559264416641
{'tvinga=VERB': 2934, 'arbetstid=NOUN': 444}	2		5.70543502530139
{'gå=VERB': 65206, 'världskrig=NOUN': 1559}	28		3.2460058644659595
{'kalla=VERB': 9872, 'sammanhang=NOUN': 1920}	17		4.937769811872103
{'studera=VERB': 2386, 'omgång=NOUN': 1153}	0	invalide: coocc nulle dans Conllst	n_a
{'göra=VERB': 110486, 'ordförandeskap=NOUN': 99}	6		4.303384963294345
{'bestämma=VERB': 3225, 'barnaår=NOUN': 10}	0	invalide: coocc nulle dans Conllst	n_a
{'kalla=VERB': 9872}	0	invalide: mot absent Conllst	n_a_abs
{'beräkna=VERB': 1395, 'procent=NOUN': 8279}	53		7.342783114689268
{'bli=VERB': 93121, 'värde=NOUN': 3785}	145		3.856622588431099
{'räkna=VERB': 4965}	0	invalide: mot absent Conllst	n_a_abs
{'bli=VERB': 93121, 'brist=NOUN': 2128}	108		4.2806101486257955
{'räkna=VERB': 4965, 'permission=NOUN': 33}	0	invalide: coocc nulle dans Conllst	n_a
{'anställa=VERB': 467, 'chef=NOUN': 3407}	1		4.412958108493811
{'betrakta=VERB': 1454, 'gåva=NOUN': 590}	1		5.304064161363331
{'fordras=VERB': 62, 'tillstånd=NOUN': 2783}	6		10.34930308967134
{'komplettera=VERB': 1001, 'integration=NOUN': 683}	1		5.631594759140374
{'frigöra=VERB': 317, 'partikel=NOUN': 311}	0	invalide: coocc nulle dans Conllst	n_a
{'bromsa=VERB': 248, 'del=NOUN': 36558}	4		3.922527970893301
{'hämta=VERB': 7193, 'exempel=NOUN': 15108}	25		2.9668724526352532
{'köra=VERB': 8646, 'paket=NOUN': 3641}	14		3.918321715425941
{'ändra=VERB': 5581, 'funktion=NOUN': 5683}	29		4.965139947544769
{'beskriva=VERB': 4310, 'kpi=NOUN': 26}	0	invalide: coocc nulle dans Conllst	n_a
{'kalla=VERB': 9872}	0	invalide: mot absent Conllst	n_a_abs
{'betala=VERB': 8086, 'återbesök=NOUN': 128}	0	invalide: coocc nulle dans Conllst	n_a
{'diskutera=VERB': 3234, 'ändring=NOUN': 2735}	3		3.5224626699923354
{'lägga=VERB': 20389, 'arbetsplats=NOUN': 1326}	18		4.513555966157191
{'släppa=VERB': 5883}	0	invalide: mot absent Conllst	n_a_abs
{'inrymma=VERB': 69, 'enkammarriksdag=NOUN': 5}	0	invalide: coocc nulle dans Conllst	n_a
{'räkna=VERB': 4965, 'rest=NOUN': 3173}	14		4.9196054391752035
{'bibehålla=VERB': 330, 'regel=NOUN': 4906}	1		4.389025777984791
{'ersätta=VERB': 2361, 'lön=NOUN': 2006}	5		5.164305791977794
{'betrakta=VERB': 1454, 'vårdyrke=NOUN': 7}	0	invalide: coocc nulle dans Conllst	n_a
{'erhålla=VERB': 1051, 'blankett=NOUN': 583}	0	invalide: coocc nulle dans Conllst	n_a
{'behöva=VERB': 15035, 'kassett=NOUN': 123}	0	invalide: coocc nulle dans Conllst	n_a
{'anpassa=VERB': 1945, 'arbetstakt=NOUN': 3}	1		13.086194469220855
{'beräkna=VERB': 1395, 'förslag=NOUN': 5278}	7		5.015709065576444
{'döda=VERB': 1628, 'bilförare=NOUN': 99}	0	invalide: coocc nulle dans Conllst	n_a
{'erhålla=VERB': 1051, 'resultat=NOUN': 8831}	11		5.341507837990593
{'ha=VERB': 189857, 'utveckling=NOUN': 7455}	608		3.9877520377738707
{'göra=VERB': 110486, 'situation=NOUN': 3883}	308		4.724589332719544
{'reagera=VERB': 1014, 'sätt=NOUN': 21408}	45		6.199680575686322
{'ta=VERB': 78465, 'innehåll=NOUN': 5193}	192		4.051741463615351
{'leva=VERB': 7255, 'misär=NOUN': 53}	13		10.567346134604186
{'stanna=VERB': 4129, 'jord=NOUN': 3385}	7		4.087279492543596
{'arbeta=VERB': 11376, 'skift=NOUN': 70}	8		8.584119823196978
{'äta=VERB': 7587, 'år=NOUN': 70492}	197		3.68056568794052
{'skilja=VERB': 2711}	0	invalide: mot absent Conllst	n_a_abs
{'flytta=VERB': 6094, 'ort=NOUN': 1766}	22		6.1342981912715375
{'föra=VERB': 3119, 'värld=NOUN': 16151}	32		4.442542581783235
{'växa=VERB': 4544, 'längd=NOUN': 2627}	10		4.832668182925175
{'lämna=VERB': 11189, 'urin=NOUN': 272}	4		5.49564014642238
{'få=VERB': 102267, 'skäl=NOUN': 2558}	161		4.475201537835366
{'planera=VERB': 3477, 'barn=NOUN': 31270}	60		4.249662299199311
{'ligga=VERB': 26149, 'stad=NOUN': 22258}	1445		6.570206402289246
{'göra=VERB': 110486}	0	invalide: mot absent Conllst	n_a_abs
{'häcka=VERB': 145, 'koloni=NOUN': 340}	8		12.537935458519183
{'finna=VERB': 4921, 'familj=NOUN': 11011}	28		4.138873768425496
{'stryka=VERB': 392, 'valsedel=NOUN': 155}	2		10.146288816384372
{'placera=VERB': 1987, 'kontrollpanel=NOUN': 73}	0	invalide: coocc nulle dans Conllst	n_a
{'förvänta=VERB': 2277, 'person=NOUN': 21157}	26		4.208022927210746
{'ge=VERB': 38036, 'patient=NOUN': 7554}	277		5.091088106730129
{'stå=VERB': 18454, 'förfogande=NOUN': 631}	91		8.27747186244678
{'leva=VERB': 7255, 'håll=NOUN': 2486}	8		3.912878321701291
{'följa=VERB': 10895, 'dygnsrytm=NOUN': 50}	0	invalide: coocc nulle dans Conllst	n_a
{'ha=VERB': 189857, 'kr=NOUN': 13596}	336		2.176533050134906
{'stå=VERB': 18454, 'tid=NOUN': 34418}	413		4.50855398496155
{'bli=VERB': 93121, 'lägenhet=NOUN': 7657}	158		2.9379362067814725
{'bli=VERB': 93121, 'spegel=NOUN': 701}	29		3.970300972667206
{'se=VERB': 80226, 'upptakt=NOUN': 40}	0	invalide: coocc nulle dans Conllst	n_a
{'sälja=VERB': 5708, 'andelslägenhet=NOUN': 109}	0	invalide: coocc nulle dans Conllst	n_a
{'finnas=VERB': 85935, 'cirkapris=NOUN': 28}	6		6.745680369661389
{'anföra=VERB': 164, 'exempel=NOUN': 15108}	3		5.382314031817869
{'uppföda=VERB': 5}	0	invalide: mot absent Conllst	n_a_abs
{'avläsa=VERB': 33}	0	invalide: mot absent Conllst	n_a_abs
{'föra=VERB': 3119, 'utrikespolitik=NOUN': 178}	6		8.565614857376511
{'mena=VERB': 5387, 'kärnfamilj=NOUN': 59}	0	invalide: coocc nulle dans Conllst	n_a
{'styrka=VERB': 300, 'avdrag=NOUN': 386}	0	invalide: coocc nulle dans Conllst	n_a
{'göra=VERB': 110486, 'hälft=NOUN': 1773}	67		3.5880653168688985
{'bortförklara=VERB': 21, 'dragning=NOUN': 166}	0	invalide: coocc nulle dans Conllst	n_a
{'kräva=VERB': 9265}	0	invalide: mot absent Conllst	n_a_abs
{'frigöra=VERB': 317, 'neutron=NOUN': 30}	2		12.90444403238175
{'hota=VERB': 912, 'självförsörjning=NOUN': 25}	0	invalide: coocc nulle dans Conllst	n_a
{'driva=VERB': 3879, 'turbin=NOUN': 47}	0	invalide: coocc nulle dans Conllst	n_a
{'beteende=NOUN': 1438}	0	invalide: mot absent Conllst	n_a_abs
{'anordna=VERB': 852}	0	invalide: mot absent Conllst	n_a_abs
{'ta=VERB': 78465, 'skörd=NOUN': 270}	20		5.107756909210159
{'fullgöra=VERB': 202, 'funktion=NOUN': 5683}	2		5.895221595410219
{'få=VERB': 102267, 'lunchrast=NOUN': 22}	2		5.047125933553515
{'ha=VERB': 189857, 'fritidsverksamhet=NOUN': 28}	7		5.891543998711663
{'ge=VERB': 38036}	0	invalide: mot absent Conllst	n_a_abs
{'presentera=VERB': 3964}	0	invalide: mot absent Conllst	n_a_abs
{'få=VERB': 102267, 'människovärde=NOUN': 28}	2		4.668614310299786
{'lansera=VERB': 3150, 'form=NOUN': 9973}	14		3.921866879985292
{'uppsöka=VERB': 135, 'flottilj=NOUN': 54}	0	invalide: coocc nulle dans Conllst	n_a
{'mena=VERB': 5387, 'samhälle=NOUN': 6344}	69		6.127463624021638
{'följa=VERB': 10895}	0	invalide: mot absent Conllst	n_a_abs
{'samla=VERB': 4672, 'prisuppgift=NOUN': 179}	1		5.345757812060042
{'visa=VERB': 40268, 'siffra=NOUN': 2482}	161		5.869826607318702
{'gräva=VERB': 637, 'bo=NOUN': 975}	5		8.107313382462403
{'ha=VERB': 189857, 'rätt=NOUN': 11128}	3056		6.098582689085453
{'möta=VERB': 4538, 'klyfta=NOUN': 234}	0	invalide: coocc nulle dans Conllst	n_a
{'ge=VERB': 38036, 'arbetsbörda=NOUN': 44}	3		6.02345334777118
{'ta=VERB': 78465, 'industri=NOUN': 1619}	31		3.073016529243517
{'beskriva=VERB': 4310, 'familj=NOUN': 11011}	13		3.2173790579327455
{'göra=VERB': 110486, 'fel=NOUN': 1878}	226		5.390637982843902
{'få=VERB': 102267, 'publicitet=NOUN': 68}	24		7.494895307096235
{'veta=VERB': 22182, 'postnummer=NOUN': 190}	1		3.0117277601606616
{'lämna=VERB': 11189}	0	invalide: mot absent Conllst	n_a_abs
{'få=VERB': 102267, 'byggnadsstadga=NOUN': 1}	0	invalide: coocc nulle dans Conllst	n_a
{'notera=VERB': 1734, 'ökning=NOUN': 1009}	5		6.605669360120943
{'handha=VERB': 51, 'materiel=NOUN': 146}	0	invalide: coocc nulle dans Conllst	n_a
{'räkna=VERB': 4965}	0	invalide: mot absent Conllst	n_a_abs
{'förhålla=VERB': 448, 'civilstånd=NOUN': 36}	0	invalide: coocc nulle dans Conllst	n_a
{'begränsa=VERB': 980}	0	invalide: mot absent Conllst	n_a_abs
{'leva=VERB': 7255, 'äktenskap=NOUN': 821}	13		6.231062746739754
{'fundera=VERB': 2940, 'månad=NOUN': 12431}	12		3.480008245853449
{'gälla=VERB': 17307, 'bostadstillägg=NOUN': 15}	1		7.1246673634429944
{'skjuta=VERB': 1486}	0	invalide: mot absent Conllst	n_a_abs
{'behöva=VERB': 15035, 'tid=NOUN': 34418}	318		4.421209815855752
{'bli=VERB': 93121, 'marknad=NOUN': 5371}	188		3.7221207858662604
{'skicka=VERB': 11456, 'årsskifte=NOUN': 318}	0	invalide: coocc nulle dans Conllst	n_a
{'anställa=VERB': 467, 'lön=NOUN': 2006}	6		7.781562248456364
{'ha=VERB': 189857}	0	invalide: mot absent Conllst	n_a_abs
{'hämta=VERB': 7193, 'fack=NOUN': 629}	0	invalide: coocc nulle dans Conllst	n_a
{'beröra=VERB': 1019, 'sida=NOUN': 17286}	14		4.769234580795441
{'sända=VERB': 1626, 'mars=NOUN': 7141}	18		5.731611008140326
{'starta=VERB': 6748, 'slätt=NOUN': 105}	0	invalide: coocc nulle dans Conllst	n_a
{'uppge=VERB': 1318, 'maj=NOUN': 8805}	8		4.552859979697999
{'höra=VERB': 10316, 'kropp=NOUN': 6600}	40		4.326463793307733
{'läka=VERB': 318, 'vinkel=NOUN': 439}	0	invalide: coocc nulle dans Conllst	n_a
{'göra=VERB': 110486}	0	invalide: mot absent Conllst	n_a_abs
{'sätta=VERB': 14247, 'avsikt=NOUN': 748}	6		4.262931261776398
{'vänta=VERB': 6326, 'slutresultat=NOUN': 215}	1		4.642690221956451
{'svänga=VERB': 366, 'korsning=NOUN': 250}	3		10.143776503967361
{'tänka=VERB': 16967, 'utgångsläge=NOUN': 78}	0	invalide: coocc nulle dans Conllst	n_a
{'börja=VERB': 26123, 'kiosk=NOUN': 150}	1		3.118860713464342
{'göra=VERB': 110486, 'skola=NOUN': 9844}	431		3.814246986887355
{'nyttiggöra=VERB': 9, 'energiproduktion=NOUN': 60}	0	invalide: coocc nulle dans Conllst	n_a
{'titta=VERB': 11694, 'tv=NOUN': 4442}	142		6.594778120967322
{'söka=VERB': 16220, 'fel=NOUN': 1878}	8		3.157409958004794
{'döma=VERB': 1385, 'grad=NOUN': 3670}	3		4.323043022447865
{'bestå=VERB': 5310, 'rätt=NOUN': 11128}	30		4.113563266538204
{'gå=VERB': 65206, 'rörledning=NOUN': 22}	0	invalide: coocc nulle dans Conllst	n_a
{'tvätta=VERB': 910, 'lack=NOUN': 602}	2		6.955639795039837
{'äta=VERB': 7587, 'morgon=NOUN': 4054}	49		5.778164209981413
{'bryta=VERB': 2234, 'förbud=NOUN': 563}	2		5.755028700388653
{'synas=VERB': 1897, 'tidningsrubrik=NOUN': 14}	0	invalide: coocc nulle dans Conllst	n_a
{'trycka=VERB': 1939}	0	invalide: mot absent Conllst	n_a_abs
{'ställa=VERB': 7872, 'allvar=NOUN': 1404}	8		4.622876140276401
{'gå=VERB': 65206, 'opposition=NOUN': 512}	21		4.471492783838701
{'finna=VERB': 4921, 'uttagning=NOUN': 85}	0	invalide: coocc nulle dans Conllst	n_a
{'fostra=VERB': 52, 'individ=NOUN': 2347}	1		8.14259433282663
{'transportera=VERB': 460, 'gasform=NOUN': 9}	0	invalide: coocc nulle dans Conllst	n_a
{'gälla=VERB': 17307, 'situation=NOUN': 3883}	72		5.211924403202146
{'framkalla=VERB': 232, 'moln=NOUN': 831}	0	invalide: coocc nulle dans Conllst	n_a
{}	0	invalide: mot absent Conllst	n_a_abs
{}	0	invalide: mot absent Conllst	n_a_abs
{'hämma=VERB': 195, 'utveckling=NOUN': 7455}	11		8.085014295347767
{'gå=VERB': 65206, 'förslag=NOUN': 5278}	165		4.068313057935567
{'få=VERB': 102267, 'försörjning=NOUN': 177}	18		5.226321810936702
{'sätta=VERB': 14247, 'situation=NOUN': 3883}	62		5.273390210694276
{'hämta=VERB': 7193}	0	invalide: mot absent Conllst	n_a_abs
{'komma=VERB': 57414, 'avlöningsdag=NOUN': 11}	3		7.786929908926063
{'sätta=VERB': 14247, 'ytterkant=NOUN': 39}	0	invalide: coocc nulle dans Conllst	n_a
{'vara=VERB': 39491, 'jobb=NOUN': 9375}	257		4.602313019487971
{'leverera=VERB': 3226}	0	invalide: mot absent Conllst	n_a_abs
{'nämna=VERB': 1930, 'behov=NOUN': 5655}	3		3.219282866918129
{'skapa=VERB': 13975, 'generation=NOUN': 1683}	28		5.358079181949537
{'öka=VERB': 9016, 'utsträckning=NOUN': 958}	14		5.799688996136845
{'bidra=VERB': 3962, 'utveckling=NOUN': 7455}	198		7.937155125476624
{'hinna=VERB': 2929, 'medelålder=NOUN': 292}	0	invalide: coocc nulle dans Conllst	n_a
{'öka=VERB': 9016, 'u-land=NOUN': 61}	0	invalide: coocc nulle dans Conllst	n_a
{'ge=VERB': 38036, 'vinter=NOUN': 2177}	44		4.198362300265022
{'besöka=VERB': 8443, 'mottagning=NOUN': 614}	3		4.297913620134513
{'arbeta=VERB': 11376, 'grupp=NOUN': 8189}	118		5.456455369611282
{'plocka=VERB': 2181, 'däck=NOUN': 896}	0	invalide: coocc nulle dans Conllst	n_a
{'hålla=VERB': 18941, 'vatten=NOUN': 8362}	93		4.334544805812499
{'räkna=VERB': 4965, 'tillgång=NOUN': 7258}	22		4.378290707702917
{'stänga=VERB': 1854, 'barn=NOUN': 31270}	19		3.485755403712805
{'ske=VERB': 7532, 'ort=NOUN': 1766}	11		4.816474494716912
{'byta=VERB': 6582, 'motorväg=NOUN': 410}	2		4.654709762232534
{'klara=VERB': 4185, 'försörjning=NOUN': 177}	8		8.581876108381657
{'få=VERB': 102267, 'provinsialläkare=NOUN': 8}	0	invalide: coocc nulle dans Conllst	n_a
{'vara=VERB': 39491, 'sjukfrånvaro=NOUN': 86}	1		3.332416289341221
{'borga=VERB': 416, 'styre=NOUN': 249}	0	invalide: coocc nulle dans Conllst	n_a
{'hänföra=VERB': 239}	0	invalide: mot absent Conllst	n_a_abs
{'passa=VERB': 8026, 'skola=NOUN': 9844}	23		3.3065895193178654
{'hålla=VERB': 18941, 'överstatlighet=NOUN': 8}	0	invalide: coocc nulle dans Conllst	n_a
{'finnas=VERB': 85935, 'hemort=NOUN': 75}	4		4.470368789694145
{'skola=VERB': 3096, 'jobb=NOUN': 9375}	46		5.772468673787757
{'påvisa=VERB': 353, 'urin=NOUN': 272}	1		8.469426312835465
{'ha=VERB': 189857, 'förbund=NOUN': 829}	69		4.015646570957448
{'ha=VERB': 189857, 'klubb=NOUN': 2442}	297		4.626269120720528
{'klaga=VERB': 796, 'uppvärmning=NOUN': 582}	0	invalide: coocc nulle dans Conllst	n_a
{'ha=VERB': 189857, 'präst=NOUN': 883}	83		4.208267390598156
{'nämna=VERB': 1930, 'frånvaro=NOUN': 444}	0	invalide: coocc nulle dans Conllst	n_a
{'köra=VERB': 8646, 'väg=NOUN': 11447}	215		6.262384558230066
{'bli=VERB': 93121, 'konfrontation=NOUN': 86}	4		4.146698009738956
{'ärva=VERB': 221, 'generation=NOUN': 1683}	5		8.865520565110705
{'gå=VERB': 65206, 'kontor=NOUN': 2146}	53		3.7160268417018276
{'uppföda=VERB': 5, 'fjärilslarv=NOUN': 6}	0	invalide: coocc nulle dans Conllst	n_a
{'somna=VERB': 672, 'ratt=NOUN': 179}	3		9.75067545426903
{'peka=VERB': 1610, 'risk=NOUN': 5455}	10		5.2783625443350015
{'beräkna=VERB': 1395, 'inkomst=NOUN': 1229}	17		8.426935657899731
{'ha=VERB': 189857, 'motorväg=NOUN': 410}	33		3.9626774964617923
{'tala=VERB': 7475, 'befäl=NOUN': 252}	1		4.171798570495117
{'ha=VERB': 189857, 'säkerhetsskäl=NOUN': 73}	5		3.7109565548876793
{'hänföra=VERB': 239, 'skillnad=NOUN': 6067}	7		7.395278821396353
{'bromsa=VERB': 248, 'värmeutveckling=NOUN': 9}	0	invalide: coocc nulle dans Conllst	n_a
{'hämta=VERB': 7193, 'fiskare=NOUN': 236}	1		4.3223127207471865
{'höra=VERB': 10316, 'lo-förbund=NOUN': 9}	0	invalide: coocc nulle dans Conllst	n_a
{'beräkna=VERB': 1395, 'månad=NOUN': 12431}	24		5.576089922778547
{'bero=VERB': 3979, 'kvalitetsförbättring=NOUN': 6}	0	invalide: coocc nulle dans Conllst	n_a
{'variera=VERB': 2480, 'sorteringsarbete=NOUN': 1}	0	invalide: coocc nulle dans Conllst	n_a
{'räkna=VERB': 4965, 'förhållande=NOUN': 2971}	12		4.790988586719455
{'reagera=VERB': 1014, 'elände=NOUN': 172}	0	invalide: coocc nulle dans Conllst	n_a
{'flytväst=NOUN': 62}	0	invalide: mot absent Conllst	n_a_abs
{'leda=VERB': 8320}	0	invalide: mot absent Conllst	n_a_abs
{'vända=VERB': 3119, 'slant=NOUN': 268}	1		5.343905828441295
{'leva=VERB': 7255, 'lokal=NOUN': 2431}	6		3.528634167940588
{'bestämma=VERB': 3225, 'samråd=NOUN': 352}	8		7.9332419974717965
{'styrka=VERB': 300, 'intyg=NOUN': 359}	14		12.228038006440316
{'skaffa=VERB': 2494, 'år=NOUN': 70492}	82		4.029052063412943
{'lägga=VERB': 20389, 'bil=NOUN': 9692}	50		3.1077853201636145
{'ge=VERB': 38036, 'lag=NOUN': 11784}	252		4.289443954681078
{'leva=VERB': 7255}	0	invalide: mot absent Conllst	n_a_abs
{'handla=VERB': 11459, 'system=NOUN': 6665}	46		4.363780928248179
{'variera=VERB': 2480, 'art=NOUN': 3411}	23		6.545668627189283
{'nedsätta=VERB': 56, 'hälft=NOUN': 1773}	0	invalide: coocc nulle dans Conllst	n_a
{'förstärka=VERB': 915}	0	invalide: mot absent Conllst	n_a_abs
{'förstärka=VERB': 915, 'expert=NOUN': 1574}	1		4.555653662352877
{'rekvirera=VERB': 22, 'laboratorium=NOUN': 330}	0	invalide: coocc nulle dans Conllst	n_a
{'komma=VERB': 57414, 'användning=NOUN': 4959}	147		4.172841982792898
{'försöka=VERB': 10783, 'teckenspråk=NOUN': 134}	0	invalide: coocc nulle dans Conllst	n_a
{'gynna=VERB': 660, 'selektion=NOUN': 17}	0	invalide: coocc nulle dans Conllst	n_a
{'ange=VERB': 4631, 'regionplan=NOUN': 6}	0	invalide: coocc nulle dans Conllst	n_a
{'växa=VERB': 4544, 'bostad=NOUN': 2610}	13		5.223202616775929
{'byta=VERB': 6582, 'år=NOUN': 70492}	227		4.103360429462122
{'komma=VERB': 57414, 'klassrum=NOUN': 1024}	19		3.4773172595270077
{'ske=VERB': 7532, 'familj=NOUN': 11011}	18		2.8812690412301
{'dämpa=VERB': 240}	0	invalide: mot absent Conllst	n_a_abs
