langue source	NF	mwe à traduire	mwe traduite	Nbmots traduction
SV	hand;ta	ta hand	se|soucier	2
SV	gå;hand	gå hand	main|go	2
SV	kalla;neutron	kalla neutron	neutron|froid	2
SV	bli;skada	bli skada	être|blessé	2
SV	fullgöra;uppgift	fullgöra uppgift	effectuer|tâches	2
SV	frigörelse;starta	starta frigörelse	libération|début	2
SV	ha;halt	ha halt	avoir|contenu	2
SV	binda;hand	binda hand	poings|liés	2
SV	börja;verksamhet	börja verksamhet	démarrage|d'une|entreprise	3
SV	datamaskineri;tillverka	tillverka datamaskineri	machines|de|fabrication|de|données	5
SV	få;utbildning	få utbildning	recevoir|formation	2
SV	fullgöra;tjänst	fullgöra tjänst	effectuer|service	2
SV	ta;uppmärksamhet	ta uppmärksamhet	fais|attention	2
SV	blankett;skicka	skicka blankett	soumettre|formulaire	2
SV	skilja;station	skilja station	la|station|de|séparation	4
SV	attityd;beröra	beröra attityd	l'attitude|tactile	2
SV	främja;likställdhet	främja likställdhet	promouvoir|l'égalité	2
SV	part;passa	passa part	partie|en|forme	3
SV	ambition;förkväva	förkväva ambition	ambition|étrangleur	2
SV	cylinder;innehålla	innehålla cylinder	comprennent|cylindre	2
SV	hämta;post	hämta post	courrier|collect	2
SV	kommunikationsmöjlighet;sakna	sakna kommunikationsmöjlighet	manque|possibilité|de|communication	4
SV	ha;närvaro	ha närvaro	avoir|présence	2
SV	ha;hälft	ha hälft	avoir|moitié	2
SV	fiskart;putsa	putsa fiskart	espèces|panache	2
SV	placering;visa	visa placering	montrer|l'emplacement	2
SV	avge;bedömning	avge bedömning	jugement|donner	2
SV	samlevnad;styra	styra samlevnad	la|cohabitation|de|contrôle	4
SV	franska;tala	tala franska	parle|français	2
SV	för;krig	för krig	pour|guerre	2
SV	begränsa;motorstorlek	begränsa motorstorlek	limitation|de|la|taille|du|moteur	6
SV	medlemskap;söka	söka medlemskap	une|demande|d'adhésion	3
SV	känna;olust	känna olust	se|sentir|mal|à|l'aise	5
SV	behöva;trygghet	behöva trygghet	la|sécurité|nécessaire	3
SV	ha;pengar	ha pengar	avoir|l'argent	2
SV	få;provanställning	få provanställning	get|probation	2
SV	erhålla;telefonsvar	erhålla telefonsvar	l'obtention|du|répondeur	3
SV	behöva;vård	behöva vård	ont|besoin|de|soins	4
SV	förhållande;försvåra	försvåra förhållande	rapport|compliquer	2
SV	industri;skilja	skilja industri	distinguer|l'industrie	2
SV	beröra;utlandsförbindelse	beröra utlandsförbindelse	toucher|lien|avec|l'étranger	4
SV	bisulfit;innehålla	innehålla bisulfit	contiennent|bisulfite	2
SV	hålla;produktion	hålla produktion	maintenant|production	2
SV	begreppsbildning;studera	studera begreppsbildning	étudier|concepts	2
SV	sakna;underlag	sakna underlag	substance|manque	2
SV	anställa;elev	anställa elev	emploi|élève	2
SV	kropp;lämna	lämna kropp	quitter|corps	2
SV	leda;pornografiexperiment	leda pornografiexperiment	plomb|expériences|de|pornographie	4
SV	ha;inflytande	ha inflytande	avoir|influence	2
SV	ha;ålder	ha ålder	ont|l'âge	2
SV	ställning;ta	ta ställning	prendre|position	2
SV	skapa;standard	skapa standard	norme|création	2
SV	grus;samla	samla grus	gravier|collecte	2
SV	förälder;skilja	skilja förälder	distinguer|parent	2
SV	folkpension;ha	ha folkpension	une|pension|nationale	3
SV	bedöma;läge	bedöma läge	position|juge	2
SV	namn;stryka	stryka namn	nom|souligné	2
SV	kibbutz;studera	studera kibbutz	étude|du|kibboutz	3
SV	oreda;vålla	vålla oreda	cause|désarroi	2
SV	ha;socialhjälp	ha socialhjälp	ont|des|conséquences|sociales	4
SV	flytväst;välja	välja flytväst	choisir|un|gilet|de|sauvetage	5
SV	börja;skola	börja skola	commencer|l'école	2
SV	ge;kommunikation	ge kommunikation	fournir|communication	2
SV	ha;sakledaruppgift	ha sakledaruppgift	ont|sakledaruppgift	2
SV	känna;motvilja	känna motvilja	l'aversion|pour|le|sentiment	4
SV	göra;hål	göra hål	faire|trou	2
SV	göra;motsats	göra motsats	faire|contraste	2
SV	beröring;ha	ha beröring	ont|touché	2
SV	göra;jobb	göra jobb	faire|travaux	2
SV	behöva;ljusrelä	behöva ljusrelä	besoin|relais|lumière	3
SV	auktoritet;ha	ha auktoritet	ont|autorité	2
SV	ge;utdelning	ge utdelning	verser|dividendes	2
SV	få;tid	få tid	prendre|temps	2
SV	förebild;ha	ha förebild	d'avoir|modèle	2
SV	få;jobb	få jobb	obtenir|emploi	2
SV	bereda;plats	bereda plats	préparer|place	2
SV	elev;erbjuda	erbjuda elev	offre|étudiant	2
SV	form;hålla	hålla form	maintenir|moule	2
SV	adressort;nå	nå adressort	atteindre|bureau|postal	3
SV	barn;låta	låta barn	laisser|enfants	2
SV	göra;insättning	göra insättning	faisant|du|dépôt	3
SV	bygga;vattenkraftverk	bygga vattenkraftverk	construire|des|centrales|hydroélectriques	4
SV	ha;utrymme	ha utrymme	disposer|d'un|espace	3
SV	förmåga;sakna	sakna förmåga	pas|capacité	2
SV	hålla;steg	hålla steg	l'étape|maintien	2
SV	betyda;sjuklighet	betyda sjuklighet	la|morbidité|moyenne	3
SV	bebyggelseområde;hålla	hålla bebyggelseområde	maintenir|la|zone|de|règlement	5
SV	göra;värnplikt	göra värnplikt	service|militaire	2
SV	del;ta	ta del	prendre|part	2
SV	få;stöd	få stöd	obtenir|l'aide	2
SV	bekymmer;mildra	mildra bekymmer	atténuer|problèmes	2
SV	bereda;välfärd	bereda välfärd	préparer|bien-être	2
SV	hålla;öga	hålla öga	garder|oeil	2
SV	höja;levnadsstandard	höja levnadsstandard	élever|le|niveau|de|vie	5
SV	anamma;värdering	anamma värdering	évaluation|étreinte	2
SV	förmåga;ställa	ställa förmåga	capacité|réglage	2
SV	förverkliga;möjlighet	förverkliga möjlighet	réaliser|l'occasion	2
SV	form;förbjuda	förbjuda form	interdire|forme	2
SV	nedgång;visa	visa nedgång	show|baisse	2
SV	betyda;levnadsstandard	betyda levnadsstandard	niveau|de|vie|moyen	4
SV	ge;vård	ge vård	fournir|soins	2
SV	giva;tåla	tåla giva	résister|à|donner	3
SV	jämföra;plats	jämföra plats	comparer|site	2
SV	dagbok;föra	föra dagbok	tenir|journal	2
SV	gå;omskolning	gå omskolning	aller|recyclage	2
SV	ha;jobb	ha jobb	des|emplois	2
SV	hänsyn;visa	visa hänsyn	fassent|preuve|de|considération	4
SV	elev;öva	öva elev	pratique|élève	2
SV	ha;kontakt	ha kontakt	avoir|contact	2
SV	ge;spelrum	ge spelrum	fournir|jeu	2
SV	alarmberedskap;väcka	väcka alarmberedskap	préparation|d'alarme|de|réveil	4
SV	initiativ;ta	ta initiativ	prendre|l'initiative	2
SV	avfall;dumpa	dumpa avfall	déchets|décharge	2
SV	kolla;ljus	kolla ljus	vérifier|lumière	2
SV	befordran;få	få befordran	avoir|promotion	2
SV	göra;karriär	göra karriär	faire|carrière	2
SV	broms;kontrollera	kontrollera broms	commande|frein	2
SV	batteri;ladda	ladda batteri	charger|batterie	2
SV	skola;sluta	sluta skola	quitter|l'école	2
SV	bära;lönehöjning	bära lönehöjning	carry|augmentation|salariale	3
SV	låta;pengar	låta pengar	laissez|l'argent	2
SV	abort;ta	ta abort	à|l'avortement	2
SV	glasögon;ha	ha glasögon	porter|lunettes	2
SV	batteri;kolla	kolla batteri	batterie|contrôle	2
SV	aktivitet;välja	välja aktivitet	sélectionnez|l'activité	2
SV	hindra;människa	hindra människa	préventive|contre	2
SV	gälla;reform	gälla reform	appliquer|réforme	2
SV	hälsorisk;skapa	skapa hälsorisk	créer|un|risque|pour|la|santé	6
SV	börja;slutförhandling	börja slutförhandling	entamer|des|négociations|finales	4
SV	mamma;tvinga	tvinga mamma	maman|vigueur	2
SV	partibeteckning;sakna	sakna partibeteckning	absence|nom|du|parti	4
SV	cykel;leda	leda cykel	vélo|plomb	2
SV	få;syssla	få syssla	get|corvée	2
SV	få;postnummer	få postnummer	obtenir|le|code|postal	4
SV	ge;vinglingsutrymme	ge vinglingsutrymme	donner|de|l'espace|vacillement	4
SV	innehålla;sida	innehålla sida	l'autre|contient	2
SV	se;smalspalt	se smalspalt	voir|fente|étroite	3
SV	bygga;äktenskapssyn	bygga äktenskapssyn	mariage|bâtiment	2
SV	höja;sjuktal	höja sjuktal	morbidité|augmentation	2
SV	ha;körbana	ha körbana	ont|voie	2
SV	påbjuda;tillvägagångssätt	påbjuda tillvägagångssätt	approche|enjoignons	2
SV	aktionsmöjlighet;ha	ha aktionsmöjlighet	ont|une|action|la|possibilité	5
SV	bäck;få	få bäck	obtenir|ruisseau	2
SV	besvär;spara	spara besvär	sauver|du|mal	3
SV	få;yrkesutbildning	få yrkesutbildning	obtenir|formation	2
SV	cirkaprisrekommendation;gå	gå cirkaprisrekommendation	aller|recommandation|de|prix|de|détail	6
SV	avlöning;få	få avlöning	obtenir|salaire	2
SV	ge;intryck	ge intryck	donner|l'impression	2
SV	driva;tes	driva tes	thèse|d'entraînement	2
SV	förbättringslån;se	se förbättringslån	voir|les|prêts|d'amélioration	4
SV	hus;rustad	rustad hus	maison|équipée	2
SV	få;krona	få krona	obtenir|couronne	2
SV	få;skattesänkning	få skattesänkning	obtenir|réduction|d'impôt	3
SV	göra;samhällsnytta	göra samhällsnytta	rendant|intérêt|public	3
SV	konformitet;visa	visa konformitet	démontrer|conformité	2
SV	fråga;ställa	ställa fråga	poser|question	2
SV	rapport;skriva	skriva rapport	rapport|d'écriture	2
SV	anställa;extrapersonal	anställa extrapersonal	recruter|du|personnel|supplémentaire	4
SV	få;verkan	få verkan	prendre|effet	2
SV	betyda;frihet	betyda frihet	la|liberté|moyenne	3
SV	moderskap;se	se moderskap	voir|maternité	2
SV	få;premie	få premie	obtenir|prime	2
SV	revir;stämpla	stämpla revir	tamponner|territoire	2
SV	brist;ha	ha brist	être|court	2
SV	avvisa;påstående	avvisa påstående	rejeter|demande	2
SV	ha;hörfel	ha hörfel	ont|hörfel	2
SV	arbetskraft;kräva	kräva arbetskraft	exiger|du|travail	3
SV	få;skyldighet	få skyldighet	ont|l'obligation	2
SV	fästa;vikt	fästa vikt	fixer|poids	2
SV	erfordra;vattenmängd	erfordra vattenmängd	ont|besoin|d'eau	3
SV	anta;efternamn	anta efternamn	adopter|nom	2
SV	modell;skifta	skifta modell	modèle|de|changement|de|vitesse	5
SV	avsluta;verksamhet	avsluta verksamhet	opérations|finition	2
SV	ljus;ställa	ställa ljus	lumière|set	2
SV	bilda;enklav	bilda enklav	forme|enclave	2
SV	skapa;trevnad	skapa trevnad	créer|confort	2
SV	hålla;ordning	hålla ordning	garder|à|l'ordre	3
SV	besättning;få	få besättning	obtenir|équipage	2
SV	känna;samhällsansvar	känna samhällsansvar	sentir|la|responsabilité|sociale	4
SV	behörighet;ge	ge behörighet	donner|permission	2
SV	förväntning;ställa	ställa förväntning	définir|attentes	2
SV	behandling;få	få behandling	obtenir|traitement	2
SV	hinna;tvättning	hinna tvättning	lavage|membrane	2
SV	flytförmåga;ha	ha flytförmåga	avoir|flottabilité	2
SV	bil;hissa	hissa bil	voiture|levage	2
SV	andel;ge	ge andel	donner|part	2
SV	fimpa;lämna	lämna fimpa	congé|cesser|de|fumer	4
SV	aning;ha	ha aning	ont|peu	2
SV	begränsa;insyn	begränsa insyn	la|transparence|limite	3
SV	göra;översyn	göra översyn	faire|l'examen	2
SV	arbetsområde;finna	finna arbetsområde	chercher|du|travail	3
SV	tåla;åverkan	tåla åverkan	résister|aux|dommages	3
SV	innefatta;omnämnande	innefatta omnämnande	mention|comprennent	2
SV	få;slutresultat	få slutresultat	résultat|final	2
SV	gälla;idrottsplats	gälla idrottsplats	appliquer|terrain|de|sport	4
SV	flygfotografera;område	flygfotografera område	vol|zone|de|photographie	4
SV	avgift;sätta	sätta avgift	frais|d'installation	2
SV	känna;människa	känna människa	connaître|l'homme	2
SV	exempel;möta	möta exempel	rencontre|exemple	2
SV	dra;miljard	dra miljard	traction|milliards	2
SV	mottagande;sköta	sköta mottagande	réception|de|la|poignée	4
SV	procent;slippa	slippa procent	éviter|pour|cent	3
SV	lära;medmänsklighet	lära medmänsklighet	apprendre|l'empathie	2
SV	ha;sätt	ha sätt	les|moyens	2
SV	motorfordon;möta	möta motorfordon	rencontre|véhicule|automobile	3
SV	anförande;avsluta	avsluta anförande	discours|fin	2
SV	invänta;menstruationsperiod	invänta menstruationsperiod	période|menstruelle|attente	3
SV	kolla;punkt	kolla punkt	point|contrôle	2
SV	form;ordna	ordna form	organiser|forme	2
SV	osäkerhet;skapa	skapa osäkerhet	créer|l'incertitude	2
SV	förhållande;visa	visa förhållande	voir|relation	2
SV	paus;ta	ta paus	faire|pause	2
SV	behöva;morot	behöva morot	ayant|carotte	2
SV	placera;uran	placera uran	placer|l'uranium	2
SV	prägel;sätta	sätta prägel	mettre|spin	2
SV	kontrollera;trafik	kontrollera trafik	contrôle|du|trafic	3
SV	ha;invandrare	ha invandrare	ont|migrants	2
SV	pickning;visa	visa pickning	afficher|picorer	2
SV	se;studie	se studie	voir|l'étude	2
SV	förblinda;kvinna	förblinda kvinna	femme|aveugle	2
SV	ha;mage	ha mage	ont|l'estomac	2
SV	lösa;skilsmässa	lösa skilsmässa	résoudre|divorce	2
SV	få;medinflytande	få medinflytande	get|autonomisation	2
SV	glömma;nytta	glömma nytta	oublier|avantages	2
SV	få;hyresbidrag	få hyresbidrag	obtenir|l'indemnité|de|loyer	4
SV	ge;rätt	ge rätt	donner|droit	2
SV	gälla;procent	gälla procent	appliquer|pour|cent	3
SV	komplettera;rostskydd	komplettera rostskydd	complément|rustproofing	2
SV	nå;ultraljudområde	nå ultraljudområde	atteindre|le|champ|d'ultrasons	4
SV	hjälpa;unge	hjälpa unge	aide|jeunes	2
SV	få;sjukhjälp	få sjukhjälp	obtenir|de|l'aide|médicale	4
SV	barn;skydda	skydda barn	protégeons|enfants	2
SV	markera;valkrets	markera valkrets	circonscription|marque	2
SV	välja;yrke	välja yrke	choisir|carrière	2
SV	företräde;ge	ge företräde	préférence|donner	2
SV	organisera;undervisning	organisera undervisning	l'éducation|organisation	2
SV	märka;träd	märka träd	arbre|lettre	2
SV	angripa;auktoritetsproblem	angripa auktoritetsproblem	résoudre|les|problèmes|d'autorité	4
SV	byta;torkarblad	byta torkarblad	changement|de|la|lame|essuie-glace	5
SV	skaffa;upplysning	skaffa upplysning	informations|acquire	2
SV	park;studera	studera park	parc|étudiant	2
SV	hem;informera	informera hem	informer|maison	2
SV	blick;tappa	tappa blick	chute|coup|d'oeil	3
SV	ge;strömstöt	ge strömstöt	fournir|montée|subite|de|puissance	5
SV	stad;studera	studera stad	étudier|ville	2
SV	förbereda;ärende	förbereda ärende	préparer|cas	2
SV	handlägga;tillstånd	handlägga tillstånd	permis|administration	2
SV	bidrag;ge	ge bidrag	des|subventions	2
SV	bli;följd	bli följd	être|suivi	2
SV	människa;skapa	skapa människa	créer|humains	2
SV	bestämma;riktning	bestämma riktning	déterminer|direction	2
SV	däck;kolla	kolla däck	pneus|contrôle	2
SV	hjälpa;industri	hjälpa industri	l'industrie|l'aide	2
SV	besked;få	få besked	obtenir|informations	2
SV	förståelse;ha	ha förståelse	avoir|compréhension	2
SV	kräva;siffra	kräva siffra	numéro|téléphone	2
SV	dela;uppgift	dela uppgift	tâche|d'actions	2
SV	få;utbildningsbidrag	få utbildningsbidrag	recevoir|des|subventions|de|formation	5
SV	hitta;lösning	hitta lösning	trouver|solution	2
SV	pension;se	se pension	voir|retraite	2
SV	få;undervisning	få undervisning	recevoir|instruction	2
SV	förkorta;vårdtid	förkorta vårdtid	séjour|hospitalier|raccourcir	3
SV	ha;resmöjlighet	ha resmöjlighet	ont|resmöjlighet	2
SV	få;krafttillskott	få krafttillskott	coup|de|pouce|de|puissance	5
SV	attityd;jämföra	jämföra attityd	comparer|l'attitude	2
SV	lämna;uppgift	lämna uppgift	fournir|informations	2
SV	riksdagsval;räkna	räkna riksdagsval	élection|comptage	2
SV	träffa;ämbetsman	träffa ämbetsman	rencontre|avec|un|représentant|du|gouvernement	6
SV	definiera;nyckelretning	definiera nyckelretning	définir|la|clé|d'irritation	4
SV	bygga;håla	bygga håla	construction|tanière	2
SV	bostadslån;lämna	lämna bostadslån	quitter|maison	2
SV	företag;styra	styra företag	société|contrôle	2
SV	bedöma;förutsättning	bedöma förutsättning	l'évaluation|l'état	2
SV	följa;prisutveckling	följa prisutveckling	suivre|l'évolution|des|prix	4
SV	fråga;handha	handha fråga	gérer|question	2
SV	kapa;sjukvårdskostnad	kapa sjukvårdskostnad	réduire|le|coût|des|soins|de|santé	7
SV	monogami;påbjuda	påbjuda monogami	imposer|monogamie	2
SV	odlare;stimulera	stimulera odlare	stimuler|producteurs	2
SV	adress;gäll	gäll adress	adresse|strident	2
SV	diskutera;möjlighet	diskutera möjlighet	discuter|de|la|possibilité	4
SV	läsa;platsannons	läsa platsannons	lire|l'offre|d'emploi	3
SV	ha;nyckel	ha nyckel	ont|clé	2
SV	ge;grepp	ge grepp	fournir|adhérence	2
SV	bromsa;c-vitaminförlust	bromsa c-vitaminförlust	lente|perte|de|vitamine|c	5
SV	bromsljus;kontrollera	kontrollera bromsljus	le|contrôle|des|feux|de|freinage	6
SV	arbetsgivare;be	be arbetsgivare	demander|à|l'employeur	3
SV	cigarrettkonsumtion;få	få cigarrettkonsumtion	obtenir|la|consommation|de|cigarettes	5
SV	lösa;problem	lösa problem	résoudre|problèmes	2
SV	få;klassföreståndartimme	få klassföreståndartimme	get|klassföreståndartimme	2
SV	forma;liv	forma liv	vie|formation	2
SV	göra;kartläggning	göra kartläggning	la|cartographie|do	3
SV	fraktkostnad;få	få fraktkostnad	obtenir|le|coût|d'expédition	4
SV	klassificera;stockholmsfamilj	klassificera stockholmsfamilj	classifier|famille|stockholm	3
SV	främja;ändring	främja ändring	promouvoir|changement	2
SV	göra;köttbulle	göra köttbulle	faire|boulette	2
SV	göra;könsrollsfråga	göra könsrollsfråga	faire|de|la|question|du|genre	6
SV	bostadsfråga;lösa	lösa bostadsfråga	boîtier|réception	2
SV	dra;järnväg	dra järnväg	train|traction	2
SV	acceptera;kamrat	acceptera kamrat	accepter|compagnon	2
SV	avdramatisera;problem	avdramatisera problem	problèmes|désamorcer	2
SV	ange;orsak	ange orsak	indiquer|raison	2
SV	ljus;placera	placera ljus	placer|lumière	2
SV	bryta;kol	bryta kol	mine|charbon	2
SV	konvention;röra	röra konvention	déplacer|convention	2
SV	bombardemang;tillgripa	tillgripa bombardemang	le|recours|bombardement	3
SV	ide;lansera	lansera ide	lancement|ide	2
SV	få;kontakt	få kontakt	obtenir|contact	2
SV	skada;vålla	vålla skada	a|fait|des|dégats	4
SV	fru;ha	ha fru	femme|ont	2
SV	daghemsplats;få	få daghemsplats	obtenir|la|garderie|lieu	4
SV	göra;undervisningsexperiment	göra undervisningsexperiment	faire|des|expériences|d'enseignement	4
SV	få;människa	få människa	quelques|personnes	2
SV	humanitet;ifrågasätta	ifrågasätta humanitet	défi|l'humanité	2
SV	balans;få	få balans	équilibre|apporter	2
SV	klandra;kvinna	klandra kvinna	femme|blâme	2
SV	få;prestation	få prestation	obtenir|performances	2
SV	mäta;pris	mäta pris	prix|​​de|mesure	3
SV	analysera;problem	analysera problem	analyser|problèmes	2
SV	göra;reklam	göra reklam	la|publicité	2
SV	skelettdel;överlämna	överlämna skelettdel	squelette|émission	2
SV	hitta;kvarleva	hitta kvarleva	trouver|relique	2
SV	leksak;välja	välja leksak	choisir|jouet	2
SV	potatis;servera	servera potatis	servir|de|pommes|de|terre	5
SV	avstånd;bedöma	bedöma avstånd	la|distance|juger	3
SV	grepp;hålla	hålla grepp	garder|main	2
SV	ha;vrå	ha vrå	ont|coin	2
SV	lägenhet;skaffa	skaffa lägenhet	appartement|acquire	2
SV	barn;fostra	fostra barn	l'éducation|enfants	2
SV	behärska;område	behärska område	zone|principale	2
SV	inneha;roll	inneha roll	tenue|rôle	2
SV	grundutbildning;ha	ha grundutbildning	ont|de|premier|cycle	4
SV	valdeltagande;visa	visa valdeltagande	montrer|le|taux|de|participation	5
SV	hud;rengöra	rengöra hud	une|peau|propre	3
SV	röra;sak	röra sak	ce|qui|bouge	3
SV	bygga;kärnkraftstation	bygga kärnkraftstation	construire|la|centrale|nucléaire	4
SV	förvandla;inre	förvandla inre	transformation|interne	2
SV	söka;äktenskapspartner	söka äktenskapspartner	rechercher|des|partenaires|de|mariage	5
SV	bild;ge	ge bild	fournir|l'image	2
SV	ge;underlag	ge underlag	fournir|apport	2
SV	förändring;göra	göra förändring	faire|changement	2
SV	lätta;möda	lätta möda	faciliter|l'effort	2
SV	energibalans;ställa	ställa energibalans	l'énergie|ensemble	2
SV	kasta;roll	kasta roll	rôle|jet	2
SV	ha;hund	ha hund	avoir|chien	2
SV	få;hörselskydd	få hörselskydd	obtenir|l'oreille	2
SV	stimulus;tolka	tolka stimulus	interpréter|stimulus	2
SV	kost;välja	välja kost	choisir|l'alimentation	2
SV	bostadskostnad;ha	ha bostadskostnad	ont|le|coût|du|logement	5
SV	påvisa;ämne	påvisa ämne	sous|réserve|de|détection	4
SV	klara;vinterkyla	klara vinterkyla	froid|hivernal|clair	3
SV	ha;medlem	ha medlem	avoir|jusqu'à	2
SV	känna;människovärde	känna människovärde	connaissant|la|dignité|humaine	4
SV	larm;slå	slå larm	sonner|l'alarme	2
SV	få;stimulans	få stimulans	get|stimulus	2
SV	få;hörselskada	få hörselskada	ont|une|perte|auditive	4
SV	ha;vinterdäck	ha vinterdäck	avoir|des|pneus|d'hiver	4
SV	besvara;fråga	besvara fråga	répondre|à|la|question	4
SV	drift;kanalisera	kanalisera drift	opération|canal	2
SV	få;återbäring	få återbäring	obtenir|remboursement	2
SV	ge;vänskap	ge vänskap	donner|l'amitié	2
SV	hämta;återbäring	hämta återbäring	se|faire|rembourser	3
SV	dubb;rymma	rymma dubb	doublet|accueillir	2
SV	dubb;plocka	plocka dubb	choisir|doublet	2
SV	anställning;tillträda	tillträda anställning	de|prendre|l'emploi	3
SV	ha;ratt	ha ratt	avoir|droit	2
SV	minut;vinna	vinna minut	victoire|minute	2
SV	försändelse;förväxla	förväxla försändelse	envoi|confondez	2
SV	ha;utseende	ha utseende	ont|l'apparence	2
SV	hushåll;sköta	sköta hushåll	travaux|ménagers	2
SV	energi;transportera	transportera energi	l'énergie|transport	2
SV	få;remiss	få remiss	obtenir|références	2
SV	bifoga;deklaration	bifoga deklaration	déclaration|joindre	2
SV	göra;skoldag	göra skoldag	rendre|la|journée|scolaire	4
SV	adressat;befria	befria adressat	libérer|destinataire	2
SV	hyresreglering;slopa	slopa hyresreglering	abolir|le|contrôle|des|loyers	5
SV	framkalla;regn	framkalla regn	la|cause|de|pluie	4
SV	kostnad;nedbringa	nedbringa kostnad	réduire|coût	2
SV	hjälp;söka	söka hjälp	demander|l'aide	2
SV	mata;unge	mata unge	jeune|alimentation	2
SV	förväxling;undvika	undvika förväxling	éviter|confusion	2
SV	begära;utträde	begära utträde	retrait|de|la|demande	4
SV	ilbefordran;välja	välja ilbefordran	choisissez|ilbefordran	2
SV	förmåga;ha	ha förmåga	ont|capacité	2
SV	individualisera;undervisning	individualisera undervisning	l'enseignement|individualiser	2
SV	flicka;låta	låta flicka	que|la|jeune|fille	4
SV	avhjälpa;svält	avhjälpa svält	la|faim|de|remède	4
SV	cigarett;slänga	slänga cigarett	jeter|cigarette	2
SV	få;huvudansvar	få huvudansvar	responsabilité|générale	2
SV	gälla;statsminister	gälla statsminister	appliquer|premier	2
SV	barntillsyn;få	få barntillsyn	get|garderie	2
SV	besök;ha	ha besök	ont|visites	2
SV	byta;vara	byta vara	changement|soit	2
SV	dubb;sätta	sätta dubb	mettre|deux	2
SV	motsättning;skapa	skapa motsättning	créer|conflits	2
SV	behålla;privilegium	behålla privilegium	conserver|privilège	2
SV	livsmedelsproduktion;öka	öka livsmedelsproduktion	augmentation|de|la|production|alimentaire	5
SV	socialhjälp;söka	söka socialhjälp	demander|de|l'aide|sociale	4
SV	besöka;doktor	besöka doktor	médecin|visite	2
SV	glasögon;skaffa	skaffa glasögon	obtenez|lunettes	2
SV	befäl;ta	ta befäl	prendre|commandement	2
SV	inköpa;materiel	inköpa materiel	fournitures|d'achat	2
SV	bilda;liggsäd	bilda liggsäd	forme|support|déposée	3
SV	höja;lön	höja lön	collecte|salaire	2
SV	hålla;näsöppning	hålla näsöppning	garder|nares	2
SV	ha;kännetecken	ha kännetecken	ont|caractéristiques	2
SV	fördelning;kräva	kräva fördelning	répartition|de|la|demande	4
SV	ha;vakenhetsgrad	ha vakenhetsgrad	ont|vigilance	2
SV	förhållande;ha	ha förhållande	ont|par|rapport	3
SV	intelligens;träna	träna intelligens	l'intelligence|train	2
SV	arbetskraft;importera	importera arbetskraft	travail|d'importation	2
SV	nå;procent	nå procent	atteindre|pour|cent	3
SV	skyddsnät;sätta	sätta skyddsnät	mettre|des|filets|de|sécurité	5
SV	komma;världside	komma världside	obtenir|la|soie|mondiale	4
SV	möta;svårighet	möta svårighet	rencontrent|difficultés	2
SV	jämföra;ställning	jämföra ställning	comparer|l'état	2
SV	trycka;valsedel	trycka valsedel	vote|en|appuyant|sur	4
SV	hus;köpa	köpa hus	acheter|maison	2
SV	partibeteckning;skriva	skriva partibeteckning	imprimer|le|nom|du|parti	5
SV	följa;mönster	följa mönster	le|profil|de|suivi	4
SV	fylla;sats	fylla sats	taux|remplissage	2
langue source	NF	mwe à traduire	mwe traduite	Nbmots traduction
SV	få;laboratoriesvar	få laboratoriesvar	obtenir|des|résultats|de|laboratoire	5
SV	fördelning;visa	visa fördelning	voir|distribution	2
SV	lägga;vikt	lägga vikt	poids|add	2
SV	däck;kontrollera	kontrollera däck	pont|commande	2
SV	ge;rättighet	ge rättighet	donner|droit	2
SV	procent;tro	tro procent	foi|pour|cent	3
SV	halskota;innehålla	innehålla halskota	contenir|vertèbre|du|cou	4
SV	föra;förhandling	föra förhandling	apportant|négociation	2
SV	ifrågasätta;uppfattning	ifrågasätta uppfattning	question|l'idée	2
SV	energikälla;omräkna	omräkna energikälla	convertir|la|source|d'énergie	4
SV	få;grepp	få grepp	avoir|emprise	2
SV	finna;nöje	finna nöje	trouver|du|plaisir	3
SV	arbetslokal;bygga	bygga arbetslokal	construire|des|lieux|de|travail	5
SV	få;skatt	få skatt	obtenir|l'impôt	2
SV	ha;timme	ha timme	ont|heure	2
SV	jfr;namnlag	jfr namnlag	loi|de|changement|de|nom|cf.	6
SV	iaktta;plasticitet	iaktta plasticitet	observer|plasticité	2
SV	ha;siffra	ha siffra	ont|figure	2
SV	beräkna;tömning	beräkna tömning	décharge|calcul	2
SV	ordna;valskjuts	ordna valskjuts	organiser|valskjuts	2
SV	kunskap;skaffa	skaffa kunskap	acquérir|connaissances	2
SV	tid;vinna	vinna tid	temps|gagnant	2
SV	belopp;skjuta	skjuta belopp	montant|tir	2
SV	blottlägga;utveckling	blottlägga utveckling	développement|uncover	2
SV	få;lön	få lön	obtenir|salaire	2
SV	göra;monogami	göra monogami	faire|monogamie	2
SV	ha;totalbefolkning	ha totalbefolkning	ont|la|population|totale	4
SV	ha;stab	ha stab	disposer|d'un|personnel	3
SV	ha;skyldighet	ha skyldighet	être|obligé	2
SV	provkarta;visa	visa provkarta	afficher|carte	2
SV	känna;resultat	känna resultat	les|résultats|de|la|sensation	5
SV	acceptera;skäl	acceptera skäl	accepter|motifs	2
SV	kantlinje;köra	köra kantlinje	frontière|en|cours|d'exécution	4
SV	flexibilitet;visa	visa flexibilitet	faire|preuve|de|souplesse	4
SV	lägga;tidning	lägga tidning	add|journal	2
SV	ha;låda	ha låda	ont|boîte	2
SV	imruta;montera	montera imruta	mont|imruta	2
SV	krav;möta	möta krav	se|conforme|aux|exigences	4
SV	faktor;komma	komma faktor	venir|facteur	2
SV	barn;nå	nå barn	les|enfants|de|portée	4
SV	klara;procent	klara procent	clair|pour|cent	3
SV	ljus;visa	visa ljus	voir|lumière	2
SV	ge;otrygghet	ge otrygghet	donner|l'insécurité	2
SV	ha;konformitet	ha konformitet	ont|conformité	2
SV	leverera;potatis	leverera potatis	fournir|des|pommes|de|terre	5
SV	artfrände;hjälpa	hjälpa artfrände	aide|artfrände	2
SV	ge;likställighet	ge likställighet	donner|l'égalité	2
SV	dragning;ha	ha dragning	une|traction	2
SV	mönster;överlagra	överlagra mönster	motif|superposition	2
SV	ha;lastning	ha lastning	ont|chargement	2
SV	förutsäga;utveckling	förutsäga utveckling	prédire|développement	2
SV	få;tjänsteman	få tjänsteman	obtenir|officiel	2
SV	tämja;vattenkraft	tämja vattenkraft	apprivoisés|hydroélectrique	2
SV	byggsten;innehålla	innehålla byggsten	contiennent|synthon	2
SV	förverkliga;kärlek	förverkliga kärlek	réalisation|l'amour	2
SV	ha;ram	ha ram	ont|cadre	2
SV	få;hörselfel	få hörselfel	ont|des|défauts|auditifs	4
SV	förälder;kräva	kräva förälder	exiger|parents	2
SV	ha;rörelsemönster	ha rörelsemönster	ont|des|modèles|de|mouvement	5
SV	arbetsplats;bestämma	bestämma arbetsplats	déterminer|le|lieu|de|travail	5
SV	lägga;pengar	lägga pengar	mettre|l'argent	2
SV	ha;hustru	ha hustru	femme|ont	2
SV	gälla;valkuvert	gälla valkuvert	enveloppe|de|vote|valide	4
SV	byte;motsätta	motsätta byte	changement|adverse	2
SV	debattinlägg;ställa	ställa debattinlägg	débat|ensemble	2
SV	besvär;få	få besvär	quelques|problèmes	2
SV	kompromiss;nå	nå kompromiss	compromis|portée	2
SV	bondesamhälle;ha	ha bondesamhälle	ont|la|communauté|agricole	4
SV	bensin;tanka	tanka bensin	l'essence|faire|le|plein	4
SV	ha;serviceform	ha serviceform	ont|la|forme|de|services	5
SV	hyreshöjning;stoppa	stoppa hyreshöjning	louer|arrêt	2
SV	planlägga;stambanenät	planlägga stambanenät	la|conception|stambanenät	3
SV	liter;tanka	tanka liter	faire|le|plein|litre	4
SV	ha;kondition	ha kondition	ont|conditionné	2
SV	få;utveckling	få utveckling	obtenir|développement	2
SV	erfara;förnimmelse	erfara förnimmelse	sensation|expérience	2
SV	axel;uppgift	axel uppgift	tâche|axe	2
SV	påverkan;slippa	slippa påverkan	éviter|l'impact	2
SV	politik;samordna	samordna politik	coordonner|politiques	2
SV	hinder;komma	komma hinder	venir|obstacles	2
SV	linje;slopa	slopa linje	ligne|ferraille	2
SV	komplettera;muskelkraft	komplettera muskelkraft	complément|musculaire	2
SV	förbättring;vidta	vidta förbättring	prendre|l'amélioration	2
SV	kompensera;sömnskuld	kompensera sömnskuld	compenser|la|dette|de|sommeil	5
SV	påfrestning;tåla	tåla påfrestning	résister|à|tous|les|jours	5
SV	konstruera;moral	konstruera moral	construction|morale	2
SV	få;omställningsbidrag	få omställningsbidrag	obtenir|la|prime|de|conversion	5
SV	ge;lycka	ge lycka	apporter|du|bonheur	3
SV	beräkna;hyreshöjning	beräkna hyreshöjning	location|calcul	2
SV	toppvinst;vinna	vinna toppvinst	gagner|le|premier|prix	4
SV	behålla;namn	behålla namn	garder|nom	2
SV	acceptera;förbindelse	acceptera förbindelse	accepter|connexion	2
SV	reformera;samhälle	reformera samhälle	la|société|réforme	3
SV	göra;insats	göra insats	faire|l'effort	2
SV	utveckling;överblicka	överblicka utveckling	enquête|sur|le|développement	4
SV	klara;uppgift	klara uppgift	indication|claire	2
SV	ruta;torka	torka ruta	boîte|sèche	2
SV	boja;bryta	bryta boja	briser|fetter	2
SV	ha;lånemöjlighet	ha lånemöjlighet	ont|facilité|de|prêt	4
SV	hus;ockupera	ockupera hus	occuper|maison	2
SV	familjemedlem;räkna	räkna familjemedlem	comte|membre|de|la|famille	5
SV	antyda;handelsväg	antyda handelsväg	impliquer|route|commerciale	3
SV	fläck;putsa	putsa fläck	endroit|polonais	2
SV	byta;lägenhet	byta lägenhet	appartement|changement	2
SV	förgasa;stenkol	förgasa stenkol	charbon|gazéifier	2
SV	hämta;paket	hämta paket	forfaits|téléchargement	2
SV	postpaket;skicka	skicka postpaket	envoyer|des|paquets|postaux	4
SV	sympati;vinna	vinna sympati	la|sympathie	2
SV	halt;öka	öka halt	teneur|en|augmentation	3
SV	ha;utkörning	ha utkörning	ont|livreurs	2
SV	lägenhet;underhålla	underhålla lägenhet	appartement|entertain	2
SV	gräns;markera	markera gräns	marquer|limite	2
SV	få;hemarbete	få hemarbete	obtenir|devoirs	2
SV	få;prov	få prov	recevoir|échantillon	2
SV	självständighet;vinna	vinna självständighet	cheminer|vers|l'indépendance	3
SV	förebygga;matematiksvårighet	förebygga matematiksvårighet	difficulté|mathématique|prevent	3
SV	bild;göra	göra bild	faire|l'image	2
SV	ackord;höja	höja ackord	soulèvent|accords	2
SV	dumpa;smörja	dumpa smörja	graisser|vidage	2
SV	ge;samlingspunkt	ge samlingspunkt	donner|focale	2
SV	få;typ	få typ	obtenir|genre	2
SV	ha;invånare	ha invånare	des|gens	2
SV	skatteåterbäring;sätta	sätta skatteåterbäring	mettre|le|remboursement|d'impôt	4
SV	ge;lösning	ge lösning	donner|solution	2
SV	standardlinje;visa	visa standardlinje	montrer|la|ligne|standard	4
SV	få;snabbhet	få snabbhet	vitesse|gain	2
SV	möta;påstående	möta påstående	rencontre|affirmation	2
SV	lära;matematik	lära matematik	apprendre|mathématiques	2
SV	förmån;ge	ge förmån	donner|préférentiel	2
SV	gälla;järnvägspark	gälla järnvägspark	appliquer|le|parc|ferroviaire	4
SV	göra;val	göra val	faire|choix	2
SV	bestämmelse;ha	ha bestämmelse	ont|règle	2
SV	kräva;tid	kräva tid	besoin|temps	2
SV	hormon;producera	producera hormon	produire|l'hormone	2
SV	få;streckmarkering	få streckmarkering	get|éclosion	2
SV	avslöja;överskott	avslöja överskott	divulguer|l'excès	2
SV	hund;skaffa	skaffa hund	obtenir|chien	2
SV	brännmärka;okynnessjukskrivning	brännmärka okynnessjukskrivning	malade|de|nuisance|de|la|marque	6
SV	dansk;dra	dra dansk	tirer|danois	2
SV	ha;undervisningsväsende	ha undervisningsväsende	ont|undervisningsväsende	2
SV	köra;linje	köra linje	ligne|d'entraînement	2
SV	andel;ha	ha andel	ont|part	2
SV	fånga;intresse	fånga intresse	intérêt|capture	2
SV	kräva;trottoar	kräva trottoar	exiger|trottoirs	2
SV	glömma;upplevelse	glömma upplevelse	oublier|l'expérience	2
SV	stoppa;valsedel	stoppa valsedel	vote|arrêt	2
SV	belysa;problematik	belysa problematik	illustrer|problèmes	2
SV	behov;fylla	fylla behov	besoins|remplissage	2
SV	fordra;åtgärd	fordra åtgärd	exigent|action	2
SV	hjälp;kamrat	hjälp kamrat	des|moyens|compagnon	3
SV	ha;tanke	ha tanke	avoir|pensées	2
SV	kylvatten;tappa	tappa kylvatten	laisser|tomber|l'eau|de|refroidissement	5
SV	ge;struktur	ge struktur	fournir|structure	2
SV	ge;gång	ge gång	donner|temps	2
SV	integration;kräva	kräva integration	exiger|l'intégration	2
SV	förskjutning;åskådliggöra	åskådliggöra förskjutning	illustrer|déplacement	2
SV	få;inlåningsränta	få inlåningsränta	obtenir|le|taux|de|dépôt	5
SV	motivering;sakna	sakna motivering	manque|motivation	2
SV	ha;reklaminslag	ha reklaminslag	ont|publicités	2
SV	gälla;vård	gälla vård	tout|traitement	2
SV	ha;val	ha val	des|choix	2
SV	imruta;klistra	klistra imruta	coller|imruta	2
SV	gå;jobb	gå jobb	trouver|emploi	2
SV	behöva;kompletteringsdubb	behöva kompletteringsdubb	nécessité|de|compléter|deux	4
SV	behov;täcka	täcka behov	besoins|couverture	2
SV	köpa;mjölk	köpa mjölk	lait|acheter	2
SV	arbetsplats;ersätta	ersätta arbetsplats	remplacer|le|lieu|de|travail	5
SV	bostadshus;bygga	bygga bostadshus	maisons|construction	2
SV	antirökningskampanj;sätta	sätta antirökningskampanj	mettre|la|campagne|anti-tabac	4
SV	ge;uppgörelse	ge uppgörelse	règlement|donner	2
SV	kol;transportera	transportera kol	charbon|transport	2
SV	lägga;tid	lägga tid	ajouter|du|temps	3
SV	bära;börda	bära börda	charge|ours	2
SV	få;nederbörd	få nederbörd	get|précipitations	2
SV	beteende;möta	möta beteende	fonctionner|manière	2
SV	förslag;tänka	tänka förslag	examiner|propositions	2
SV	miljon;vinna	vinna miljon	gagner|million	2
SV	makthavare;sopa	sopa makthavare	règles|balayage	2
SV	få;utkomst	få utkomst	recevoir|chômage	2
langue source	NF	mwe à traduire	mwe traduite	Nbmots traduction
langue source	NF	mwe à traduire	mwe traduite	Nbmots traduction
langue source	NF	mwe à traduire	mwe traduite	Nbmots traduction
langue source	NF	mwe à traduire	mwe traduite	Nbmots traduction
SV	möta;stad	möta stad	ville|se|rencontrent	3
SV	avancera;delägare	avancera delägare	partenaire|promotion	2
SV	förebildsmotiv;kalla	kalla förebildsmotiv	conceptions|de|modèle|froid	4
SV	ha;mål	ha mål	avoir|objectifs	2
SV	bli;röstningsregel	bli röstningsregel	être|règle|de|vote	4
SV	riksdagsman;välja	välja riksdagsman	select|mp	2
SV	jämförelse;nämna	nämna jämförelse	comparaison|de|la|mention	4
SV	bevis;godta	godta bevis	accepter|preuves	2
SV	balansvikt;fungera	fungera balansvikt	masselotte|travail	2
SV	bli;transport	bli transport	être|transport	2
SV	bli;inkomstökning	bli inkomstökning	dans|revenu	2
SV	bli;naturvårdsproblem	bli naturvårdsproblem	des|problèmes|de|conservation	4
SV	kalla;tryckvattenreaktor	kalla tryckvattenreaktor	froid|réacteur|à|eau|pressurisée	5
SV	minska;trafikolycka	minska trafikolycka	réduire|les|accidents|de|la|circulation	6
SV	fukt;samla	samla fukt	l'humidité|collect	2
SV	system;säga	säga system	systèmes|disons	2
SV	tänka;ullnaområdet	tänka ullnaområdet	pensez|zone|ullna	3
SV	huvudfaktor;urskilja	urskilja huvudfaktor	distinguer|le|facteur|principal	4
SV	förmögenhet;kräva	kräva förmögenhet	exiger|fortune	2
SV	slopa;vara	slopa vara	supprimer|être	2
SV	avräkna;grundavdrag	avräkna grundavdrag	allocation|décalage	2
SV	resultat;vinna	vinna resultat	résultats|gagnant	2
SV	föda;osäkerhet	föda osäkerhet	insécurité|alimentaire	2
SV	hund;utfordra	utfordra hund	nourrir|chien	2
SV	drabba;jordbruk	drabba jordbruk	répercussions|sur|l'agriculture	3
SV	befolkningsökning;dämpa	dämpa befolkningsökning	suppress|augmentation|de|la|population	5
SV	förlänga;hyresreglering	förlänga hyresreglering	étendre|le|contrôle|des|loyers	5
SV	roll;säga	säga roll	rôle|par|exemple	3
SV	kommitte;placera	placera kommitte	comité|mise	2
SV	begränsa;revir	begränsa revir	territoire|limite	2
SV	se;åldersgräns	se åldersgräns	voir|certificat	2
SV	samlagsfilm;visa	visa samlagsfilm	afficher|film|de|sexe	4
SV	ange;pris	ange pris	fixer|prix	2
SV	behandla;medborgare	behandla medborgare	traiter|citoyens	2
SV	veckotimme;ägna	ägna veckotimme	consacrer|une|heure|par|semaine	5
SV	adress;skriva	skriva adress	adresse|d'écriture	2
SV	art;gynna	gynna art	espèces|prestations	2
SV	djur;hindra	hindra djur	garder|animaux	2
SV	bemästra;kris	bemästra kris	crise|maître	2
SV	knyta;serviceföretag	knyta serviceföretag	service|réseau	2
SV	borrigg;köpa	köpa borrigg	acheter|appareil|de|forage	4
SV	beteckna;fynd	beteckna fynd	affaire|représentent|chacun	3
SV	avslöja;illusion	avslöja illusion	divulguer|illusion	2
SV	avgift;beräkna	beräkna avgift	calcul|charge	2
SV	beräkna;kapacitetsminskning	beräkna kapacitetsminskning	calcul|de|la|réduction|des|capacités	6
SV	kyla;ånga	kyla ånga	vapeur|refroidissement	2
SV	sköta;verksamhet	sköta verksamhet	gérer|opérations	2
SV	arbetarkvinna;suga	suga arbetarkvinna	sucer|femme|travaillant	3
SV	förvärvsavdrag;ändra	ändra förvärvsavdrag	deuxième|déduction|d'acquisition	3
SV	box;köra	köra box	case|run	2
SV	avvägning;bestämma	bestämma avvägning	déterminer|l'équilibre	2
SV	behöva;postnummer	behöva postnummer	nécessité|code|postal	3
SV	räkna;ålder	räkna ålder	âge|comptage	2
SV	hålkort;sortera	sortera hålkort	trier|les|cartes|perforées	4
SV	ansträngning;göra	göra ansträngning	faire|l'effort	2
SV	aktualisera;fråga	aktualisera fråga	problème|de|mise|à|jour	5
SV	beräkna;prisstegring	beräkna prisstegring	calculer|hausse|des|prix	4
SV	reglera;samhälle	reglera samhälle	réglementer|société	2
SV	förmedla;lån	förmedla lån	transmettre|prêts	2
SV	bidrag;nedsätta	nedsätta bidrag	réduire|cotisations	2
SV	elkraft;leverera	leverera elkraft	fournir|de|l'énergie|électrique	4
SV	ange;järvafältet	ange järvafältet	entrer|järvafältet	2
SV	graviditet;konstatera	konstatera graviditet	note|grossesse	2
SV	begrepp;vidga	vidga begrepp	élargir|concepts	2
SV	mäta;prisutveckling	mäta prisutveckling	mesurer|l'évolution|des|prix	4
SV	dela;kärna	dela kärna	noyau|fendu	2
SV	grupp;ställa	ställa grupp	groupe|ensemble	2
SV	beröra;betydelse	beröra betydelse	signification|tactile	2
SV	förverkliga;utredningsförslag	förverkliga utredningsförslag	realize|proposition|d'enquête	3
SV	gummi;äta	äta gummi	caoutchouc|manger	2
SV	ersätta;resekostnad	ersätta resekostnad	remplacer|le|coût|de|voyage	5
SV	bryta;länk	bryta länk	rompre|lien	2
SV	hyreshöjning;märka	märka hyreshöjning	louer|lettre	2
SV	dom;godta	godta dom	accepter|jugement	2
SV	mena;stoffenhet	mena stoffenhet	moyenne|unité|de|substance	4
SV	köpa;lekmaterial	köpa lekmaterial	acheter|jouets	2
SV	bestämma;höjd	bestämma höjd	déterminer|l'altitude	2
SV	bruksidyll;röra	röra bruksidyll	vous|déplacer,|utilisez|idylle	4
SV	arbetstillstånd;bevilja	bevilja arbetstillstånd	travail|délivrance	2
SV	göra;resa	göra resa	faire|voyage	2
SV	framsteg;göra	göra framsteg	faire|progrès	2
SV	förhoppning;knyta	knyta förhoppning	cravate|espoir	2
SV	förbereda;yrkesorientering	förbereda yrkesorientering	préparer|l'orientation|professionnelle	3
SV	föra;sedel	föra sedel	billet|apporter	2
SV	fadersauktoritet;grunda	grunda fadersauktoritet	base|autorité|paternelle	3
SV	förmedling;skjuta	skjuta förmedling	la|médiation|des|pousses	4
SV	hjälp;reglera	reglera hjälp	des|moyens|de|commande	4
SV	samarbete;öva	öva samarbete	la|pratique|de|la|coopération	5
SV	anordna;företagsutbildning	anordna företagsutbildning	l'éducation|affaires	2
SV	index;opåverkad	opåverkad index	indice|non|affecté	3
SV	författning;modernisera	modernisera författning	modernisation|constitutionnelle	2
SV	spara;sötvatten	spara sötvatten	économiser|l'eau|douce	3
SV	förlägga;studiearbete	förlägga studiearbete	mise|étude|du|travail	4
SV	kommission;se	se kommission	voir|commission	2
SV	lägenhet;sälja	sälja lägenhet	appartement|vendre	2
SV	barntillsyn;ordna	ordna barntillsyn	organiser|la|garde|des|enfants	5
SV	ersättningstid;förlänga	förlänga ersättningstid	prolonger|le|délai|de|remplacement	5
SV	broschyr;skicka	skicka broschyr	envoyer|brochure	2
SV	ansökan;beräkna	beräkna ansökan	l'application|calculate	2
SV	gruppbedömning;göra	göra gruppbedömning	faire|de|l'évaluation|du|groupe	5
SV	barn;gälla	gälla barn	demander|aux|enfants	3
SV	kursplan;rymmas	rymmas kursplan	programmes|logés	2
SV	invandrarfråga;syssla	syssla invandrarfråga	question|corvée|d'immigrants	3
SV	finna;kibbutz	finna kibbutz	trouver|kibboutz	2
SV	eftertanke;mana	mana eftertanke	réflexion|exhortant	2
SV	blick;fixera	fixera blick	fixer|regard	2
SV	bygga;naturahushållning	bygga naturahushållning	construire|l'économie|naturelle	3
SV	avgång;förflyta	förflyta avgång	la|retraite|s'écouler	3
SV	finnas;samhälle	finnas samhälle	sont|communauté	2
SV	ha;könsroll	ha könsroll	ont|sexe	2
SV	behöva;hyreslag	behöva hyreslag	ayant|hyreslag	2
SV	erfarenhet;komma	komma erfarenhet	obtenir|l'expérience	2
SV	finnas;grupp	finnas grupp	est|groupe	2
SV	gå;krycka	gå krycka	appui|pour|la|marche	4
SV	bokhandel;köpa	köpa bokhandel	librairie|acheter	2
SV	sjukhus;vårda	vårda sjukhus	les|hôpitaux|de|soins	4
SV	placera;reaktor	placera reaktor	réacteur|de|mise|en|place	5
SV	boplats;ske	ske boplats	être|habitation	2
SV	samhälle;ske	ske samhälle	être|société	2
SV	jobba;skift	jobba skift	travail|posté	2
SV	broschyr;sakna	sakna broschyr	brochure|manque	2
SV	presentera;översikt	presentera översikt	présentant|aperçu	2
SV	få;läkarbesök	få läkarbesök	obtenir|des|rendez-vous|médicaux	4
SV	gräns;stå	stå gräns	frontière|debout	2
SV	sända;tv	sända tv	diffusion|tv	2
SV	företa;rökning	företa rökning	carry|fumer	2
SV	kärnreaktion;ske	ske kärnreaktion	être|la|réaction|nucléaire	4
SV	driva;kol	driva kol	opérer|carbone	2
SV	kräva;politiker	kräva politiker	exiger|politiciens	2
SV	bilda;reaktor	bilda reaktor	sous|forme|de|réacteur	4
SV	erhålla;postanstalt	erhålla postanstalt	obtenir|un|bureau|de|poste	5
SV	befäl;kräva	kräva befäl	exiger|que|les|agents	4
SV	barrikad;kämpa	kämpa barrikad	barricade|combat	2
SV	göra;samhälle	göra samhälle	la|société|do	3
SV	arbetstid;tvinga	tvinga arbetstid	force|ouvrière	2
SV	gå;världskrig	gå världskrig	guerre|go	2
SV	kalla;sammanhang	kalla sammanhang	contexte|d'appel	2
SV	omgång;studera	studera omgång	autour|l'étude	2
SV	göra;ordförandeskap	göra ordförandeskap	présidence|do	2
SV	barnaår;bestämma	bestämma barnaår	enfance|détermination	2
SV	kalla;sakledare	kalla sakledare	sakledare|froid	2
SV	beräkna;procent	beräkna procent	calculate|pour|cent	3
SV	bli;värde	bli värde	être|valeur	2
SV	räkna;tillkomstdag	räkna tillkomstdag	comte|tillkomstdag	2
SV	permission;räkna	räkna permission	figure|de|congé|d'ancienneté	4
SV	anställa;chef	anställa chef	gestionnaire|d'embauche	2
SV	betrakta;gåva	betrakta gåva	envisager|cadeau	2
SV	fordras;tillstånd	fordras tillstånd	état|requis	2
SV	integration;komplettera	komplettera integration	intégration|complète	2
SV	frigöra;partikel	frigöra partikel	particule|libération	2
SV	bromsa;del	bromsa del	une|partie|de|freinage	4
SV	exempel;hämta	hämta exempel	échantillon|téléchargement	2
SV	köra;paket	köra paket	ensemble|commande	2
SV	funktion;ändra	ändra funktion	fonction|changement	2
SV	beskriva;kpi	beskriva kpi	décrire|cpi	2
SV	kalla;polygyni	kalla polygyni	polygynie|froid	2
SV	betala;återbesök	betala återbesök	effectuer|visites	2
SV	diskutera;ändring	diskutera ändring	discuter|du|changement	3
SV	arbetsplats;lägga	lägga arbetsplats	lieu|de|travail|add	4
SV	släppa;sädescell	släppa sädescell	baisse|spermatozoïde	2
SV	enkammarriksdag;inrymma	inrymma enkammarriksdag	accueillir|une|seule|chambre	4
SV	rest;räkna	räkna rest	résidu|chiffre	2
SV	bibehålla;regel	bibehålla regel	maintenir|règle	2
SV	ersätta;lön	ersätta lön	payer|salaire	2
SV	betrakta;vårdyrke	betrakta vårdyrke	la|profession|de|considérer|les|soins|de|santé	8
SV	blankett;erhålla	erhålla blankett	obtenir|forme	2
SV	behöva;kassett	behöva kassett	bande|ayant	2
SV	anpassa;arbetstakt	anpassa arbetstakt	ajuster|le|rythme|de|travail	5
SV	beräkna;förslag	beräkna förslag	calculate|propositions	2
SV	bilförare;döda	döda bilförare	conducteurs|morts	2
SV	erhålla;resultat	erhålla resultat	obtenant|résultats	2
SV	ha;utveckling	ha utveckling	ont|développement	2
SV	göra;situation	göra situation	rendre|situation	2
SV	reagera;sätt	reagera sätt	manière|à|faire|réagir	4
