{'egin=VERB': 336957, 'kasu=NOUN': 19312}	3157		4.690751811677595
{'ukan=VERB': 395215, 'gogo=NOUN': 4682}	942		4.816656128660436
{'ukan=VERB': 395215, 'behar=NOUN': 85233}	29143		5.968368735784004
{'etsi=VERB': 450, 'karakteristika=NOUN': 27}	0	invalide: coocc nulle dans Conllst	n_a
{'esan=VERB': 57439, 'gezur=NOUN': 981}	235		7.92438754117359
{'bete=VERB': 21104, 'gabe=NOUN': 2294}	26		4.584515256909995
{'izan=VERB': 441746, 'iduri=NOUN': 94}	31		5.618890913066178
{'eraman=VERB': 23824, 'gabe=NOUN': 2294}	21		4.097810485677143
{'izan=VERB': 441746, 'behar=NOUN': 85233}	46911		7.09559386728769
{'eman=VERB': 106345, 'baimen=NOUN': 3707}	1342		7.897204292030408
{'eman=VERB': 106345, 'bide=NOUN': 26717}	1902		5.016751244849393
{'egin=VERB': 336957, 'lo=NOUN': 1968}	750		6.336188956166621
{'ukan=VERB': 395215, 'uste=NOUN': 18290}	7134		6.183695830496079
{'kendu=VERB': 9203, 'bizar=NOUN': 403}	28		8.487846519711082
{'eman=VERB': 106345, 'min=NOUN': 3499}	230		4.870318136017506
{'bihurtu=VERB': 27402, 'estatua=NOUN': 8369}	156		4.942682639633571
{'izan=VERB': 441746}	0	invalide: mot absent Conllst	n_a_abs
{'izan=VERB': 441746, 'aberats=NOUN': 1468}	265		4.46016662349088
{'izan=VERB': 441746, 'nahi=NOUN': 49913}	15293		5.513969323032922
{'izan=VERB': 441746, 'adierazpide=NOUN': 474}	79		4.320203213662407
{'iruditu=VERB': 7745, 'amets=NOUN': 2296}	25		5.975089892567053
{'jo=VERB': 21903, 'jangarri=NOUN': 201}	0	invalide: coocc nulle dans Conllst	n_a
{'deitu=VERB': 19928, 'bilera=NOUN': 3041}	116		6.464404005789688
{'bihurtu=VERB': 27402, 'egia=NOUN': 4956}	106		5.142480316937716
{'izendatu=VERB': 24018, 'gobernuburu=NOUN': 577}	117		8.87482213399178
{'izendatu=VERB': 24018, 'hautagai=NOUN': 2850}	106		6.155139332366952
{'aurkeztu=VERB': 17933, 'presidente=NOUN': 11361}	166		5.20229087025362
{'bihurtu=VERB': 27402, 'oilasko=NOUN': 119}	0	invalide: coocc nulle dans Conllst	n_a
{'bihurtu=VERB': 27402, 'tranbia=NOUN': 131}	0	invalide: coocc nulle dans Conllst	n_a
{'harrapatu=VERB': 4322, 'arrain=NOUN': 3755}	121		8.44973428820862
{'imajinatu=VERB': 325, 'irudi=NOUN': 14093}	4		5.2860197423842585
{'antolatu=VERB': 20148, 'ikastaro=NOUN': 2701}	332		8.28532962051499
{'agindu=VERB': 6472, 'nagusi=NOUN': 10180}	3		1.0073416063661913
{'aurreikusi=VERB': 2375}	0	invalide: mot absent Conllst	n_a_abs
{'eskaini=VERB': 17925, 'ahalmen=NOUN': 3447}	51		5.2119605151024295
{'igo=VERB': 8049, 'harrapaketa=NOUN': 199}	0	invalide: coocc nulle dans Conllst	n_a
{'etsi=VERB': 450, 'nolakotasun=NOUN': 209}	0	invalide: coocc nulle dans Conllst	n_a
{'ezagutu=VERB': 26604}	0	invalide: mot absent Conllst	n_a_abs
{'babestu=VERB': 8662}	0	invalide: mot absent Conllst	n_a_abs
{'izan=VERB': 441746, 'konpromiso=NOUN': 1878}	333		4.428948476619872
{'izan=VERB': 441746, 'osasun=NOUN': 5270}	838		4.241676964877336
{'izan=VERB': 441746, 'sehaska=NOUN': 108}	22		4.6751119953166596
{'izan=VERB': 441746, 'irudi=NOUN': 14093}	1727		3.807485607886513
{'izan=VERB': 441746, 'kontu=NOUN': 16719}	5604		5.672313336662434
{'izan=VERB': 441746, 'editore=NOUN': 737}	97		3.920174853631392
{'izan=VERB': 441746, 'erdara=NOUN': 454}	72		4.23460461679942
{'izan=VERB': 441746, 'oztopo=NOUN': 1656}	512		5.483675050025427
{'izan=VERB': 441746, 'ahal=NOUN': 21541}	16476		8.398443122485844
{'izan=VERB': 441746, 'saltxitxa=NOUN': 47}	5		3.5715002816172134
{'izan=VERB': 441746, 'zuzendari=NOUN': 14512}	1474		3.501781104365592
{'izan=VERB': 441746, 'tanto=NOUN': 427}	19		2.217437504720722
{'izan=VERB': 441746, 'puska=NOUN': 389}	62		4.243125264400392
{'izan=VERB': 441746, 'polizia=NOUN': 7522}	1147		4.171064179952301
{'izan=VERB': 441746, 'virgilio=NOUN': 18}	0	invalide: coocc nulle dans Conllst	n_a
{'izan=VERB': 441746, 'zor=NOUN': 2054}	437		4.755686687490442
{'bukatu=VERB': 8511, 'lizentzia=NOUN': 6669}	7		2.4464202275068074
{'handitu=VERB': 4641, 'esplotazio=NOUN': 363}	0	invalide: coocc nulle dans Conllst	n_a
{'abiatu=VERB': 8438, 'bide=NOUN': 26717}	445		6.5466325658333755
{'bultzatu=VERB': 10188, 'hilketa=NOUN': 2640}	19		4.974866506919213
{'aldatu=VERB': 69757, 'legeria=NOUN': 247}	13		5.13502433585835
{'aurkitu=VERB': 33240, 'akats=NOUN': 2186}	141		6.521897040253708
{'ordaindu=VERB': 5742}	0	invalide: mot absent Conllst	n_a_abs
{'eman=VERB': 106345, 'urrats=NOUN': 3005}	858		7.38475249772853
{'eten=VERB': 766, 'konpartsa=NOUN': 249}	0	invalide: coocc nulle dans Conllst	n_a
{'prestatu=VERB': 7856, 'ikasle=NOUN': 13658}	133		5.811726631513984
{'bideratu=VERB': 4249, 'prozedura=NOUN': 2347}	9		5.323748063114754
{'eraiki=VERB': 24951, 'proposamen=NOUN': 4923}	59		4.426051830685541
{'eragin=VERB': 22857, 'hizkuntza=NOUN': 37357}	185		3.275559550740375
{'erabaki=VERB': 14639, 'prozesu=NOUN': 14744}	124		4.688014493687711
{'ikasi=VERB': 24572, 'modu=NOUN': 34587}	326		4.113720202436315
{'izan=VERB': 441746, 'diktadura=NOUN': 1570}	324		4.699693467292478
{'izan=VERB': 441746, 'atentatu=NOUN': 2057}	304		4.115183685799717
{'aukeratu=VERB': 9997, 'hautagai=NOUN': 2850}	198		8.39280357302285
{'gauzatu=VERB': 4808, 'modu=NOUN': 34587}	116		4.9836289914641485
{'egin=VERB': 336957, 'eskaintza=NOUN': 1712}	505		5.777619270997343
{'aipatu=VERB': 18910, 'onarpen=NOUN': 1256}	7		3.7092003910682867
{'izan=VERB': 441746, 'kontsumitzaile=NOUN': 1165}	218		4.523549129605635
{'lotu=VERB': 20623, 'jabetza=NOUN': 2810}	27		4.377116579689063
{'utzi=VERB': 36537, 'nekazari=NOUN': 2990}	68		4.815070183825666
{'etorri=VERB': 26282, 'ezin=NOUN': 18039}	162		3.9358965192706985
{'erabaki=VERB': 14639, 'onartze=NOUN': 59}	0	invalide: coocc nulle dans Conllst	n_a
{'ukan=VERB': 395215, 'lokal=NOUN': 1343}	132		3.6053455508593455
{'egin=VERB': 336957, 'bihurrikeria=NOUN': 11}	5		6.7695128563334075
{'egin=VERB': 336957, 'politika=NOUN': 17079}	1732		3.89251477370377
{'amaitu=VERB': 20455, 'garai=NOUN': 41625}	321		4.0898202310688845
{'izan=VERB': 441746, 'ondorio=NOUN': 32415}	7333		4.891846127632869
{'izan=VERB': 441746, 'biktima=NOUN': 1896}	388		4.684633132065398
{'izan=VERB': 441746, 'eredu=NOUN': 10055}	1761		4.411962873017006
{'izan=VERB': 441746, 'sukurtsal=NOUN': 60}	2		1.7838988166252823
{'izan=VERB': 441746, 'komisario=NOUN': 661}	107		4.269947593153433
{'izan=VERB': 441746, 'aldeko=NOUN': 4713}	799		4.352108743274186
{'izan=VERB': 441746, 'merezi=NOUN': 1308}	322		5.0283983226036755
{'izan=VERB': 441746, 'lankide=NOUN': 1738}	387		4.839515531205591
{'izan=VERB': 441746, 'sarbide=NOUN': 2193}	282		3.8822338452095315
{'izan=VERB': 441746, 'pauso=NOUN': 1813}	360		4.63008358936124
{'izan=VERB': 441746, 'errekonozimendu=NOUN': 315}	65		4.698669106964693
{'izan=VERB': 441746}	0	invalide: mot absent Conllst	n_a_abs
{'izan=VERB': 441746, 'espazio=NOUN': 6772}	963		4.052339641032388
{'izan=VERB': 441746, 'kapitain=NOUN': 2589}	295		3.6837585083729145
{'izan=VERB': 441746, 'eraikin=NOUN': 19388}	1569		3.14150746944692
{'izan=VERB': 441746, 'bat=NOUN': 3544}	625		4.420369792280608
{'izan=VERB': 441746, 'filologo=NOUN': 389}	34		3.2577719514365273
{'izan=VERB': 441746, 'jai=NOUN': 7689}	963		3.8408806920263823
{'izan=VERB': 441746, 'elikagai=NOUN': 3690}	536		4.086747106982752
{'izan=VERB': 441746, 'islam=NOUN': 622}	91		4.097397096199289
{'izan=VERB': 441746, 'konderri=NOUN': 23576}	383		0.7229234180436759
{'sinatu=VERB': 6343, 'itun=NOUN': 4772}	997		11.089675468709974
{'galdu=VERB': 16818, 'indar=NOUN': 13344}	407		6.402024793841822
{'egon=VERB': 331830, 'zalantza=NOUN': 3005}	485		4.679389120611825
{'izan=VERB': 441746, 'eskumen=NOUN': 1107}	201		4.470214324910534
{'izan=VERB': 441746, 'diametro=NOUN': 1601}	185		3.706253507087783
{'jo=VERB': 21903, 'tiro=NOUN': 1574}	67		6.4889353327681905
{'ukan=VERB': 395215}	0	invalide: mot absent Conllst	n_a_abs
{'egin=VERB': 336957, 'huts=NOUN': 2001}	484		5.38645747664586
{'egin=VERB': 336957, 'higidura=NOUN': 549}	57		3.923145431583679
{'aurkeztu=VERB': 17933, 'errekurtso=NOUN': 553}	79		8.685808614341212
{'eskaini=VERB': 17925, 'kapazitate=NOUN': 209}	6		6.185154902027825
{'hartu=VERB': 114375, 'gida=NOUN': 1717}	85		4.329356767391994
{'gorde=VERB': 7369, 'euskara=NOUN': 40492}	64		3.2569950541208845
{'egin=VERB': 336957, 'geldialdi=NOUN': 597}	199		6.033378132558521
{'sortu=VERB': 90355, 'testu=NOUN': 11491}	457		4.345111516199004
{'sakondu=VERB': 540, 'alderdi=NOUN': 25960}	11		5.143647210301171
{'erabili=VERB': 88014, 'traineru=NOUN': 2168}	37		3.1220305275080937
{'atxilotu=VERB': 5522, 'manifestari=NOUN': 491}	47		9.736260561606294
{'ukan=VERB': 395215, 'erraztasun=NOUN': 637}	121		4.710530395728478
{'hartu=VERB': 114375, 'marka=NOUN': 3294}	118		3.842455648167176
{'egin=VERB': 336957, 'kutxa=NOUN': 1554}	218		4.417939564498764
{'ekarri=VERB': 15673, 'jokalari=NOUN': 7734}	32		3.5506682846833617
{'aukeratu=VERB': 9997, 'bide=NOUN': 26717}	168		4.827849418412458
{'ikertu=VERB': 3920}	0	invalide: mot absent Conllst	n_a_abs
{'ukan=VERB': 395215, 'leku=NOUN': 20668}	2372		3.863785141841484
{'aztertu=VERB': 14598, 'proiektu=NOUN': 16986}	166		4.914896548603696
{'aurkeztu=VERB': 17933, 'alternatiba=NOUN': 875}	38		6.806305603244155
{'transmititu=VERB': 1183, 'gertutasun=NOUN': 185}	0	invalide: coocc nulle dans Conllst	n_a
{'jarri=VERB': 39836, 'ikusgai=NOUN': 317}	4		3.823071678655992
{'egin=VERB': 336957, 'jasoaldi=NOUN': 37}	13		6.148058732825997
{'ikusi=VERB': 44866, 'gaztelu=NOUN': 8668}	120		3.790779128422071
{'kendu=VERB': 9203, 'grabazio=NOUN': 1092}	4		4.140006661774095
{'zapuztu=VERB': 493, 'jai=NOUN': 7689}	7		6.370006995575418
{'zabaldu=VERB': 19210, 'ate=NOUN': 7408}	507		7.437000965515761
{'ezarri=VERB': 20100, 'xedapen=NOUN': 310}	23		7.460129764388488
{'babestu=VERB': 8662, 'kide=NOUN': 23089}	73		4.02593142307488
{'egin=VERB': 336957, 'min=NOUN': 3499}	554		4.624590027124336
{'jaso=VERB': 33811, 'elektroi=NOUN': 1648}	8		2.6703870559189538
{'egon=VERB': 331830, 'toki=NOUN': 16208}	2953		4.901258825716671
{'lehenetsi=VERB': 307, 'jarrera=NOUN': 5906}	2		5.614588387144014
{'mugitu=VERB': 5396, 'konpartsa=NOUN': 249}	1		5.0431272708924055
{'iraun=VERB': 7907, 'ordu=NOUN': 11537}	274		7.13542489984265
{'landatu=VERB': 941, 'barietate=NOUN': 514}	10		9.876741639483312
{'zehaztu=VERB': 7003, 'pauta=NOUN': 15}	0	invalide: coocc nulle dans Conllst	n_a
{'handitu=VERB': 4641, 'ahalmen=NOUN': 3447}	39		6.7773781560669795
{'eskatu=VERB': 18771, 'erreforma=NOUN': 3055}	87		6.112883215082391
{'egin=VERB': 336957, 'plan=NOUN': 4224}	843		5.032294235464067
{'erregulatu=VERB': 590, 'jarduera=NOUN': 15173}	12		5.916690349374684
{'azpimarratu=VERB': 3115, 'behar=NOUN': 85233}	566		6.854161259860687
{'izan=VERB': 441746, 'baliokide=NOUN': 1715}	316		4.496506172362354
{'izan=VERB': 441746, 'solasaldi=NOUN': 935}	187		4.642484131191296
{'leporatu=VERB': 1909, 'zer=NOUN': 2234}	0	invalide: coocc nulle dans Conllst	n_a
{'eskuratu=VERB': 11349, 'tresna=NOUN': 9187}	36		3.9392482002015217
{'errepikatu=VERB': 2365, 'ezaugarri=NOUN': 20088}	35		5.046369138381552
{'atera=VERB': 21089, 'argazki=NOUN': 12427}	1151		7.81920210280328
{'musukatu=VERB': 70, 'ipurdi=NOUN': 239}	0	invalide: coocc nulle dans Conllst	n_a
{'errespetatu=VERB': 1837, 'aurkari=NOUN': 1933}	0	invalide: coocc nulle dans Conllst	n_a
{'ukan=VERB': 395215, 'esanahi=NOUN': 6257}	1062		4.515994612928423
{'baloratu=VERB': 878, 'osotasun=NOUN': 1246}	1		5.336367766254483
{'landare=NOUN': 7623}	0	invalide: mot absent Conllst	n_a_abs
{'eduki=VERB': 33582, 'aldagarri=NOUN': 85}	1		3.9670558307656263
{'eduki=VERB': 33582, 'ezagutza=NOUN': 2623}	58		4.895062032659564
{'agertu=VERB': 33179, 'alkaide=NOUN': 36}	0	invalide: coocc nulle dans Conllst	n_a
{'jo=VERB': 21903, 'ate=NOUN': 7408}	105		4.862794676949442
{'exekutatu=VERB': 1493, 'lagun=NOUN': 27466}	14		3.927055771269611
{'goratu=VERB': 94, 'abizen=NOUN': 1284}	0	invalide: coocc nulle dans Conllst	n_a
{'izan=VERB': 441746, 'duda=NOUN': 972}	205		4.738940275357186
{'izan=VERB': 441746, 'forma=NOUN': 9223}	1256		3.9807809730610524
{'ezagutu=VERB': 26604, 'atxiloketa=NOUN': 773}	1		1.1029724623183312
{'egin=VERB': 336957, 'erakustaldi=NOUN': 975}	289		5.786624666770026
{'astindu=VERB': 575, 'gogo=NOUN': 4682}	3		5.627837476237115
{'ukatu=VERB': 2251, 'kargu=NOUN': 7519}	16		5.395419866681854
{'moztu=VERB': 2368, 'errepide=NOUN': 9408}	69		7.147412169524312
{'ukan=VERB': 395215, 'konfiantza=NOUN': 1094}	202		4.660501800438302
{'pausu=NOUN': 400}	0	invalide: mot absent Conllst	n_a_abs
{'bete=VERB': 21104, 'funtzio=NOUN': 7871}	962		8.252443390491994
{'eman=VERB': 106345, 'itxura=NOUN': 8213}	831		5.556564561828538
{'jakin=VERB': 19559, 'katalan=NOUN': 1508}	14		4.402609350746373
{'onartu=VERB': 20621, 'arrisku=NOUN': 8860}	74		4.176553261523833
{'izan=VERB': 441746, 'igoera=NOUN': 2736}	439		4.255849707889182
{'harrapatu=VERB': 4322, 'berri=NOUN': 11544}	23		4.35652906188936
{'ukan=VERB': 395215, 'tarte=NOUN': 11015}	974		3.4401751563182494
{'eman=VERB': 106345, 'prentsaurreko=NOUN': 960}	178		6.563463583468825
{'izan=VERB': 441746, 'polaritate=NOUN': 90}	11		3.7975600756799412
{'egin=VERB': 336957, 'batuketa=NOUN': 574}	153		5.572892498396161
{'sinatu=VERB': 6343, 'agiri=NOUN': 3775}	102		7.6168514905402915
{'aurkeztu=VERB': 17933, 'sorta=NOUN': 1368}	37		6.0985397943125985
{'ezarri=VERB': 20100, 'jarraibide=NOUN': 507}	37		7.435417518365654
{'eskaini=VERB': 17925, 'sagardo=NOUN': 832}	15		5.498951436244171
{'eduki=VERB': 33582, 'harlandu=NOUN': 356}	20		6.28980042793941
{'ebaki=VERB': 702, 'zurtoin=NOUN': 631}	4		8.655325966642968
{'landatu=VERB': 941}	0	invalide: mot absent Conllst	n_a_abs
{'eman=VERB': 106345, 'borobil=NOUN': 101}	16		6.287164286224003
{'izan=VERB': 441746, 'jardun=NOUN': 1700}	309		4.472439117279216
{'ukan=VERB': 395215, 'inpresio=NOUN': 252}	28		3.8025548621495315
{'ukan=VERB': 395215, 'auto=NOUN': 4229}	373		3.4339573754161288
{'berritu=VERB': 2015, 'diseinu=NOUN': 3565}	9		5.798510327655021
{'atera=VERB': 21089, 'zilar=NOUN': 1266}	33		5.809224086875032
{'altxatu=VERB': 3053, 'beso=NOUN': 1512}	42		8.709420815985014
{'kontserbatu=VERB': 1127, 'arrain=NOUN': 3755}	4		5.388529065592588
{'izan=VERB': 441746, 'desafio=NOUN': 258}	54		4.724511809131025
{'hartu=VERB': 114375, 'kolpe=NOUN': 2267}	175		5.014071676102479
{'bermatu=VERB': 3130, 'babes=NOUN': 6861}	55		6.857128408100345
{'erraztu=VERB': 1823, 'eraso=NOUN': 9593}	4		3.33863634338077
{'bultzatu=VERB': 10188, 'indarkeria=NOUN': 1867}	26		5.937999883648132
{'sinatu=VERB': 6343, 'ebazpen=NOUN': 1210}	12		6.1250634533635955
{'eman=VERB': 106345, 'askari=NOUN': 60}	3		4.448451332867272
{'kendu=VERB': 9203, 'jabego=NOUN': 691}	14		6.633381571817154
{'luzatu=VERB': 4277, 'denbora=NOUN': 18277}	107		5.961095344602302
{'esleitu=VERB': 1134, 'lehentasun=NOUN': 1840}	3		5.993174201274646
{'askatu=VERB': 4306, 'haur=NOUN': 13692}	17		3.6765148537021615
{'lortu=VERB': 53482, 'saskiratze=NOUN': 19}	10		9.840237901038522
{'deskargatu=VERB': 943, 'harrapaketa=NOUN': 199}	0	invalide: coocc nulle dans Conllst	n_a
{'ukan=VERB': 395215, 'begitarte=NOUN': 20}	5		5.217508398594635
{'irabazi=VERB': 23412, 'txakur=NOUN': 1774}	2		1.0887306231002656
{'eduki=VERB': 33582, 'arku=NOUN': 2837}	83		5.310627003913151
{'bereganatu=VERB': 4768, 'baliabide=NOUN': 6238}	6		3.1568619030438123
{'proposatu=VERB': 6369, 'aldaketa=NOUN': 14423}	108		5.732200892050422
{'handitu=VERB': 4641, 'aurrekontu=NOUN': 2379}	23		6.5431165001070966
{'atzitu=VERB': 282, 'informazio=NOUN': 23936}	33		7.934218935126451
{'eskatu=VERB': 18771, 'azalpen=NOUN': 2615}	93		6.444484714244135
{'egin=VERB': 336957, 'kalte=NOUN': 5426}	1647		5.841430878202177
{'kontatu=VERB': 5934}	0	invalide: mot absent Conllst	n_a_abs
{'galdu=VERB': 16818, 'bizipoz=NOUN': 36}	0	invalide: coocc nulle dans Conllst	n_a
{'inplikatu=VERB': 437, 'gaitasun=NOUN': 5196}	0	invalide: coocc nulle dans Conllst	n_a
{'ohoratu=VERB': 175, 'jainko=NOUN': 8452}	11		8.453412230773647
{'garatu=VERB': 10906, 'herritartasun=NOUN': 421}	2		4.271354545150098
{'jo=VERB': 21903}	0	invalide: mot absent Conllst	n_a_abs
{'igarri=VERB': 302, 'ezinegon=NOUN': 222}	0	invalide: coocc nulle dans Conllst	n_a
{'erakutsi=VERB': 17077, 'gordeleku=NOUN': 300}	0	invalide: coocc nulle dans Conllst	n_a
{'sistematizatu=VERB': 87, 'erlazio=NOUN': 3538}	0	invalide: coocc nulle dans Conllst	n_a
{'jaso=VERB': 33811, 'ezezko=NOUN': 283}	11		5.721963976984708
{'burutu=VERB': 12250, 'ebaluazio=NOUN': 902}	3		3.5873752484252006
{'jokatu=VERB': 16575}	0	invalide: mot absent Conllst	n_a_abs
{'onartu=VERB': 20621, 'erreklamazio=NOUN': 284}	8		5.954939500454028
{'gorde=VERB': 7369, 'tradizio=NOUN': 4439}	41		5.810447153320831
{'piztu=VERB': 4692, 'metxero=NOUN': 20}	1		8.951123526715092
{'jan=VERB': 4262, 'arima=NOUN': 1402}	1		2.8855132490456215
{'agertu=VERB': 33179, 'larritasun=NOUN': 403}	22		6.26348939758429
{'hartu=VERB': 114375, 'jabetza=NOUN': 2810}	155		4.4949033210936715
{'moztu=VERB': 2368, 'lepo=NOUN': 1847}	82		9.808220673899722
{'ezeztatu=VERB': 606, 'laguntza=NOUN': 12795}	11		5.995364893168674
{'gainditu=VERB': 5724, 'fikzio=NOUN': 892}	4		5.1185155276388015
{'izan=VERB': 441746, 'altuera=NOUN': 3251}	330		3.4970269987208487
{'kargatu=VERB': 260, 'material=NOUN': 7962}	3		6.015697316232085
{'geratu=VERB': 17293, 'luze=NOUN': 3135}	9		2.877404248507573
{'zauritu=VERB': 2847, 'pertsona=NOUN': 78157}	318		6.155056903835309
{'adostu=VERB': 1491, 'jarrera=NOUN': 5906}	7		5.14055567726286
{'eman=VERB': 106345, 'fruitu=NOUN': 1773}	274		6.248307491457364
{'izan=VERB': 441746, 'mirari=NOUN': 466}	57		3.798992429071287
{'segitu=VERB': 2172, 'bidaia=NOUN': 6904}	3		3.144289271062551
{'entzun=VERB': 7153, 'zurrumurru=NOUN': 502}	23		8.214724574644242
{'bereganatu=VERB': 4768, 'txartel=NOUN': 2784}	1		1.7334397222533768
{'pasatu=VERB': 13126, 'orri=NOUN': 8913}	28		3.4078707710842755
{'jaso=VERB': 33811, 'urraketa=NOUN': 266}	17		6.477712231224843
{'landu=VERB': 9300, 'errepresio=NOUN': 1399}	4		3.7662870655335805
{'identifikatu=VERB': 3253, 'zergati=NOUN': 569}	0	invalide: coocc nulle dans Conllst	n_a
{'irakurri=VERB': 9728, 'mezu=NOUN': 4998}	159		7.242968107398552
{'aurkeztu=VERB': 17933, 'dimisio=NOUN': 860}	286		10.282559910841217
{'eguneratu=VERB': 1932}	0	invalide: mot absent Conllst	n_a_abs
{'azpimarratu=VERB': 3115, 'ze=NOUN': 477}	0	invalide: coocc nulle dans Conllst	n_a
{'igaro=VERB': 10269}	0	invalide: mot absent Conllst	n_a_abs
{'argitaratu=VERB': 25767, 'artikulu=NOUN': 38803}	733		5.084432057642354
{'aztertu=VERB': 14598, 'aukera=NOUN': 20709}	348		5.725479224168687
{'ukan=VERB': 395215, 'mota=NOUN': 20929}	2229		3.7420426849632573
{'onartu=VERB': 20621, 'hitzarmen=NOUN': 4490}	220		6.7997179343133896
{'irakatsi=VERB': 2606, 'bide=NOUN': 26717}	47		4.925025040854561
{'gogoratu=VERB': 2753, 'hizketaldi=NOUN': 157}	0	invalide: coocc nulle dans Conllst	n_a
{'egin=VERB': 336957, 'koska=NOUN': 170}	28		4.690253544973917
{'galdu=VERB': 16818, 'bizi=NOUN': 18038}	224		5.0629877981834355
{'ezarri=VERB': 20100, 'oreka=NOUN': 1727}	20		4.685939928676149
{'eduki=VERB': 33582, 'pasaporte=NOUN': 297}	6		4.759675235581622
{'kendu=VERB': 9203, 'koroa=NOUN': 2051}	16		5.238539633154943
{'aurkeztu=VERB': 17933, 'mozio=NOUN': 451}	152		10.300607822011372
{'jokatu=VERB': 16575, 'norgehiagoka=NOUN': 510}	73		8.802712649484825
{'ukan=VERB': 395215, 'formatu=NOUN': 1872}	153		3.313045280577201
{'eduki=VERB': 33582, 'prezio=NOUN': 3479}	33		3.654435814796624
{'sortu=VERB': 90355, 'giro=NOUN': 7394}	410		4.847617617010267
{'eman=VERB': 106345, 'agur=NOUN': 1318}	153		5.769688869912847
{'bizkortu=VERB': 209, 'erritmo=NOUN': 1981}	9		9.975355800944335
{'jasan=VERB': 8278, 'eraso=NOUN': 9593}	524		8.360701043092066
{'eman=VERB': 106345, 'ahalmen=NOUN': 3447}	344		5.527829249336377
{'eduki=VERB': 33582, 'hizkuntza=NOUN': 37357}	428		3.946835915922512
{'ikusi=VERB': 44866, 'lorpen=NOUN': 1265}	17		3.744003250820887
{'jaso=VERB': 33811, 'oniritzi=NOUN': 312}	40		7.585698799825901
{'egiaztatu=VERB': 2413, 'urritasun=NOUN': 343}	0	invalide: coocc nulle dans Conllst	n_a
{'galdu=VERB': 16818, 'toki=NOUN': 16208}	147		4.598076043639673
{'azpimarratu=VERB': 3115}	0	invalide: mot absent Conllst	n_a_abs
{'eskatu=VERB': 18771, 'zer=NOUN': 2234}	38		5.3487016617772065
{'odolustu=VERB': 39, '3=NOUN': 273}	0	invalide: coocc nulle dans Conllst	n_a
{'amaitu=VERB': 20455, 'partidu=NOUN': 2047}	76		6.383150638485239
{'egin=VERB': 336957, 'diosal=NOUN': 3}	1		6.0325301358527375
{'azaldu=VERB': 18098, 'hitz=NOUN': 41659}	427		4.692250199708348
{'argitaratu=VERB': 25767, 'ezaugarri=NOUN': 20088}	36		1.6219774022412166
{'egosi=VERB': 295, 'arrautza=NOUN': 1564}	13		10.356636220360867
{'ikusi=VERB': 44866, 'zer=NOUN': 2234}	61		4.7886235861169535
{'inbertitu=VERB': 493, 'pezeta=NOUN': 719}	1		6.964376286492368
{'eraman=VERB': 23824, 'partidu=NOUN': 2047}	13		3.5657259890730475
{'praktikatu=VERB': 26, 'mota=NOUN': 20929}	0	invalide: coocc nulle dans Conllst	n_a
{'jarri=VERB': 39836, 'euro=NOUN': 12879}	191		4.066131292736341
{'ukan=VERB': 395215, 'muga=NOUN': 26564}	1953		3.1540601379191178
{'bete=VERB': 21104, 'eskakizun=NOUN': 912}	125		8.383636994238081
{'aurkitu=VERB': 33240, 'bidezidor=NOUN': 211}	6		5.279840902985892
{'aurkitu=VERB': 33240, 'ezin=NOUN': 18039}	279		4.394035783752383
{'ospatu=VERB': 13916, 'egun=NOUN': 44402}	2276		7.677788916774654
{'eratu=VERB': 11440, 'mendi=NOUN': 23624}	156		4.699734817259971
{'ukan=VERB': 395215, 'tankera=NOUN': 594}	118		4.790708745402009
{'pasatu=VERB': 13126, 'urte=NOUN': 178240}	1647		5.163577688269278
{'zabaldu=VERB': 19210, 'muga=NOUN': 26564}	209		4.202513158693156
{'eman=VERB': 106345, 'pauso=NOUN': 1813}	577		7.605151624397174
{'eduki=VERB': 33582, 'ideia=NOUN': 8386}	157		4.654210227108775
{'ukan=VERB': 395215, 'adibide=NOUN': 6936}	676		3.593854928646354
{'deitoratu=VERB': 109, 'liskar=NOUN': 1068}	0	invalide: coocc nulle dans Conllst	n_a
{'aldendu=VERB': 1474, 'ideia=NOUN': 8386}	29		6.727088622870778
{'ukan=VERB': 395215, 'integral=NOUN': 362}	45		3.9861309909664318
{'agertu=VERB': 33179, 'iragarki=NOUN': 1595}	89		6.299850530749228
{'finkatu=VERB': 4167, 'sorrera=NOUN': 4519}	6		3.8171076901185694
{'eguneratu=VERB': 1932, 'ahal=NOUN': 21541}	38		5.3631873920242175
{'aldarrikatu=VERB': 6185, 'hauteskunde=NOUN': 13544}	53		4.820799629168908
{'eraman=VERB': 23824, 'berdintasun=NOUN': 1733}	6		2.685876304265929
{'kobratu=VERB': 679, 'pezeta=NOUN': 719}	10		9.861154702661045
{'izan=VERB': 441746, 'erruki=NOUN': 260}	41		4.224772132784976
{'gomendatu=VERB': 1455, 'izotz=NOUN': 1523}	0	invalide: coocc nulle dans Conllst	n_a
{'euskaratu=VERB': 279, 'autore=NOUN': 1564}	0	invalide: coocc nulle dans Conllst	n_a
{'eman=VERB': 106345, 'ultimatum=NOUN': 49}	8		6.338894676083624
{'baldintzatu=VERB': 896, 'bilakaera=NOUN': 5842}	26		7.824487399140066
{'aprobetxatu=VERB': 1465, 'egoera=NOUN': 20329}	81		6.994460808791875
{'debekatu=VERB': 3488, 'alderdi=NOUN': 25960}	128		6.023613582374557
{'galdetu=VERB': 2614, 'zer=NOUN': 2234}	55		8.765275626023966
{'erosi=VERB': 5857, 'blues=NOUN': 449}	0	invalide: coocc nulle dans Conllst	n_a
{'ike=NOUN': 34}	0	invalide: mot absent Conllst	n_a_abs
{'eman=VERB': 106345, 'baso=NOUN': 5252}	175		3.8401647507236167
{'eduki=VERB': 33582, 'proteina=NOUN': 89}	11		7.533832333761285
{'eduki=VERB': 33582, 'ahots=NOUN': 6173}	48		3.36586223721457
{'baretu=VERB': 489, 'kezka=NOUN': 2058}	2		6.46132831437844
{'aldatu=VERB': 69757, 'lege=NOUN': 15955}	455		4.2238635981601
{'igo=VERB': 8049, 'oihal=NOUN': 1064}	0	invalide: coocc nulle dans Conllst	n_a
{'azpimarratu=VERB': 3115, 'kontraesan=NOUN': 443}	8		8.028552708796727
{'esan=VERB': 57439, 'ordenagailu=NOUN': 3427}	78		4.162835828852981
{'igorri=VERB': 2287, 'elektroi=NOUN': 1648}	48		9.207198323748493
{'urratu=VERB': 827, 'literatura=NOUN': 12608}	1		2.0827954662713335
{'hartu=VERB': 114375, 'poz=NOUN': 833}	62		4.955710131417673
{'topatu=VERB': 4119, 'gorpu=NOUN': 1830}	35		7.718478563011411
{'entzun=VERB': 7153, 'kezka=NOUN': 2058}	8		4.590604335278672
{'hobetu=VERB': 5154, 'elkarbizitza=NOUN': 479}	5		6.497839116846306
{'sartu=VERB': 34768, 'gol=NOUN': 3705}	898		8.702768745501762
{'onartu=VERB': 20621, 'laguntza=NOUN': 12795}	219		5.234709417493637
{'ukan=VERB': 395215, 'pare=NOUN': 2360}	383		4.43595485658981
{'eskaini=VERB': 17925, 'lagin=NOUN': 1499}	4		2.719437534334682
{'hartu=VERB': 114375, 'baloi=NOUN': 923}	72		5.0291367619071545
{'ebaki=VERB': 702, 'zati=NOUN': 23628}	26		6.167669611265714
{'puztu=VERB': 174, 'hanka=NOUN': 2588}	4		8.649949534823033
{'eman=VERB': 106345, 'segurtasun=NOUN': 4564}	290		4.818815609739761
{'errespetatu=VERB': 1837}	0	invalide: mot absent Conllst	n_a_abs
{'aipatu=VERB': 18910, 'manifestazio=NOUN': 3693}	12		2.927865352215994
{'desjabetu=VERB': 499, 'etxalde=NOUN': 907}	0	invalide: coocc nulle dans Conllst	n_a
{'aplikatu=VERB': 3442, 'lan-baldintza=NOUN': 100}	0	invalide: coocc nulle dans Conllst	n_a
{'ipini=VERB': 3156, 'sistema=NOUN': 22851}	34		4.396117348143705
{'eman=VERB': 106345, 'proteina=NOUN': 89}	3		3.8550765923299153
{'finkatu=VERB': 4167, 'abiapuntu=NOUN': 1474}	6		5.437342500487844
{'askatu=VERB': 4306, 'elektroi=NOUN': 1648}	54		8.457256532296553
{'ukan=VERB': 395215, 'gizon=NOUN': 33430}	10106		5.633220369090667
{'aldatu=VERB': 69757, 'izaera=NOUN': 5288}	111		3.7634932131336583
{'sortu=VERB': 90355, 'polemika=NOUN': 545}	124		7.1699151586732155
{'izan=VERB': 441746, 'sari=NOUN': 14140}	1085		3.0565856225111907
{'banatu=VERB': 19859, 'sari=NOUN': 14140}	375		5.9467583537145305
{'egin=VERB': 336957, 'boikot=NOUN': 369}	160		6.647780026286285
{'leporatu=VERB': 1909, 'delitu=NOUN': 855}	74		11.153441105411053
{'ekarri=VERB': 15673, 'dokumentu=NOUN': 3333}	7		2.567164051390996
{'izan=VERB': 441746, 'aukeraketa=NOUN': 732}	113		4.188625736239348
{'erabili=VERB': 88014, 'kilo=NOUN': 1194}	43		4.227583070873868
{'izen=NOUN': 95273}	0	invalide: mot absent Conllst	n_a_abs
{'itxi=VERB': 5726, 'epai=NOUN': 1127}	6		5.367323331904637
{'aurkeztu=VERB': 17933, 'proposamen=NOUN': 4923}	408		7.829519071472586
{'aldatu=VERB': 69757}	0	invalide: mot absent Conllst	n_a_abs
{'praktikatu=VERB': 26, 'eraikin=NOUN': 19388}	0	invalide: coocc nulle dans Conllst	n_a
{'eraman=VERB': 23824, 'zuzendaritza=NOUN': 3456}	50		4.767627257571172
{'itzuli=VERB': 18345, 'oda=NOUN': 207}	0	invalide: coocc nulle dans Conllst	n_a
{'hobetu=VERB': 5154, 'ingurumen=NOUN': 2639}	50		7.382995151764403
{'erregistratu=VERB': 1220, 'datu=NOUN': 14779}	49		6.969445499345441
{'azaldu=VERB': 18098, 'iritzi=NOUN': 7027}	197		6.151360219657527
{'egon=VERB': 331830, 'maitasun=NOUN': 2816}	180		3.1831472666641756
{'ukan=VERB': 395215, 'zer=NOUN': 2234}	379		4.512687381344652
{'ugaldu=VERB': 1285, 'eraso=NOUN': 9593}	2		2.8419598410633005
{'eskatu=VERB': 18771, 'konpromiso=NOUN': 1878}	103		7.099348291594327
{'eman=VERB': 106345, 'unibertsitate=NOUN': 20075}	1093		4.592976002666797
{'eskuratu=VERB': 11349, 'kopa=NOUN': 9190}	390		7.478944791909074
{'landu=VERB': 9300, 'gihar=NOUN': 692}	10		6.121568110247834
{'bahitu=VERB': 1494, 'lagun=NOUN': 27466}	45		5.6427484780214225
{'hartu=VERB': 114375, 'susto=NOUN': 34}	9		7.11750094749969
{'bildu=VERB': 22769, 'sagar=NOUN': 711}	28		6.313335903983798
{'euskonews=NOUN': 70}	0	invalide: mot absent Conllst	n_a_abs
{'ukan=VERB': 395215, 'zabalera=NOUN': 2116}	948		6.504836078770879
{'lortu=VERB': 53482, 'hondamen=NOUN': 550}	3		2.177611435201819
{'galdu=VERB': 16818, 'emankortasun=NOUN': 296}	10		6.519927137090586
{'jokatu=VERB': 16575, 'jaialdi=NOUN': 4405}	19		3.5289017091943604
{'ekarri=VERB': 15673, 'ezpata-dantza=NOUN': 199}	0	invalide: coocc nulle dans Conllst	n_a
{'ezkutatu=VERB': 2319, 'langile=NOUN': 10774}	6		3.409681081129308
{'izan=VERB': 441746, 'seme=NOUN': 17971}	3774		4.74283193666881
{'mastekatu=VERB': 49, 'erregaliz=NOUN': 11}	0	invalide: coocc nulle dans Conllst	n_a
{'aurkeztu=VERB': 17933, 'dantza=NOUN': 9807}	117		4.90192875214783
{'izan=VERB': 441746, 'emanaldi=NOUN': 3386}	592		4.4051450453305945
{'jarri=VERB': 39836, 'karikatura=NOUN': 167}	0	invalide: coocc nulle dans Conllst	n_a
{'nabaritu=VERB': 587, 'hutsune=NOUN': 1050}	8		9.192171725386913
{'lortu=VERB': 53482}	0	invalide: mot absent Conllst	n_a_abs
{'egin=VERB': 336957, 'soinu=NOUN': 4923}	614		4.224114580491593
{'aztertu=VERB': 14598, 'mugikortasun=NOUN': 834}	27		6.66238119279547
{'biztu=VERB': 21, 'sen=NOUN': 729}	3		13.305942586937752
{'taularatu=VERB': 222}	0	invalide: mot absent Conllst	n_a_abs
{'laburbildu=VERB': 798, 'teoria=NOUN': 5973}	6		5.807546644741306
{'atxilotu=VERB': 5522, 'errefuxiatu=NOUN': 688}	8		6.556456337506767
{'erabili=VERB': 88014, 'euro=NOUN': 12879}	217		3.1061803542269715
{'gustatu=VERB': 2243, 'egun=NOUN': 44402}	26		3.5432854788030923
{'jarri=VERB': 39836, 'epe=NOUN': 5586}	142		4.857393262768643
{'onartu=VERB': 20621, 'kreditu=NOUN': 809}	9		4.5896027601692175
{'hartu=VERB': 114375, 'maleta=NOUN': 284}	28		5.399026757476875
{'egin=VERB': 336957, 'lasterketa=NOUN': 4934}	616		4.225804709642743
{'erabili=VERB': 88014, 'koipe=NOUN': 372}	31		5.510362033092649
{'jaso=VERB': 33811, 'txapel=NOUN': 1062}	24		4.915921961404642
{'deklaratu=VERB': 964}	0	invalide: mot absent Conllst	n_a_abs
{'eduki=VERB': 33582, 'kanon=NOUN': 155}	3		4.696494166673137
{'onartu=VERB': 20621, 'uztarketa=NOUN': 60}	0	invalide: coocc nulle dans Conllst	n_a
{'lurperatu=VERB': 1603, 'hilotz=NOUN': 201}	9		10.341257412385344
{'nozitu=VERB': 381, 'gabezia=NOUN': 844}	5		9.44954306842456
{'egin=VERB': 336957}	0	invalide: mot absent Conllst	n_a_abs
{'elkartu=VERB': 7031}	0	invalide: mot absent Conllst	n_a_abs
{'besarkatu=VERB': 201, 'gorpu=NOUN': 1830}	0	invalide: coocc nulle dans Conllst	n_a
{'egin=VERB': 336957, 'eztabaida=NOUN': 6535}	953		4.486377938218954
{'sortu=VERB': 90355, 'bilduma=NOUN': 6564}	185		3.8266378218273474
{'bikoiztu=VERB': 805, 'irabazi=NOUN': 1366}	2		6.331846719113173
{'gogoraraz=VERB': 611, 'garai=NOUN': 41625}	28		5.670541810855348
{'jokatu=VERB': 16575, 'sektore=NOUN': 4580}	2		0.21768191956469984
{'ukan=VERB': 395215, 'hitz=NOUN': 41659}	6235		4.319128710400958
{'debekatu=VERB': 3488, 'kamiseta=NOUN': 452}	1		4.809976553622574
{'kritikatu=VERB': 1684, 'jarrera=NOUN': 5906}	92		8.776352805031786
{'ukan=VERB': 395215, 'parte-hartze=NOUN': 1146}	153		4.104749202526888
{'murriztu=VERB': 4440, 'parte-hartze=NOUN': 1146}	1		3.11757994934526
{'bota=VERB': 7133, 'kide=NOUN': 23089}	98		4.740324364249859
{'zabaldu=VERB': 19210, 'kongresu=NOUN': 2792}	12		3.310155756830156
{'zehaztu=VERB': 7003}	0	invalide: mot absent Conllst	n_a_abs
{'aukeratu=VERB': 9997, 'txirula=NOUN': 440}	0	invalide: coocc nulle dans Conllst	n_a
{'lortu=VERB': 53482, 'efektu=NOUN': 3069}	164		5.545625337612126
{'prestatu=VERB': 7856, 'sistema=NOUN': 22851}	65		4.013645772807667
{'ukan=VERB': 395215, 'zapata=NOUN': 387}	36		3.5171818488966524
{'azpimarratu=VERB': 3115, 'kontzeptu=NOUN': 5747}	32		6.324073868445644
{'eman=VERB': 106345, 'tratamendu=NOUN': 3192}	246		5.117652082835381
{'jakinaraz=VERB': 2445, 'berezitasun=NOUN': 1053}	2		5.102745723425224
{'egin=VERB': 336957, 'jaramon=NOUN': 153}	151		13.271577251149472
{'azpimarratu=VERB': 3115, 'prozesu=NOUN': 14744}	42		5.357891390541305
{'sartu=VERB': 34768, 'produktu=NOUN': 10882}	165		4.294830049188866
{'sartu=VERB': 34768, 'bonbilla=NOUN': 84}	0	invalide: coocc nulle dans Conllst	n_a
{'azpimarratu=VERB': 3115, 'berezitasun=NOUN': 1053}	13		7.473819759731206
{'gorde=VERB': 7369}	0	invalide: mot absent Conllst	n_a_abs
{'hartu=VERB': 114375, 'opor=NOUN': 945}	111		5.6832317042826075
{'galdu=VERB': 16818, 'lo=NOUN': 1968}	12		4.00931390262792
{'bete=VERB': 21104, 'lan=NOUN': 110467}	1005		4.332803912347814
{'antolatu=VERB': 20148, 'erakusketa=NOUN': 8765}	689		7.595515851699721
{'haustu=VERB': 229, 'harresi=NOUN': 3555}	0	invalide: coocc nulle dans Conllst	n_a
{'aurkeztu=VERB': 17933, 'liburu=NOUN': 28306}	530		5.595979737953682
{'hartu=VERB': 114375, 'gaixotasun=NOUN': 6146}	241		3.9795297152129825
{'jaso=VERB': 33811, 'dokumentu=NOUN': 3333}	112		5.5083746419499064
{'aurkitu=VERB': 33240, 'ontzi=NOUN': 6026}	152		5.108510318458459
{'lehortu=VERB': 317, 'eztarri=NOUN': 266}	1		9.041101528026994
{'pasatu=VERB': 13126, 'abisu=NOUN': 497}	15		6.710241978732567
{'aztertu=VERB': 14598, 'maila=NOUN': 36737}	245		4.3670114692581645
{'eduki=VERB': 33582, 'mekanismo=NOUN': 1415}	21		4.307535319349043
{'ordaindu=VERB': 5742, 'bidaia=NOUN': 6904}	118		7.091647281232988
{'lortu=VERB': 53482, 'informazio=NOUN': 23936}	667		4.581492078475004
{'ukan=VERB': 395215, 'metro=NOUN': 20731}	3941		4.725942528613052
{'eman=VERB': 106345, 'gomendio=NOUN': 898}	167		6.568582175936857
{'ukan=VERB': 395215, 'atzerapen=NOUN': 452}	70		4.354562387104296
{'atera=VERB': 21089, 'eredu=NOUN': 10055}	77		4.018056543186422
{'aitortu=VERB': 2598, 'legedi=NOUN': 654}	5		7.0341777616895875
{'ikusi=VERB': 44866, 'sustrai=NOUN': 1376}	8		2.5238006321148676
{'ukan=VERB': 395215, 'erreserba=NOUN': 1957}	217		3.7999246444400057
{'eman=VERB': 106345, 'arrazoi=NOUN': 8529}	646		5.095989919016677
{'jarri=VERB': 39836, 'gogo=NOUN': 4682}	138		5.076729457692179
{'esan=VERB': 57439, 'itun=NOUN': 4772}	101		4.056222616075927
{'izan=VERB': 441746, 'sostengu=NOUN': 811}	158		4.595230949934695
{'erabili=VERB': 88014, 'lagin=NOUN': 1499}	110		5.31261846012207
{'ukan=VERB': 395215, 'orientatzaile=NOUN': 91}	3		1.9279944805145994
{'ukan=VERB': 395215, 'sydney=NOUN': 11}	0	invalide: coocc nulle dans Conllst	n_a
{'gainditu=VERB': 5724, 'muga=NOUN': 26564}	384		6.920891822968296
{'ukan=VERB': 395215, 'gidabaimen=NOUN': 58}	9		4.357700658523838
{'hitzartu=VERB': 661, 'komunikatu=NOUN': 496}	0	invalide: coocc nulle dans Conllst	n_a
{'handitu=VERB': 4641}	0	invalide: mot absent Conllst	n_a_abs
{'sartu=VERB': 34768, 'errespetu=NOUN': 1026}	10		3.6429167833768927
{'hautsi=VERB': 2661, 'itun=NOUN': 4772}	35		6.955604685125346
{'galdu=VERB': 16818, 'ordezkaritza=NOUN': 1769}	23		5.112710762960371
{'ukan=VERB': 395215, 'kotizazio=NOUN': 134}	24		4.606143046763052
{'eskatu=VERB': 18771, 'debeku=NOUN': 911}	35		6.555701422497236
{'jokatu=VERB': 16575, 'paper=NOUN': 5587}	547		8.22261303562914
{'izan=VERB': 441746, 'irabazi=NOUN': 1366}	238		4.397917182790602
{'saldu=VERB': 5593, 'akzio=NOUN': 912}	67		9.305992638130393
{'ukan=VERB': 395215, 'ahots=NOUN': 6173}	363		2.8032816430169003
{'arautu=VERB': 870, 'babes=NOUN': 6861}	1		2.8875255977800847
{'handitu=VERB': 4641, 'azidotasun=NOUN': 144}	5		8.419052996812043
{'atxilotu=VERB': 5522, 'jeneral=NOUN': 4926}	19		4.956030169700656
{'izan=VERB': 441746, 'askatasun=NOUN': 5104}	819		4.257190681308938
{'landu=VERB': 9300, 'blues=NOUN': 449}	4		5.41467494639637
{'eratu=VERB': 11440, 'laukote=NOUN': 367}	1		3.3973576709233457
{'ukan=VERB': 395215, 'erlazio=NOUN': 3538}	565		4.408919911387795
{'ukan=VERB': 395215, 'oinarri=NOUN': 8276}	1448		4.570346685332092
{'aldatu=VERB': 69757, 'eskema=NOUN': 1010}	23		3.881811889525083
{'ukatu=VERB': 2251, 'lurraldetasun=NOUN': 96}	0	invalide: coocc nulle dans Conllst	n_a
{'kargatu=VERB': 260, 'kamioi=NOUN': 675}	0	invalide: coocc nulle dans Conllst	n_a
{'atera=VERB': 21089, 'segundo=NOUN': 2267}	105		6.6738234433211465
{'bildu=VERB': 22769, 'lagin=NOUN': 1499}	42		5.806143448126395
{'argitu=VERB': 2114, 'bide=NOUN': 26717}	45		5.168827603137908
{'bota=VERB': 7133, 'akusazio=NOUN': 362}	7		6.931533765186919
{'hartu=VERB': 114375, 'iniziatiba=NOUN': 157}	27		6.3241789077936135
{'ebatzi=VERB': 587, 'zer=NOUN': 2234}	0	invalide: coocc nulle dans Conllst	n_a
{'galdu=VERB': 16818, 'lan=NOUN': 110467}	502		3.6255897020018324
{'gidatu=VERB': 2721, 'elkartruke=NOUN': 232}	0	invalide: coocc nulle dans Conllst	n_a
{'zeharkatu=VERB': 8420, 'diodo=NOUN': 191}	15		8.80515769850235
{'galdu=VERB': 16818, 'ezkata=NOUN': 285}	3		4.802680815563077
{'jasan=VERB': 8278, 'izurri=NOUN': 468}	15		7.465804228791364
{'eraman=VERB': 23824, 'hondakin=NOUN': 5138}	118		5.450937594479539
{'elkarrizketatu=VERB': 591, 'buru=NOUN': 26631}	10		4.833987421449298
{'aukeratu=VERB': 9997, 'kasete=NOUN': 98}	0	invalide: coocc nulle dans Conllst	n_a
{'azaldu=VERB': 18098, 'transistore=NOUN': 274}	0	invalide: coocc nulle dans Conllst	n_a
{'erantsi=VERB': 1868, 'aldaketa=NOUN': 14423}	28		5.543315528317091
{'ulertu=VERB': 7274, 'multzo=NOUN': 14226}	46		4.307342078720194
{'ukan=VERB': 395215, 'ondorengo=NOUN': 2609}	194		3.165266368188214
{'eman=VERB': 106345, '30=NOUN': 2450}	38		2.708767075583875
{'zauritu=VERB': 2847, 'enbaxadore=NOUN': 835}	1		4.216107305683513
{'ordaindu=VERB': 5742, 'kalte-ordain=NOUN': 170}	28		10.57205330727121
{'hautsi=VERB': 2661, 'lasaitasun=NOUN': 531}	1		4.9676717458155455
{'eman=VERB': 106345, 'ezuste=NOUN': 139}	29		6.773352901580878
{'landu=VERB': 9300, 'alor=NOUN': 3854}	127		7.356438484293816
{'tirokatu=VERB': 365, 'bahitzaile=NOUN': 81}	3		12.194445220430362
{'ukan=VERB': 395215, 'joko=NOUN': 12691}	1382		3.774864505204964
{'erakutsi=VERB': 17077, 'emaitza=NOUN': 14258}	268		5.651765396108969
{'ezagutu=VERB': 26604, 'eskola=NOUN': 17685}	184		4.133800196609138
{'biribildu=VERB': 185, 'lan=NOUN': 110467}	7		3.9731878097874405
{'segitu=VERB': 2172, 'joko=NOUN': 12691}	9		3.8553432156294156
{'eduki=VERB': 33582, 'v=NOUN': 2414}	8		2.1272530892399595
{'altxatu=VERB': 3053, 'ahots=NOUN': 6173}	34		6.3385506708890365
{'hasi=VERB': 60376, 'elkarrizketa=NOUN': 6457}	210		4.623367703556349
{'izan=VERB': 441746, 'parada=NOUN': 400}	207		6.743579398418736
{'ukan=VERB': 395215, 'bilera=NOUN': 3041}	254		3.347567547936772
{'eduki=VERB': 33582, 'opor=NOUN': 945}	9		3.6592772695183644
{'lortu=VERB': 53482, 'aldaketa=NOUN': 14423}	267		3.966755368058835
{'egin=VERB': 336957, 'kontserba=NOUN': 187}	26		4.402160018680273
{'sortu=VERB': 90355, 'bulego=NOUN': 6049}	97		2.9937176665272114
{'defenditu=VERB': 480, 'politika=NOUN': 17079}	7		5.257044913548444
{'baretu=VERB': 489}	0	invalide: mot absent Conllst	n_a_abs
{'nabarmendu=VERB': 6894, 'puntu=NOUN': 13707}	55		4.699696166054464
{'eskuratu=VERB': 11349, 'jakintza=NOUN': 1228}	51		7.402477777252326
{'saritu=VERB': 907, 'enpresa=NOUN': 27872}	1		0.8048864393847828
{'jaso=VERB': 33811, '%100=NOUN': 49}	0	invalide: coocc nulle dans Conllst	n_a
{'eskatu=VERB': 18771, 'dimisio=NOUN': 860}	106		8.376182678758761
{'erabili=VERB': 88014}	0	invalide: mot absent Conllst	n_a_abs
{'argitaratu=VERB': 25767, 'argazki=NOUN': 12427}	172		4.596338330723812
{'izan=VERB': 441746, 'asti=NOUN': 292}	102		5.744776173114642
{'jaso=VERB': 33811, 'onarpen=NOUN': 1256}	89		6.640472928520917
{'finkatu=VERB': 4167, 'prezio=NOUN': 3479}	50		7.2876370931724805
{'iraun=VERB': 7907, 'denbora=NOUN': 18277}	355		6.854318967652915
{'sortu=VERB': 90355, 'informazio=NOUN': 23936}	559		3.554269559581509
{'ukan=VERB': 395215, 'susmo=NOUN': 596}	141		5.112796063509136
{'eraman=VERB': 23824, 'erdi=NOUN': 16915}	170		4.242882456098821
{'irabazi=VERB': 23412, 'torneo=NOUN': 416}	65		8.450821857767055
{'eduki=VERB': 33582, 'beldur=NOUN': 2672}	44		4.460903846409795
{'atxilotu=VERB': 5522, 'holandar=NOUN': 230}	0	invalide: coocc nulle dans Conllst	n_a
{'nabarmendu=VERB': 6894, 'kalitate=NOUN': 4689}	45		5.963754020172909
{'erabili=VERB': 88014, 'eskularru=NOUN': 195}	39		6.969924837130271
{'erakutsi=VERB': 17077, 'asmo=NOUN': 13066}	250		5.676366309505095
{'egin=VERB': 336957, 'ilusio=NOUN': 788}	161		5.071810592373243
{'finantzatu=VERB': 417, 'euro=NOUN': 12879}	19		7.355430696339287
{'haztatu=VERB': 136, 'saio=NOUN': 10695}	0	invalide: coocc nulle dans Conllst	n_a
{'hartu=VERB': 114375, 'lata=NOUN': 106}	12		5.621843629531288
{'ukan=VERB': 395215, 'eskubide=NOUN': 13613}	2305		4.516386332233277
{'egin=VERB': 336957}	0	invalide: mot absent Conllst	n_a_abs
{'eduki=VERB': 33582, 'arrazoi=NOUN': 8529}	121		4.245854167679052
{'antolatu=VERB': 20148, 'protesta=NOUN': 3099}	99		6.182098000780708
{'azaldu=VERB': 18098, 'abantaila=NOUN': 2003}	27		5.059862373452006
{'ordezkatu=VERB': 4664, 'ordezkari=NOUN': 6610}	46		6.064880800423844
{'bermatu=VERB': 3130, 'kalte-ordain=NOUN': 170}	2		7.3913886055685465
{'ukan=VERB': 395215, 'errekor=NOUN': 675}	68		3.6446110311037163
{'sartu=VERB': 34768, 'galdera=NOUN': 3945}	31		3.3303135522605856
{'altxatu=VERB': 3053, 'ohol=NOUN': 301}	0	invalide: coocc nulle dans Conllst	n_a
{'aldatu=VERB': 69757}	0	invalide: mot absent Conllst	n_a_abs
{'igo=VERB': 8049, 'puntu=NOUN': 13707}	54		4.447805637761087
{'ukan=VERB': 395215, 'esperantza=NOUN': 529}	80		4.314101169325778
{'finkatu=VERB': 4167, 'aztura=NOUN': 16}	0	invalide: coocc nulle dans Conllst	n_a
{'izan=VERB': 441746, 'adostasun=NOUN': 1082}	216		4.639243172738217
{'ukan=VERB': 395215, 'arroila=NOUN': 50}	12		5.139531439981999
{'kolonizatu=VERB': 427, 'herri=NOUN': 119464}	19		4.104246059236265
{'gogoratu=VERB': 2753}	0	invalide: mot absent Conllst	n_a_abs
{'ezabatu=VERB': 2741, 'bakterio=NOUN': 2715}	6		5.1588235304938825
{'eraman=VERB': 23824, 'janari=NOUN': 2219}	66		5.830866569245612
{'agindu=VERB': 6472, 'ilegalizazio=NOUN': 91}	0	invalide: coocc nulle dans Conllst	n_a
{'salatu=VERB': 7124, 'buru=NOUN': 26631}	80		4.238001148358972
{'astindu=VERB': 575, 'jende=NOUN': 13510}	7		5.331346278100874
{'eten=VERB': 766, 'negoziazio=NOUN': 1113}	11		9.187921101508358
{'ukan=VERB': 395215, 'traba=NOUN': 304}	51		4.4920705971472605
{'mugitu=VERB': 5396, 'betile=NOUN': 15}	0	invalide: coocc nulle dans Conllst	n_a
{'esan=VERB': 57439, 'lelokeria=NOUN': 14}	3		7.710594048754869
{'ukan=VERB': 395215, 'hotz=NOUN': 1582}	193		3.9557835008171907
{'aurkitu=VERB': 33240, 'zentzu=NOUN': 3197}	50		4.400364543165297
{'egin=VERB': 336957, 'irrintzi=NOUN': 65}	13		5.032581515406062
{'aurkeztu=VERB': 17933, 'antzezlan=NOUN': 1611}	38		5.896086460378811
{'jarraitu=VERB': 25912, 'alkaide=NOUN': 36}	0	invalide: coocc nulle dans Conllst	n_a
{'erabili=VERB': 88014, 'pertsona=NOUN': 78157}	1259		3.0574756501564777
{'eraman=VERB': 23824, 'elastiko=NOUN': 369}	24		7.010566821627616
{'eten=VERB': 766, 'zenbaketa=NOUN': 215}	0	invalide: coocc nulle dans Conllst	n_a
{'onartu=VERB': 20621, 'sorrera=NOUN': 4519}	66		4.991361297118909
{'ukan=VERB': 395215, 'entsegu=NOUN': 572}	38		2.989822951009656
{'ukan=VERB': 395215, 'aulki=NOUN': 1218}	99		3.304176381699028
{'izan=VERB': 441746, 'ausardia=NOUN': 51}	13		5.094427941880113
{'egin=VERB': 336957, 'meritu=NOUN': 452}	109		5.3791121763232415
{'ezarri=VERB': 20100, 'lerro=NOUN': 4904}	49		4.472798520163111
{'identifikatu=VERB': 3253, 'hitz=NOUN': 41659}	57		4.241203880304365
{'egin=VERB': 336957, 'banaketa=NOUN': 42956}	847		1.4005340494687486
{'areagotu=VERB': 3162, 'mugikortasun=NOUN': 834}	24		8.70228559163573
{'erabili=VERB': 88014, 'aparailu=NOUN': 168}	23		6.313315344299408
{'bultzatu=VERB': 10188, 'proposamen=NOUN': 4923}	49		5.450922386789391
{'sentitu=VERB': 3153, 'gogo=NOUN': 4682}	47		7.170123939432102
{'eduki=VERB': 33582, 'titulazio=NOUN': 197}	1		2.744663409429178
{'jo=VERB': 21903, 'aurrealde=NOUN': 1584}	7		3.160739083556797
{'ukan=VERB': 395215, 'jardunaldi=NOUN': 3110}	147		2.469818790488207
{'ukan=VERB': 395215, 'erru=NOUN': 1182}	113		3.560998026679272
{'hitzartu=VERB': 661, 'zuzenketa=NOUN': 1066}	3		7.5638236711094695
{'ukan=VERB': 395215, 'ekipo=NOUN': 862}	119		4.160486473617892
{'utzi=VERB': 36537, 'tenislari=NOUN': 497}	7		4.108653675460312
{'ekarri=VERB': 15673, 'onura=NOUN': 863}	180		9.551513245507342
{'piztu=VERB': 4692, 'zinta=NOUN': 510}	1		4.207529194082983
{'ukan=VERB': 395215, 'luzera=NOUN': 4370}	1829		6.3348034356708665
{'ekarri=VERB': 15673, 'arnasbide=NOUN': 123}	3		6.137085171407354
{'dokumentatu=VERB': 559, 'kritika=NOUN': 3371}	0	invalide: coocc nulle dans Conllst	n_a
{'eboluzionatu=VERB': 375, '14=NOUN': 215}	0	invalide: coocc nulle dans Conllst	n_a
{}	0	invalide: mot absent Conllst	n_a_abs
{'adierazi=VERB': 22003, 'egile=NOUN': 7713}	116		4.943711114098608
{'erakutsi=VERB': 17077, 'errealitate=NOUN': 3273}	105		6.428750759950436
{'sortu=VERB': 90355, 'matrize=NOUN': 769}	27		4.151457305984078
{'debekatu=VERB': 3488, 'klonazio=NOUN': 182}	1		6.12711428979475
{'egin=VERB': 336957, 'txapelketa=NOUN': 20112}	1058		2.866380489217775
{'hil=VERB': 37326, 'zuberera=NOUN': 166}	2		3.849362833889998
{'ukan=VERB': 395215, 'abantaila=NOUN': 2003}	398		4.792173279168077
{'bete=VERB': 21104, 'upel=NOUN': 155}	5		6.122953227357077
{'irauli=VERB': 446, 'mito=NOUN': 1419}	0	invalide: coocc nulle dans Conllst	n_a
{'ikusi=VERB': 44866, 'gizon=NOUN': 33430}	313		3.226230345811092
{'eman=VERB': 106345, 'zorion=NOUN': 630}	91		6.131226375210971
{'barneratu=VERB': 1817, 'arima=NOUN': 1402}	4		6.121418970535065
{'egin=VERB': 336957, 'garbiketa=NOUN': 616}	178		5.734234541246511
{'eskaini=VERB': 17925, 'emanaldi=NOUN': 3386}	436		8.542255731696176
{'eskatu=VERB': 18771, 'absoluzio=NOUN': 125}	43		10.27053435662666
{'jarri=VERB': 39836}	0	invalide: mot absent Conllst	n_a_abs
{'santa=NOUN': 9158}	0	invalide: mot absent Conllst	n_a_abs
{'plaza=NOUN': 18912}	0	invalide: mot absent Conllst	n_a_abs
{'bereizi=VERB': 6464, 'osagai=NOUN': 5597}	66		6.3623950411815136
{'murriztu=VERB': 4440, 'aukera=NOUN': 20709}	117		5.8574820861214585
{'eskatu=VERB': 18771, 'joko=NOUN': 12691}	61		3.509379206414484
{'galdu=VERB': 16818, 'dordoka=NOUN': 54}	0	invalide: coocc nulle dans Conllst	n_a
{'atera=VERB': 21089, 'disko=NOUN': 10648}	479		6.655665593113606
{'galdu=VERB': 16818, 'sinesgarritasun=NOUN': 232}	32		8.715903770408108
{'eraman=VERB': 23824, 'urtebete=NOUN': 2530}	31		4.523542381355555
{'kendu=VERB': 9203, 'garrantzi=NOUN': 9191}	88		5.54800913802294
{'utzi=VERB': 36537, 'sentsazio=NOUN': 684}	40		6.230251781433217
{'zabaldu=VERB': 19210, 'liburu=NOUN': 28306}	181		3.8990991093047143
{'iritzi=VERB': 3706}	0	invalide: mot absent Conllst	n_a_abs
{'eratu=VERB': 11440, 'fondo=NOUN': 332}	4		5.555883916405477
{'eman=VERB': 106345, 'sendotasun=NOUN': 352}	45		5.926707005308326
{'sustatu=VERB': 5683, 'mendeku=NOUN': 964}	2		4.012908554242927
{'ukan=VERB': 395215, 'metionina=NOUN': 12}	1		3.343024678945339
{'banatu=VERB': 19859, 'bono=NOUN': 143}	0	invalide: coocc nulle dans Conllst	n_a
{'antolatu=VERB': 20148, 'bilera=NOUN': 3041}	154		6.87888246801066
{'markatu=VERB': 1922, 'bide=NOUN': 26717}	81		6.1872170923722205
{'irudikatu=VERB': 6404, 'aldaketa=NOUN': 14423}	40		4.268863796781657
{'bete=VERB': 21104, 'proposamen=NOUN': 4923}	61		4.717081208205407
{'zauritu=VERB': 2847, 'presidente=NOUN': 11361}	6		3.0364701245920243
{'eman=VERB': 106345, 'legitimitate=NOUN': 119}	23		6.6352496583493314
{'utzi=VERB': 36537, 'hilotz=NOUN': 201}	3		4.193384607970472
{'erabili=VERB': 88014, 'era=NOUN': 16804}	1056		5.088212808979682
{'eskuratu=VERB': 11349, 'agiri=NOUN': 3775}	52		5.769268557988746
{'topatu=VERB': 4119, 'itsasontzi=NOUN': 3708}	25		6.192625946506235
{'jan=VERB': 4262, 'aza=NOUN': 169}	7		8.807292328254313
{'ikusi=VERB': 44866, 'artikulu=NOUN': 38803}	2750		6.320034235762947
{'izan=VERB': 441746, 'arazo=NOUN': 15949}	4400		5.264122743616499
{'ukan=VERB': 395215, 'mentura=NOUN': 71}	7		3.609833122295393
{'berreskura=VERB': 4827, 'hilotz=NOUN': 201}	2		6.5217929780682065
{'gailendu=VERB': 1136, 'irizpide=NOUN': 2633}	6		6.4783857839396335
{'onartu=VERB': 20621, 'kargu=NOUN': 7519}	128		5.220333389645947
{'itaundu=VERB': 41, 'akordio=NOUN': 3370}	0	invalide: coocc nulle dans Conllst	n_a
{'ordaindu=VERB': 5742, 'dolar=NOUN': 1064}	110		9.81881346453651
{'irakurri=VERB': 9728, 'transkripzio=NOUN': 446}	6		5.951296194062573
{'kontsumitu=VERB': 1088, 'produktu=NOUN': 10882}	92		8.560883605268211
{'errefusatu=VERB': 342, 'konstituzio=NOUN': 3888}	4		7.070523903953283
{'izan=VERB': 441746, 'modu=NOUN': 34587}	6093		4.436477356758144
{'kendu=VERB': 9203, 'foru=NOUN': 6816}	43		4.934284416952851
{'zelairatu=VERB': 33, 'talde=NOUN': 88200}	13		8.344964071374797
{'pairatu=VERB': 2179, 'gizarte=NOUN': 19125}	66		6.175863088556228
{'aplikatu=VERB': 3442, 'har=NOUN': 704}	0	invalide: coocc nulle dans Conllst	n_a
{'zuritu=VERB': 203, 'begi=NOUN': 4761}	0	invalide: coocc nulle dans Conllst	n_a
{'errespetatu=VERB': 1837, 'garizuma=NOUN': 39}	0	invalide: coocc nulle dans Conllst	n_a
{'izan=VERB': 441746, 'kalte=NOUN': 5426}	1165		4.774820974242476
{'berezitu=VERB': 153, 'prezio=NOUN': 3479}	0	invalide: coocc nulle dans Conllst	n_a
{'eduki=VERB': 33582, 'gib=NOUN': 91}	0	invalide: coocc nulle dans Conllst	n_a
{'berritu=VERB': 2015, 'gune=NOUN': 13235}	14		4.5450366138079294
{'kobratu=VERB': 679, 'kanon=NOUN': 155}	0	invalide: coocc nulle dans Conllst	n_a
{'eragotzi=VERB': 1531, 'negoziazio=NOUN': 1113}	5		7.0273775076583025
{'aldatu=VERB': 69757, 'joko=NOUN': 12691}	121		2.6083513193468724
{'garatu=VERB': 10906, 'erakunde=NOUN': 20474}	149		4.909943451301933
{'egon=VERB': 331830, 'zantzu=NOUN': 571}	88		4.598580915776545
{'jarri=VERB': 39836}	0	invalide: mot absent Conllst	n_a_abs
{'egin=VERB': 336957, 'gazta=NOUN': 805}	224		5.6584458069518035
{'egin=VERB': 336957}	0	invalide: mot absent Conllst	n_a_abs
{'ukan=VERB': 395215, 'sustrai=NOUN': 1376}	269		4.7624577963813595
{'inguratu=VERB': 4946, 'hiribildu=NOUN': 848}	14		7.23022508986476
{'eman=VERB': 106345, 'zerbitzu=NOUN': 24973}	1403		4.6451333162515445
{'jorratu=VERB': 2054, 'gai=NOUN': 92344}	734		8.064827395518282
{'izan=VERB': 441746, 'ezin=NOUN': 18039}	8546		6.518442342136466
{'lapurtu=VERB': 1223, 'borondate=NOUN': 1470}	0	invalide: coocc nulle dans Conllst	n_a
{'ukan=VERB': 395215, 'karbohidrato=NOUN': 155}	41		5.327264312018339
{'eduki=VERB': 33582, 'abere=NOUN': 1661}	31		4.644202740246527
{'egin=VERB': 336957}	0	invalide: mot absent Conllst	n_a_abs
{'osatu=VERB': 54019, 'gaitasun=NOUN': 5196}	89		3.833403499510719
{'urratu=VERB': 827, 'arau=NOUN': 7057}	38		8.241727060645955
{'jarraitu=VERB': 25912, 'lerro=NOUN': 4904}	130		5.542039225106242
{'kontserbatu=VERB': 1127, 'produktu=NOUN': 10882}	6		4.4402623275456286
{'amildu=VERB': 163, 'buru=NOUN': 26631}	7		6.2162438107089235
{'definitu=VERB': 4030, 'irizpide=NOUN': 2633}	42		7.48630525385513
{'eskatu=VERB': 18771, 'tratamendu=NOUN': 3192}	13		3.2655948488956623
{'osatu=VERB': 54019, 'hezkuntza=NOUN': 12687}	125		3.025899509579202
{'ukan=VERB': 395215, 'sorterri=NOUN': 425}	55		4.05263168645914
{'ekarri=VERB': 15673, 'nahaste=NOUN': 296}	10		6.621714639694548
{'ekarri=VERB': 15673, 'gorakada=NOUN': 701}	55		7.909778087360125
{'artikulatu=VERB': 208, 'zati=NOUN': 23628}	0	invalide: coocc nulle dans Conllst	n_a
{'ordezkatu=VERB': 4664}	0	invalide: mot absent Conllst	n_a_abs
{'igo=VERB': 8049, 'soldata=NOUN': 1245}	92		8.789107100402957
{'dantzatu=VERB': 1271, 'gabe=NOUN': 2294}	0	invalide: coocc nulle dans Conllst	n_a
{'adierazi=VERB': 22003, 'igoera=NOUN': 2736}	27		4.322432454540258
{'bermatu=VERB': 3130, 'konponbide=NOUN': 1447}	1		3.28539304546262
{'osatu=VERB': 54019}	0	invalide: mot absent Conllst	n_a_abs
{'ukan=VERB': 395215, 'proteina=NOUN': 89}	14		4.381039985317467
{'eman=VERB': 106345, 'ur=NOUN': 19237}	592		3.7273439499021994
{'egon=VERB': 331830, 'hodi=NOUN': 1436}	204		4.461172031666206
{'irentsi=VERB': 701, 'amets=NOUN': 2296}	1		4.77924127552116
{'egin=VERB': 336957, 'prozedura=NOUN': 2347}	386		4.689262693344832
{'bilatu=VERB': 6326, 'boto=NOUN': 5268}	2		1.4056173672502255
{'sortu=VERB': 90355, 'etiketa=NOUN': 1394}	92		5.109931939934363
{'eragotzi=VERB': 1531, 'sorrera=NOUN': 4519}	6		5.265228735825717
{'berreskura=VERB': 4827, 'agiri=NOUN': 3775}	6		3.8646105323152087
{'desegin=VERB': 2261, 'blokeo=NOUN': 499}	0	invalide: coocc nulle dans Conllst	n_a
{'sartu=VERB': 34768, 'kamioi=NOUN': 675}	29		5.8330528614429245
{'eskatu=VERB': 18771, 'erruki=NOUN': 260}	21		7.691578465294703
{'hartu=VERB': 114375, 'sosegu=NOUN': 29}	2		4.836456333332537
{'galdu=VERB': 16818, 'laguntza=NOUN': 12795}	90		4.223497820454037
{'eduki=VERB': 33582, 'sektore=NOUN': 4580}	59		4.102084030403915
{'irabazi=VERB': 23412, 'errespetu=NOUN': 1026}	17		4.9895705995509685
{'saihestu=VERB': 1967, 'zaintza=NOUN': 693}	3		6.60966156039559
{'kendu=VERB': 9203, 'titulartasun=NOUN': 58}	0	invalide: coocc nulle dans Conllst	n_a
{'animatu=VERB': 1224, 'talde=NOUN': 88200}	61		4.7143398738938584
{'egin=VERB': 336957, 'galdera=NOUN': 3945}	1204		5.850823124759558
{'zabaldu=VERB': 19210, 'albiste=NOUN': 5044}	180		6.422668467379364
{'handitu=VERB': 4641, 'sarrera=NOUN': 9888}	27		4.710297797333679
{'kendu=VERB': 9203, 'aipamen=NOUN': 2299}	3		2.6473682538683896
{'bete=VERB': 21104, 'eginbehar=NOUN': 243}	43		8.814853072257275
{'kendu=VERB': 9203, 'meritu=NOUN': 452}	7		6.237633471140323
{'itzuli=VERB': 18345, 'galtzagorri=NOUN': 202}	3		5.1802053682240405
{'bultzatu=VERB': 10188, 'proiektu=NOUN': 16986}	286		6.25353744622211
{'gauzatu=VERB': 4808}	0	invalide: mot absent Conllst	n_a_abs
{'gehitu=VERB': 7165, 'kopuru=NOUN': 14575}	167		6.191125702982586
{'irakatsi=VERB': 2606, 'estrategia=NOUN': 2407}	1		2.815242241312712
{'lortu=VERB': 53482, 'bake=NOUN': 5738}	380		5.880628989791386
{'berotu=VERB': 1005}	0	invalide: mot absent Conllst	n_a_abs
{'ebaki=VERB': 702, 'kanaerdiko=NOUN': 114}	1		9.121281229228849
{'bultzatu=VERB': 10188, 'biolentzia=NOUN': 531}	12		6.647219642733579
{'sortu=VERB': 90355, 'errefuxiatu=NOUN': 688}	32		4.574373036717608
{'zelairatu=VERB': 33, 'euskarri=NOUN': 2148}	0	invalide: coocc nulle dans Conllst	n_a
{'baliatu=VERB': 5434, 'minutu=NOUN': 4821}	7		3.5631261278953694
{'konbentzitu=VERB': 751, 'neska=NOUN': 3971}	3		5.478602556101303
{'ukitu=VERB': 1524, 'zeru=NOUN': 2785}	2		4.380552988819507
{'jarri=VERB': 39836, 'konponbide=NOUN': 1447}	59		5.558935171350911
{'onartu=VERB': 20621, 'emaitza=NOUN': 14258}	115		4.128661841605052
{'zuzendu=VERB': 15859, 'norabide=NOUN': 2867}	29		4.831679311697136
{'eman=VERB': 106345, 'irudi=NOUN': 14093}	776		4.605835445269256
{'eskuratu=VERB': 11349, 'independentzia=NOUN': 6659}	225		7.115623766872271
{'gauzatu=VERB': 4808, 'helburu=NOUN': 19093}	139		6.114559302667948
{'behartu=VERB': 3218, 'partidu=NOUN': 2047}	0	invalide: coocc nulle dans Conllst	n_a
{'osatu=VERB': 54019, 'gobernu=NOUN': 25864}	737		4.601940205921507
{'hetsi=VERB': 8, 'ate=NOUN': 7408}	0	invalide: coocc nulle dans Conllst	n_a
{'topatu=VERB': 4119, 'erdibide=NOUN': 235}	3		7.1146850643542745
{'gutxitu=VERB': 1809, 'militar=NOUN': 3053}	3		4.586517621557346
{'sendotu=VERB': 1498, 'alderdi=NOUN': 25960}	24		4.7915041417632045
{'ulertu=VERB': 7274, 'testu=NOUN': 11491}	220		6.931536777390139
{'eraman=VERB': 23824, 'ahuleria=NOUN': 5}	0	invalide: coocc nulle dans Conllst	n_a
{'ikusi=VERB': 44866, 'ezpain=NOUN': 554}	10		4.176182724825368
{'landu=VERB': 9300, 'proiektu=NOUN': 16986}	173		5.636144485255353
{'izendatu=VERB': 24018, 'txapeldun=NOUN': 6807}	44		3.581531787306807
{'artxibatu=VERB': 194, 'auzi=NOUN': 2902}	36		11.776052184657724
{'esan=VERB': 57439, 'parte=NOUN': 31874}	444		3.450744299239252
{'ohitu=VERB': 451, 'pixka=NOUN': 1423}	1		6.107243884818207
{'bilakatu=VERB': 12086, 'masa=NOUN': 3421}	18		4.2731654099852605
{'eskualdatu=VERB': 87, 'lurzoru=NOUN': 1405}	0	invalide: coocc nulle dans Conllst	n_a
{'izan=VERB': 441746, 'garbiketa=NOUN': 616}	80		3.8979734794599294
{'izan=VERB': 441746, 'politiko=NOUN': 1093}	203		4.510210799882874
{'izan=VERB': 441746, 'erru=NOUN': 1182}	288		5.008608144053888
{'izan=VERB': 441746}	0	invalide: mot absent Conllst	n_a_abs
{'izan=VERB': 441746}	0	invalide: mot absent Conllst	n_a_abs
{'izan=VERB': 441746, 'gailur=NOUN': 2221}	258		3.7150989243833417
{'izan=VERB': 441746, 'lehendakariorde=NOUN': 613}	97		4.2308756930955
{'izan=VERB': 441746, 'txabola=NOUN': 291}	42		4.074325944678299
{'ukan=VERB': 395215, 'etapa=NOUN': 10100}	188		1.0827674662376299
{'izan=VERB': 441746, 'errektore=NOUN': 304}	52		4.365202911011041
{'izan=VERB': 441746, 'maizter=NOUN': 116}	22		4.546787898341121
{'izan=VERB': 441746, 'kabinete=NOUN': 261}	33		3.8534851636315453
{'izan=VERB': 441746, 'trolebus=NOUN': 30}	0	invalide: coocc nulle dans Conllst	n_a
{'izan=VERB': 441746, 'aportazio=NOUN': 123}	19		4.189423128551125
{'izan=VERB': 441746, 'eroale=NOUN': 876}	179		4.681258924617401
{'izan=VERB': 441746, 'batuketa=NOUN': 574}	92		4.252846393201121
{'izan=VERB': 441746, 'joko=NOUN': 12691}	1520		3.7692308878009055
{'izan=VERB': 441746, 'etorkin=NOUN': 1732}	536		5.485712377575157
{'izan=VERB': 441746, 'kudeaketa=NOUN': 2958}	351		3.750172416725601
{'izan=VERB': 441746}	0	invalide: mot absent Conllst	n_a_abs
{'izan=VERB': 441746, 'euskara=NOUN': 40492}	5208		3.8987703385116363
{'izan=VERB': 441746, 'diru=NOUN': 9308}	1857		4.643490578348862
{'izan=VERB': 441746, 'urkamendi=NOUN': 45}	1		1.1824449272117574
{'ukan=VERB': 395215, 'gustu=NOUN': 202}	38		4.692966878079126
{'izan=VERB': 441746, 'desgaste=NOUN': 18}	0	invalide: coocc nulle dans Conllst	n_a
{'izan=VERB': 441746, 'harri=NOUN': 4601}	583		3.8588687774006076
{'ibili=VERB': 15217, 'beldur=NOUN': 2672}	30		5.043657378663362
{'izan=VERB': 441746, 'dena=NOUN': 339}	69		4.673807503878165
{'izan=VERB': 441746, 'errebote=NOUN': 312}	33		3.562253865967099
{'izan=VERB': 441746, 'umore=NOUN': 1452}	156		3.587935065173954
{'izan=VERB': 441746, 'grina=NOUN': 915}	213		4.92195148278482
{'izan=VERB': 441746, 'maisu=NOUN': 2923}	604		4.702964863627834
{'izan=VERB': 441746, 'buruzagi=NOUN': 6170}	1002		4.2784258599448926
{'izan=VERB': 441746, 'zuri-beltz=NOUN': 62}	8		3.8870119051674403
{'izan=VERB': 441746}	0	invalide: mot absent Conllst	n_a_abs
{'izan=VERB': 441746, 'zaparrada=NOUN': 176}	38		4.7814004458791874
{'izan=VERB': 441746}	0	invalide: mot absent Conllst	n_a_abs
{'izan=VERB': 441746}	0	invalide: mot absent Conllst	n_a_abs
{'izan=VERB': 441746}	0	invalide: mot absent Conllst	n_a_abs
{'izan=VERB': 441746, 'iskanbila=NOUN': 181}	32		4.4228092718426675
{'izan=VERB': 441746, 'sentsibilitate=NOUN': 235}	31		3.9237454945945984
{'izan=VERB': 441746}	0	invalide: mot absent Conllst	n_a_abs
{'izan=VERB': 441746, 'testu=NOUN': 11491}	1685		4.10647066112019
{'izan=VERB': 441746, 'arraza=NOUN': 6801}	3520		6.7548551040906055
{'izan=VERB': 441746, 'betebehar=NOUN': 1230}	206		4.329046737950601
{'izan=VERB': 441746, 'sekzio=NOUN': 962}	129		3.951349211696542
{'izan=VERB': 441746, 'koran=NOUN': 142}	19		3.9473483413529777
{'izan=VERB': 441746}	0	invalide: mot absent Conllst	n_a_abs
{'izan=VERB': 441746}	0	invalide: mot absent Conllst	n_a_abs
{'izan=VERB': 441746, 'hizpide=NOUN': 862}	391		6.374592357166148
{'izan=VERB': 441746, 'usadio=NOUN': 760}	135		4.431417460353598
{'izan=VERB': 441746, 'upn=NOUN': 100}	2		1.0271699676376458
{'ireki=VERB': 10782, 'eztabaida=NOUN': 6535}	127		6.358514107348049
{'izan=VERB': 441746, 'gutxi=NOUN': 448}	69		4.184569062757904
{'ukan=VERB': 395215, 'kriminal=NOUN': 147}	7		2.480550105350427
{'izan=VERB': 441746, 'jeneral=NOUN': 4926}	689		4.02365799603765
{'izan=VERB': 441746, 'hemen=NOUN': 236}	19		3.128311614247738
{'izan=VERB': 441746, 'neke=NOUN': 495}	77		4.201552184224833
{'izan=VERB': 441746}	0	invalide: mot absent Conllst	n_a_abs
{'izan=VERB': 441746, 'atezain=NOUN': 809}	95		3.7322589174282625
{'izan=VERB': 441746, 'adar=NOUN': 4300}	450		3.5464821414841645
{'izan=VERB': 441746, 'keinu=NOUN': 850}	118		4.0092019178504295
{'izan=VERB': 441746, 'etxeko=NOUN': 163}	24		4.107973091504631
{'izan=VERB': 441746, 'itsukeria=NOUN': 24}	0	invalide: coocc nulle dans Conllst	n_a
{'izan=VERB': 441746, 'balkoi=NOUN': 570}	30		2.47204625861869
{'izan=VERB': 441746, 'diruzain=NOUN': 182}	30		4.300934342225935
{'izan=VERB': 441746, 'kristau=NOUN': 4523}	777		4.375048717101433
{'izan=VERB': 441746, 'klase=NOUN': 3936}	628		4.24680294954706
{'izan=VERB': 441746, 'lurjabe=NOUN': 601}	120		4.6392627521565695
{'egon=VERB': 331830, 'utzikeria=NOUN': 104}	17		4.6992392863108305
{'ukan=VERB': 395215, 'nahi=NOUN': 49913}	28725		7.3503759966404205
{'ukan=VERB': 395215, 'jaun=NOUN': 4420}	314		3.094702166889837
{'ibili=VERB': 15217, 'pare=NOUN': 2360}	39		5.609908157790339
{'izan=VERB': 441746, 'zerrendaburu=NOUN': 229}	57		5.0486847073109375
{'izan=VERB': 441746, 'buru=NOUN': 26631}	4650		4.416185775402286
{'izan=VERB': 441746, 'apaiz=NOUN': 4608}	590		3.8761107400911956
{'izan=VERB': 441746, 'irizpide=NOUN': 2633}	507		4.575446093956716
{'izan=VERB': 441746, 'elkarbizitza=NOUN': 479}	83		4.387827185783742
{'ukan=VERB': 395215, 'atzo=NOUN': 191}	18		3.537815129774808
{'izan=VERB': 441746, 'ipotx=NOUN': 135}	5		1.9414498913675193
{'izan=VERB': 441746}	0	invalide: mot absent Conllst	n_a_abs
{'izan=VERB': 441746, 'profesional=NOUN': 3082}	532		4.382612685688748
{'joan=VERB': 56336, 'amets=NOUN': 2296}	56		4.292468022643402
{'hartu=VERB': 114375, 'lizentzia=NOUN': 6669}	90		2.4006547890825596
{'aldatu=VERB': 69757, 'kopuru=NOUN': 14575}	262		3.5384937928448585
{'eten=VERB': 766, 'ordainketa=NOUN': 893}	12		9.638274404186737
{'gelditu=VERB': 12039, 'penalti=NOUN': 269}	13		7.5413013005996845
{'aldarrikatu=VERB': 6185, 'independentzia=NOUN': 6659}	721		9.937083128618736
{'pasatu=VERB': 13126, 'asteburu=NOUN': 2463}	72		6.669053088421311
{'identifikatu=VERB': 3253, 'zati=NOUN': 23628}	29		4.071637685558686
{'sortu=VERB': 90355, 'esparru=NOUN': 3406}	133		4.312423727146572
{'garatu=VERB': 10906, 'unitate=NOUN': 13073}	25		2.957522418026064
{'erabili=VERB': 88014, 'lur=NOUN': 31006}	815		3.77153218219211
{'suntsitu=VERB': 4784, 'oinarri=NOUN': 8276}	6		2.743830573860846
{'ukan=VERB': 395215, 'nasa=NOUN': 138}	11		3.273239734057758
{'jokatu=VERB': 16575, 'partida=NOUN': 4903}	1893		10.883880862910754
{'egin=VERB': 336957, 'desinfekzio=NOUN': 58}	12		5.093977778370872
{'erreformatu=VERB': 79, 'polizia=NOUN': 7522}	0	invalide: coocc nulle dans Conllst	n_a
{'jarri=VERB': 39836, 'pil=NOUN': 44}	0	invalide: coocc nulle dans Conllst	n_a
{'sailkatu=VERB': 28109, 'kontzeptu=NOUN': 5747}	27		2.89046082856264
{'mugatu=VERB': 4066, 'egoera=NOUN': 20329}	44		4.5723393958929694
{'garbitu=VERB': 682, 'estolda=NOUN': 76}	3		11.382601003251066
{'lege=NOUN': 15955}	0	invalide: mot absent Conllst	n_a_abs
{'eguneratu=VERB': 1932, 'hezkuntza=NOUN': 12687}	11		4.316708696244196
{'erreproduzitu=VERB': 409, 'soinu=NOUN': 4923}	13		8.204306614514087
{'aurkitu=VERB': 33240, 'dokumentazio=NOUN': 1783}	19		3.838215612836468
{'luzatu=VERB': 4277, 'prozedura=NOUN': 2347}	15		6.056954470279978
{'prestatu=VERB': 7856, 'sasoi=NOUN': 1541}	9		5.045529760308983
{'itxi=VERB': 5726, 'zauri=NOUN': 843}	29		8.10784014564533
{'jarri=VERB': 39836, 'bonba=NOUN': 1425}	197		7.480054853056478
{'jaso=VERB': 33811, 'baimen=NOUN': 3707}	204		6.256306752107894
{'bilatu=VERB': 6326, 'konponbide=NOUN': 1447}	102		9.070139365195978
{'aurreikusi=VERB': 2375, 'legeria=NOUN': 247}	0	invalide: coocc nulle dans Conllst	n_a
{'erakutsi=VERB': 17077, 'nagusitasun=NOUN': 1760}	65		6.635763941033644
{'burutu=VERB': 12250, 'zerbitzu=NOUN': 24973}	89		3.697559219568719
{'sendotu=VERB': 1498, 'talde=NOUN': 88200}	74		4.701170657454297
{'gainditu=VERB': 5724, 'irteera=NOUN': 3498}	2		2.1409375738308776
{'erakutsi=VERB': 17077, 'mendebal=NOUN': 1062}	4		3.2881779486868457
{'egin=VERB': 336957, 'sagardo=NOUN': 832}	156		4.9177167118636165
{'jan=VERB': 4262, 'espezie=NOUN': 19370}	68		5.211619799434511
{'egin=VERB': 336957, 'gatz=NOUN': 1027}	101		3.836301454209939
{'aztertu=VERB': 14598, 'urratze=NOUN': 55}	1		5.8064590494837
{'aztertu=VERB': 14598, 'banaketa=NOUN': 42956}	151		3.429161539790255
{'sustatu=VERB': 5683, 'ekoizpen=NOUN': 4562}	54		6.55268359477809
{'gehitu=VERB': 7165, 'ekoizpen=NOUN': 4562}	62		6.419005079954069
{'ikusi=VERB': 44866, 'aldaketa=NOUN': 14423}	368		4.698044074499166
{'egin=VERB': 336957, 'marka=NOUN': 3294}	375		4.073620615961282
{'egin=VERB': 336957, 'zenbaketa=NOUN': 215}	62		5.729599801935729
{'ezagutu=VERB': 26604, 'talde=NOUN': 88200}	724		3.8184270842821784
{'adierazi=VERB': 22003, 'nahi=NOUN': 49913}	1471		6.027755002077652
{'igo=VERB': 8049, 'baloi=NOUN': 923}	5		4.900611210822862
{'lortu=VERB': 53482, 'errebote=NOUN': 312}	64		7.735496174048877
{'aztertu=VERB': 14598, 'premia=NOUN': 947}	14		5.5042536308213705
{'lortu=VERB': 53482, 'kalitate=NOUN': 4689}	224		5.376930656178339
{'pilatu=VERB': 1224, 'izotz=NOUN': 1523}	16		8.598862384731756
{'aukeratu=VERB': 9997, 'patroi=NOUN': 1332}	17		5.836522482500711
{'egin=VERB': 336957}	0	invalide: mot absent Conllst	n_a_abs
{'jaso=VERB': 33811, 'lan=NOUN': 110467}	1748		4.46735393112147
{'argitu=VERB': 2114, 'egitura=NOUN': 11677}	39		6.154681892643935
{'ireki=VERB': 10782, 'zirkuitu=NOUN': 2902}	54		6.284791374947257
{'ireki=VERB': 10782, 'tratulari=NOUN': 26}	0	invalide: coocc nulle dans Conllst	n_a
{'aztertu=VERB': 14598, 'egutegi=NOUN': 3862}	6		2.233913975981112
{'osatu=VERB': 54019, 'alternatiba=NOUN': 875}	9		3.085493684530894
{'ikusi=VERB': 44866, 'plan=NOUN': 4224}	51		3.5885928861647454
{'batu=VERB': 7780, 'informazio=NOUN': 23936}	50		3.5784566598046683
{'izendatu=VERB': 24018, 'ordezkari=NOUN': 6610}	264		6.271610286344222
{'jokatu=VERB': 16575, 'torneo=NOUN': 416}	72		9.12795038402839
{'eraiki=VERB': 24951, 'eskenatoki=NOUN': 66}	0	invalide: coocc nulle dans Conllst	n_a
{'gainditu=VERB': 5724, 'zatiketa=NOUN': 1634}	17		6.344572855754887
{'nabarmendu=VERB': 6894, 'aurpegi=NOUN': 3557}	18		5.02817595119368
{'otordu=NOUN': 348}	0	invalide: mot absent Conllst	n_a_abs
{'ezarri=VERB': 20100, 'kategoria=NOUN': 31209}	36		1.3443248122732272
{'egin=VERB': 336957, 'hautu=NOUN': 197}	126		7.860598233292873
{'hartu=VERB': 114375, 'erretiro=NOUN': 562}	319		8.987948118693923
{'lortu=VERB': 53482, 'adin=NOUN': 11991}	60		2.054047705932986
{'ikusi=VERB': 44866, 'akats=NOUN': 2186}	86		5.334255060063312
{'kendu=VERB': 9203, 'altxaldi=NOUN': 50}	0	invalide: coocc nulle dans Conllst	n_a
{'gehitu=VERB': 7165}	0	invalide: mot absent Conllst	n_a_abs
{'amaitu=VERB': 20455, 'unitate=NOUN': 13073}	10		0.7239998396655075
{'grabatu=VERB': 5257, 'irudi=NOUN': 14093}	92		5.810497895273951
{'besarkatu=VERB': 201, 'preso=NOUN': 4645}	0	invalide: coocc nulle dans Conllst	n_a
{'burutu=VERB': 12250, 'araketa=NOUN': 17}	0	invalide: coocc nulle dans Conllst	n_a
{'izan=VERB': 441746, 'igande=NOUN': 4285}	589		3.9941729567328936
{'ebaki=VERB': 702}	0	invalide: mot absent Conllst	n_a_abs
{'gogortu=VERB': 303, 'gihar=NOUN': 692}	0	invalide: coocc nulle dans Conllst	n_a
{'bete=VERB': 21104, 'nahi=NOUN': 49913}	710		4.96409023114198
{'hartu=VERB': 114375, 'deklarazio=NOUN': 451}	40		5.230756756359923
{'jaso=VERB': 33811, 'erantzun=NOUN': 5085}	355		6.6288042252303665
{'behartu=VERB': 3218, 'jaurlaritza=NOUN': 12101}	3		1.7666093588111906
{'suspertu=VERB': 537, 'haustura=NOUN': 154}	0	invalide: coocc nulle dans Conllst	n_a
{'kitatu=VERB': 191, 'zor=NOUN': 2054}	91		14.319824818612458
{'itxi=VERB': 5726, 'galdera=NOUN': 3945}	13		4.674090122871222
{'oihukatu=VERB': 252, 'desobedientzia=NOUN': 1005}	0	invalide: coocc nulle dans Conllst	n_a
{'sortu=VERB': 90355, 'tresna=NOUN': 9187}	495		4.805151640029548
{'asmatu=VERB': 5504, 'berri=NOUN': 11544}	45		4.982942156716242
{'kendu=VERB': 9203, 'bihotz=NOUN': 3092}	10		3.9606877487602565
{'ebaluatu=VERB': 731, 'aurrerapen=NOUN': 1856}	9		8.217832649227363
{'ezagutu=VERB': 26604, 'modu=NOUN': 34587}	647		5.017817751271469
{'eskuratu=VERB': 11349, 'eskuorri=NOUN': 60}	2		7.066726532951941
{'irabazi=VERB': 23412, 'titulu=NOUN': 6756}	394		6.891043123746186
{'hartu=VERB': 114375, 'jaki=NOUN': 696}	30		4.119209297808886
{'sistematizatu=VERB': 87, 'informazio=NOUN': 23936}	5		6.812513852623957
{'areagotu=VERB': 3162, 'euri=NOUN': 2687}	9		5.555206127089327
{'ahaztu=VERB': 2648, 'kontra=NOUN': 1380}	4		5.599959609444869
{'ezagutu=VERB': 26604, 'hizkuntza=NOUN': 37357}	494		4.500897354735303
{'kontrastatu=VERB': 117, 'hizkuntza=NOUN': 37357}	0	invalide: coocc nulle dans Conllst	n_a
{'edoski=VERB': 3, 'haur=NOUN': 13692}	0	invalide: coocc nulle dans Conllst	n_a
{'erabili=VERB': 88014, 'munizio=NOUN': 219}	31		6.369401110439184
{'hausnartu=VERB': 533, 'lehenbizi=NOUN': 149}	0	invalide: coocc nulle dans Conllst	n_a
{'aprobetxatu=VERB': 1465, 'erasoaldi=NOUN': 534}	2		6.824734336014982
{'ukan=VERB': 395215, 'aste=NOUN': 10602}	835		3.2574365663219953
{'kendu=VERB': 9203, 'apendize=NOUN': 60}	0	invalide: coocc nulle dans Conllst	n_a
{'kendu=VERB': 9203, 'kanon=NOUN': 155}	2		5.969768030973832
{'entzun=VERB': 7153, 'ahots=NOUN': 6173}	224		7.905222843861991
{'eskaini=VERB': 17925, 'kalitate=NOUN': 4689}	158		6.435985319310369
{'gorde=VERB': 7369, 'mugimendu=NOUN': 14249}	38		4.0081435915931385
{'bota=VERB': 7133, 'izotz=NOUN': 1523}	1		2.0228871945261186
{'ahaztu=VERB': 2648, 'errealitate=NOUN': 3273}	12		5.944459945619299
{'egin=VERB': 336957, 'jarduera=NOUN': 15173}	1693		4.046626155399659
