Candidat traduit	Corrections possibles	candidat nettoyé
Candidat traduit	Corrections possibles	candidat nettoyé
Candidat traduit	Corrections possibles	candidat nettoyé
Candidat traduit	Corrections possibles	candidat nettoyé
