{'कर=VERB': 881684, 'तस्करी=NOUN': 303}	141		5.25045066338518
{'कर=VERB': 881684, 'प्रश्न=NOUN': 12000}	7676		6.291121960416595
{'दे=VERB': 141639, 'सहयोग=NOUN': 4406}	751		5.813244927025631
{'हो=VERB': 504590, 'शक=NOUN': 10322}	3399		5.2391327627012165
{'हो=VERB': 504590, 'बैरल=NOUN': 169}	59		5.357120677047661
{'कर=VERB': 881684, 'आयात=NOUN': 1271}	887		6.659798495565341
{'कर=VERB': 881684, 'खर्च=NOUN': 3685}	2057		5.791329463177051
{'कर=VERB': 881684, 'संपर्क=NOUN': 6110}	3724		6.098884075093616
{'कर=VERB': 881684, 'सील=NOUN': 278}	123		5.117109956217425
{'हो=VERB': 504590, 'प्रारंभ=NOUN': 5476}	2253		5.745567840559536
{'आ=VERB': 95617, 'आँच=NOUN': 104}	24		6.918837780116847
{'दे=VERB': 141639, 'इस्तीफा=NOUN': 1263}	829		9.030707521646002
{'दे=VERB': 141639, 'अंजाम=NOUN': 830}	557		9.12302270060086
{'कर=VERB': 881684, 'दस्तखत=NOUN': 96}	73		7.116900635135139
{'दे=VERB': 141639}	0	invalide: mot absent Conllst	n_a_abs
{'ले=VERB': 87593, 'माँग=NOUN': 1001}	68		5.004742765700064
{'कर=VERB': 881684}	0	invalide: mot absent Conllst	n_a_abs
{'कर=VERB': 881684, 'उल्लंघन=NOUN': 1590}	1142		6.802380451158665
{'कर=VERB': 881684, 'तपस्या=NOUN': 859}	559		6.349319339125546
{'लपेटा=VERB': 45, 'सांप=NOUN': 821}	0	invalide: coocc nulle dans Conllst	n_a
{'कर=VERB': 881684, 'विनिवेश=NOUN': 86}	22		3.909986195412933
{'कर=VERB': 881684, 'प्रचार=NOUN': 3746}	1841		5.404232775160973
{'दिला=VERB': 3602, 'मान्यता=NOUN': 4879}	26		5.852068283698289
{'झेल=VERB': 796, 'मार=NOUN': 641}	41		11.768821211414473
{'कर=VERB': 881684, 'गठन=NOUN': 3497}	2212		6.237725636284994
{'कर=VERB': 881684, 'शिरकत=NOUN': 238}	184		7.219494141415988
{'करा=VERB': 15456, 'सैर=NOUN': 640}	21		6.405024692566721
{'दे=VERB': 141639, 'दाखिला=NOUN': 1092}	71		4.243265029896886
{'रख=VERB': 50852}	0	invalide: mot absent Conllst	n_a_abs
{'ले=VERB': 87593, 'दाखिला=NOUN': 1092}	876		10.816293062295134
{'दे=VERB': 141639, 'चुनौती=NOUN': 2776}	916		7.0760389948584494
{'कर=VERB': 881684, 'पालन=NOUN': 4317}	3449		7.446584407240578
{'हो=VERB': 504590, 'कमी=NOUN': 7697}	2932		5.563484989103772
{'कर=VERB': 881684, 'सम्मान=NOUN': 6834}	2742		4.87743471576855
{'लगा=VERB': 29246, 'पता=NOUN': 18033}	2897		8.129607738297679
{'करवा=VERB': 2110, 'चुनाव=NOUN': 9972}	40		6.2290652278285465
{'कर=VERB': 881684, 'सुनवाई=NOUN': 1211}	464		4.764294580866095
{'दिला=VERB': 3602, 'पतंग=NOUN': 326}	0	invalide: coocc nulle dans Conllst	n_a
{'कर=VERB': 881684, 'कोशिश=NOUN': 7758}	6034		7.267780843733481
{'कर=VERB': 881684, 'इन्कार=NOUN': 349}	326		9.276218306794803
{'हो=VERB': 504590, 'इजाफा=NOUN': 297}	171		6.69673022962851
{'दे=VERB': 141639, 'व्याख्यान=NOUN': 696}	203		6.810522958809241
{'अर्चना=VERB': 65, 'पूजा=NOUN': 5409}	37		13.211275585648615
{'कबूल=VERB': 25, 'आरोप=NOUN': 4727}	3		10.120158364191415
{'दे=VERB': 141639, 'मात=NOUN': 459}	275		8.671091341709095
{'दे=VERB': 141639, 'करार=NOUN': 1490}	721		8.00294001392336
{'कर=VERB': 881684, 'उल्लेख=NOUN': 6272}	3645		5.92899784954624
{'कर=VERB': 881684, 'लाँच=NOUN': 22}	15		6.550078796021844
{'चढ़ा=VERB': 1034, 'चादर=NOUN': 838}	14		9.32692168952024
{'ले=VERB': 87593, 'सलाह=NOUN': 3204}	430		6.099433276839819
{'कर=VERB': 881684, 'सहयोग=NOUN': 4406}	2417		5.735653130400395
{'जता=VERB': 1485, 'विरोध=NOUN': 6325}	99		8.788975947977928
{'कर=VERB': 881684, 'धारण=NOUN': 2518}	2333		9.110930244916942
{'कर=VERB': 881684, 'अमल=NOUN': 594}	365		6.123664814809437
{'ले=VERB': 87593, 'हिस्सा=NOUN': 13094}	1591		5.954333714948353
{'कर=VERB': 881684, 'मदद=NOUN': 14078}	7209		5.532062181645479
{'कर=VERB': 881684, 'भ्रमण=NOUN': 2372}	692		4.172034048474799
{'कर=VERB': 881684, 'प्रस्थान=NOUN': 1742}	463		3.985344215750801
{'कर=VERB': 881684, 'याद=NOUN': 10970}	4008		4.660472494080259
{'तबियत=NOUN': 185}	0	invalide: mot absent Conllst	n_a_abs
{'रवैया=NOUN': 598}	0	invalide: mot absent Conllst	n_a_abs
{'कर=VERB': 881684, 'उद्घाटन=NOUN': 1231}	745		6.068022244608435
{'दे=VERB': 141639, 'प्रशिक्षण=NOUN': 4414}	767		5.84698365304012
{'कर=VERB': 881684, 'निंदा=NOUN': 828}	644		7.25892765885425
{'हो=VERB': 504590}	0	invalide: mot absent Conllst	n_a_abs
{'कर=VERB': 881684, 'प्रदर्शन=NOUN': 11001}	6585		6.037777287083223
{'करा=VERB': 15456, 'दफा=NOUN': 148}	0	invalide: coocc nulle dans Conllst	n_a
{'कर=VERB': 881684, 'परीक्षण=NOUN': 6647}	3816		5.887525652917337
{'कर=VERB': 881684, 'फरोख्त=NOUN': 16}	5		4.31302323558631
{'ले=VERB': 87593, 'भाग=NOUN': 26014}	4656		6.663078895445177
{'खाना=VERB': 356, 'चिकन=NOUN': 96}	0	invalide: coocc nulle dans Conllst	n_a
{'कर=VERB': 881684, 'हाथ=NOUN': 17002}	5134		4.250022238892264
{'कर=VERB': 881684, 'कमी=NOUN': 7697}	2857		4.694695051811975
{'कर=VERB': 881684, 'भंग=NOUN': 897}	686		7.152607090522182
{'कर=VERB': 881684, 'बलात्कार=NOUN': 1380}	590		5.03034661617892
{'कर=VERB': 881684, 'नीलाम=NOUN': 81}	52		6.29306239069655
{'कर=VERB': 881684}	0	invalide: mot absent Conllst	n_a_abs
{'बन=VERB': 76472, 'रुख=NOUN': 874}	30		4.164134233912035
{'कर=VERB': 881684, 'बदलाव=NOUN': 4896}	1590		4.397062676366262
{'कस=VERB': 478, 'लगाम=NOUN': 230}	23		13.200772994976342
{'हो=VERB': 504590, 'बदल=NOUN': 489}	70		3.6743453790514518
{'कर=VERB': 881684, 'तलाश=NOUN': 2305}	1000		5.068105994592248
{'कर=VERB': 881684, 'कटौती=NOUN': 1106}	669		6.065986605792485
{'रच=VERB': 1726, 'साजिश=NOUN': 750}	102		11.867660153406407
{'दिला=VERB': 3602, 'भरोसा=NOUN': 1860}	85		9.0360787387377
{'उठा=VERB': 10383, 'कदम=NOUN': 4691}	1575		11.111478573153315
{'कर=VERB': 881684, 'समीक्षा=NOUN': 52672}	31947		6.12807223047694
{'करा=VERB': 15456, 'रजिस्ट्रेशन=NOUN': 248}	10		6.7125854070438065
{'कर=VERB': 881684, 'अर्चना=NOUN': 222}	108		5.372692796511785
{'बन=VERB': 76472, 'फांस=NOUN': 14}	2		6.392851977152836
{'रख=VERB': 50852, 'प्रस्ताव=NOUN': 4000}	551		6.93606736550991
{'दे=VERB': 141639, 'बयान=NOUN': 2838}	662		6.378545012430263
{'दे=VERB': 141639, 'न्यौता=NOUN': 86}	48		8.426085678557476
{'कर=VERB': 881684, 'इंकार=NOUN': 808}	688		7.971018947291913
{'दे=VERB': 141639, 'अनुमति=NOUN': 6611}	3704		8.476344707545913
{'कर=VERB': 881684, 'आह्वान=NOUN': 535}	406		7.105291728338076
{'दे=VERB': 141639, 'आश्वासन=NOUN': 697}	397		8.496787608662764
{'दे=VERB': 141639, 'जमानत=NOUN': 538}	88		5.735108743157288
{'हो=VERB': 504590}	0	invalide: mot absent Conllst	n_a_abs
{'कर=VERB': 881684, 'खुलासा=NOUN': 1289}	807		6.195375199565428
{'कर=VERB': 881684, 'अपील=NOUN': 1391}	865		6.169572000927224
{'कर=VERB': 881684, 'अगवा=NOUN': 64}	53		7.71909414000128
{'कर=VERB': 881684, 'स्थापना=NOUN': 11697}	6787		5.9287180645200825
{'कर=VERB': 881684, 'परहेज=NOUN': 380}	256		6.4967412197735
{'दे=VERB': 141639}	0	invalide: mot absent Conllst	n_a_abs
{'कर=VERB': 881684}	0	invalide: mot absent Conllst	n_a_abs
{'कर=VERB': 881684, 'इंतजार=NOUN': 1472}	813		5.754826386381885
{'दे=VERB': 141639, 'चेतावनी=NOUN': 1526}	717		7.92171681816293
{'कर=VERB': 881684, 'आक्रमण=NOUN': 3500}	2328		6.444451398777653
{'साध=VERB': 660, 'चुप्पी=NOUN': 396}	50		13.156983261192465
{'दे=VERB': 141639, 'जन्म=NOUN': 31530}	2144		4.333814662547841
{'कर=VERB': 881684, 'जांच=NOUN': 5760}	3231		5.809228871096391
{'कर=VERB': 881684, 'चर्चा=NOUN': 7705}	3258		5.007013699808704
{'करा=VERB': 15456, 'चुनाव=NOUN': 9972}	155		5.314140313600021
{'कर=VERB': 881684, 'तैयारी=NOUN': 2999}	1389		5.239779094618437
{'कर=VERB': 881684, 'घेराबंदी=NOUN': 226}	121		5.655334302718181
{'कर=VERB': 881684, 'स्वागत=NOUN': 2963}	1379		5.2528269163986145
{'लगा=VERB': 29246, 'डुबकी=NOUN': 159}	101		11.169690437935072
{'कर=VERB': 881684, 'दुआ=NOUN': 1243}	514		4.947209423541506
{'कर=VERB': 881684, 'खंडन=NOUN': 507}	408		7.494255062569238
{'आ=VERB': 95617, 'जिक्र=NOUN': 1029}	138		5.966767730789683
{'कर=VERB': 881684, 'वकालत=NOUN': 783}	615		7.323650427787987
{'करा=VERB': 15456, 'स्नान=NOUN': 1812}	93		7.085053368664632
{'कर=VERB': 881684, 'पूजन=NOUN': 1004}	544		5.693381787298227
{'कर=VERB': 881684, 'आधुनिकीकरण=NOUN': 287}	136		5.29979923303633
{'कर=VERB': 881684, 'संतोष=NOUN': 443}	167		4.725971700666761
{'उम्मीद=NOUN': 3925, 'जगाई=VERB': 6}	0	invalide: coocc nulle dans Conllst	n_a
{'कर=VERB': 881684, 'ऐलान=NOUN': 569}	371		6.357044527549132
{'कर=VERB': 881684}	0	invalide: mot absent Conllst	n_a_abs
{'ले=VERB': 87593, 'सहमति=NOUN': 1683}	121		5.093571570437744
{'हो=VERB': 504590, 'दर्शन=NOUN': 7621}	1551		4.291612172207569
{'करा=VERB': 15456, 'निर्माण=NOUN': 21210}	594		6.223922376478338
{'लगा=VERB': 29246, 'गुहार=NOUN': 195}	107		10.651792352261642
{'कर=VERB': 881684, 'सामना=NOUN': 3796}	3303		8.200050826805258
{'उठा=VERB': 10383, 'लुत्फ=NOUN': 173}	100		12.326478759785536
{'ले=VERB': 87593, 'राय=NOUN': 2867}	170		4.796946595487832
{'करा=VERB': 15456, 'चर्चा=NOUN': 7705}	68		4.479575150077225
{'कर=VERB': 881684, 'प्रहार=NOUN': 863}	577		6.464019200940394
{'बरत=VERB': 496, 'एहतियात=NOUN': 55}	14		14.737334312714271
{'लग=VERB': 38866, 'झटका=NOUN': 1536}	234		7.486762969749825
{'करा=VERB': 15456, 'वोटिंग=NOUN': 255}	15		7.285942163577022
{'हो=VERB': 504590, 'कार्रवाई=NOUN': 2744}	652		4.575595026633774
{'कर=VERB': 881684, 'पथराव=NOUN': 121}	55		5.18757417103185
{'बनानी=VERB': 41}	0	invalide: mot absent Conllst	n_a_abs
{'हो=VERB': 504590, 'झोंक=NOUN': 167}	30		4.0646129313941985
{'माँगा=VERB': 42}	0	invalide: mot absent Conllst	n_a_abs
{'दिला=VERB': 3602, 'याद=NOUN': 10970}	656		9.70111469088773
{'कर=VERB': 881684, 'शुरुआत=NOUN': 7449}	3774		5.495057382334135
{'लग=VERB': 38866, 'लगाम=NOUN': 230}	29		7.162205893156117
{'कर=VERB': 881684, 'पुष्टि=NOUN': 2408}	1778		6.950262438052893
{'दे=VERB': 141639, 'प्रतिक्रिया=NOUN': 4823}	647		5.404882857226452
{'रख=VERB': 50852, 'निगाह=NOUN': 912}	85		6.28646476024279
{'शोभा=NOUN': 577}	0	invalide: mot absent Conllst	n_a_abs
{'कर=VERB': 881684, 'हस्तक्षेप=NOUN': 1565}	1047		6.467470235872096
{'दिला=VERB': 3602, 'राहत=NOUN': 1882}	37		7.760782634854653
{'कर=VERB': 881684, 'बचाव=NOUN': 1894}	1053		5.77657035687382
{'हो=VERB': 504590, 'विचार=NOUN': 16343}	3778		4.532795061461894
{'मार=VERB': 12166, 'लकवा=NOUN': 65}	18		10.247325688101927
{'लगा=VERB': 29246, 'रोक=NOUN': 1738}	616		9.530110261704106
{'दे=VERB': 141639, 'गिरफ्तारी=NOUN': 768}	87		5.120880631558476
{'हो=VERB': 504590, 'कोशिश=NOUN': 7758}	1623		4.341916166112619
{'करूँग=VERB': 312, 'शुरू=NOUN': 23799}	3		3.9754887413714894
{'पड=VERB': 3238, 'गर्मी=NOUN': 4044}	22		6.035103292657729
{'ले=VERB': 87593, 'परीक्षा=NOUN': 6115}	453		5.14564444484267
{'कर=VERB': 881684, 'आत्महत्या=NOUN': 1538}	909		5.983227014490299
{'कर=VERB': 881684}	0	invalide: mot absent Conllst	n_a_abs
{'करा=VERB': 15456, 'इलाज=NOUN': 3527}	168		6.978810011071517
{'जता=VERB': 1485, 'आशंका=NOUN': 1030}	63		10.786622825908372
{'हो=VERB': 504590, 'देरी=NOUN': 825}	364		5.915881445336644
{'कर=VERB': 881684, 'कब्जा=NOUN': 2654}	1803		6.536640197972151
{'है=VERB': 51528, 'हनन=NOUN': 247}	10		4.980816610821193
{'कर=VERB': 881684, 'निर्माण=NOUN': 21210}	11460		5.702526371521159
{'कर=VERB': 881684, 'पिटाई=NOUN': 500}	273		5.717174009150217
{'कर=VERB': 881684, 'इंतजाम=NOUN': 371}	252		6.533393143286598
{'पहुँचा=VERB': 1406, 'फायदा=NOUN': 2416}	9		6.689209001063064
{'रह=VERB': 87044, 'कोशिश=NOUN': 7758}	437		4.731889176947403
{'कर=VERB': 881684, 'व्यवस्था=NOUN': 9599}	4439		5.240664080305618
{'निभा=VERB': 4582, 'भूमिका=NOUN': 11567}	2840		12.814296955476431
{'कर=VERB': 881684, 'सराहना=NOUN': 648}	450		6.635679669656413
{'रख=VERB': 50852, 'गिरवी=NOUN': 186}	106		9.975406603768663
{'हो=VERB': 504590, 'बदनामी=NOUN': 133}	56		5.796397144166195
{'हो=VERB': 504590, 'सम्मान=NOUN': 6834}	994		3.7038628209065165
{'हो=VERB': 504590, 'घाटा=NOUN': 845}	244		4.9558825984095085
{'दे=VERB': 141639, 'हक=NOUN': 1286}	175		5.423913307241417
{'कर=VERB': 881684}	0	invalide: mot absent Conllst	n_a_abs
{'कर=VERB': 881684, 'मुकाबला=NOUN': 1705}	881		5.5484585560997335
{'कर=VERB': 881684, 'पूछताछ=NOUN': 791}	469		5.993813438734186
{'दिखा=VERB': 18593, 'घाटा=NOUN': 845}	19		5.577353353949131
{'हो=VERB': 504590, 'कारण=NOUN': 18484}	6456		5.3765620826448375
{'जा=VERB': 63644}	0	invalide: mot absent Conllst	n_a_abs
{'कर=VERB': 881684}	0	invalide: mot absent Conllst	n_a_abs
{'कर=VERB': 881684, 'बयान=NOUN': 2838}	1272		5.1526159057898235
{'दे=VERB': 141639, 'फैसला=NOUN': 4957}	631		5.317681486748662
{'करा=VERB': 15456}	0	invalide: mot absent Conllst	n_a_abs
{'दे=VERB': 141639, 'फाँसी=NOUN': 2163}	679		6.967486815320864
{'कर=VERB': 881684, 'नेतृत्व=NOUN': 4904}	2884		5.968961258908377
{'कर=VERB': 881684, 'रैली=NOUN': 910}	293		4.376628267199921
{'हो=VERB': 504590, 'टन=NOUN': 1424}	360		4.693268961612531
{'कर=VERB': 881684, 'वायदा=NOUN': 294}	173		5.966566674995822
{'मिल=VERB': 67323, 'सिफारिश=NOUN': 1296}	22		3.306362466883689
{'दे=VERB': 141639, 'मंजूरी=NOUN': 1106}	612		8.403829471246416
{'कर=VERB': 881684}	0	invalide: mot absent Conllst	n_a_abs
{'कर=VERB': 881684, 'मजदूरी=NOUN': 579}	313		5.685767240507175
{'कर=VERB': 881684, 'मेल=NOUN': 4671}	1273		4.03614965317357
{'जा=VERB': 63644, 'संदेश=NOUN': 4875}	112		3.834925004468353
{'ले=VERB': 87593, 'जिम्मेदारी=NOUN': 2007}	268		6.088360587486307
{'कर=VERB': 881684, 'ऑपरेशन=NOUN': 1180}	583		5.417237805241141
{'बना=VERB': 67309, 'खाना=NOUN': 5487}	476		5.776082657491659
{'कह=VERB': 102691, 'पद=NOUN': 9685}	338		3.7678186259238253
{'ले=VERB': 87593, 'फैसला=NOUN': 4957}	702		6.193885402441836
{'ला=VERB': 16428, 'पारदर्शिता=NOUN': 278}	28		8.04058317450742
{'मानता=VERB': 86, 'प्रतिद्वंद्वी=NOUN': 1120}	0	invalide: coocc nulle dans Conllst	n_a
{'मिल=VERB': 67323, 'समर्थन=NOUN': 8477}	450		5.014420521169589
{'कहीं=VERB': 216, 'अंश=NOUN': 2685}	0	invalide: coocc nulle dans Conllst	n_a
{'चल=VERB': 40953, 'सिलसिला=NOUN': 1305}	159		7.0348430029229725
{'हो=VERB': 504590, 'सृजन=NOUN': 1115}	271		4.617493530484355
{'हो=VERB': 504590, 'बदसलूकी=NOUN': 49}	7		3.670726155321556
{'लग=VERB': 38866, 'समय=NOUN': 49522}	1922		5.397086941421679
{'रुक=VERB': 2778, 'आत्महत्या=NOUN': 1538}	0	invalide: coocc nulle dans Conllst	n_a
{'कर=VERB': 881684, 'सेना=NOUN': 9772}	4428		5.186517561389002
{'हो=VERB': 504590, 'बहस=NOUN': 2147}	620		4.957082459080805
{'सौंप=VERB': 2355, 'रिपोर्ट=NOUN': 33933}	102		5.689156273755451
{'आयात=NOUN': 1271}	0	invalide: mot absent Conllst	n_a_abs
{'हो=VERB': 504590, 'विस्फोट=NOUN': 1510}	672		5.939102255711976
{'कछुआ=VERB': 12, 'चाल=NOUN': 1369}	0	invalide: coocc nulle dans Conllst	n_a
{'लपेटा=VERB': 45, 'अखबार=NOUN': 2018}	0	invalide: coocc nulle dans Conllst	n_a
{'कर=VERB': 881684, 'वादा=NOUN': 1721}	1155		6.4814286309040625
{'बन=VERB': 76472}	0	invalide: mot absent Conllst	n_a_abs
{'हो=VERB': 504590, 'नुकसान=NOUN': 2991}	1368		6.012990491664985
{'हो=VERB': 504590}	0	invalide: mot absent Conllst	n_a_abs
{'ला=VERB': 16428, 'विधेयक=NOUN': 1085}	40		6.492709421943528
{'बटोर=VERB': 232, 'वोट=NOUN': 2774}	7		8.759887533735325
{'संभाल=VERB': 1747, 'पद=NOUN': 9685}	165		8.72246320308243
{'दे=VERB': 141639, 'रुपया=NOUN': 7810}	1122		5.5245334047435835
{'हालत=NOUN': 2512}	0	invalide: mot absent Conllst	n_a_abs
{'बना=VERB': 67309, 'रणनीति=NOUN': 1842}	190		6.0458447675137625
{'सौंप=VERB': 2355, 'हिरासत=NOUN': 635}	2		5.694073436852073
{'देख=VERB': 99684, 'खबर=NOUN': 6352}	322		4.372988730261051
{'हो=VERB': 504590, 'जरूरत=NOUN': 6078}	2105		5.3452911668083845
{'हो=VERB': 504590, 'दोष=NOUN': 2624}	897		5.313147382966723
{'कर=VERB': 881684, 'संशोधन=NOUN': 2409}	1283		5.640933816167486
{'कर=VERB': 881684, 'रूप=NOUN': 62466}	28125		5.209210423418409
{'मिल=VERB': 67323, 'इजाजत=NOUN': 525}	68		6.414479310893753
{'कर=VERB': 881684, 'रिपोर्टिंग=NOUN': 368}	191		5.560654421975914
{'मार=VERB': 12166, 'लोग=NOUN': 74884}	1508		6.216171687432549
{'पा=VERB': 27732, 'कब्जा=NOUN': 2654}	20		3.401085981408835
{'जता=VERB': 1485, 'आशा=NOUN': 2772}	22		7.719922392704138
{'संभाल=VERB': 1747, 'संतुलन=NOUN': 1402}	6		6.572599518365115
{'दे=VERB': 141639, 'भाषण=NOUN': 1985}	662		7.0964105074019255
{'रख=VERB': 50852}	0	invalide: mot absent Conllst	n_a_abs
{'ले=VERB': 87593, 'निशान=NOUN': 1277}	44		3.9740921861520206
{'ले=VERB': 87593}	0	invalide: mot absent Conllst	n_a_abs
{'दे=VERB': 141639, 'प्रवचन=NOUN': 376}	75		6.084524838891326
{'रहो=VERB': 873}	0	invalide: mot absent Conllst	n_a_abs
{'जगा=VERB': 766, 'संवेदना=NOUN': 778}	5		8.356271578963682
{'ले=VERB': 87593, 'सहयोग=NOUN': 4406}	230		4.603270007823708
{'बुला=VERB': 3711, 'बैठक=NOUN': 4531}	153		8.564901539749258
{}	0	invalide: mot absent Conllst	n_a_abs
{'रोक=VERB': 8215, 'अभियान=NOUN': 4704}	60		5.932689908648417
{'दे=VERB': 141639, 'संज्ञा=NOUN': 1223}	547		7.788661654987727
{'खोल=VERB': 6345, 'पत्र=NOUN': 8474}	21		3.9208687673468514
{'बन=VERB': 76472, 'रेलमार्ग=NOUN': 414}	26		5.078794212668962
{'दे=VERB': 141639, 'धरना=NOUN': 455}	156		7.151552086407009
{'ईसाई=VERB': 38, 'आबादी=NOUN': 5227}	0	invalide: coocc nulle dans Conllst	n_a
{'टाल=VERB': 563, 'फैसला=NOUN': 4957}	10		7.138874971998744
{'दे=VERB': 141639, 'अर्जी=NOUN': 159}	50		6.964742934765462
{'बरसा=VERB': 349, 'पानी=NOUN': 16381}	24		7.443466773620336
{'देख=VERB': 99684, 'स्वप्न=NOUN': 1003}	150		6.08993568846533
{'मार=VERB': 12166, 'आतंकी=NOUN': 910}	81		8.284112590240643
{'भेज=VERB': 10777, 'दल=NOUN': 10121}	69		4.627348808761448
{'खतरा=NOUN': 4302}	0	invalide: mot absent Conllst	n_a_abs
{'बचा=VERB': 6791, 'रास्ता=NOUN': 6615}	46		5.322921909515821
{'चला=VERB': 9172, 'अभियान=NOUN': 4704}	521		9.116586817813916
{'लगा=VERB': 29246, 'मुहर=NOUN': 336}	84		8.783656184685306
{'पढ=VERB': 2770, 'बयान=NOUN': 2838}	5		4.621170174891906
{'संभाला=VERB': 22, 'कार्यभार=NOUN': 389}	1		12.208190466538825
{'गूंज=VERB': 269, 'वातावरण=NOUN': 5224}	7		7.625347933997122
{'सुन=VERB': 9126, 'फैसला=NOUN': 4957}	56		5.602028386736675
{'छप=VERB': 789, 'तस्वीर=NOUN': 8120}	6		5.186317147728555
{'सुना=VERB': 7632, 'फैसला=NOUN': 4957}	207		7.822020580322874
{'लगा=VERB': 29246, 'माइक्रोफोन=NOUN': 355}	4		3.9093391441836505
{'खोजी=VERB': 24, 'वस्तु=NOUN': 7929}	1		7.724117528261211
{'उठ=VERB': 5752, 'तूफान=NOUN': 1079}	30		7.590208582212781
{'सुना=VERB': 7632, 'बात=NOUN': 47501}	191		4.386711215552723
{'जता=VERB': 1485}	0	invalide: mot absent Conllst	n_a_abs
{'उठा=VERB': 10383, 'मुद्दा=NOUN': 5092}	321		8.010144773357208
{'जीत=VERB': 8099, 'दिल=NOUN': 7633}	73		5.535609330496299
{'बिछा=VERB': 535, 'जाल=NOUN': 1167}	64		12.213620406300548
{'बना=VERB': 67309, 'सरकार=NOUN': 38566}	1186		4.209465516690749
{'बना=VERB': 67309, 'सदस्य=NOUN': 16036}	580		4.438424179332212
{'बिक=VERB': 1458, 'ऊंट=NOUN': 194}	0	invalide: coocc nulle dans Conllst	n_a
{'तलाश=VERB': 1086, 'चेहरा=NOUN': 4516}	1		2.9764311318046497
{'जता=VERB': 1485, 'संभावना=NOUN': 4636}	44		8.002090803291575
{'भेज=VERB': 10777, 'निमंत्रण=NOUN': 483}	86		9.609581105327246
{'बना=VERB': 67309, 'प्रधान=NOUN': 2565}	101		4.555500321820858
{'दे=VERB': 141639, 'स्वायत्तता=NOUN': 226}	49		6.236165174520013
{'किराया=NOUN': 1158}	0	invalide: mot absent Conllst	n_a_abs
{'बन=VERB': 76472, 'प्रधान=NOUN': 2565}	148		4.951023177508972
{'बढा=VERB': 3297, 'बैच=NOUN': 277}	0	invalide: coocc nulle dans Conllst	n_a
{'दे=VERB': 141639, 'रूप=NOUN': 62466}	5610		4.805626076420186
{'मना=VERB': 6263, 'वर्षगांठ=NOUN': 290}	50		10.33631198672925
{'गुना=VERB': 43, 'नाम=NOUN': 58118}	0	invalide: coocc nulle dans Conllst	n_a
{'माँग=VERB': 724, 'फिरौती=NOUN': 71}	0	invalide: coocc nulle dans Conllst	n_a
{'अपराध=NOUN': 4247, 'कुबूल=VERB': 1}	0	invalide: coocc nulle dans Conllst	n_a
{'जुटा=VERB': 1092, 'संसाधन=NOUN': 2811}	27		8.455727022706252
{'लगा=VERB': 29246, 'तस्वीर=NOUN': 8120}	123		4.347820707559723
{'चुनाव=NOUN': 9972}	0	invalide: mot absent Conllst	n_a_abs
{'दर=NOUN': 22262}	0	invalide: mot absent Conllst	n_a_abs
{'फैला=VERB': 1996, 'जागरूकता=NOUN': 760}	35		9.890492743355233
{'दे=VERB': 141639, 'पैसा=NOUN': 6370}	937		5.562509327234874
{'छूना=VERB': 39, 'मूर्ति=NOUN': 3257}	0	invalide: coocc nulle dans Conllst	n_a
{'हो=VERB': 504590}	0	invalide: mot absent Conllst	n_a_abs
{'रह=VERB': 87044, 'विरोध=NOUN': 6325}	226		4.040536125760145
{'रह=VERB': 87044, 'प्रयास=NOUN': 11621}	548		4.463348494963778
{'हार=VERB': 2553, 'सरकार=NOUN': 38566}	31		3.6203827110540323
{}	0	invalide: mot absent Conllst	n_a_abs
{'बन=VERB': 76472, 'राजमार्ग=NOUN': 786}	13		3.0841371347469875
{'कर=VERB': 881684, 'अभियुक्त=NOUN': 265}	122		5.221584220414635
{'लिख=VERB': 30018, 'पत्र=NOUN': 8474}	1007		7.485643278624807
{'चुन=VERB': 10153, 'संस्थान=NOUN': 5629}	15		3.3450125300112297
{'सट=VERB': 408, 'क्षेत्र=NOUN': 52478}	42		6.398768300475849
{'आ=VERB': 95617, 'भूकंप=NOUN': 1308}	294		6.873714403129854
{'कर=VERB': 881684}	0	invalide: mot absent Conllst	n_a_abs
{'भेज=VERB': 10777, 'खत=NOUN': 259}	6		6.407525079347199
{'हो=VERB': 504590, 'एतराज=NOUN': 78}	19		4.621007430726191
{'मिल=VERB': 67323, 'स्थान=NOUN': 48984}	1099		3.7400436878817773
{'खिल=VERB': 908}	0	invalide: mot absent Conllst	n_a_abs
{'जल=VERB': 2329, 'धूनी=NOUN': 18}	1		9.928082547346088
{'उठ=VERB': 5752, 'मामला=NOUN': 15997}	31		3.709850117114298
{'मिल=VERB': 67323, 'मजदूरी=NOUN': 579}	37		5.289706317481938
{'मिल=VERB': 67323, 'सूचना=NOUN': 7569}	821		6.140304776159595
{'मिल=VERB': 67323, 'झंडी=NOUN': 159}	25		6.739911720626164
{'चढा=VERB': 280, 'चादर=NOUN': 838}	6		9.98691143112425
{'मिल=VERB': 67323, 'मूर्ति=NOUN': 3257}	125		4.517205844313642
{'चल=VERB': 40953, 'जाँच=NOUN': 2158}	58		4.7025912707305855
{'हो=VERB': 504590, 'प्रोडक्ट=NOUN': 208}	42		4.2730667223438195
{'धारा=NOUN': 3035}	0	invalide: mot absent Conllst	n_a_abs
{'है=VERB': 51528, 'उम्मीद=NOUN': 3925}	145		4.8471557983145
{'हो=VERB': 504590, 'अधिकार=NOUN': 11730}	2822		4.605376220341911
{'मान=VERB': 41348, 'कल्पना=NOUN': 3062}	102		5.009498018536285
{'मिल=VERB': 67323, 'गति=NOUN': 6623}	147		3.7035475337444392
{'मिल=VERB': 67323, 'ओहदा=NOUN': 115}	10		5.769505773161754
{'चल=VERB': 40953, 'टैक्सी=NOUN': 703}	50		6.17341869974517
{'रह=VERB': 87044, 'भीड=NOUN': 259}	24		5.499806889232977
{'आ=VERB': 95617, 'नोटिस=NOUN': 740}	16		3.15583675579265
{'आ=VERB': 95617, 'जवाब=NOUN': 6520}	339		4.472082135772568
{'गिर=VERB': 5420, 'बर्फ=NOUN': 1704}	59		8.010905492481303
{'रह=VERB': 87044}	0	invalide: mot absent Conllst	n_a_abs
{'आ=VERB': 95617, 'श्रद्धालु=NOUN': 808}	132		6.300948920996247
{'चाह=VERB': 22880, 'आयोग=NOUN': 2098}	5		2.009508107190235
{'हो=VERB': 504590, 'सेंटर=NOUN': 1698}	158		2.971186569855176
{'चल=VERB': 40953, 'दुकान=NOUN': 4214}	92		4.39641700658526
{'आ=VERB': 95617, 'लोग=NOUN': 74884}	4594		4.790980522414825
{'रह=VERB': 87044, 'मांग=NOUN': 5511}	199		4.05585075131654
{'जम=VERB': 631, 'पर्त=NOUN': 192}	0	invalide: coocc nulle dans Conllst	n_a
{'मान=VERB': 41348, 'मंत्रालय=NOUN': 915}	8		3.0402112226633795
{'रह=VERB': 87044, 'प्रकोप=NOUN': 568}	23		4.224794292674423
{'टूट=VERB': 3265, 'हाथ=NOUN': 17002}	47		5.05363780854611
{'मिल=VERB': 67323, 'खबर=NOUN': 6352}	299		4.828597601126096
{'लगा=VERB': 29246, 'तांता=NOUN': 93}	34		9.570967008158512
{'रह=VERB': 87044, 'किरायेदार=NOUN': 80}	14		6.554156358397347
{'बदल=VERB': 15835, 'समीकरण=NOUN': 1971}	58		6.2112452860843215
{'हो=VERB': 504590, 'उद्योग=NOUN': 5754}	1195		4.3273825791532605
{'पूछ=VERB': 7085, 'सवाल=NOUN': 5756}	600		9.43431201449988
{'बच=VERB': 7650, 'ग्रिड=NOUN': 376}	0	invalide: coocc nulle dans Conllst	n_a
{'बना=VERB': 67309, 'पैटर्न=NOUN': 532}	28		4.992584201930603
{'चरा=VERB': 116, 'मवेशी=NOUN': 387}	13		13.66746546257495
{'कर=VERB': 881684, 'लाभ=NOUN': 9093}	3552		4.814827651052165
{'सुन=VERB': 9126, 'दलील=NOUN': 515}	8		6.060077100636607
{'निबटा=VERB': 18, 'याचिका=NOUN': 984}	0	invalide: coocc nulle dans Conllst	n_a
{'दे=VERB': 141639, 'फीस=NOUN': 588}	98		5.767632144962073
{'सौंप=VERB': 2355, 'सरकार=NOUN': 38566}	111		5.6320960650692005
{'दे=VERB': 141639, 'एड=NOUN': 123}	11		4.7407504377480825
{'ले=VERB': 87593, 'प्रमाण=NOUN': 3946}	107		3.618608326239502
{'मंच=NOUN': 3093}	0	invalide: mot absent Conllst	n_a_abs
{'पा=VERB': 27732, 'नियंत्रण=NOUN': 6998}	107		4.43770323175326
{'चला=VERB': 9172, 'गोली=NOUN': 3409}	323		8.83299002536964
{'गोला=NOUN': 832}	0	invalide: mot absent Conllst	n_a_abs
{'जुटा=VERB': 1092, 'जानकारी=NOUN': 31821}	68		6.333278290118938
{'छोड=VERB': 5107, 'पानी=NOUN': 16381}	89		5.391381308058523
{'बना=VERB': 67309, 'समकक्ष=NOUN': 679}	28		4.623350392264884
{'देख=VERB': 99684, 'हालत=NOUN': 2512}	190		4.986802177073362
{'जता=VERB': 1485, 'आपत्ति=NOUN': 1166}	71		10.787886291711459
{'पा=VERB': 27732, 'रुपया=NOUN': 7810}	69		3.634970952513715
{'सौंप=VERB': 2355}	0	invalide: mot absent Conllst	n_a_abs
{'बजा=VERB': 1854, 'धुन=NOUN': 961}	55		10.345433733731655
{'सवाल=NOUN': 5756}	0	invalide: mot absent Conllst	n_a_abs
{'बता=VERB': 25799, 'कारण=NOUN': 18484}	573		5.611629952338582
{'खरीद=VERB': 4580, 'तलवार=NOUN': 753}	0	invalide: coocc nulle dans Conllst	n_a
{'करा=VERB': 15456}	0	invalide: mot absent Conllst	n_a_abs
{'मिला=VERB': 5238, 'हाथ=NOUN': 17002}	248		6.837574983488905
{'कुंवारा=VERB': 5}	0	invalide: mot absent Conllst	n_a_abs
{'ले=VERB': 87593, 'चाल=NOUN': 1369}	59		4.31015680676073
{'छोड=VERB': 5107, 'हिस्सा=NOUN': 13094}	38		4.468437454387326
{'जता=VERB': 1485, 'असमर्थता=NOUN': 182}	17		11.401925105666024
{'मार=VERB': 12166, 'गोली=NOUN': 3409}	865		10.179931280075897
{'दे=VERB': 141639, 'अवसर=NOUN': 6504}	802		5.266959958109152
{'ले=VERB': 87593, 'नाव=NOUN': 1216}	84		5.030936131098293
{'भेज=VERB': 10777, 'टेलीग्राम=NOUN': 27}	4		9.281726337061885
{'लगा=VERB': 29246, 'ठुमका=NOUN': 46}	41		13.402116876906616
{'देख=VERB': 99684, 'चेहरा=NOUN': 4516}	361		5.075802779152069
{'दे=VERB': 141639, 'उत्तर=NOUN': 3690}	1174		7.000870047847513
{'बाँध=VERB': 584}	0	invalide: mot absent Conllst	n_a_abs
{'करवा=VERB': 2110}	0	invalide: mot absent Conllst	n_a_abs
{'डाल=VERB': 13213, 'हथियार=NOUN': 2688}	79		6.473901510962261
{'बना=VERB': 67309, 'कपडा=NOUN': 2591}	155		5.19106100358269
{'खुलवा=VERB': 100, 'दरवाजा=NOUN': 2402}	6		10.004382187759445
{'खुलकर=VERB': 93}	0	invalide: mot absent Conllst	n_a_abs
{'खरीद=VERB': 4580, 'हिस्सेदारी=NOUN': 682}	40		9.047442757091494
{'ले=VERB': 87593, 'रुचि=NOUN': 2275}	177		5.217617574974929
{'देख=VERB': 99684, 'बल्लेबाजी=NOUN': 668}	12		2.8229305704618333
{'दे=VERB': 141639, 'रिटर्न=NOUN': 341}	56		5.741669019963611
{'कर=VERB': 881684, 'मीटिंग=NOUN': 725}	339		5.263757814347868
{'दे=VERB': 141639, 'रिमांड=NOUN': 108}	6		4.001159968266992
{'नहाना=VERB': 41, 'संगम=NOUN': 1283}	0	invalide: coocc nulle dans Conllst	n_a
{'आ=VERB': 95617, 'परिस्थिति=NOUN': 3814}	165		4.190969703968496
{'पूछ=VERB': 7085, 'संबंध=NOUN': 9791}	17		3.2460638589567603
{'ले=VERB': 87593, 'कब्जा=NOUN': 2654}	257		5.564742250486635
{'ला=VERB': 16428, 'दायरा=NOUN': 1183}	59		6.949958892400049
{'आ=VERB': 95617, 'सत्ता=NOUN': 3909}	413		5.580194664175638
{'लौट=VERB': 6476, 'यात्रा=NOUN': 15362}	101		5.322860708039139
{'भेज=VERB': 10777, 'जेल=NOUN': 3440}	361		8.76151587318143
{'कर=VERB': 881684, 'आभार=NOUN': 926}	303		4.41110009085751
{'चुनाव=NOUN': 9972}	0	invalide: mot absent Conllst	n_a_abs
{'मिल=VERB': 67323, 'संबंधी=NOUN': 343}	6		3.3500951874821108
{'सीख=VERB': 2686, 'सबक=NOUN': 682}	37		9.705486618453424
{'कर=VERB': 881684, 'जिज्ञासा=NOUN': 205}	108		5.605669968489399
{'कर=VERB': 881684, 'क्रम=NOUN': 3841}	1517		4.837613991963036
{'कर=VERB': 881684, 'समिति=NOUN': 5055}	1871		4.686552561289254
{'भेज=VERB': 10777, 'समिति=NOUN': 5055}	40		4.840011511754991
{'डाल=VERB': 13213, 'दबाव=NOUN': 3703}	419		8.586808985500712
{'कर=VERB': 881684, 'दूत=NOUN': 714}	324		5.1835685239591704
{'कर=VERB': 881684, 'सुझाव=NOUN': 3340}	1586		5.30786010175668
{'उठा=VERB': 10383, 'घटना=NOUN': 18651}	62		3.63916036057619
{'कर=VERB': 881684, 'लोन=NOUN': 447}	121		4.020851666153225
{'कर=VERB': 881684, 'रणनीति=NOUN': 1842}	1022		5.76989122263334
{'टाल=VERB': 563, 'बात=NOUN': 47501}	40		5.957226812258471
{'निकाल=VERB': 14731, 'कंबल=NOUN': 159}	0	invalide: coocc nulle dans Conllst	n_a
{'कर=VERB': 881684, 'संभावना=NOUN': 4636}	1887		4.910797091312336
{'सजा=VERB': 870, 'प्रतिमा=NOUN': 1966}	9		7.686048264923376
{'रख=VERB': 50852, 'परंपरा=NOUN': 3915}	183		5.2215715631791
{'लग=VERB': 38866, 'वक्त=NOUN': 3240}	185		5.915508055215669
{'भेज=VERB': 10777, 'खेप=NOUN': 65}	11		9.51077013795911
{'कर=VERB': 881684}	0	invalide: mot absent Conllst	n_a_abs
{'ज्ञापन=NOUN': 553}	0	invalide: mot absent Conllst	n_a_abs
{'टाल=VERB': 563, 'सवाल=NOUN': 5756}	24		8.226418875211218
{'कर=VERB': 881684, 'हिस्सेदारी=NOUN': 682}	250		4.661824492071511
{'रख=VERB': 50852, 'फैसला=NOUN': 4957}	165		4.711002595423014
{'कर=VERB': 881684, 'जानकारी=NOUN': 31821}	7632		3.798843093005737
{'करा=VERB': 15456, 'मौजूदगी=NOUN': 668}	24		6.540828926062148
{'पा=VERB': 27732, 'दृष्टया=NOUN': 15}	1		6.633853787951272
{'समानता=NOUN': 3615}	0	invalide: mot absent Conllst	n_a_abs
{'कर=VERB': 881684, 'पिस्तौल=NOUN': 204}	55		4.012799769928141
{'मान=VERB': 41348, 'विरोधी=NOUN': 724}	48		6.050649634749514
{'पहना=VERB': 345}	0	invalide: mot absent Conllst	n_a_abs
{'कर=VERB': 881684, 'दृष्टि=NOUN': 8019}	2483		4.2978275484038795
{'कर=VERB': 881684, 'प्लांट=NOUN': 370}	175		5.294685755952201
{'दिखा=VERB': 18593, 'अवशेष=NOUN': 1190}	19		5.0738259648673605
{'कर=VERB': 881684, 'झटका=NOUN': 1536}	432		4.09758867585661
{'कर=VERB': 881684, 'रुख=NOUN': 874}	404		5.2328743286691815
{'पहचान=VERB': 1894, 'व्यक्ति=NOUN': 24590}	62		5.733271272135865
{'पा=VERB': 27732}	0	invalide: mot absent Conllst	n_a_abs
{'करा=VERB': 15456, 'दवाई=NOUN': 773}	9		4.877877849392663
{'दिला=VERB': 3602, 'सीख=NOUN': 1623}	3		4.310224747529153
{'कर=VERB': 881684, 'प्रणाली=NOUN': 10537}	5270		5.459989229047799
{'असर=NOUN': 2706}	0	invalide: mot absent Conllst	n_a_abs
{'कर=VERB': 881684, 'विश्वास=NOUN': 7771}	4116		5.6286409134463815
{'बना=VERB': 67309, 'मंत्री=NOUN': 4259}	237		5.082043612560169
{'कर=VERB': 881684, 'आशीर्वाद=NOUN': 827}	307		4.690748040194874
{'बना=VERB': 67309, 'किमी=NOUN': 13322}	75		1.6989580047431878
{'कर=VERB': 881684, 'लाइसेंस=NOUN': 1704}	856		5.465466458492341
{'मिल=VERB': 67323, 'अधिकारी=NOUN': 9378}	321		4.350116136391522
{'कर=VERB': 881684, 'विधानसभा=NOUN': 3594}	604		3.1439822088844336
{'ले=VERB': 87593}	0	invalide: mot absent Conllst	n_a_abs
{'कर=VERB': 881684, 'सेवा=NOUN': 27768}	12485		5.179361796396859
{'कर=VERB': 881684, 'गुणवत्ता=NOUN': 2775}	1431		5.543352552054072
{'बाँट=VERB': 975, 'परिवार=NOUN': 18562}	5		3.420832012392721
{'मान=VERB': 41348, 'आदेश=NOUN': 6319}	103		3.9532188540976527
{'कर=VERB': 881684}	0	invalide: mot absent Conllst	n_a_abs
{'गिरा=VERB': 705, 'ढाँचा=NOUN': 541}	0	invalide: coocc nulle dans Conllst	n_a
{'कहीं=VERB': 216, 'धरती=NOUN': 2451}	0	invalide: coocc nulle dans Conllst	n_a
{'दिला=VERB': 3602, 'वाजिब=NOUN': 121}	1		6.479348251705913
{'लग=VERB': 38866}	0	invalide: mot absent Conllst	n_a_abs
{'हो=VERB': 504590, 'सीमा=NOUN': 9129}	2414		4.786625452545776
{'लहरा=VERB': 365, 'घटना=NOUN': 18651}	0	invalide: coocc nulle dans Conllst	n_a
{'कंबल=NOUN': 159}	0	invalide: mot absent Conllst	n_a_abs
{'हो=VERB': 504590, 'खेप=NOUN': 65}	14		4.390638250547334
{'बुन=VERB': 509, 'कंबल=NOUN': 159}	2		9.919958045609745
{'हो=VERB': 504590, 'सुधार=NOUN': 8005}	1612		4.272643608423073
{'बढ़=VERB': 13394, 'जमाव=NOUN': 270}	7		6.260311592918987
{'समझ=VERB': 15399, 'पहचान=NOUN': 7244}	55		4.264818051635442
{'बता=VERB': 25799, 'मजिस्ट्रेट=NOUN': 326}	7		5.03572701126948
{'कह=VERB': 102691, 'सचिव=NOUN': 2486}	172		4.8049805513167625
{'बता=VERB': 25799, 'सूत्र=NOUN': 8823}	206		5.17048964123998
{'ले=VERB': 87593}	0	invalide: mot absent Conllst	n_a_abs
{'हो=VERB': 504590, 'घोषणा=NOUN': 6851}	1565		4.504136386472476
{'कह=VERB': 102691, 'नेता=NOUN': 8609}	607		4.8404312849327935
{'है=VERB': 51528, 'विवाद=NOUN': 4852}	106		4.065746698084701
{'बता=VERB': 25799, 'इंजीनियर=NOUN': 1195}	23		4.875485054432908
{'बता=VERB': 25799, 'कैप्टन=NOUN': 598}	10		4.668208270058337
{'बता=VERB': 25799, 'अधीक्षक=NOUN': 332}	25		6.9285532425017475
{'रख=VERB': 50852, 'इत्तेफाक=NOUN': 55}	16		8.281455615873526
{'करा=VERB': 15456, 'सहमति=NOUN': 1683}	20		4.908765044563551
{'हो=VERB': 504590, 'कार्य=NOUN': 30558}	7433		4.6396418840614
{'कर=VERB': 881684, 'मनोकामना=NOUN': 274}	143		5.577200922228923
{'रह=VERB': 87044, 'घटनाक्रम=NOUN': 533}	14		3.578959749397919
{'जा=VERB': 63644, 'हालत=NOUN': 2512}	84		4.391353943791909
{'आ=VERB': 95617, 'कपिलदेव=NOUN': 7}	0	invalide: coocc nulle dans Conllst	n_a
{'बच=VERB': 7650}	0	invalide: mot absent Conllst	n_a_abs
{'हो=VERB': 504590, 'बिजली=NOUN': 3913}	1035		4.783195069787595
{'कह=VERB': 102691, 'मीडिया=NOUN': 8994}	316		3.7775506825619765
{'हो=VERB': 504590, 'गौरव=NOUN': 646}	243		5.526540056112071
{'बता=VERB': 25799, 'चैनल=NOUN': 4119}	45		4.047534660460318
{'बना=VERB': 67309, 'हालत=NOUN': 2512}	69		4.017474935892095
{'हो=VERB': 504590, 'मोह=NOUN': 611}	169		4.8691287949198045
{'बता=VERB': 25799, 'पुलिस=NOUN': 16595}	466		5.458507188184518
{'कह=VERB': 102691}	0	invalide: mot absent Conllst	n_a_abs
{'लग=VERB': 38866}	0	invalide: mot absent Conllst	n_a_abs
{'बता=VERB': 25799, 'डॉक्टर=NOUN': 3340}	117		5.768127040967185
{'हो=VERB': 504590, 'वार्ता=NOUN': 2252}	344		3.7850718212555554
{'हो=VERB': 504590, 'जल=NOUN': 9102}	2457		4.827339373746323
{'था=VERB': 12740, 'समय=NOUN': 49522}	745		5.617458401350657
{'कह=VERB': 102691, 'सरगना=NOUN': 108}	8		4.908726715683869
{'मिल=VERB': 67323, 'गोली=NOUN': 3409}	119		4.375107141487446
{'हो=VERB': 504590, 'निर्माण=NOUN': 21210}	5932		4.907864367791254
{'कह=VERB': 102691, 'समिति=NOUN': 5055}	185		3.8367473029139925
{'बता=VERB': 25799, 'प्रवक्ता=NOUN': 838}	109		7.809910782166522
{'बता=VERB': 25799, 'नेता=NOUN': 8609}	138		4.613338841741677
{'मिल=VERB': 67323, 'मौका=NOUN': 4826}	1356		7.835385371072352
{'हो=VERB': 504590, 'बर्फ=NOUN': 1704}	487		4.935726226347828
{'घुस=VERB': 1487, 'टीम=NOUN': 11905}	3		2.7111914531409522
{'कह=VERB': 102691, 'मजिस्ट्रेट=NOUN': 326}	23		4.833181643275372
{'रह=VERB': 87044, 'रुख=NOUN': 874}	74		5.357787693689022
{'कर=VERB': 881684, 'दुकान=NOUN': 4214}	1191		4.108661156759952
{'ले=VERB': 87593, 'समझौता=NOUN': 3511}	179		4.566487087319425
{'कर=VERB': 881684, 'संकल्प=NOUN': 1585}	731		5.227350541876948
{'ले=VERB': 87593, 'प्रतिष्ठा=NOUN': 1318}	33		3.499277872713616
{'देख=VERB': 99684, 'फिसलन=NOUN': 20}	0	invalide: coocc nulle dans Conllst	n_a
{'तोड़=VERB': 1838, 'बर्फ=NOUN': 1704}	3		5.211651458831908
{'कर=VERB': 881684, 'मूर्ति=NOUN': 3257}	842		3.931765945788735
{'हटा=VERB': 9025, 'सत्ता=NOUN': 3909}	47		5.707698753316155
{'देख=VERB': 99684, 'जरूरत=NOUN': 6078}	151		3.302851821012772
{'देख=VERB': 99684, 'घाटा=NOUN': 845}	21		3.301467245674841
{'देख=VERB': 99684, 'आशंका=NOUN': 1030}	31		3.585650557272896
{'कर=VERB': 881684, 'आवश्यकता=NOUN': 11863}	5710		5.352092960641938
{'कर=VERB': 881684, 'राशि=NOUN': 5340}	2014		4.730093360142676
{'हो=VERB': 504590, 'जगह=NOUN': 16018}	3375		4.359971238419631
{'ले=VERB': 87593, 'कानून=NOUN': 6534}	305		4.434805595691767
{'करा=VERB': 15456, 'बिजली=NOUN': 3913}	43		4.796707558997797
{'दे=VERB': 141639, 'काम=NOUN': 34237}	2662		4.547733855544384
{'मिल=VERB': 67323, 'देश=NOUN': 43199}	1100		3.92716544778609
{'बचा=VERB': 6791, 'उद्योग=NOUN': 5754}	19		4.237404216149468
{'मार=VERB': 12166, 'बिजली=NOUN': 3913}	26		4.408938256163562
{'कर=VERB': 881684, 'मुराद=NOUN': 279}	44		3.033505248683356
{'मिलेग=VERB': 24, 'सीट=NOUN': 3185}	0	invalide: coocc nulle dans Conllst	n_a
{'कर=VERB': 881684, 'उद्यम=NOUN': 893}	395		5.116871970148763
{'देख=VERB': 99684, 'झील=NOUN': 3022}	68		3.1553396005210828
{'कर=VERB': 881684, 'केंद्र=NOUN': 5910}	1586		4.006142326466763
{'कर=VERB': 881684, 'संस्थान=NOUN': 5629}	1971		4.56162002666997
{'पा=VERB': 27732, 'महादेव=NOUN': 285}	9		5.503025511765642
{'ले=VERB': 87593, 'बाजार=NOUN': 7769}	288		4.087553657774951
{'काट=VERB': 4020, 'बयान=NOUN': 2838}	10		5.087395900240392
{'कर=VERB': 881684, 'शर्त=NOUN': 3186}	1410		5.1198911813981125
{'कर=VERB': 881684, 'कार्यवाही=NOUN': 1332}	681		5.516630580081072
{'ले=VERB': 87593, 'वर्चस्व=NOUN': 430}	19		4.347138672606788
{'कर=VERB': 881684, 'पट=NOUN': 146}	37		3.8918481628725523
{'संभाल=VERB': 1747, 'स्थिति=NOUN': 19068}	31		5.193264679501965
{'कर=VERB': 881684, 'रुपया=NOUN': 7810}	2298		4.19208660226829
{'ले=VERB': 87593, 'इलाज=NOUN': 3527}	203		4.7518714001706766
{'कर=VERB': 881684, 'आवेदन=NOUN': 2671}	1412		5.618292683849718
{'बचा=VERB': 6791, 'संधि=NOUN': 1734}	4		3.715306111193909
{'सुन=VERB': 9126, 'तर्क=NOUN': 3368}	10		3.654777102189747
{'ले=VERB': 87593, 'विनिवेश=NOUN': 86}	2		3.3896082890579655
{'बदल=VERB': 15835, 'स्थान=NOUN': 48984}	279		3.827576259005085
{'ले=VERB': 87593, 'पॉवर=NOUN': 425}	16		4.106199288716582
{'हो=VERB': 504590, 'पार्टी=NOUN': 8498}	1659		4.21694827203089
{'मिल=VERB': 67323, 'शाम=NOUN': 4400}	153		4.370050772388846
{'हो=VERB': 504590, 'ढंग=NOUN': 3755}	1084		4.9577560676605215
{'लगा=VERB': 29246, 'आयात=NOUN': 1271}	66		6.177305156940589
{'बैठ=VERB': 9679, 'बात=NOUN': 47501}	439		5.28254571292141
{'कर=VERB': 881684, 'लंच=NOUN': 163}	72		5.1127667571262805
{'दे=VERB': 141639, 'कोटा=NOUN': 201}	24		5.206163122514773
{'करा=VERB': 15456, 'हिरासत=NOUN': 635}	5		4.307728215027719
{'कर=VERB': 881684, 'जनसभा=NOUN': 100}	41		4.925494622745938
{'छुआ=VERB': 82, 'मूर्ति=NOUN': 3257}	0	invalide: coocc nulle dans Conllst	n_a
{'डूब=VERB': 1669, 'समुद्र=NOUN': 5634}	58		7.959646102057293
{'फँसा=VERB': 102, 'तरीका=NOUN': 11487}	0	invalide: coocc nulle dans Conllst	n_a
{'रख=VERB': 50852, 'कब्जा=NOUN': 2654}	73		4.42458650072963
{'मार=VERB': 12166, 'मुठभेड=NOUN': 263}	43		9.279866635777536
{'डर=VERB': 1366, 'लोकप्रियता=NOUN': 1645}	0	invalide: coocc nulle dans Conllst	n_a
{'लौट=VERB': 6476, 'घर=NOUN': 26066}	681		7.479650134005964
{'तल=NOUN': 2143}	0	invalide: mot absent Conllst	n_a_abs
{'सौंप=VERB': 2355, 'ज्ञापन=NOUN': 553}	92		11.731338877865495
{'चुन=VERB': 10153, 'अवधारणा=NOUN': 2737}	6		3.0614040018570567
{'मान=VERB': 41348, 'यात्रा=NOUN': 15362}	107		2.7131014637025626
{'कर=VERB': 881684, 'सत्र=NOUN': 3461}	1591		5.220019840294919
{'बता=VERB': 25799, 'बात=NOUN': 47501}	1588		5.78342579834442
{'करा=VERB': 15456, 'मूर्ति=NOUN': 3257}	22		4.086477962854077
{'कर=VERB': 881684, 'कैदी=NOUN': 723}	271		4.7129321608602375
{'बता=VERB': 25799, 'आशंका=NOUN': 1030}	15		4.465858841981146
{'कर=VERB': 881684, 'जवाब=NOUN': 6520}	2029		4.307574589227967
{'कह=VERB': 102691, 'योजना=NOUN': 16021}	407		3.2965322010152014
{'दे=VERB': 141639, 'बिजली=NOUN': 3913}	283		4.4103515458813085
{'कर=VERB': 881684, 'खर्चा=NOUN': 486}	235		5.355876551010878
{'मान=VERB': 41348, 'मंदिर=NOUN': 12392}	273		4.402221878494673
{'कर=VERB': 881684, 'परिषद=NOUN': 1868}	653		4.555786057343903
{'कर=VERB': 881684}	0	invalide: mot absent Conllst	n_a_abs
{'ला=VERB': 16428, 'धरोहर=NOUN': 1018}	5		3.534500298819097
{'कर=VERB': 881684, 'केस=NOUN': 1639}	627		4.760872957826511
{'कर=VERB': 881684, 'दर=NOUN': 22262}	4618		3.5242572589041976
{'कर=VERB': 881684}	0	invalide: mot absent Conllst	n_a_abs
{'कर=VERB': 881684, 'बाधा=NOUN': 1749}	783		5.148789484453005
{'कर=VERB': 881684, 'परीक्षा=NOUN': 6115}	2270		4.693946456402943
{'बढ़=VERB': 13394, 'यात्री=NOUN': 9314}	25		2.9563654082947295
{'रख=VERB': 50852, 'दर=NOUN': 22262}	515		4.180988962780893
{'मानसून=NOUN': 622}	0	invalide: mot absent Conllst	n_a_abs
{'हो=VERB': 504590, 'मजदूरी=NOUN': 579}	121		4.335674088886935
{'देख=VERB': 99684}	0	invalide: mot absent Conllst	n_a_abs
{'हो=VERB': 504590, 'प्रदूषण=NOUN': 1445}	395		4.846333676226878
{'जता=VERB': 1485, 'वैज्ञानिक=NOUN': 5147}	5		4.662853471042106
{'चला=VERB': 9172, 'संगठन=NOUN': 9235}	89		5.368275793855023
{'है=VERB': 51528, 'सरकार=NOUN': 38566}	581		3.5329633083727483
{'वैज्ञानिक=NOUN': 5147, 'जगाई=VERB': 6}	0	invalide: coocc nulle dans Conllst	n_a
{'आ=VERB': 95617, 'मामला=NOUN': 15997}	808		4.435156547734563
{'हो=VERB': 504590, 'श्रद्धालु=NOUN': 808}	141		4.0140802386359375
{'पहाड़ि=NOUN': 694}	0	invalide: mot absent Conllst	n_a_abs
{'हो=VERB': 504590, 'नीलामी=NOUN': 419}	114		4.836219202760152
{'कह=VERB': 102691, 'वक्ता=NOUN': 661}	53		5.033208234671774
{'दे=VERB': 141639, 'परिणाम=NOUN': 13491}	752		4.013866200748652
{'कर=VERB': 881684, 'पृष्ठ=NOUN': 6488}	2025		4.313743987396633
{'हो=VERB': 504590, 'यात्री=NOUN': 9314}	755		2.7549352134584257
{'दोहरा=VERB': 1139, 'वादा=NOUN': 1721}	2		5.302050363134403
{'कर=VERB': 881684, 'मोहरा=NOUN': 129}	33		3.9100041952183555
{'कर=VERB': 881684, 'माँग=NOUN': 1001}	511		5.511896508869821
{'कर=VERB': 881684, 'दिन=NOUN': 72309}	13666		3.3716874196834428
{'कर=VERB': 881684, 'प्रतिमा=NOUN': 1966}	577		4.184059653737389
{'कर=VERB': 881684, 'कार्यक्रम=NOUN': 12600}	5686		5.177746176484635
{'स्थिरता=NOUN': 739}	0	invalide: mot absent Conllst	n_a_abs
{'जा=VERB': 63644}	0	invalide: mot absent Conllst	n_a_abs
{'कर=VERB': 881684, 'स्थल=NOUN': 23713}	4153		3.2216495721318577
{'कर=VERB': 881684, 'अस्पताल=NOUN': 3563}	1157		4.396165236250172
{'मिल=VERB': 67323, 'अजूबा=NOUN': 65}	1		3.1616303151088236
{'ला=VERB': 16428, 'सत्र=NOUN': 3461}	22		3.910143036491577
{'कीमत=NOUN': 5957}	0	invalide: mot absent Conllst	n_a_abs
{'देख=VERB': 99684, 'दादा=NOUN': 319}	13		4.03858642430634
{'रख=VERB': 50852, 'राशि=NOUN': 5340}	494		6.286275907445059
{'कर=VERB': 881684, 'पद=NOUN': 9685}	3450		4.602381670781958
{'मार=VERB': 12166, 'पैर=NOUN': 3790}	73		5.968437748950737
{'रह=VERB': 87044, 'तेजी=NOUN': 4982}	295		4.805983289620782
{'दिखा=VERB': 18593, 'रिपोर्ट=NOUN': 33933}	104		2.680507962539247
{'कर=VERB': 881684, 'संबंध=NOUN': 9791}	3509		4.616107797598926
{'आ=VERB': 95617, 'पार=NOUN': 4501}	260		4.631548549099837
{'हो=VERB': 504590, 'हिस्सा=NOUN': 13094}	3205		4.63936113889923
