langue source	NF	mwe à traduire	mwe traduite	Nbmots traduction
HI	कर;तस्करी	कर तस्करी	contrebande|fiscale	2
HI	कर;प्रश्न	कर प्रश्न	question|fiscale	2
HI	दे;सहयोग	दे सहयोग	donner|coopération	2
HI	शक;हो	हो शक	ho|doute	2
HI	बैरल;हो	हो बैरल	canon|ho	2
HI	आयात;कर	कर आयात	importation|fiscale	2
HI	कर;खर्च	कर खर्च	dépenses|fiscales	2
HI	कर;संपर्क	कर संपर्क	contact|fiscal	2
HI	इस्तीफा;दे	दे इस्तीफा	donner|sa|démission	3
HI	अंजाम;दे	दे अंजाम	donner|résultat	2
HI	कर;दस्तखत	कर दस्तखत	signature|fiscale	2
HI	दे;श्रद्घांजलि	दे श्रद्घांजलि	rendez|hommage	2
HI	माँग;ले	ले माँग	prendre|demande	2
HI	कर;लाठीचार्ज	कर लाठीचार्ज	lathicharge|fiscale	2
HI	उल्लंघन;कर	कर उल्लंघन	violation|fiscale	2
HI	कर;तपस्या	कर तपस्या	pénitence|fiscale	2
HI	लपेटा;सांप	लपेटा सांप	serpent|enveloppé	2
HI	कर;विनिवेश	कर विनिवेश	désinvestissement|fiscal	2
HI	कर;प्रचार	कर प्रचार	publicité|fiscale	2
HI	कर;गठन	कर गठन	formation|fiscale	2
HI	कर;शिरकत	कर शिरकत	crédit|d'impôt	2
HI	करा;सैर	करा सैर	promenade|kara	2
HI	रख;हड़ताल	रख हड़ताल	grève|grève	2
HI	दाखिला;ले	ले दाखिला	prendre|l'admission	2
HI	चुनौती;दे	दे चुनौती	donner|défi	2
HI	कर;पालन	कर पालन	conformité|fiscale	2
HI	कर;सम्मान	कर सम्मान	respect|fiscal	2
HI	करवा;चुनाव	करवा चुनाव	élection|menée	2
HI	कर;सुनवाई	कर सुनवाई	audience|fiscale	2
HI	दिला;पतंग	दिला पतंग	cerf-volant|en|direct	3
HI	इन्कार;कर	कर इन्कार	refus|taxe	2
HI	इजाफा;हो	हो इजाफा	ho|rise	2
HI	दे;व्याख्यान	दे व्याख्यान	faire|conférence	2
HI	अर्चना;पूजा	अर्चना पूजा	archana|pooja	2
HI	आरोप;कबूल	कबूल आरोप	avouer|charges	2
HI	दे;मात	दे मात	donner|chèque	2
HI	उल्लेख;कर	कर उल्लेख	référence|fiscale	2
HI	कर;लाँच	कर लाँच	lancement|fiscal	2
HI	चढ़ा;चादर	चढ़ा चादर	feuille|bordée	2
HI	ले;सलाह	ले सलाह	prendre|conseil	2
HI	कर;सहयोग	कर सहयोग	coopération|fiscale	2
HI	जता;विरोध	जता विरोध	une|opposition|acharnée	3
HI	कर;धारण	कर धारण	détention|fiscale	2
HI	अमल;कर	कर अमल	mise|en|place|de|la|taxe	6
HI	ले;हिस्सा	ले हिस्सा	prendre|part	2
HI	कर;मदद	कर मदद	aide|fiscale	2
HI	कर;भ्रमण	कर भ्रमण	visite|fiscale	2
HI	कर;प्रस्थान	कर प्रस्थान	départ|fiscal	2
HI	कर;याद	कर याद	n'oubliez|pas,|souvenez-vous	3
HI	तबियत;बिगड़	बिगड़ तबियत	détérioration|de|la|santé	4
HI	उदासीन;रवैया	उदासीन रवैया	attitude|apathique	2
HI	उद्घाटन;कर	कर उद्घाटन	ouverture|fiscale	2
HI	दे;प्रशिक्षण	दे प्रशिक्षण	donner|formation	2
HI	कर;निंदा	कर निंदा	condamnation|fiscale	2
HI	मुक्की;हो	हो मुक्की	ho|mukki	2
HI	कर;प्रदर्शन	कर प्रदर्शन	performance|fiscale	2
HI	करा;दफा	करा दफा	une|fois|que	3
HI	कर;परीक्षण	कर परीक्षण	test|fiscal	2
HI	कर;फरोख्त	कर फरोख्त	vente|d'impôt	2
HI	भाग;ले	ले भाग	prendre|part	2
HI	खाना;चिकन	खाना चिकन	manger|du|poulet	3
HI	कर;हाथ	कर हाथ	faire|mains	2
HI	कमी;कर	कर कमी	réduction|d'impôt	2
HI	कर;भंग	कर भंग	allégement|fiscal	2
HI	कर;बलात्कार	कर बलात्कार	viol|fiscal	2
HI	कर;नीलाम	कर नीलाम	enchères|fiscales	2
HI	कर;गड़बड़ी	कर गड़बड़ी	perturbations|fiscales	2
HI	बन;रुख	बन रुख	devenir|position	2
HI	कर;बदलाव	कर बदलाव	modification|fiscale	2
HI	कस;लगाम	कस लगाम	fin|serrée	2
HI	बदल;हो	हो बदल	être|changé	2
HI	कर;तलाश	कर तलाश	recherche|fiscale	2
HI	कटौती;कर	कर कटौती	remise|sur|les|impôts	4
HI	रच;साजिश	रच साजिश	parcelle|terrain	2
HI	दिला;भरोसा	दिला भरोसा	bonne|foi	2
HI	कर;समीक्षा	कर समीक्षा	revue|fiscale	2
HI	करा;रजिस्ट्रेशन	करा रजिस्ट्रेशन	enregistrement|fiscal	2
HI	अर्चना;कर	कर अर्चना	remise|sur|les|impôts	4
HI	फांस;बन	बन फांस	devenez|piégé	2
HI	प्रस्ताव;रख	रख प्रस्ताव	garder|l'offre	2
HI	दे;बयान	दे बयान	donner|déclaration	2
HI	दे;न्यौता	दे न्यौता	faire|invitation	2
HI	इंकार;कर	कर इंकार	refus|fiscal	2
HI	अनुमति;दे	दे अनुमति	donner|permission	2
HI	आह्वान;कर	कर आह्वान	appel|fiscal	2
HI	आश्वासन;दे	दे आश्वासन	donner|l'assurance	2
HI	जमानत;दे	दे जमानत	donner|caution	2
HI	महाधिवेशन;हो	हो महाधिवेशन	ho|convention	2
HI	कर;खुलासा	कर खुलासा	divulgation|fiscale	2
HI	अपील;कर	कर अपील	appel|fiscal	2
HI	अगवा;कर	कर अगवा	enlèvement|fiscal	2
HI	कर;स्थापना	कर स्थापना	etablissement|fiscal	2
HI	कर;परहेज	कर परहेज	évasion|fiscale	2
HI	कड़ाह;दे	दे कड़ाह	donnez|amer	2
HI	कर;गुज़ारिश	कर गुज़ारिश	demande|fiscale	2
HI	इंतजार;कर	कर इंतजार	attendez,|attendez	2
HI	चेतावनी;दे	दे चेतावनी	donner|avertissement	2
HI	आक्रमण;कर	कर आक्रमण	attaque|fiscale	2
HI	चुप्पी;साध	साध चुप्पी	silence|silencieux	2
HI	जन्म;दे	दे जन्म	donner|naissance	2
HI	कर;जांच	कर जांच	contrôle|fiscal	2
HI	करा;चुनाव	करा चुनाव	choix|fiscal	2
HI	कर;तैयारी	कर तैयारी	préparation|d'impôt	2
HI	कर;घेराबंदी	कर घेराबंदी	siège|fiscal	2
HI	कर;स्वागत	कर स्वागत	bienvenue|fiscal	2
HI	कर;दुआ	कर दुआ	soyez|bénis	2
HI	कर;खंडन	कर खंडन	réfutation|fiscale	2
HI	आ;जिक्र	आ जिक्र	aa|mention	2
HI	कर;वकालत	कर वकालत	plaidoyer|fiscal	2
HI	करा;स्नान	करा स्नान	bain|kara	2
HI	कर;पूजन	कर पूजन	culte|fiscal	2
HI	आधुनिकीकरण;कर	कर आधुनिकीकरण	modernisation|fiscale	2
HI	कर;संतोष	कर संतोष	satisfaction|fiscale	2
HI	उम्मीद;जगाई	जगाई उम्मीद	espoir|suscité	2
HI	ऐलान;कर	कर ऐलान	déclaration|d'impôts	2
HI	कर;बहिर्गमन	कर बहिर्गमन	sortie|d'impôt	2
HI	ले;सहमति	ले सहमति	acceptez|consentement	2
HI	दर्शन;हो	हो दर्शन	ho|darshan	2
HI	करा;निर्माण	करा निर्माण	construction|kara	2
HI	कर;सामना	कर सामना	face|it	2
HI	उठा;लुत्फ	उठा लुत्फ	je|me|suis|réveillé|en|profitant	6
HI	राय;ले	ले राय	le|rai	2
HI	करा;चर्चा	करा चर्चा	discussion|fiscale	2
HI	कर;प्रहार	कर प्रहार	frappe|fiscale	2
HI	एहतियात;बरत	बरत एहतियात	des|mesures|de|précaution	4
HI	झटका;लग	लग झटका	saccade|sonnant	2
HI	करा;वोटिंग	करा वोटिंग	kara|vote	2
HI	कार्रवाई;हो	हो कार्रवाई	soyez|action	2
HI	कर;पथराव	कर पथराव	pierre|d'impôt	2
HI	बनानी;सड़क	बनानी सड़क	route|bani	2
HI	इजाज़त;माँगा	माँगा इजाज़त	demander|permission	2
HI	दिला;याद	दिला याद	mémoire|en|direct	3
HI	कर;शुरुआत	कर शुरुआत	commencer|à|faire	3
HI	लग;लगाम	लग लगाम	lag|lagam	2
HI	कर;पुष्टि	कर पुष्टि	confirmation|fiscale	2
HI	दे;प्रतिक्रिया	दे प्रतिक्रिया	donner|commentaires	2
HI	निगाह;रख	रख निगाह	garder|oeil	2
HI	बढ़ा;शोभा	बढ़ा शोभा	grâce|accrue	2
HI	कर;हस्तक्षेप	कर हस्तक्षेप	intervention|fiscale	2
HI	दिला;राहत	दिला राहत	le|soulagement	2
HI	कर;बचाव	कर बचाव	évasion|fiscale	2
HI	विचार;हो	हो विचार	considérer|comme	2
HI	रोक;लगा	लगा रोक	arrêtez|tenir	2
HI	कोशिश;हो	हो कोशिश	ho|essayez	2
HI	करूँग;शुरू	करूँग शुरू	va|commencer	2
HI	गर्मी;पड	पड गर्मी	la|chaleur|de|l'été	4
HI	परीक्षा;ले	ले परीक्षा	passer|examen	2
HI	आत्महत्या;कर	कर आत्महत्या	suicide|fiscal	2
HI	कर;मुलाक़ात	कर मुलाक़ात	visite|fiscale	2
HI	इलाज;करा	करा इलाज	traitement|cure	2
HI	देरी;हो	हो देरी	être|en|retard	3
HI	कब्जा;कर	कर कब्जा	capture|d'impôt	2
HI	हनन;है	है हनन	les|abus	2
HI	कर;निर्माण	कर निर्माण	création|fiscale	2
HI	इंतजाम;कर	कर इंतजाम	arrangement|fiscal	2
HI	पहुँचा;फायदा	पहुँचा फायदा	avantage|d'accès	2
HI	कोशिश;रह	रह कोशिश	restez|essayer	2
HI	कर;व्यवस्था	कर व्यवस्था	régime|fiscal	2
HI	निभा;भूमिका	निभा भूमिका	jouer|rôle	2
HI	कर;सराहना	कर सराहना	appréciation|fiscale	2
HI	गिरवी;रख	रख गिरवी	prêt|hypothécaire	2
HI	बदनामी;हो	हो बदनामी	soyez|calomnieux	2
HI	सम्मान;हो	हो सम्मान	ho|respect	2
HI	घाटा;हो	हो घाटा	ho|loss	2
HI	दे;हक	दे हक	de|droite	2
HI	कर;ताछ	कर ताछ	crédit|d'impôt	2
HI	कर;मुकाबला	कर मुकाबला	lutte|fiscale	2
HI	कर;पूछताछ	कर पूछताछ	enquête|fiscale	2
HI	घाटा;दिखा	दिखा घाटा	perte|montrant	2
HI	कारण;हो	हो कारण	soyez|raison	2
HI	उत्पीड़न;कर	कर उत्पीड़न	harcèlement|fiscal	2
HI	कर;बयान	कर बयान	déclaration|fiscale	2
HI	दे;फैसला	दे फैसला	donner|décision	2
HI	करा;टैप	करा टैप	kara|tap	2
HI	दे;फाँसी	दे फाँसी	donner|coup	2
HI	कर;नेतृत्व	कर नेतृत्व	leadership|fiscal	2
HI	कर;रैली	कर रैली	rassemblement|fiscal	2
HI	टन;हो	हो टन	ho|ton	2
HI	कर;वायदा	कर वायदा	contrats|à|terme|fiscaux	4
HI	मिल;सिफारिश	मिल सिफारिश	obtenir|recommandation	2
HI	दे;मंजूरी	दे मंजूरी	donner|l'approbation	2
HI	कर;बाड़बंदी	कर बाड़बंदी	clôture|fiscale	2
HI	कर;मजदूरी	कर मजदूरी	salaire|fiscal	2
HI	कर;मेल	कर मेल	courrier|fiscal	2
HI	जा;संदेश	जा संदेश	message|en|cours	3
HI	जिम्मेदारी;ले	ले जिम्मेदारी	prendre|responsabilité	2
HI	ऑपरेशन;कर	कर ऑपरेशन	opération|fiscale	2
HI	खाना;बना	बना खाना	nourriture|préparée	2
HI	कह;पद	कह पद	dire|message	2
HI	पारदर्शिता;ला	ला पारदर्शिता	la|transparence	2
HI	प्रतिद्वंद्वी;मानता	मानता प्रतिद्वंद्वी	rival|supposé	2
HI	मिल;समर्थन	मिल समर्थन	obtenir|l'aide	2
HI	अंश;कहीं	कहीं अंश	quelque|part	2
HI	चल;सिलसिला	चल सिलसिला	séquence|course	2
HI	सृजन;हो	हो सृजन	ho|creation	2
HI	बदसलूकी;हो	हो बदसलूकी	ho|malchance	2
HI	लग;समय	लग समय	temps|pris	2
HI	आत्महत्या;रुक	रुक आत्महत्या	arrêtez|suicide	2
HI	कर;सेना	कर सेना	armée|fiscale	2
HI	बहस;हो	हो बहस	ho|argument	2
HI	रिपोर्ट;सौंप	सौंप रिपोर्ट	rapport|soumis	2
HI	आयात;बढ़	बढ़ आयात	augmentation|importations	2
HI	विस्फोट;हो	हो विस्फोट	ho|blast	2
HI	कछुआ;चाल	कछुआ चाल	coup|d'escargot	2
HI	अखबार;लपेटा	लपेटा अखबार	journal|enveloppé	2
HI	बन;हिमलिंग	बन हिमलिंग	ban|himling	2
HI	नुकसान;हो	हो नुकसान	ho|loss	2
HI	निष्कंटक;हो	हो निष्कंटक	être|honnête	2
HI	ला;विधेयक	ला विधेयक	la|bill	2
HI	बटोर;वोट	बटोर वोट	recueillir|votes	2
HI	पद;संभाल	संभाल पद	poteau|poignée	2
HI	दे;रुपया	दे रुपया	donner|l'argent	2
HI	बिगड़;हालत	बिगड़ हालत	détérioration|l'état	2
HI	बना;रणनीति	बना रणनीति	stratégie|élaborée	2
HI	सौंप;हिरासत	सौंप हिरासत	garde|confiée	2
HI	खबर;देख	देख खबर	voir|nouvelles	2
HI	जरूरत;हो	हो जरूरत	besoin|d'être	2
HI	दोष;हो	हो दोष	ho|blâme	2
HI	कर;संशोधन	कर संशोधन	modification|fiscale	2
HI	कर;रूप	कर रूप	formulaire|d'impôt	2
HI	इजाजत;मिल	मिल इजाजत	obtenir|permission	2
HI	कर;रिपोर्टिंग	कर रिपोर्टिंग	déclaration|fiscale	2
HI	मार;लोग	मार लोग	tuer|gens	2
HI	कब्जा;पा	पा कब्जा	obtenez|possession	2
HI	आशा;जता	जता आशा	espoir|exprimé	2
HI	संतुलन;संभाल	संभाल संतुलन	équilibre|de|la|poignée	4
HI	दे;भाषण	दे भाषण	donner|parole	2
HI	नज़र;रख	रख नज़र	garder|oeil	2
HI	निशान;ले	ले निशान	marque|port	2
HI	जायज़ा;ले	ले जायज़ा	stock|stock	2
HI	दे;प्रवचन	दे प्रवचन	donner|discours	2
HI	बचका;रहो	रहो बचका	restez|enfant	2
HI	जगा;संवेदना	जगा संवेदना	sensation|réveil	2
HI	ले;सहयोग	ले सहयोग	prenez|coopération	2
HI	बुला;बैठक	बुला बैठक	convocation|à|une|réunion	4
HI	पड़ा;लुहान	पड़ा लुहान	lie|luhan	2
HI	अभियान;रोक	रोक अभियान	arrêter|campagne	2
HI	दे;संज्ञा	दे संज्ञा	donner|nom	2
HI	खोल;पत्र	खोल पत्र	papier|coquillage	2
HI	बन;रेलमार्ग	बन रेलमार्ग	chemin|de|fer|de|bun	5
HI	आबादी;ईसाई	ईसाई आबादी	population|chrétienne	2
HI	अर्जी;दे	दे अर्जी	donner|demande	2
HI	पानी;बरसा	बरसा पानी	eau|pluie	2
HI	देख;स्वप्न	देख स्वप्न	voir|rêve	2
HI	आतंकी;मार	मार आतंकी	tuer|terroriste	2
HI	दल;भेज	भेज दल	envoyer|l'équipe	2
HI	खतरा;बढ़	बढ़ खतरा	danger|accru	2
HI	बचा;रास्ता	बचा रास्ता	manière|restante	2
HI	अभियान;चला	चला अभियान	exécution|de|la|campagne	4
HI	पढ;बयान	पढ बयान	lire|déclaration	2
HI	कार्यभार;संभाला	संभाला कार्यभार	frais|manutention	2
HI	गूंज;वातावरण	गूंज वातावरण	atmosphère|d'écho	2
HI	फैसला;सुन	सुन फैसला	entendre|jugement	2
HI	छप;तस्वीर	छप तस्वीर	splash|photo	2
HI	फैसला;सुना	सुना फैसला	jugement|entendu	2
HI	खोजी;वस्तु	खोजी वस्तु	rechercher|élément	2
HI	उठ;तूफान	उठ तूफान	rise|storm	2
HI	उठा;मुद्दा	उठा मुद्दा	problème|soulevé	2
HI	जीत;दिल	जीत दिल	gagner|cœur	2
HI	जाल;बिछा	बिछा जाल	filet|lit	2
HI	बना;सरकार	बना सरकार	gouvernement|formé	2
HI	बना;सदस्य	बना सदस्य	membre|créé	2
HI	ऊंट;बिक	बिक ऊंट	chameau|vendu	2
HI	निमंत्रण;भेज	भेज निमंत्रण	envoyer|invitation	2
HI	प्रधान;बना	बना प्रधान	tête|faite	2
HI	दे;स्वायत्तता	दे स्वायत्तता	donner|l'autonomie	2
HI	किराया;बढ़ा	बढ़ा किराया	augmentation|du|loyer	3
HI	प्रधान;बन	बन प्रधान	devenez|premier	2
HI	बढा;बैच	बढा बैच	lot|augmenté	2
HI	दे;रूप	दे रूप	donner|formulaire	2
HI	गुना;नाम	गुना नाम	गुना|नाम	2
HI	फिरौती;माँग	माँग फिरौती	माँग|फिरौती	2
HI	अपराध;कुबूल	कुबूल अपराध	crime|qubool	2
HI	जुटा;संसाधन	जुटा संसाधन	ressources|mobilisées	2
HI	तस्वीर;लगा	लगा तस्वीर	image|en|feutre	3
HI	चुनाव;लड़	लड़ चुनाव	lutter|contre|les|élections	4
HI	दर;बढ़ा	बढ़ा दर	बढ़ा|दर	2
HI	जागरूकता;फैला	फैला जागरूकता	फैला|जागरूकता	2
HI	दे;पैसा	दे पैसा	donner|l'argent	2
HI	छूना;मूर्ति	छूना मूर्ति	छूना|मूर्ति	2
HI	फिसड्डी;हो	हो फिसड्डी	ho|booby	2
HI	रह;विरोध	रह विरोध	restez|opposé	2
HI	प्रयास;रह	रह प्रयास	effort|en|direct	3
HI	सरकार;हार	हार सरकार	vaincre|gouvernement	2
HI	कालिया;हुकुमचंद	कालिया हुकुमचंद	kalia|hukumchand	2
HI	बन;राजमार्ग	बन राजमार्ग	autoroute|bun	2
HI	अभियुक्त;कर	कर अभियुक्त	कर|अभियुक्त	2
HI	पत्र;लिख	लिख पत्र	la|rédaction|de|lettres	4
HI	चुन;संस्थान	चुन संस्थान	institut|chun	2
HI	क्षेत्र;सट	सट क्षेत्र	zone|adjacente	2
HI	आ;भूकंप	आ भूकंप	aa|tremblement|de|terre	4
HI	कर;टिथी	कर टिथी	kar|tithi	2
HI	खत;भेज	भेज खत	भेज|खत	2
HI	एतराज;हो	हो एतराज	ça|te|derange	3
HI	मिल;स्थान	मिल स्थान	emplacement|du|moulin	3
HI	खिल;बाछ	खिल बाछ	veau|en|fleur	3
HI	जल;धूनी	जल धूनी	fumigation|à|l'eau	3
HI	उठ;मामला	उठ मामला	matter|up	2
HI	मजदूरी;मिल	मिल मजदूरी	salaires|d'usine	2
HI	मिल;सूचना	मिल सूचना	मिल|सूचना	2
HI	झंडी;मिल	मिल झंडी	drapeau|du|moulin	3
HI	चढा;चादर	चढा चादर	feuille|montage	2
HI	मिल;मूर्ति	मिल मूर्ति	मिल|मूर्ति	2
HI	चल;जाँच	चल जाँच	vérification|en|cours	3
HI	प्रोडक्ट;हो	हो प्रोडक्ट	हो|प्रोडक्ट	2
HI	धारा;पकड़ा	पकड़ा धारा	पकड़ा|धारा	2
HI	उम्मीद;है	है उम्मीद	avoir|l'espoir	2
HI	अधिकार;हो	हो अधिकार	avoir|raison	2
HI	कल्पना;मान	मान कल्पना	मान|कल्पना	2
HI	गति;मिल	मिल गति	vitesse|broyage	2
HI	ओहदा;मिल	मिल ओहदा	obtenez|rang	2
HI	चल;टैक्सी	चल टैक्सी	taxi|mobile	2
HI	भीड;रह	रह भीड	रह|भीड	2
HI	आ;नोटिस	आ नोटिस	venez|remarquer	2
HI	आ;जवाब	आ जवाब	venez|répondre	2
HI	गिर;बर्फ	गिर बर्फ	neige|d'automne	2
HI	दुब;रह	रह दुब	restez|muet	2
HI	आ;श्रद्धालु	आ श्रद्धालु	aa|fidèle	2
HI	आयोग;चाह	चाह आयोग	चाह|आयोग	2
HI	सेंटर;हो	हो सेंटर	हो|सेंटर	2
HI	चल;दुकान	चल दुकान	magasin|de|téléphone|mobiles	4
HI	आ;लोग	आ लोग	venez|gens	2
HI	मांग;रह	रह मांग	रह|मांग	2
HI	जम;पर्त	जम पर्त	जम|पर्त	2
HI	मंत्रालय;मान	मान मंत्रालय	मान|मंत्रालय	2
HI	टूट;हाथ	टूट हाथ	des|mains|cassées	3
HI	खबर;मिल	मिल खबर	obtenir|nouvelles	2
HI	तांता;लगा	लगा तांता	afflux|feutre	2
HI	किरायेदार;रह	रह किरायेदार	locataire|vivant	2
HI	बदल;समीकरण	बदल समीकरण	transformer|l'équation	2
HI	उद्योग;हो	हो उद्योग	ho|industrie	2
HI	पूछ;सवाल	पूछ सवाल	poser|questions	2
HI	ग्रिड;बच	बच ग्रिड	grille|d'échappement	2
HI	पैटर्न;बना	बना पैटर्न	motif|fait	2
HI	चरा;मवेशी	चरा मवेशी	चरा|मवेशी	2
HI	कर;लाभ	कर लाभ	avantages|fiscaux	2
HI	दलील;सुन	सुन दलील	écoutez|plaidoyer	2
HI	निबटा;याचिका	निबटा याचिका	pétition|réglée	2
HI	दे;फीस	दे फीस	donner|frais	2
HI	सरकार;सौंप	सौंप सरकार	gouvernement|confié	2
HI	एड;दे	दे एड	donner|ed	2
HI	प्रमाण;ले	ले प्रमाण	ले|प्रमाण	2
HI	छोड़;मंच	छोड़ मंच	plateforme|drop	2
HI	नियंत्रण;पा	पा नियंत्रण	contrôle|sur	2
HI	गोली;चला	चला गोली	shot|shot	2
HI	गोला;छोड़	छोड़ गोला	छोड़|गोला	2
HI	जानकारी;जुटा	जुटा जानकारी	जुटा|जानकारी	2
HI	छोड;पानी	छोड पानी	छोड|पानी	2
HI	बना;समकक्ष	बना समकक्ष	बना|समकक्ष	2
HI	देख;हालत	देख हालत	état|recherche	2
HI	पा;रुपया	पा रुपया	pa|roupie	2
HI	प्रधानगी;सौंप	सौंप प्रधानगी	mandataire|confié	2
HI	खड़ा;सवाल	खड़ा सवाल	खड़ा|सवाल	2
HI	कारण;बता	बता कारण	dites|raison	2
HI	खरीद;तलवार	खरीद तलवार	खरीद|तलवार	2
HI	करा;डिस्चार्ज	करा डिस्चार्ज	करा|डिस्चार्ज	2
HI	मिला;हाथ	मिला हाथ	मिला|हाथ	2
HI	अयप्पा;कुंवारा	कुंवारा अयप्पा	bachelor|ayappa	2
HI	चाल;ले	ले चाल	le|move	2
HI	छोड;हिस्सा	छोड हिस्सा	छोड|हिस्सा	2
HI	गोली;मार	मार गोली	मार|गोली	2
HI	अवसर;दे	दे अवसर	donner|l'opportunité	2
HI	नाव;ले	ले नाव	prenez|bateau	2
HI	टेलीग्राम;भेज	भेज टेलीग्राम	भेज|टेलीग्राम	2
HI	ठुमका;लगा	लगा ठुमका	sentis|comme	2
HI	चेहरा;देख	देख चेहरा	देख|चेहरा	2
HI	उत्तर;दे	दे उत्तर	दे|उत्तर	2
HI	पगड़ी;बाँध	बाँध पगड़ी	barrages|turbans	2
HI	करवा;जनमतसंग्रह	करवा जनमतसंग्रह	करवा|जनमतसंग्रह	2
HI	डाल;हथियार	डाल हथियार	डाल|हथियार	2
HI	कपडा;बना	बना कपडा	बना|कपडा	2
HI	खुलवा;दरवाजा	खुलवा दरवाजा	porte|ouverte	2
HI	खुलकर;हकीक़त	खुलकर हकीक़त	réalité|ouverte	2
HI	खरीद;हिस्सेदारी	खरीद हिस्सेदारी	acheter|part	2
HI	देख;बल्लेबाजी	देख बल्लेबाजी	voir|chauve-souris	2
HI	दे;रिटर्न	दे रिटर्न	donner|retours	2
HI	कर;मीटिंग	कर मीटिंग	réunion|fiscale	2
HI	दे;रिमांड	दे रिमांड	de|renvoi	2
HI	नहाना;संगम	नहाना संगम	baignade|confluence	2
HI	आ;परिस्थिति	आ परिस्थिति	aa|situation	2
HI	पूछ;संबंध	पूछ संबंध	पूछ|संबंध	2
HI	कब्जा;ले	ले कब्जा	prendre|possession	2
HI	दायरा;ला	ला दायरा	ला|दायरा	2
HI	आ;सत्ता	आ सत्ता	aa|power	2
HI	यात्रा;लौट	लौट यात्रा	voyage|retour	2
HI	जेल;भेज	भेज जेल	भेज|जेल	2
HI	आभार;कर	कर आभार	कर|आभार	2
HI	चुनाव;लड़ा	लड़ा चुनाव	élection|contestée	2
HI	मिल;संबंधी	मिल संबंधी	lié|au|moulin	3
HI	सबक;सीख	सीख सबक	leçons|apprises	2
HI	कर;जिज्ञासा	कर जिज्ञासा	curiosité|fiscale	2
HI	कर;क्रम	कर क्रम	séquence|fiscale	2
HI	कर;समिति	कर समिति	comité|fiscal	2
HI	भेज;समिति	भेज समिति	भेज|समिति	2
HI	डाल;दबाव	डाल दबाव	mettre|de|la|pression	4
HI	कर;दूत	कर दूत	messager|fiscal	2
HI	कर;सुझाव	कर सुझाव	suggestion|fiscale	2
HI	उठा;घटना	उठा घटना	événement|ramassage	2
HI	कर;लोन	कर लोन	prêt|d'impôt	2
HI	कर;रणनीति	कर रणनीति	कर|रणनीति	2
HI	कंबल;निकाल	निकाल कंबल	couverture|tirée	2
HI	कर;संभावना	कर संभावना	perspective|fiscale	2
HI	प्रतिमा;सजा	सजा प्रतिमा	सजा|प्रतिमा	2
HI	परंपरा;रख	रख परंपरा	रख|परंपरा	2
HI	लग;वक्त	लग वक्त	लग|वक्त	2
HI	खेप;भेज	भेज खेप	भेज|खेप	2
HI	कर;डायरेक्टरी	कर डायरेक्टरी	annuaire|fiscal	2
HI	ज्ञापन;सौपा	सौपा ज्ञापन	सौपा|ज्ञापन	2
HI	टाल;सवाल	टाल सवाल	éviter|questions	2
HI	कर;हिस्सेदारी	कर हिस्सेदारी	part|l'impôt	2
HI	फैसला;रख	रख फैसला	gardez|votre|jugement	3
HI	कर;जानकारी	कर जानकारी	informations|fiscales	2
HI	करा;मौजूदगी	करा मौजूदगी	présence|kara	2
HI	बढ़ावा;समानता	बढ़ावा समानता	favoriser|l'égalité	2
HI	कर;पिस्तौल	कर पिस्तौल	कर|पिस्तौल	2
HI	मान;विरोधी	मान विरोधी	मान|विरोधी	2
HI	अमलीजामा;पहना	पहना अमलीजामा	पहना|अमलीजामा	2
HI	कर;दृष्टि	कर दृष्टि	कर|दृष्टि	2
HI	कर;प्लांट	कर प्लांट	usine|fiscale	2
HI	अवशेष;दिखा	दिखा अवशेष	montrant|restes	2
HI	कर;झटका	कर झटका	कर|झटका	2
HI	कर;रुख	कर रुख	attitude|fiscale	2
HI	पहचान;व्यक्ति	पहचान व्यक्ति	पहचान|व्यक्ति	2
HI	गड़बड़ी;पा	पा गड़बड़ी	perturbations|pa	2
HI	करा;दवाई	करा दवाई	médecine|kara	2
HI	दिला;सीख	दिला सीख	दिला|सीख	2
HI	कर;प्रणाली	कर प्रणाली	régime|fiscal	2
HI	असर;पड़	पड़ असर	effet|fallout	2
HI	कर;विश्वास	कर विश्वास	fiducie|fiscale	2
HI	बना;मंत्री	बना मंत्री	devenu|ministre	2
HI	आशीर्वाद;कर	कर आशीर्वाद	bénédiction|fiscale	2
HI	किमी;बना	बना किमी	km|parcouru	2
HI	कर;लाइसेंस	कर लाइसेंस	licence|fiscale	2
HI	अधिकारी;मिल	मिल अधिकारी	officier|l'usine	2
HI	कर;विधानसभा	कर विधानसभा	assemblée|fiscale	2
HI	ले;हड़ताल	ले हड़ताल	prendre|grève	2
HI	कर;सेवा	कर सेवा	कर|सेवा	2
HI	कर;गुणवत्ता	कर गुणवत्ता	qualité|fiscale	2
HI	परिवार;बाँट	बाँट परिवार	famille|distribuée	2
HI	आदेश;मान	मान आदेश	ordre|valeur	2
HI	अड़चन;कर	कर अड़चन	obstacle|fiscal	2
HI	गिरा;ढाँचा	गिरा ढाँचा	cadre|abandonné	2
HI	कहीं;धरती	कहीं धरती	कहीं|धरती	2
HI	प्लांटा;लग	लग प्लांटा	lug|planta	2
HI	सीमा;हो	हो सीमा	bordure|ho	2
HI	घटना;लहरा	लहरा घटना	incident|levage	2
HI	ओढा;कंबल	ओढा कंबल	couverture|étouffée	2
HI	खेप;हो	हो खेप	हो|खेप	2
HI	कंबल;बुन	बुन कंबल	couverture|en|tissage	3
HI	सुधार;हो	हो सुधार	soyez|améliorés	2
HI	जमाव;बढ़	बढ़ जमाव	augmentation|de|la|concentration	4
HI	पहचान;समझ	समझ पहचान	reconnaissance|sens	2
HI	बता;मजिस्ट्रेट	बता मजिस्ट्रेट	बता|मजिस्ट्रेट	2
HI	कह;सचिव	कह सचिव	dire|secrétaire	2
HI	बता;सूत्र	बता सूत्र	tell|thread	2
HI	डेलिगेट्स;ले	ले डेलिगेट्स	ले|डेलिगेट्स	2
HI	घोषणा;हो	हो घोषणा	हो|घोषणा	2
HI	कह;नेता	कह नेता	dire|chef	2
HI	विवाद;है	है विवाद	est|différend	2
HI	इंजीनियर;बता	बता इंजीनियर	बता|इंजीनियर	2
HI	कैप्टन;बता	बता कैप्टन	dites|au|capitaine	3
HI	अधीक्षक;बता	बता अधीक्षक	dites|au|surintendant	3
HI	इत्तेफाक;रख	रख इत्तेफाक	garde|le	2
HI	करा;सहमति	करा सहमति	consentement|à|l'impôt	3
HI	कार्य;हो	हो कार्य	ho|travail	2
HI	कर;मनोकामना	कर मनोकामना	souhait|fiscal	2
HI	घटनाक्रम;रह	रह घटनाक्रम	événements|en|direct	3
HI	जा;हालत	जा हालत	जा|हालत	2
HI	आ;कपिलदेव	आ कपिलदेव	आ|कपिलदेव	2
HI	दोहान;बच	बच दोहान	exploiter|l'évasion	2
HI	बिजली;हो	हो बिजली	हो|बिजली	2
HI	कह;मीडिया	कह मीडिया	dire|médias	2
HI	गौरव;हो	हो गौरव	ho|pride	2
HI	चैनल;बता	बता चैनल	tell|channel	2
HI	बना;हालत	बना हालत	बना|हालत	2
HI	मोह;हो	हो मोह	ho|moh	2
HI	पुलिस;बता	बता पुलिस	dites|à|la|police	4
HI	कह;फौजिया	कह फौजिया	kah|fauzia	2
HI	तक़रीबन;लग	लग तक़रीबन	semble|presque	2
HI	डॉक्टर;बता	बता डॉक्टर	dites|au|docteur	3
HI	वार्ता;हो	हो वार्ता	ho|parle	2
HI	जल;हो	हो जल	ho|eau	2
HI	था;समय	था समय	était|temps	2
HI	कह;सरगना	कह सरगना	dites|pivot	2
HI	गोली;मिल	मिल गोली	pilule|moulin	2
HI	निर्माण;हो	हो निर्माण	ho|build	2
HI	कह;समिति	कह समिति	comité|dicton	2
HI	प्रवक्ता;बता	बता प्रवक्ता	dites|au|porte-parole	3
HI	नेता;बता	बता नेता	dites|au|chef	3
HI	मिल;मौका	मिल मौका	occasion|de|se|rencontrer	4
HI	बर्फ;हो	हो बर्फ	ho|neige	2
HI	घुस;टीम	घुस टीम	équipe|d'escalade	2
HI	कह;मजिस्ट्रेट	कह मजिस्ट्रेट	dire|magistrat	2
HI	रह;रुख	रह रुख	restez|en|position	3
HI	कर;दुकान	कर दुकान	tax|shop	2
HI	कर;संकल्प	कर संकल्प	résolution|fiscale	2
HI	प्रतिष्ठा;ले	ले प्रतिष्ठा	prenez|du|prestige	3
HI	देख;फिसलन	देख फिसलन	देख|फिसलन	2
HI	तोड़;बर्फ	तोड़ बर्फ	briser|glace	2
HI	कर;मूर्ति	कर मूर्ति	idole|fiscale	2
HI	सत्ता;हटा	हटा सत्ता	हटा|सत्ता	2
HI	जरूरत;देख	देख जरूरत	voir|besoin	2
HI	घाटा;देख	देख घाटा	perte|vue	2
HI	आशंका;देख	देख आशंका	देख|आशंका	2
HI	आवश्यकता;कर	कर आवश्यकता	exigence|fiscale	2
HI	कर;राशि	कर राशि	कर|राशि	2
HI	जगह;हो	हो जगह	हो|जगह	2
HI	कानून;ले	ले कानून	prendre|loi	2
HI	करा;बिजली	करा बिजली	électricité|kara	2
HI	काम;दे	दे काम	donner|du|travail	3
HI	देश;मिल	मिल देश	pays|du|moulin	3
HI	उद्योग;बचा	बचा उद्योग	industrie|restante	2
HI	बिजली;मार	मार बिजली	frapper|foudre	2
HI	मिलेग;सीट	मिलेग सीट	siège|milleg	2
HI	उद्यम;कर	कर उद्यम	entreprise|fiscale	2
HI	झील;देख	देख झील	voir|lac	2
HI	कर;केंद्र	कर केंद्र	centre|impots	2
HI	कर;संस्थान	कर संस्थान	institut|fiscal	2
HI	पा;महादेव	पा महादेव	pa|mahadev	2
HI	बाजार;ले	ले बाजार	ले|बाजार	2
HI	काट;बयान	काट बयान	déclaration|coupure	2
HI	कर;शर्त	कर शर्त	condition|fiscale	2
HI	कर;कार्यवाही	कर कार्यवाही	procédure|fiscale	2
HI	ले;वर्चस्व	ले वर्चस्व	prenez|domination	2
HI	कर;पट	कर पट	conseil|impôts	2
HI	संभाल;स्थिति	संभाल स्थिति	position|de|la|poignée	4
HI	कर;रुपया	कर रुपया	l'argent|l'impôt	2
HI	इलाज;ले	ले इलाज	prendre|traitement	2
HI	आवेदन;कर	कर आवेदन	demande|fiscale	2
HI	बचा;संधि	बचा संधि	traité|à|gauche	3
HI	तर्क;सुन	सुन तर्क	écoutez|logique	2
HI	ले;विनिवेश	ले विनिवेश	le|désinvestissement	2
HI	बदल;स्थान	बदल स्थान	changer|lieu	2
HI	पॉवर;ले	ले पॉवर	ले|पॉवर	2
HI	पार्टी;हो	हो पार्टी	ho|party	2
HI	मिल;शाम	मिल शाम	soirée|moulin	2
HI	ढंग;हो	हो ढंग	soyez|gentil	2
HI	आयात;लगा	लगा आयात	importation|feutre	2
HI	कर;लंच	कर लंच	déjeuner|fiscal	2
HI	कोटा;दे	दे कोटा	de|quota	2
HI	करा;हिरासत	करा हिरासत	garde|fiscale	2
HI	कर;जनसभा	कर जनसभा	réunion|publique|fiscale	3
HI	छुआ;मूर्ति	छुआ मूर्ति	idole|touchée	2
HI	डूब;समुद्र	डूब समुद्र	डूब|समुद्र	2
HI	तरीका;फँसा	फँसा तरीका	chemin|pris|au|piège	4
HI	कब्जा;रख	रख कब्जा	रख|कब्जा	2
HI	मार;मुठभेड	मार मुठभेड	tuer|rencontre	2
HI	डर;लोकप्रियता	डर लोकप्रियता	peur|de|la|popularité	4
HI	घर;लौट	लौट घर	rentrer|à|la|maison	4
HI	तल;पड़ा	पड़ा तल	पड़ा|तल	2
HI	ज्ञापन;सौंप	सौंप ज्ञापन	mémo|à|la|main	4
HI	अवधारणा;चुन	चुन अवधारणा	chun|concept	2
HI	मान;यात्रा	मान यात्रा	voyage|homme	2
HI	कर;सत्र	कर सत्र	séance|fiscale	2
HI	करा;मूर्ति	करा मूर्ति	kara|idol	2
HI	कर;कैदी	कर कैदी	कर|कैदी	2
HI	आशंका;बता	बता आशंका	dites|l'appréhension	2
HI	कर;जवाब	कर जवाब	réponse|fiscale	2
HI	कह;योजना	कह योजना	dire|plan	2
HI	दे;बिजली	दे बिजली	donner|l'électricité	2
HI	कर;खर्चा	कर खर्चा	dépenses|fiscales	2
HI	मंदिर;मान	मान मंदिर	temple|maan	2
HI	कर;परिषद	कर परिषद	conseil|fiscal	2
HI	कर;लड़की	कर लड़की	fille|l'impôt	2
HI	धरोहर;ला	ला धरोहर	la|patrimoine	2
HI	कर;केस	कर केस	कर|केस	2
HI	कर;दर	कर दर	कर|दर	2
HI	कर;हिमलिंग	कर हिमलिंग	kara|himmling	2
HI	कर;बाधा	कर बाधा	contrainte|fiscale	2
HI	कर;परीक्षा	कर परीक्षा	examen|fiscal	2
HI	बढ़;यात्री	बढ़ यात्री	grand|passeur	2
HI	दर;रख	रख दर	conserver|taux	2
HI	बढ़ा;मानसून	बढ़ा मानसून	augmentation|de|la|mousson	4
HI	मजदूरी;हो	हो मजदूरी	हो|मजदूरी	2
HI	देख;रासमणि	देख रासमणि	dekh|rasmani	2
HI	प्रदूषण;हो	हो प्रदूषण	ho|pollution	2
HI	जता;वैज्ञानिक	जता वैज्ञानिक	scientifique|zeta	2
HI	चला;संगठन	चला संगठन	exécuter|l'organisation	2
HI	सरकार;है	है सरकार	le|gouvernement|est-il	3
HI	जगाई;वैज्ञानिक	जगाई वैज्ञानिक	scientifique|éveillé	2
HI	आ;मामला	आ मामला	आ|मामला	2
HI	श्रद्धालु;हो	हो श्रद्धालु	être|fidèle	2
HI	ढंकी;पहाड़ि	ढंकी पहाड़ि	ढंकी|पहाड़ि	2
HI	नीलामी;हो	हो नीलामी	हो|नीलामी	2
HI	कह;वक्ता	कह वक्ता	dire|haut-parleur	2
HI	दे;परिणाम	दे परिणाम	donner|résultat	2
HI	कर;पृष्ठ	कर पृष्ठ	page|taxe	2
HI	यात्री;हो	हो यात्री	हो|यात्री	2
HI	दोहरा;वादा	दोहरा वादा	double|promesse	2
HI	कर;मोहरा	कर मोहरा	कर|मोहरा	2
HI	कर;दिन	कर दिन	jour|taxes	2
HI	कर;प्रतिमा	कर प्रतिमा	statue|fiscale	2
HI	कर;कार्यक्रम	कर कार्यक्रम	programme|fiscal	2
HI	पड़;स्थिरता	पड़ स्थिरता	stabilité|à|la|chute	4
HI	जा;मज़ार	जा मज़ार	ja|mazar	2
HI	कर;स्थल	कर स्थल	station|fiscale	2
HI	अस्पताल;कर	कर अस्पताल	hôpital|fiscal	2
HI	अजूबा;मिल	मिल अजूबा	मिल|अजूबा	2
HI	ला;सत्र	ला सत्र	la|session	2
HI	कीमत;पड़	पड़ कीमत	prix|​​de|revient	3
HI	दादा;देख	देख दादा	देख|दादा	2
HI	रख;राशि	रख राशि	conserver|montant	2
HI	कर;पद	कर पद	poste|fiscal	2
HI	पैर;मार	मार पैर	frapper|pieds	2
HI	तेजी;रह	रह तेजी	restez|rapide	2
HI	दिखा;रिपोर्ट	दिखा रिपोर्ट	affichage|du|rapport	3
HI	कर;संबंध	कर संबंध	relation|fiscale	2
HI	हिस्सा;हो	हो हिस्सा	हो|हिस्सा	2
